"","x"
"1",8220.76721176994
"2",8221.30387653535
"3",8221.85356070752
"4",8222.39607698685
"5",8222.93758619061
"6",8223.48544907746
"7",8223.97162728507
"8",8224.54207201935
"9",8225.05367432463
"10",8225.60358984772
"11",8226.14121325014
"12",8226.69077165793
"13",8227.2123896162
"14",8227.76324414869
"15",8228.34965115008
"16",8228.85347056346
"17",8229.37944992308
"18",8229.91510221425
"19",8230.4649617299
"20",8230.98483635217
"21",8231.54227877045
"22",8232.06132050433
"23",8232.75407188191
"24",8233.13071698263
"25",8233.6821201191
"26",8234.19359151885
"27",8234.72130509947
"28",8235.30990318927
"29",8235.79392304734
"30",8236.43823232448
"31",8236.85135342954
"32",8237.41251451758
"33",8237.92015067135
"34",8238.47533406503
"35",8238.99312270257
"36",8239.52066312546
"37",8240.04739895438
"38",8240.62149744016
"39",8241.14388185635
"40",8241.67761827374
"41",8242.20880671516
"42",8242.72597304705
"43",8243.25438541358
"44",8243.79973078918
"45",8244.3185999222
"46",8244.84867743333
"47",8245.37306625923
"48",8245.89918309547
"49",8246.43986061119
"50",8246.96719888303
"51",8247.50469151396
"52",8248.04255090233
"53",8248.53832485297
"54",8249.07343289538
"55",8249.58598435448
"56",8250.11332809143
"57",8250.65128957159
"58",8251.20186329966
"59",8251.69460449627
"60",8252.2118656627
"61",8252.72865914562
"62",8253.2748565679
"63",8253.79128025825
"64",8254.41415618747
"65",8254.85385327662
"66",8255.36998587471
"67",8255.9086697479
"68",8256.43718972362
"69",8256.98323719506
"70",8257.55260963641
"71",8258.02123706907
"72",8258.51759389347
"73",8259.06726906901
"74",8259.5629690725
"75",8260.08964903079
"76",8260.61098804176
"77",8261.12103750816
"78",8261.63597829875
"79",8262.16309685667
"80",8262.68402879019
"81",8263.19569676076
"82",8263.72941804792
"83",8264.25127925471
"84",8264.77844404183
"85",8265.28941956051
"86",8265.84145123344
"87",8266.33263809092
"88",8266.83998403711
"89",8267.3855095282
"90",8267.90838309753
"91",8268.42260592364
"92",8268.96077352742
"93",8269.44568841777
"94",8269.98237366538
"95",8270.47887160755
"96",8271.01665600151
"97",8271.51968859293
"98",8272.04360948683
"99",8272.56670391985
"100",8273.07677672789
"101",8273.60675737199
"102",8274.09299534514
"103",8274.6187222153
"104",8275.11911463167
"105",8275.63439032619
"106",8276.1636044119
"107",8276.66785253195
"108",8277.1856422476
"109",8277.71864152513
"110",8278.23908424501
"111",8278.7335538631
"112",8279.23971939414
"113",8279.75153143307
"114",8280.3044532673
"115",8280.79111153211
"116",8281.3101654958
"117",8281.81923210444
"118",8282.34920390282
"119",8282.8504273529
"120",8283.34794681518
"121",8283.89001286128
"122",8284.3881645147
"123",8284.89278973679
"124",8285.43195245375
"125",8285.92876899818
"126",8286.44999536366
"127",8286.94980933209
"128",8287.44987914336
"129",8287.99912036834
"130",8288.49780133546
"131",8288.9806531522
"132",8289.52309442394
"133",8290.06122846482
"134",8290.5153487206
"135",8291.01938605082
"136",8291.54658535219
"137",8292.06324758253
"138",8292.57332915533
"139",8293.06380748637
"140",8293.57131505521
"141",8294.11071931624
"142",8294.5966884043
"143",8295.10552959239
"144",8295.61558580285
"145",8296.12260392584
"146",8296.64160757473
"147",8297.11811924616
"148",8297.66368383837
"149",8298.13596517003
"150",8298.64603866281
"151",8300.77344856309
"152",8299.66653214811
"153",8300.16449630209
"154",8300.68142357775
"155",8301.18252219956
"156",8301.69293309389
"157",8302.21295056319
"158",8302.69668539509
"159",8303.21383491978
"160",8303.70529930455
"161",8304.23047364261
"162",8304.7332613498
"163",8305.20730160915
"164",8305.73236873112
"165",8306.21453319187
"166",8306.73917599008
"167",8307.24970718967
"168",8307.73636467174
"169",8308.24800365006
"170",8308.73921283632
"171",8309.27010617445
"172",8309.75122037421
"173",8310.24944689824
"174",8310.76017027715
"175",8311.25080502667
"176",8311.74652056908
"177",8312.27104406265
"178",8312.76679055166
"179",8313.2560275433
"180",8313.77095702797
"181",8314.25351813257
"182",8314.76823477731
"183",8315.25243994052
"184",8315.75682739457
"185",8316.27821721041
"186",8316.77075464915
"187",8317.23835471402
"188",8317.76150673038
"189",8318.23510235446
"190",8318.75847831921
"191",8319.28080656481
"192",8319.73396679053
"193",8320.24567137296
"194",8320.74240893315
"195",8321.25914428144
"196",8321.74055367732
"197",8322.24821582315
"198",8322.72199411388
"199",8323.22946303323
"200",8323.76383838625
"201",8324.24747943975
"202",8324.73470487475
"203",8325.20346166554
"204",8325.73562826494
"205",8326.20013862408
"206",8326.70752851506
"207",8327.2068865933
"208",8327.70347988248
"209",8328.20225501316
"210",8328.66413557725
"211",8329.18180538005
"212",8329.67876549325
"213",8330.1585121219
"214",8330.662281707
"215",8331.14382239625
"216",8331.61652862913
"217",8332.14791753287
"218",8332.62880909302
"219",8333.10801735535
"220",8333.58659418751
"221",8334.11766011355
"222",8334.5759547004
"223",8335.06519037335
"224",8335.56066236887
"225",8336.055447333
"226",8336.55150375384
"227",8337.06593704444
"228",8337.53940464061
"229",8338.01058500756
"230",8338.51317554582
"231",8339.01458990912
"232",8339.47935158786
"233",8339.96849914139
"234",8340.4793871527
"235",8340.94394301397
"236",8341.4310170322
"237",8341.93737408455
"238",8342.44746635959
"239",8342.9271964678
"240",8343.40013601529
"241",8343.86962460127
"242",8344.37489458768
"243",8344.84743202305
"244",8345.36432594973
"245",8345.90590397971
"246",8346.31696111321
"247",8346.81836841793
"248",8347.27702240235
"249",8347.79721693368
"250",8348.2621533674
"251",8348.77661688027
"252",8349.24781675434
"253",8349.74219641935
"254",8350.21539351312
"255",8350.66378352518
"256",8351.16461985589
"257",8351.67331918486
"258",8352.11578864256
"259",8352.60700801373
"260",8353.11899633417
"261",8353.59069925207
"262",8354.07621735883
"263",8354.59301174933
"264",8355.04423091912
"265",8355.53300781106
"266",8355.99528988665
"267",8356.46932860306
"268",8356.94658416249
"269",8357.46252901011
"270",8357.94744137464
"271",8358.43312596753
"272",8358.89402836173
"273",8359.39823686211
"274",8359.83239611699
"275",8360.38420447996
"276",8360.84802076948
"277",8361.28406915086
"278",8361.74916734013
"279",8362.23359886846
"280",8362.73547537732
"281",8363.19901942979
"282",8363.67014974999
"283",8364.17532884184
"284",8364.6123212911
"285",8365.09229636885
"286",8365.58081000957
"287",8366.05755679306
"288",8366.53279959206
"289",8367.03319093793
"290",8367.52443928722
"291",8367.95469188803
"292",8368.43400703631
"293",8368.91306789948
"294",8369.41767513397
"295",8369.90300826352
"296",8370.34220251365
"297",8370.84096845932
"298",8371.28055161764
"299",8371.7593270814
"300",8372.23396117163
"301",8372.72494143936
"302",8373.18670996132
"303",8373.70888879571
"304",8374.17335903819
"305",8374.61485223127
"306",8375.07528928113
"307",8375.59731193774
"308",8376.10492102507
"309",8376.50387356882
"310",8376.96907511414
"311",8377.46230867801
"312",8377.93683629929
"313",8378.39152740636
"314",8378.87998820583
"315",8380.7958868879
"316",8379.80244094289
"317",8380.27034232208
"318",8380.73765511321
"319",8381.2737826614
"320",8381.68831628376
"321",8382.16999052178
"322",8382.61626337121
"323",8383.09915861284
"324",8383.54489978403
"325",8384.03985019876
"326",8384.49197904712
"327",8384.96425201293
"328",8385.43281514807
"329",8385.93798258586
"330",8386.35664906121
"331",8386.8575670748
"332",8387.30833608154
"333",8387.76185966004
"334",8388.24772593908
"335",8388.70708240269
"336",8389.15929455684
"337",8389.62530534773
"338",8390.09835242081
"339",8390.5562714933
"340",8391.03591062259
"341",8391.50060253218
"342",8391.96661627811
"343",8392.44012973762
"344",8392.87749387994
"345",8393.42092856625
"346",8393.81005433067
"347",8394.30836702837
"348",8394.73540550187
"349",8395.2094582646
"350",8395.69155120359
"351",8396.13100759728
"352",8396.61196751655
"353",8397.05685926484
"354",8397.52983856994
"355",8397.99061538536
"356",8398.50756072734
"357",8398.91054395079
"358",8399.36971253443
"359",8399.85838993352
"360",8400.30229836322
"361",8400.73579506286
"362",8401.20801420548
"363",8401.70142786753
"364",8402.17889520879
"365",8402.60866879399
"366",8403.04205367802
"367",8403.51873395552
"368",8404.01717737314
"369",8404.42299703067
"370",8404.87384342862
"371",8405.33827942645
"372",8405.79633167447
"373",8406.24826934332
"374",8406.72227512984
"375",8407.19119325159
"376",8407.64272429965
"377",8408.0835273816
"378",8408.52931495429
"379",8409.00885321329
"380",8409.44464709007
"381",8409.90241253995
"382",8410.35358111832
"383",8410.81387492779
"384",8411.26522406058
"385",8411.75162224149
"386",8412.1898593976
"387",8412.62500605192
"388",8413.08618045857
"389",8413.54351228002
"390",8413.9897121033
"391",8414.45980490784
"392",8414.89882888837
"393",8415.36126507006
"394",8415.81184206132
"395",8416.27717953324
"396",8416.72435443753
"397",8417.1523028808
"398",8417.63504648608
"399",8418.10207149283
"400",8418.57733676679
"401",8418.96932763331
