"","x"
"1",2106.75697478036
"2",2149.83913955813
"3",2115.78445738881
"4",2073.72723637788
"5",2088.94866858817
"6",2156.60670695047
"7",2119.85781431805
"8",2191.30746952406
"9",2154.81435490966
"10",2190.59287577104
"11",2176.76692627521
"12",2082.4319868056
"13",2052.29440532704
"14",2151.74730391934
"15",2149.17748797519
"16",2186.19020276569
"17",2148.99816085281
"18",2129.64737116499
"19",2135.57075099542
"20",2160.17722258769
"21",2216.55054990272
"22",2138.25386915205
"23",2272.63605561928
"24",2135.8204798907
"25",2129.47346556211
"26",2132.96014868695
"27",2106.16378468372
"28",2148.17922157184
"29",2162.63376989564
"30",2070.86093866155
"31",2138.40690726253
"32",2086.2835920924
"33",2121.96747172309
"34",2078.71648526519
"35",2107.39753690498
"36",2087.52039774262
"37",2185.39609915247
"38",2108.80922925274
"39",2174.06604366445
"40",2178.40530441592
"41",2151.04144272389
"42",2019.39777775248
"43",2200.97151088822
"44",2250.8064154
"45",2171.33227794273
"46",2137.06918103617
"47",2086.65209721166
"48",2041.87759880453
"49",2198.2166044229
"50",2085.50028848978
"51",2197.15885222317
"52",2055.62050352341
"53",2130.06124922973
"54",2168.90800865773
"55",2103.42262418406
"56",2067.09317166145
"57",2282.27211185307
"58",2052.73772612635
"59",2117.38501731247
"60",2165.81619714577
"61",2131.19725627145
"62",2171.55750174841
"63",2142.49310605746
"64",2077.7506742125
"65",2115.6722820795
"66",2088.03664701019
"67",2147.4763003648
"68",2137.09471901486
"69",2181.98908990009
"70",2185.74818952195
"71",2095.39990562222
"72",2122.43996254733
"73",2193.77002474595
"74",2148.97574694716
"75",2087.48097598805
"76",2057.09162002678
"77",2186.88966472504
"78",2146.12619052601
"79",2173.660147639
"80",2043.83603168945
"81",2193.82993844913
"82",2061.17087046243
"83",2189.52256408091
"84",2136.05310119224
"85",2102.49048458781
"86",2053.45574158066
"87",2161.70230725411
"88",2193.86264294006
"89",2256.25109611581
"90",2095.60100288124
"91",2150.14109410743
"92",2193.77207118536
"93",2172.29777812818
"94",2198.34791504729
"95",2106.94175473785
"96",2206.34757526059
"97",2170.87686898832
"98",2196.74658355938
"99",2218.51086104934
"100",2155.97103587101
"101",2122.89675982489
"102",2135.59149713214
"103",2099.78906578523
"104",2057.03879990543
"105",2119.97008131198
"106",2194.51010118809
"107",2120.14455952869
"108",2091.63160025401
"109",2108.9548010287
"110",2149.91091878818
"111",2171.1435195197
"112",2215.16687098522
"113",2127.47464536878
"114",2185.28600818817
"115",2136.67464707729
"116",2251.86655924648
"117",2258.86876586948
"118",2131.50727172432
"119",2197.46759837312
"120",2160.15213762522
"121",2150.2581392956
"122",2278.85088388252
"123",2092.91864371859
"124",2156.21218315021
"125",2136.29101245828
"126",2077.3836558983
"127",2160.65592108831
"128",2234.99216412612
"129",2132.1155523209
"130",2149.31440277788
"131",2134.89881420945
"132",2164.37727295884
"133",2188.01690529039
"134",2059.72909742365
"135",2244.67116534032
"136",2115.56692303784
"137",2133.27263268497
"138",2168.12732614669
"139",2143.06968864282
"140",2195.93182871149
"141",2138.35884816299
"142",2178.44782817654
"143",2120.95191229204
"144",2161.77083512544
"145",2184.12920511579
"146",2112.4625265662
"147",2186.64118364926
"148",2158.77195088905
"149",2131.29416512348
"150",2082.20805582235
"151",2132.64141912581
"152",2237.95732586722
"153",2175.37456825805
"154",2123.15716132415
"155",2108.10118636421
"156",2083.2296207198
"157",2092.06427061439
"158",2153.00204731296
"159",2331.49001656866
"160",2125.84978482686
"161",2201.94590499131
"162",2174.0415238951
"163",2134.88594397117
"164",2126.67031850559
"165",2114.57373264971
"166",2158.06674877698
"167",2034.80184453316
"168",2278.58001942916
"169",2150.92003072496
"170",2179.85516313839
"171",2189.08431983162
"172",2121.61144432966
"173",2177.87683814807
"174",2039.1552927225
"175",2146.57710864394
"176",2122.40678023492
"177",2106.92914907582
"178",2273.65797206692
"179",2078.60605419567
"180",2113.69250792555
"181",2192.90777123417
"182",2201.43535855654
"183",2125.12356044683
"184",2189.47184817874
"185",2179.79437298596
"186",2149.88034153704
"187",2124.60052232275
"188",2155.48394635714
"189",2082.30703953303
"190",2126.53294866512
"191",2236.49060531524
"192",2247.81252542623
"193",2183.78286105819
"194",2241.03654859357
"195",2230.54434089865
"196",2223.33674152202
"197",2098.49017045538
"198",2255.67284191803
"199",2170.89054585145
"200",2170.38232804981
"201",2153.14305660672
"202",2172.76202945191
"203",2189.92344343885
"204",2204.24243383042
"205",2171.47096562107
"206",2226.28649424701
"207",2181.03772667685
"208",2100.12858189192
"209",2179.049786213
"210",2165.83037300795
"211",2233.61659353791
"212",2083.09281960303
"213",2110.46779285339
"214",2094.16281708421
"215",2189.43435854934
"216",2105.78835686644
"217",2087.50254646763
"218",2139.5334693228
"219",2107.40794434159
"220",2019.21025421944
"221",2094.72450714397
"222",2225.049285808
"223",2136.32090280021
"224",2242.02910359175
"225",2226.68694124181
"226",2239.23821132927
"227",2169.09451502216
"228",2140.39896225299
"229",2036.55510051292
"230",2175.50306147199
"231",2099.09102728092
"232",2136.07847614876
"233",2214.07514512176
"234",2161.57192643619
"235",2100.68253646764
"236",2128.56935767576
"237",2132.7749141647
"238",2212.63086832288
"239",2214.39307126233
"240",2138.53911309702
"241",2122.63415927743
"242",2098.16599145472
"243",2155.70794026933
"244",2104.26923430169
"245",2126.95002860566
"246",2105.48462022941
"247",2159.85018220179
"248",2227.94952450194
"249",2066.21800540567
"250",2153.60781455621
