"","x"
"1",-7971.77176887326
"2",-8094.45551807715
"3",-8014.2102373918
"4",-8007.43558759939
"5",-8089.94349173319
"6",-7993.00566384589
"7",-7937.641282888
"8",-8068.96210571927
"9",-8055.1552115055
"10",-8067.80187997843
"11",-7892.08397463097
"12",-7954.94432099304
"13",-8084.28450659166
"14",-8085.1220088088
"15",-8034.32136960947
"16",-8237.17504513111
"17",-8113.35491983098
"18",-8027.5442659948
"19",-8175.75800420637
"20",-8100.62264761282
"21",-8079.63368138275
"22",-8068.42693402756
"23",-8007.95614282892
"24",-8069.17028445733
"25",-8013.62915253099
"26",-7875.74109511603
"27",-8013.40257959505
"28",-7890.27478933947
"29",-8049.49027431595
"30",-8057.62072623686
"31",-8111.40822892043
"32",-8104.8868164661
"33",-7956.31878764849
"34",-8098.34895570721
"35",-7996.7969208845
"36",-7922.88931388634
"37",-8036.76962968371
"38",-8184.66086155508
"39",-8121.07264232315
"40",-8068.24807801835
"41",-8008.44967168446
"42",-7979.99313775104
"43",-8059.90213796022
"44",-8128.67052803884
"45",-8123.51391665499
"46",-8036.57778725555
"47",-8113.80468576715
"48",-7889.6523573147
"49",-8021.1717075496
"50",-8170.60583125278
"51",-7965.66220244935
"52",-8144.0602725456
"53",-7946.51917207855
"54",-7961.65885879196
"55",-8126.41084480198
"56",-8022.95063218446
"57",-7975.09655987034
"58",-7983.76230439438
"59",-8016.12605226825
"60",-8153.53858741868
"61",-8006.93527472767
"62",-8138.6285247733
"63",-8033.49560007971
"64",-8128.64082755225
"65",-8058.75985109489
"66",-8077.638497121
"67",-8160.99945029615
"68",-7934.07256013289
"69",-7959.1948478395
"70",-8067.40132732017
"71",-8100.85858249154
"72",-7923.18852554032
"73",-8069.60339353381
"74",-8041.66575996122
"75",-8066.28559461537
"76",-7977.54413829546
"77",-8095.3573604444
"78",-8010.28185830786
"79",-8092.79084072782
"80",-8084.06551262051
"81",-8167.88304310759
"82",-8026.93078953706
"83",-7940.04471635117
"84",-8076.88679499559
"85",-8061.61958158251
"86",-7956.61876552279
"87",-8085.9842216181
"88",-8011.65182475866
"89",-7929.97690017363
"90",-8039.02281012727
"91",-8104.78991149369
"92",-8050.44571764131
"93",-8125.54505666573
"94",-8030.231055966
"95",-8010.39331806813
"96",-8099.51286344086
"97",-7992.93281603706
"98",-8000.56425270868
"99",-8123.40729926521
"100",-8039.16264235183
"101",-8099.93604199562
"102",-8086.19117712145
"103",-8043.68248231999
"104",-8056.39789615066
"105",-8152.95514271808
"106",-8040.2472648057
"107",-8076.40954323845
"108",-8091.7461402349
"109",-8080.94688841659
"110",-8036.71125206596
"111",-8179.07052523704
"112",-8054.6076666398
"113",-8067.17276878466
"114",-8028.23689221314
"115",-7896.94290490285
"116",-8126.21768518095
"117",-8136.36405567544
"118",-8142.87277256155
"119",-8072.23588921494
"120",-7877.03999107406
"121",-7929.29014970421
"122",-8084.36018497878
"123",-8118.84541322992
"124",-7955.43756332437
"125",-8028.47176152262
"126",-8005.02404770282
"127",-7998.38940653591
"128",-8079.58032790204
"129",-8050.44982982239
"130",-8129.15037599461
"131",-8069.43778597806
"132",-8054.8455236316
"133",-8101.67397615863
"134",-8125.01141634242
"135",-7961.36510023815
"136",-7992.53433905168
"137",-7956.54947066392
"138",-7966.97300050661
"139",-8158.50497133015
"140",-8057.76794982454
"141",-7985.26514219819
"142",-8069.39150631894
"143",-8161.47954786245
"144",-8049.96719812117
"145",-8003.79414516174
"146",-8037.8371372852
"147",-8069.48324431273
"148",-7891.06602976858
"149",-7960.13057841897
"150",-8055.73779936919
"151",-8029.42101980164
"152",-7980.27487303083
"153",-7968.66306313041
"154",-8000.89300816698
"155",-8033.94875268848
"156",-8058.9866254933
"157",-7957.9135545691
"158",-7911.75050328843
"159",-8069.74596629056
"160",-8127.91907840253
"161",-7865.10773755656
"162",-8106.43184886454
"163",-7936.05755310717
"164",-7995.790811972
"165",-8025.42038910404
"166",-7953.80882388516
"167",-8034.84329138572
"168",-7977.30736455864
"169",-8089.10980689179
"170",-8076.10889692203
"171",-8175.51812517871
"172",-8133.33391081474
"173",-8108.74398413396
"174",-8092.78250280695
"175",-8082.17665547985
"176",-8028.1282323826
"177",-8229.00026439095
"178",-8059.45868091568
"179",-7975.28925223417
"180",-8054.41781897153
"181",-8096.56087981026
"182",-7950.03921534688
"183",-8003.96347370792
"184",-8026.34965955046
"185",-8125.23347918143
"186",-8105.07775854232
"187",-8159.43034160219
"188",-8062.87193071586
"189",-8071.79467049761
"190",-8026.2355954568
"191",-8037.52735421714
"192",-7959.88761038123
"193",-8173.15458164189
"194",-8145.5163275542
"195",-7916.3953428254
"196",-7999.93216168002
"197",-8057.54056825699
"198",-8071.6058791836
"199",-7970.61987125858
"200",-7933.7676746226
"201",-8059.59119677274
"202",-8073.19337760963
"203",-8147.88362636307
"204",-8071.63240060836
"205",-8107.90268323235
"206",-7977.47921821102
"207",-8086.08859974037
"208",-8107.57029162843
"209",-8101.95218352818
"210",-8081.91608760517
"211",-8119.20534635846
"212",-8049.81604397537
"213",-8165.21130984005
"214",-7987.24742316167
"215",-8095.02175040312
"216",-8082.09024691504
"217",-7911.1927936405
"218",-8129.96222900379
"219",-7995.30756979044
"220",-8028.56665806566
"221",-8117.05226446124
"222",-8003.9446523425
"223",-8060.09099319342
"224",-8182.21058572005
"225",-7996.16307252753
"226",-8174.48549133706
"227",-7991.95923416662
"228",-7947.64332681136
"229",-8088.6669092799
"230",-8043.05768774678
"231",-8048.57124156471
"232",-8071.9279350357
"233",-8127.520407131
"234",-8223.43037363694
"235",-8065.5436952996
"236",-8111.38470756402
"237",-8176.95539653054
"238",-8025.88489376488
"239",-8008.9840854194
"240",-7883.02979551743
"241",-8077.22567350868
"242",-7930.84712183744
"243",-8086.43131398272
"244",-8144.64865525062
"245",-8116.92429380719
"246",-7950.54515269381
"247",-8059.51800391798
"248",-8041.29812234792
"249",-8123.03928610216
"250",-8049.98648428477
