"","V1","V2","V3","V4","V5","V6","V7","V8"
"1",0.163,0.267,0.149,0.419,0.154,0.336,0.118,0.43
"2",0.15,0.226,0.15,0.357,0.16,0.282,0.074,0.442
"3",0.173,0.305,0.171,0.351,0.14,0.325,0.088,0.458
"4",0.147,0.272,0.132,0.358,0.176,0.352,0.154,0.408
"5",0.103,0.316,0.135,0.338,0.137,0.312,0.192,0.399
"6",0.114,0.291,0.098,0.393,0.104,0.312,0.175,0.401
"7",0.241,0.2,0.119,0.356,0.146,0.315,0.131,0.43
"8",0.187,0.22,0.133,0.345,0.122,0.309,0.125,0.423
"9",0.143,0.274,0.157,0.378,0.189,0.266,0.115,0.446
"10",0.12,0.277,0.172,0.34,0.136,0.309,0.119,0.479
"11",0.123,0.314,0.147,0.359,0.089,0.333,0.134,0.397
"12",0.183,0.291,0.199,0.318,0.172,0.263,0.162,0.419
"13",0.154,0.29,0.166,0.373,0.143,0.319,0.164,0.412
"14",0.121,0.305,0.16,0.329,0.179,0.34,0.143,0.412
"15",0.113,0.275,0.167,0.358,0.088,0.344,0.105,0.448
"16",0.107,0.356,0.151,0.365,0.157,0.277,0.122,0.461
"17",0.116,0.278,0.159,0.308,0.163,0.282,0.184,0.377
"18",0.141,0.337,0.096,0.398,0.113,0.32,0.157,0.416
"19",0.169,0.272,0.141,0.413,0.128,0.303,0.113,0.45
"20",0.139,0.288,0.194,0.354,0.142,0.349,0.171,0.403
"21",0.106,0.253,0.139,0.383,0.116,0.365,0.111,0.453
"22",0.114,0.282,0.159,0.355,0.094,0.3,0.115,0.435
"23",0.178,0.257,0.175,0.356,0.057,0.327,0.118,0.396
"24",0.122,0.261,0.195,0.361,0.147,0.329,0.129,0.423
"25",0.151,0.294,0.114,0.43,0.11,0.262,0.15,0.421
"26",0.141,0.305,0.189,0.375,0.172,0.329,0.098,0.415
"27",0.11,0.262,0.175,0.367,0.07,0.296,0.169,0.402
"28",0.137,0.279,0.117,0.388,0.171,0.249,0.13,0.441
"29",0.181,0.202,0.129,0.43,0.083,0.287,0.146,0.427
"30",0.173,0.283,0.139,0.394,0.143,0.324,0.129,0.438
"31",0.17,0.242,0.129,0.376,0.153,0.31,0.142,0.383
"32",0.128,0.312,0.137,0.407,0.074,0.313,0.166,0.398
"33",0.155,0.321,0.144,0.414,0.052,0.308,0.135,0.398
"34",0.132,0.256,0.118,0.44,0.044,0.332,0.136,0.407
"35",0.111,0.306,0.147,0.393,0.105,0.341,0.187,0.371
"36",0.136,0.232,0.172,0.369,0.1,0.305,0.18,0.364
"37",0.121,0.246,0.157,0.364,0.127,0.33,0.125,0.413
"38",0.133,0.255,0.148,0.373,0.112,0.327,0.157,0.446
"39",0.129,0.3,0.175,0.324,0.086,0.342,0.14,0.411
"40",0.151,0.305,0.123,0.357,0.127,0.32,0.166,0.418
"41",0.16,0.293,0.151,0.354,0.076,0.341,0.137,0.419
"42",0.156,0.251,0.169,0.388,0.154,0.288,0.155,0.416
"43",0.124,0.266,0.153,0.36,0.148,0.288,0.113,0.436
"44",0.193,0.22,0.177,0.35,0.157,0.285,0.095,0.436
"45",0.172,0.32,0.166,0.335,0.101,0.252,0.106,0.414
"46",0.162,0.303,0.179,0.327,0.127,0.305,0.131,0.395
"47",0.19,0.308,0.161,0.376,0.08,0.279,0.142,0.405
"48",0.109,0.301,0.166,0.389,0.178,0.32,0.121,0.436
"49",0.144,0.276,0.15,0.402,0,0.361,0.215,0.392
"50",0.112,0.291,0.15,0.41,0.131,0.279,0.17,0.374
"51",0.132,0.289,0.153,0.352,0.136,0.304,0.135,0.41
"52",0.172,0.258,0.149,0.348,0.201,0.309,0.157,0.426
"53",0.106,0.361,0.155,0.348,0.146,0.294,0.145,0.456
"54",0.116,0.28,0.187,0.327,0.151,0.282,0.139,0.479
"55",0.096,0.308,0.078,0.364,0.117,0.307,0.165,0.434
"56",0.178,0.261,0.189,0.317,0.068,0.322,0.186,0.393
"57",0.171,0.227,0.126,0.364,0.116,0.324,0.14,0.412
"58",0.118,0.305,0.182,0.348,0.116,0.324,0.157,0.411
"59",0.098,0.291,0.123,0.42,0.134,0.325,0.176,0.422
"60",0.163,0.24,0.142,0.396,0.144,0.277,0.155,0.374
"61",0.102,0.307,0.142,0.383,0.095,0.326,0.136,0.402
"62",0.115,0.297,0.099,0.432,0.215,0.292,0.13,0.416
"63",0.148,0.272,0.124,0.371,0.094,0.3,0.161,0.41
"64",0.125,0.262,0.179,0.367,0.14,0.279,0.146,0.397
"65",0.164,0.299,0.082,0.39,0.066,0.318,0.156,0.371
"66",0.173,0.252,0.13,0.334,0.104,0.274,0.157,0.414
"67",0.116,0.297,0.063,0.373,0.13,0.325,0.154,0.415
"68",0.164,0.257,0.134,0.342,0.086,0.312,0.119,0.405
"69",0.122,0.236,0.174,0.339,0.104,0.273,0.147,0.446
"70",0.119,0.348,0.145,0.329,0.143,0.297,0.099,0.428
"71",0.19,0.238,0.123,0.392,0.256,0.275,0.153,0.414
"72",0.162,0.311,0.098,0.4,0.075,0.293,0.14,0.375
"73",0.173,0.249,0.191,0.366,0.162,0.318,0.17,0.41
"74",0.197,0.258,0.121,0.353,0.132,0.299,0.13,0.425
"75",0.149,0.243,0.126,0.353,0.037,0.329,0.183,0.418
"76",0.149,0.226,0.125,0.369,0.079,0.307,0.157,0.443
"77",0.159,0.289,0.168,0.38,0.083,0.295,0.156,0.416
"78",0.136,0.228,0.144,0.34,0.168,0.31,0.138,0.453
"79",0.155,0.246,0.135,0.441,0.168,0.282,0.14,0.399
"80",0.153,0.26,0.104,0.349,0.136,0.294,0.127,0.428
"81",0.198,0.258,0.157,0.368,0.153,0.268,0.175,0.411
"82",0.175,0.307,0.166,0.377,0.09,0.33,0.164,0.425
"83",0.15,0.316,0.15,0.362,0.117,0.303,0.102,0.404
"84",0.121,0.296,0.082,0.471,0.115,0.331,0.13,0.419
"85",0.156,0.266,0.119,0.35,0.188,0.264,0.136,0.41
"86",0.16,0.271,0.193,0.35,0.102,0.349,0.136,0.398
"87",0.143,0.273,0.147,0.308,0.099,0.335,0.182,0.42
"88",0.146,0.265,0.141,0.352,0.148,0.261,0.163,0.426
"89",0.145,0.261,0.141,0.372,0.17,0.323,0.136,0.473
"90",0.131,0.287,0.215,0.321,0.083,0.338,0.115,0.424
"91",0.131,0.217,0.155,0.351,0.098,0.33,0.102,0.4
"92",0.161,0.265,0.168,0.396,0.162,0.286,0.112,0.405
"93",0.119,0.273,0.148,0.403,0.092,0.338,0.098,0.44
"94",0.176,0.255,0.075,0.441,0.135,0.347,0.164,0.412
"95",0.174,0.272,0.148,0.412,0.187,0.288,0.17,0.429
"96",0.145,0.269,0.117,0.407,0.102,0.33,0.134,0.398
"97",0.155,0.248,0.183,0.344,0.151,0.333,0.142,0.396
"98",0.095,0.305,0.131,0.38,0.158,0.242,0.118,0.426
"99",0.177,0.257,0.172,0.355,0.084,0.298,0.123,0.472
"100",0.176,0.241,0.128,0.413,0.174,0.26,0.141,0.421
"101",0.117,0.271,0.176,0.337,0.081,0.343,0.148,0.372
"102",0.169,0.293,0.174,0.355,0.126,0.338,0.156,0.446
"103",0.115,0.273,0.203,0.302,0.105,0.35,0.157,0.393
"104",0.136,0.286,0.164,0.38,0.122,0.324,0.145,0.346
"105",0.087,0.336,0.108,0.357,0.089,0.265,0.117,0.432
"106",0.147,0.275,0.138,0.369,0.107,0.3,0.166,0.398
"107",0.172,0.327,0.162,0.35,0.16,0.333,0.12,0.449
"108",0.162,0.273,0.165,0.371,0.103,0.321,0.137,0.412
"109",0.123,0.285,0.164,0.346,0.178,0.273,0.181,0.413
"110",0.158,0.285,0.193,0.383,0.152,0.334,0.161,0.402
"111",0.174,0.278,0.144,0.431,0.098,0.317,0.172,0.391
"112",0.183,0.243,0.133,0.38,0.151,0.335,0.156,0.398
"113",0.146,0.264,0.151,0.373,0.127,0.271,0.15,0.452
"114",0.146,0.232,0.213,0.366,0.14,0.363,0.13,0.391
"115",0.172,0.215,0.135,0.362,0.116,0.338,0.155,0.431
"116",0.139,0.284,0.134,0.41,0.145,0.29,0.166,0.397
"117",0.151,0.272,0.175,0.374,0.148,0.334,0.088,0.441
"118",0.137,0.252,0.155,0.36,0.167,0.288,0.087,0.473
"119",0.173,0.29,0.152,0.42,0.114,0.249,0.14,0.418
"120",0.137,0.278,0.164,0.377,0.124,0.298,0.095,0.44
"121",0.177,0.278,0.131,0.387,0.156,0.287,0.13,0.446
"122",0.138,0.258,0.177,0.351,0.116,0.349,0.093,0.371
"123",0.16,0.286,0.114,0.432,0.148,0.352,0.131,0.396
"124",0.144,0.268,0.178,0.374,0.116,0.317,0.154,0.43
"125",0.074,0.278,0.166,0.357,0.198,0.298,0.173,0.338
"126",0.138,0.286,0.138,0.345,0.203,0.283,0.109,0.453
"127",0.143,0.263,0.151,0.364,0.164,0.326,0.099,0.424
"128",0.137,0.264,0.144,0.366,0.137,0.278,0.162,0.391
"129",0.131,0.315,0.171,0.343,0.169,0.278,0.14,0.419
"130",0.17,0.261,0.102,0.345,0.055,0.317,0.11,0.453
"131",0.149,0.259,0.139,0.374,0.074,0.287,0.154,0.395
"132",0.131,0.284,0.136,0.364,0.09,0.324,0.152,0.45
"133",0.133,0.232,0.179,0.37,0.096,0.327,0.134,0.41
"134",0.184,0.199,0.224,0.364,0.153,0.306,0.157,0.409
"135",0.177,0.276,0.14,0.349,0.099,0.333,0.133,0.412
"136",0.158,0.245,0.153,0.357,0.163,0.328,0.115,0.444
"137",0.162,0.296,0.141,0.364,0.192,0.298,0.135,0.407
"138",0.176,0.26,0.174,0.383,0.128,0.315,0.143,0.395
"139",0.145,0.287,0.178,0.343,0.052,0.306,0.194,0.373
"140",0.087,0.324,0.116,0.39,0.129,0.336,0.189,0.354
"141",0.137,0.281,0.163,0.348,0.104,0.343,0.148,0.374
"142",0.175,0.285,0.144,0.382,0.147,0.307,0.149,0.425
"143",0.154,0.287,0.121,0.373,0.083,0.356,0.141,0.422
"144",0.175,0.229,0.198,0.312,0.185,0.256,0.115,0.441
"145",0.123,0.308,0.158,0.374,0.125,0.286,0.112,0.459
"146",0.175,0.269,0.145,0.359,0.092,0.335,0.124,0.427
"147",0.162,0.257,0.109,0.384,0.195,0.249,0.127,0.415
"148",0.101,0.303,0.163,0.371,0.117,0.315,0.137,0.442
"149",0.155,0.294,0.14,0.322,0.094,0.297,0.135,0.442
"150",0.144,0.255,0.195,0.339,0.133,0.296,0.142,0.405
"151",0.161,0.256,0.157,0.378,0.149,0.28,0.131,0.425
"152",0.104,0.276,0.157,0.337,0.138,0.35,0.145,0.388
"153",0.118,0.25,0.165,0.337,0.071,0.334,0.129,0.426
"154",0.15,0.315,0.202,0.332,0.126,0.318,0.152,0.376
"155",0.115,0.316,0.132,0.355,0.007,0.347,0.137,0.385
"156",0.129,0.339,0.108,0.36,0.086,0.265,0.134,0.437
"157",0.179,0.304,0.146,0.362,0.128,0.352,0.124,0.414
"158",0.13,0.295,0.175,0.365,0.07,0.356,0.159,0.422
"159",0.107,0.246,0.169,0.368,0.119,0.319,0.14,0.449
"160",0.172,0.239,0.144,0.413,0.071,0.322,0.171,0.415
"161",0.139,0.258,0.106,0.401,0.157,0.338,0.141,0.43
"162",0.164,0.266,0.127,0.368,0.183,0.289,0.137,0.405
"163",0.194,0.264,0.107,0.397,0.074,0.319,0.128,0.438
"164",0.164,0.312,0.154,0.368,0.16,0.297,0.159,0.384
"165",0.125,0.276,0.148,0.376,0.123,0.343,0.118,0.421
"166",0.138,0.295,0.172,0.381,0.091,0.343,0.134,0.423
"167",0.118,0.268,0.191,0.346,0.16,0.262,0.113,0.416
"168",0.123,0.347,0.178,0.36,0.09,0.294,0.156,0.471
"169",0.143,0.292,0.168,0.349,0.089,0.348,0.147,0.413
"170",0.156,0.31,0.171,0.358,0.141,0.317,0.139,0.426
"171",0.163,0.367,0.175,0.281,0.155,0.42,0.139,0.329
"172",0.127,0.269,0.129,0.387,0.126,0.283,0.161,0.402
"173",0.141,0.282,0.159,0.349,0.129,0.295,0.064,0.465
"174",0.13,0.282,0.193,0.332,0.105,0.341,0.154,0.406
"175",0.123,0.259,0.176,0.374,0.179,0.313,0.167,0.427
"176",0.137,0.217,0.192,0.368,0.077,0.315,0.193,0.39
"177",0.179,0.293,0.112,0.385,0.106,0.342,0.164,0.395
"178",0.184,0.226,0.144,0.391,0.176,0.309,0.182,0.41
"179",0.125,0.296,0.159,0.365,0.116,0.375,0.14,0.453
"180",0.091,0.307,0.188,0.322,0.152,0.276,0.131,0.435
"181",0.177,0.298,0.153,0.329,0.153,0.297,0.13,0.438
"182",0.142,0.225,0.182,0.371,0.161,0.283,0.126,0.423
"183",0.16,0.278,0.187,0.382,0.102,0.309,0.105,0.421
"184",0.187,0.25,0.132,0.397,0.091,0.318,0.108,0.436
"185",0.134,0.269,0.179,0.382,0.066,0.317,0.143,0.435
"186",0.159,0.283,0.167,0.373,0.143,0.242,0.104,0.444
"187",0.157,0.222,0.087,0.34,0.134,0.292,0.163,0.38
"188",0.123,0.289,0.176,0.315,0.081,0.363,0.14,0.448
"189",0.146,0.353,0.171,0.371,0.137,0.34,0.159,0.387
"190",0.149,0.214,0.175,0.38,0.111,0.287,0.152,0.424
"191",0.182,0.262,0.137,0.35,0.118,0.299,0.176,0.423
"192",0.148,0.229,0.136,0.376,0.127,0.314,0.104,0.454
"193",0.163,0.278,0.107,0.389,0.117,0.311,0.114,0.447
"194",0.15,0.266,0.123,0.42,0.116,0.262,0.145,0.461
"195",0.094,0.271,0.193,0.369,0.085,0.346,0.121,0.39
"196",0.2,0.231,0.152,0.422,0.183,0.313,0.098,0.441
"197",0.153,0.298,0.156,0.402,0.103,0.306,0.147,0.419
"198",0.143,0.291,0.122,0.399,0.133,0.283,0.141,0.395
"199",0.159,0.332,0.148,0.34,0.163,0.244,0.134,0.413
"200",0.116,0.296,0.129,0.389,0.107,0.341,0.129,0.416
"201",0.161,0.327,0.152,0.341,0.126,0.291,0.172,0.396
"202",0.143,0.24,0.145,0.411,0.12,0.327,0.109,0.419
"203",0.139,0.309,0.133,0.354,0.171,0.312,0.136,0.394
"204",0.171,0.246,0.131,0.4,0.098,0.263,0.136,0.479
"205",0.151,0.272,0.151,0.385,0.081,0.304,0.12,0.425
"206",0.172,0.312,0.164,0.324,0.178,0.274,0.134,0.402
"207",0.139,0.312,0.138,0.398,0.144,0.378,0.148,0.432
"208",0.138,0.28,0.153,0.404,0.116,0.34,0.141,0.402
"209",0.08,0.262,0.125,0.388,0.135,0.253,0.15,0.39
"210",0.152,0.276,0.14,0.415,0.172,0.347,0.133,0.41
"211",0.122,0.253,0.142,0.374,0.133,0.347,0.132,0.413
"212",0.204,0.253,0.143,0.393,0.051,0.325,0.143,0.41
"213",0.16,0.286,0.152,0.356,0.126,0.346,0.158,0.372
"214",0.154,0.287,0.156,0.349,0.044,0.303,0.154,0.445
"215",0.148,0.333,0.18,0.355,0.123,0.358,0.134,0.416
"216",0.119,0.331,0.173,0.329,0.124,0.345,0.117,0.416
"217",0.145,0.296,0.124,0.362,0.121,0.321,0.126,0.406
"218",0.152,0.236,0.17,0.352,0.14,0.317,0.154,0.406
"219",0.156,0.257,0.121,0.427,0.027,0.298,0.161,0.43
"220",0.132,0.221,0.185,0.33,0.121,0.306,0.098,0.436
"221",0.153,0.237,0.113,0.398,0.205,0.335,0.141,0.393
"222",0.14,0.245,0.15,0.379,0.108,0.326,0.139,0.425
"223",0.172,0.3,0.138,0.375,0.095,0.308,0.155,0.388
"224",0.112,0.302,0.129,0.372,0.124,0.34,0.121,0.425
"225",0.176,0.219,0.15,0.358,0.141,0.311,0.138,0.423
"226",0.173,0.294,0.198,0.361,0.158,0.37,0.169,0.396
"227",0.152,0.298,0.122,0.348,0.147,0.305,0.148,0.422
"228",0.104,0.288,0.126,0.406,0.135,0.312,0.165,0.404
"229",0.164,0.282,0.172,0.359,0.132,0.295,0.096,0.445
"230",0.145,0.269,0.129,0.424,0.089,0.299,0.183,0.386
"231",0.141,0.297,0.111,0.376,0.148,0.294,0.146,0.393
"232",0.208,0.25,0.121,0.376,0.096,0.317,0.09,0.486
"233",0.103,0.304,0.189,0.337,0.135,0.268,0.165,0.445
"234",0.119,0.285,0.186,0.339,0.219,0.258,0.147,0.463
"235",0.112,0.298,0.126,0.361,0.125,0.349,0.186,0.406
"236",0.163,0.286,0.137,0.412,0.183,0.306,0.156,0.391
"237",0.15,0.24,0.126,0.38,0.129,0.307,0.156,0.423
"238",0.192,0.248,0.193,0.305,0.118,0.328,0.148,0.406
"239",0.172,0.306,0.148,0.387,0.116,0.34,0.147,0.386
"240",0.142,0.267,0.167,0.374,0.153,0.275,0.111,0.426
"241",0.171,0.297,0.161,0.358,0.128,0.262,0.109,0.431
"242",0.153,0.283,0.158,0.341,0.094,0.311,0.189,0.391
"243",0.18,0.227,0.089,0.4,0.111,0.303,0.124,0.46
"244",0.13,0.257,0.21,0.352,0.134,0.198,0.128,0.448
"245",0.11,0.241,0.131,0.356,0.14,0.342,0.145,0.393
"246",0.128,0.263,0.14,0.405,0.109,0.341,0.169,0.42
"247",0.187,0.237,0.128,0.403,0.134,0.298,0.147,0.386
"248",0.13,0.298,0.085,0.442,0.139,0.32,0.173,0.411
"249",0.136,0.258,0.192,0.335,0.152,0.292,0.137,0.443
"250",0.155,0.286,0.178,0.339,0.118,0.332,0.118,0.415
