"","V1","V2","V3","V4","V5","V6","V7","V8"
"1",0.192,0.161,0.261,0.299,0.212,0.329,0.173,0.36
"2",0.194,0.258,0.046,0.416,0.23,0.267,0.231,0.456
"3",0.146,0.092,0.112,0.28,0.029,0.309,0.285,0.339
"4",0.151,0.377,0.292,0.427,0.294,0.175,0.181,0.488
"5",0.183,0.304,0.126,0.331,0.265,0.244,0.153,0.447
"6",0.233,0.226,0.001,0.435,0.005,0.361,0.221,0.358
"7",0.121,0.139,0.002,0.729,0.208,0.328,0.227,0.426
"8",0.181,0.317,0.226,0.242,0.104,0.272,0.224,0.365
"9",0.085,0.414,0.251,0.225,0.063,0.354,0.268,0.382
"10",0.182,0.38,0.338,0.118,0.305,0.213,0.094,0.547
"11",0.17,0.188,0.079,0.529,0.206,0.215,0.19,0.304
"12",0.149,0.28,0.217,0.55,0,0.355,0.186,0.078
"13",0.242,0.183,0.097,0.563,0.183,0.087,0.205,0.345
"14",0.009,0.336,0.085,0.553,0.041,0.363,0.245,0.366
"15",0,0.595,0.285,0.169,0.177,0.438,0.227,0.286
"16",0.107,0.329,0.168,0.361,0.177,0.296,0.17,0.346
"17",0.002,0.486,0.123,0.313,0.074,0.586,0.149,0.344
"18",0.163,0.161,0.04,0.481,0.001,0.322,0.283,0.377
"19",0.059,0.574,0.215,0.358,0.232,0.283,0.144,0.5
"20",0.041,0.339,0.163,0.369,0.264,0.303,0.134,0.258
"21",0.24,0.231,0.136,0.369,0.153,0.397,0.143,0.402
"22",0.152,0.29,0.111,0.425,0.21,0.203,0.106,0.505
"23",0.163,0.324,0.083,0.493,0.033,0.488,0.257,0.357
"24",0.047,0.418,0.001,0.433,0.163,0.314,0.209,0.463
"25",0.105,0.301,0.17,0.314,0.139,0.293,0.301,0.307
"26",0.131,0.188,0.185,0.346,0.152,0.431,0.206,0.416
"27",0.218,0.276,0.173,0.447,0.12,0.141,0.158,0.329
"28",0.146,0.379,0.222,0.449,0.128,0.368,0.06,0.455
"29",0.098,0.306,0.163,0.442,0.07,0.327,0.103,0.455
"30",0.147,0.261,0.004,0.432,0.29,0.229,0.197,0.401
"31",0.083,0.27,0.095,0.367,0.218,0.243,0.226,0.408
"32",0.142,0.336,0.147,0.431,0.208,0.355,0.151,0.384
"33",0,0.341,0.105,0.483,0.153,0.391,0.231,0.338
"34",0.085,0.09,0.179,0.397,0.279,0.233,0.292,0.39
"35",0.367,0.111,0,0.531,0.973,0.998,0.227,0.386
"36",0.144,0.372,0.146,0.461,0.186,0.4,0.316,0.286
"37",0.154,0.254,0.18,0.373,0.164,0.245,0.228,0.361
"38",0.183,0.45,0.19,0.258,0.182,0.435,0.044,0.001
"39",0.128,0.231,0.232,0.369,0.355,0.291,0.155,0.399
"40",0.111,0.383,0.057,0.459,0.194,0.389,0.171,0.341
"41",0.18,0.133,0.131,0.498,0.28,0.296,0.131,0.363
"42",0.124,0.235,0.138,0.341,0.127,0.372,0.21,0.355
"43",0.128,0.417,0.106,0.278,0.183,0.318,0.103,0.531
"44",0.113,0.359,0.058,0.462,0.243,0.359,0.237,0.338
"45",0.146,0.206,0.117,0.5,0.264,0.265,0.076,0.563
"46",0.246,0.132,0.263,0.547,0,0.001,0.259,0.281
"47",0.077,0.172,0.19,0.339,0.317,0.284,0.215,0.422
"48",0.107,0.325,0.015,0.38,0.244,0.357,0.027,0.192
"49",0.353,0.262,0.046,0.49,0.256,0.338,0.093,0.394
"50",0.074,0.272,0.209,0.353,0.06,0.258,0.193,0.495
"51",0.18,0.267,0.247,0.291,0.209,0.331,0.321,0.308
"52",0.163,0.21,0.161,0.332,0.116,0.409,0.336,0.274
"53",0.167,0.328,0.078,0.335,0.026,0.2,0.205,0.455
"54",0.224,0.552,0.045,0.509,0.194,0.159,0.308,0.276
"55",0.046,0.382,0.134,0.397,0.068,0.289,0.099,0.423
"56",0.155,0.252,0.089,0.345,0.037,0.318,0.204,0.406
"57",0.19,0.3,0.107,0.542,0.164,0.209,0.206,0.346
"58",0.234,0.208,0.14,0.396,0.245,0.176,0.166,0.36
"59",0.214,0.402,0.016,0.491,0.18,0.405,0.189,0.34
"60",0.219,0.477,0.16,0.282,0.101,0.56,0.475,0.09
"61",0.036,0.281,0.106,0.351,0.287,0.303,0.16,0.353
"62",0.036,0.305,0.235,0.254,0.499,0.076,0.212,0.395
"63",0.101,0.137,0.25,0.301,0.195,0.306,0.075,0.441
"64",0,0.096,0.21,0.571,0.168,0.486,0.094,0.345
"65",0.094,0.298,0.232,0.309,0.178,0.167,0.183,0.401
"66",0.109,0.278,0.132,0.36,0.285,0.21,0.236,0.356
"67",0.066,0.32,0.22,0.354,0.232,0.272,0.38,0.219
"68",0.165,0.41,0.043,0.412,0.001,0.35,0.276,0.298
"69",0.215,0.386,0.052,0.08,0.376,0.214,0.133,0.353
"70",0.233,0.294,0.088,0.443,0,0.347,0.189,0.402
"71",0.145,0.325,0.154,0.427,0.231,0.362,0.019,0.499
"72",0.221,0.401,0.121,0.382,0.254,0.183,0.168,0.389
"73",0.185,0.093,0.272,0.449,0.471,0.253,0.312,0.295
"74",0.401,0.058,0.189,0.576,0.52,0.064,0.235,0.271
"75",0.064,0.378,0.11,0.491,0.231,0.253,0.1,0.371
"76",0.063,0.342,0.134,0.035,0.175,0.401,0.12,0.363
"77",0.174,0.306,0.076,0.463,0.363,0.132,0.164,0.446
"78",0.126,0.462,0.178,0.318,0.113,0.436,0.225,0.348
"79",0.193,0.29,0.153,0.448,0.117,0.207,0.083,0.27
"80",0.188,0.331,0.132,0.336,0.261,0.355,0.073,0.308
"81",0.832,0,0.087,0.707,0.463,0,0.228,0.38
"82",0.139,0.32,0.067,0.378,0.105,0.389,0.07,0.511
"83",0.188,0.198,0.152,0.39,0.176,0.45,0.193,0.406
"84",0.151,0.389,0.142,0.415,0.285,0.085,0.178,0.402
"85",0.251,0.14,0.224,0.42,0.493,0.127,0.232,0.377
"86",0.046,0.446,0.02,0.533,0.152,0.255,0.27,0.27
"87",0.295,0.201,0.183,0.328,0.068,0.359,0.096,0.429
"88",0.21,0.237,0.264,0.268,0.328,0.279,0.188,0.38
"89",0.006,0.369,0.038,0.569,0.252,0.139,0.003,0.572
"90",0.252,0.112,0.123,0.426,0.182,0.275,0.252,0.28
"91",0.056,0.443,0.029,0.594,0.056,0.233,0.196,0.444
"92",0.25,0.187,0.124,0.52,0.224,0.347,0.269,0.172
"93",0.141,0.301,0.073,0.335,0.135,0.369,0.184,0.371
"94",0.1,0.381,0.007,0.407,0.038,0.313,0.262,0.443
"95",0.111,0.347,0.037,0.381,0.292,0.328,0.085,0.364
"96",0.149,0.311,0.134,0.401,0.14,0.487,0.093,0.326
"97",0.179,0.227,0.053,0.588,0.105,0.358,0.207,0.356
"98",0.1,0.286,0.126,0.377,0.055,0.327,0.225,0.444
"99",0.08,0.479,0.119,0.355,0.251,0.275,0.055,0.442
"100",0.152,0.403,0.345,0.24,0.228,0.196,0.275,0.33
"101",0.179,0.208,0.115,0.401,0.163,0.307,0.122,0.312
"102",0.028,0.383,0.16,0.348,0.075,0.265,0.082,0.402
"103",0.156,0.379,0.193,0.38,0.228,0.327,0.191,0.425
"104",0.11,0.118,0.088,0.518,0.006,0.368,0.218,0.349
"105",0.171,0.257,0.077,0.335,0.134,0,0.172,0.422
"106",0.004,0.467,0.157,0.299,0.461,0.265,0.134,0.342
"107",0.744,0.018,0.185,0.591,0.347,0,0.061,0.335
"108",0.182,0.326,0.154,0.387,0.023,0.451,0.171,0.384
"109",0.134,0.098,0.022,0.502,0.231,0.241,0.159,0.428
"110",0.135,0.33,0.001,0.606,0.003,0.463,0.035,0.5
"111",0.314,0.231,0.129,0.321,0.23,0.486,0.166,0.255
"112",0.142,0.36,0.027,0.614,0.145,0.235,0.128,0.277
"113",0.219,0.249,0.223,0.314,0.333,0.216,0.124,0.396
"114",0.161,0.276,0.17,0.436,0.17,0.351,0.233,0.379
"115",0.29,0.32,0.252,0.454,0.033,0,0.253,0.214
"116",0.028,0.373,0.291,0.282,0.051,0.05,0.233,0.51
"117",0.164,0.415,0.158,0.321,0.135,0.225,0.033,0.291
"118",0.062,0.674,0.224,0.23,0.156,0.414,0.233,0.396
"119",0.177,0.367,0.033,0.415,0.245,0.256,0.21,0.448
"120",0.161,0.334,0.003,0.478,0.099,0.357,0.18,0.387
"121",0.065,0.444,0.227,0.454,0.105,0.334,0.176,0.245
"122",0.216,0.279,0.163,0.443,0.317,0.187,0.205,0.299
"123",0.181,0.209,0.184,0.367,0.183,0.44,0.2,0.456
"124",0.187,0.341,0.083,0.531,0.131,0.459,0.231,0.308
"125",0.085,0.093,0.062,0.573,0.266,0.309,0.231,0.229
"126",0,0.258,0.025,0.5,0.064,0.417,0.188,0.451
"127",0.193,0.294,0.004,0.568,0.103,0.379,0.141,0.501
"128",0.007,0.441,0.056,0.46,0.233,0.354,0.231,0.353
"129",0.412,0,0.271,0.527,0,0.411,0.176,0.373
"130",0.129,0.397,0.085,0.391,0.03,0.401,0.255,0.332
"131",0.119,0.246,0.229,0.326,0.25,0.304,0.209,0.464
"132",0.002,0.283,0.13,0.437,0.169,0.226,0.209,0.322
"133",0.156,0.251,0.08,0.432,0.322,0.308,0.127,0.416
"134",0.099,0.13,0.149,0.464,0.257,0.239,0.166,0.364
"135",0.066,0.391,0.17,0.242,0.213,0.365,0.22,0.315
"136",0.169,0.377,0.078,0.41,0.215,0.446,0.23,0.319
"137",0.056,0.424,0.145,0.431,0.075,0.148,0.308,0.327
"138",0.151,0.344,0.099,0.52,0.284,0.222,0.153,0.389
"139",0.121,0.355,0.157,0.293,0.236,0.303,0.187,0.385
"140",0.119,0.137,0.105,0.471,0.094,0.364,0.15,0.381
"141",0.093,0.168,0.15,0.665,0.014,0.007,0.274,0.349
"142",0.047,0.435,0.084,0.518,0.17,0.374,0.275,0.213
"143",0.171,0.211,0.102,0.526,0.067,0.075,0.277,0.31
"144",0.116,0.436,0.1,0.276,0.165,0.368,0.281,0.364
"145",0.153,0.357,0.166,0.597,0.228,0.178,0.145,0.383
"146",0.13,0,0.157,0.65,0.314,0.176,0.211,0.292
"147",0.181,0.252,0.276,0.197,0.241,0.235,0.238,0.392
"148",0.068,0.359,0.151,0.308,0.203,0.525,0.283,0.34
"149",0.262,0.278,0.085,0.356,0.352,0.054,0.237,0.385
"150",0.03,0.295,0.083,0.462,0.16,0.32,0.165,0.406
"151",0.33,0.211,0,0.465,0.065,0.343,0.298,0.336
"152",0.215,0.233,0.075,0.51,0.207,0.321,0.162,0.373
"153",0.069,0.358,0.067,0.361,0.103,0.274,0.174,0.254
"154",0.088,0.382,0.253,0.234,0.194,0.418,0.063,0.469
"155",0.069,0.349,0.263,0.147,0.111,0.348,0.189,0.321
"156",0.205,0.167,0.225,0.254,0.116,0.332,0.306,0.35
"157",0.124,0.205,0.274,0.394,0.365,0.211,0.133,0.516
"158",0.136,0.337,0.074,0.491,0.057,0.399,0.13,0.47
"159",0.136,0.39,0.109,0.545,0.316,0.277,0.166,0.483
"160",0.155,0.449,0.225,0.176,0.098,0.263,0.088,0.402
"161",0,0.448,0.178,0.18,0.045,0.373,0.154,0.445
"162",0.198,0.293,0.258,0.15,0.125,0.248,0.096,0.185
"163",0.158,0.322,0.115,0.295,0.003,0.301,0.125,0.594
"164",0.001,0.476,0.072,0.264,0.178,0.407,0.298,0.239
"165",0.064,0.255,0.116,0.463,0.158,0.317,0.001,0.525
"166",0.008,0.392,0.18,0.315,0.014,0.391,0.26,0.392
"167",0.111,0.293,0.004,0.507,0.18,0.425,0.212,0.423
"168",0,0.321,0.226,0.421,0.165,0.132,0.258,0.444
"169",0.228,0.073,0.134,0.663,0.546,0.002,0.142,0.304
"170",0.263,0.246,0.118,0.567,0.055,0.273,0.15,0.422
"171",0.076,0.357,0.1,0.403,0.041,0.31,0.205,0.433
"172",0,0.443,0.17,0.364,0.106,0.187,0.211,0.346
"173",0.02,0.316,0.206,0.27,0.125,0.368,0.212,0.278
"174",0.22,0.855,0.205,0.352,0.241,0.359,0.096,0.31
"175",0.154,0.184,0.116,0.423,0.586,0.211,0.152,0.401
"176",0.311,0.197,0.067,0.422,0.035,0.564,0.346,0.155
"177",0.195,0.275,0.365,0.207,0.257,0.325,0.324,0.318
"178",0.096,0.288,0.02,0.457,0.262,0.182,0.178,0.213
"179",0.162,0.35,0.003,0.435,0.195,0.225,0.163,0.448
"180",0.121,0.425,0.029,0.251,0.153,0.473,0.177,0.023
"181",0.148,0.27,0.064,0.426,0.279,0.304,0.229,0.292
"182",0.193,0.284,0.269,0.255,0.136,0.128,0.185,0.373
"183",0.093,0.195,0.147,0.414,0.089,0.223,0.257,0.365
"184",0.072,0.353,0.185,0.331,0.213,0.31,0.179,0.327
"185",0.076,0.25,0.094,0.396,0.329,0.243,0.186,0.369
"186",0.003,0.5,0.192,0.445,0.28,0.194,0.118,0.369
"187",0.072,0.337,0.236,0.305,0.177,0.252,0.181,0.349
"188",0.14,0.379,0,0.569,0.056,0.366,0.173,0.404
"189",0.166,0.37,0.152,0.306,0.278,0.377,0.129,0.457
"190",0.162,0.353,0.288,0.129,0.177,0.287,0.306,0.304
"191",0.119,0.307,0.164,0.35,0.044,0.412,0.27,0.272
"192",0.113,0.35,0.079,0.484,0.173,0.194,0.304,0.323
"193",0.165,0.283,0.091,0.487,0.211,0.321,0.034,0.466
"194",0.235,0.255,0.124,0.418,0.083,0.287,0.149,0.472
"195",0.085,0.385,0.15,0.362,0.157,0.265,0.111,0.395
"196",0.165,0.379,0.075,0.488,0.226,0.146,0.154,0.444
"197",0.125,0.265,0.162,0.466,0.12,0.311,0.099,0.328
"198",0.134,0.28,0.19,0.094,0.274,0.404,0.261,0.269
"199",0.108,0.315,0.137,0.309,0.128,0.216,0.134,0.388
"200",0.12,0.374,0.093,0.517,0.234,0.234,0.16,0.492
"201",0.116,0.359,0.117,0.175,0.187,0.261,0.184,0.447
"202",0.234,0.297,0.103,0.465,0.27,0.27,0.102,0.434
"203",0.165,0.443,0.158,0.002,0.166,0.349,0.198,0.318
"204",0.323,0.357,0.219,0.233,0.168,0.006,0.224,0.362
"205",0.213,0.196,0.143,0.362,0.015,0.197,0.147,0.366
"206",0.197,0.198,0.035,0.449,0.211,0.238,0.098,0.472
"207",0.235,0.257,0.24,0.33,0.234,0.296,0.199,0.435
"208",0.245,0.196,0.18,0.379,0.003,0.492,0.172,0.488
"209",0.193,0.281,0.147,0.273,0.122,0.295,0.277,0.39
"210",0.465,0.166,0.264,0.584,0.001,0.002,0.193,0.222
"211",0.154,0.239,0.079,0.561,0.078,0.26,0.235,0.345
"212",0,0.547,0.224,0.377,0.163,0.357,0.154,0.46
"213",0.106,0.308,0.125,0.365,0.276,0.169,0.302,0.379
"214",0.081,0.478,0.157,0.341,0.353,0.323,0.192,0.357
"215",0.063,0.379,0.151,0.474,0.001,0.118,0.215,0.365
"216",0.19,0.294,0.064,0.468,0.004,0.381,0.086,0.417
"217",0.02,0.436,0.165,0.456,0.19,0.335,0.169,0.435
"218",0.19,0.37,0.016,0.407,0,0.189,0.217,0.339
"219",0.105,0.334,0.099,0.542,0.156,0.239,0.242,0.331
"220",0.069,0.166,0.208,0.381,0.085,0.282,0.227,0.393
"221",0.207,0.024,0.003,0.45,0.183,0.441,0.26,0.322
"222",0.047,0.241,0.199,0.327,0,0.454,0.152,0.357
"223",0.089,0.38,0.08,0.467,0.398,0.116,0.169,0.406
"224",0.006,0.38,0.154,0.433,0.239,0.317,0.045,0.367
"225",0.005,0.463,0.246,0.278,0.001,0.301,0.135,0.545
"226",0.093,0.45,0.176,0.363,0.246,0.25,0.203,0.316
"227",0.238,0.421,0,0.484,0.235,0.261,0.142,0.395
"228",0.408,0.13,0.037,0.319,0.315,0.442,0.269,0.301
"229",0.094,0.24,0.246,0.332,0.317,0.223,0.201,0.333
"230",0.173,0.481,0.099,0.377,0.257,0.356,0.249,0.428
"231",0.006,0.338,0.216,0.227,0.268,0.209,0.271,0.324
"232",0.074,0.345,0.233,0.363,0.117,0.252,0.116,0.411
"233",0.27,0.2,0,0.571,0.24,0.313,0.066,0.478
"234",0.161,0.343,0.048,0.349,0.039,0.259,0.143,0.355
"235",0.092,0.355,0.135,0.482,0.317,0.285,0.087,0.473
"236",0.266,0.251,0.112,0.37,0.172,0.335,0.133,0.317
"237",0.097,0.256,0.218,0.472,0.19,0.33,0.21,0.342
"238",0.128,0.093,0.195,0.499,0.001,0.247,0.116,0.477
"239",0.107,0.419,0.127,0.381,0.223,0.391,0.185,0.351
"240",0.102,0.249,0.214,0.278,0.018,0.268,0.152,0.293
"241",0.17,0.481,0.1,0.437,0.176,0.327,0.058,0.578
"242",0.058,0.346,0.163,0.337,0.227,0.405,0.194,0.492
"243",0.215,0.233,0.152,0.412,0.233,0.266,0.2,0.351
"244",0.137,0.183,0.063,0.702,0.191,0.273,0.207,0.387
"245",0.223,0.254,0,0.422,0.23,0.323,0,0.479
"246",0.161,0.365,0.144,0.449,0.306,0.178,0.25,0.351
"247",0.076,0.413,0.183,0.437,0.053,0.362,0.158,0.352
"248",0.196,0.45,0.282,0.346,0.251,0.243,0.208,0.431
"249",0.316,0.118,0.16,0.413,0.307,0.002,0.124,0.45
"250",0.217,0.27,0.295,0.291,0.082,0.14,0.252,0.321
