"","x"
"1",16682.0318844023
"2",16558.2941370305
"3",16561.1576276761
"4",16869.2622138922
"5",16791.9340126242
"6",16559.3803053094
"7",16674.6765041552
"8",16740.9021240426
"9",16693.2967535416
"10",16675.8860574074
"11",16869.548046875
"12",16752.589899647
"13",16862.7089663953
"14",16989.959118765
"15",16766.3106477636
"16",16591.9886762869
"17",16861.6479658759
"18",16574.623855793
"19",16701.2339395811
"20",16942.5447418593
"21",16590.2647808162
"22",16347.8112855619
"23",16806.0854436491
"24",16874.936743387
"25",16660.8929784803
"26",16772.0872078133
"27",16580.6735411277
"28",16854.5812080099
"29",16823.3321008618
"30",16590.9826670196
"31",16668.2379706441
"32",16855.5450203608
"33",16676.2246816546
"34",16753.6489082645
"35",16819.1439428841
"36",16747.650467061
"37",16904.926482003
"38",16767.4779441971
"39",16606.3029014951
"40",16854.3721142988
"41",16860.9778321026
"42",16525.7510357683
"43",16898.7762564723
"44",16617.9793575598
"45",16968.3764919192
"46",16908.8768393736
"47",16944.1919563173
"48",16583.9525004149
"49",16881.5122162783
"50",16804.3393767118
"51",16846.3273629246
"52",16827.9490141854
"53",16600.7826332777
"54",16756.0913837849
"55",16558.1403141113
"56",16745.9397078964
"57",16488.6585920622
"58",16665.2435713054
"59",16553.8889250906
"60",16991.9735753928
"61",16633.9246189753
"62",16750.6990786082
"63",16600.7398972733
"64",16419.2195649406
"65",16522.9815941425
"66",16554.221804902
"67",16749.7778260364
"68",16631.3961382405
"69",17115.2316990447
"70",16779.1792758067
"71",16821.7664543709
"72",16964.369390232
"73",16641.5829956242
"74",16769.6839924242
"75",16678.1447889929
"76",16621.9818789819
"77",16457.3468380788
"78",16406.2205965635
"79",16695.4423922298
"80",16958.0393273169
"81",16619.1841370025
"82",16702.9587774279
"83",16871.2639524834
"84",16869.7655756572
"85",16798.525707478
"86",16624.6016093674
"87",16847.4290613334
"88",16717.3065647643
"89",16488.6367557705
"90",16742.4205342281
"91",16671.5992960064
"92",16543.8237011227
"93",16802.6808212353
"94",16784.0763762596
"95",16744.7470102715
"96",16523.0228396823
"97",16743.1713767592
"98",16464.0117004464
"99",16641.3931308992
"100",16763.1523844691
"101",16900.1359284336
"102",16803.0066174736
"103",16737.3506136767
"104",16800.9211345744
"105",16755.5026249909
"106",16928.8272506322
"107",16761.8115100438
"108",16752.0702394315
"109",16963.191072238
"110",16961.2402951046
"111",16879.1827850861
"112",16627.7282908189
"113",16586.3538888181
"114",16938.7049553303
"115",16691.5219967351
"116",17015.3317547357
"117",16758.1544877288
"118",16717.6473260361
"119",16835.377816379
"120",16795.9555449633
"121",16840.6121395615
"122",16743.5732282107
"123",16816.1202770023
"124",16560.3145374788
"125",16517.70270054
"126",16689.6614822638
"127",16726.7372977925
"128",16853.5434467453
"129",16481.6912299277
"130",16965.4403514188
"131",16687.3112952104
"132",16504.5741925688
"133",16549.0694599613
"134",16612.493262281
"135",16672.9509498925
"136",16590.5858810982
"137",16744.9852394692
"138",16707.2185609139
"139",16658.9110385904
"140",16613.5317252501
"141",16484.2976894746
"142",16662.5858956704
"143",16726.7839108476
"144",16866.6395508286
"145",16842.0447416033
"146",16980.1526620496
"147",16715.2606384405
"148",16815.2269107378
"149",16756.6766953728
"150",16748.3187425021
"151",16755.6687366836
"152",16910.4760108114
"153",16705.5887938046
"154",17121.5937645701
"155",16636.6809310191
"156",16739.9665955022
"157",16657.7036612816
"158",17003.187285374
"159",16739.684444383
"160",16634.9679801151
"161",16711.8312736137
"162",16867.6643648614
"163",16784.3438205957
"164",17017.1744482215
"165",16490.0174204312
"166",16640.8603139688
"167",16636.0900569009
"168",16570.420072748
"169",16719.5161832123
"170",16858.4115322743
"171",16792.9172148035
"172",16652.2251877456
"173",16575.9556521031
"174",16853.1914906733
"175",16863.4311578987
"176",16917.8061070178
"177",16582.2341900326
"178",16666.4519485722
"179",16667.4504567863
"180",16526.9225482614
"181",16458.4842060669
"182",16793.7395968545
"183",16758.3145781501
"184",16694.184414193
"185",16888.2636326371
"186",16879.9374263023
"187",16919.3278211681
"188",16892.9230787074
"189",16696.0633900459
"190",16578.8356194502
"191",16905.8088997712
"192",16474.2033031819
"193",16936.6200728107
"194",16649.4238829513
"195",16713.8075321329
"196",16767.2159988452
"197",16607.2304947922
"198",16929.0896460097
"199",16695.0856041041
"200",16395.0795388209
"201",16894.8576062996
"202",16798.0006998341
"203",16750.9462087835
"204",17012.0954745909
"205",16668.0128731327
"206",16914.0632622462
"207",16946.3359459471
"208",16488.8518804036
"209",16494.8626504016
"210",16869.3242015616
"211",16542.3919670437
"212",16909.5798430904
"213",16805.5972403956
"214",16624.8915750815
"215",16798.3381028793
"216",16729.6915020521
"217",16728.0404054526
"218",16979.313523743
"219",16621.4217396496
"220",16813.9092683165
"221",16559.8712091317
"222",16911.7902068336
"223",16942.9524976132
"224",16771.5907502174
"225",16694.7206859671
"226",16912.9428078306
"227",16753.5280527908
"228",16487.5466149186
"229",16720.0822286187
"230",16823.4493870367
"231",16660.1217266003
"232",16863.2274472623
"233",16780.0646824318
"234",16761.4130528632
"235",16692.4262065051
"236",16687.8895443025
"237",16834.0626570234
"238",16841.6858683983
"239",16847.4359863156
"240",16707.9505140793
"241",16678.5186468809
"242",16641.8026318906
"243",16760.6686246202
"244",16700.6859761315
"245",16807.2354438339
"246",16741.1273756443
"247",16767.996697451
"248",16593.2056603353
"249",17018.6666831117
"250",16682.0288073363
