"","x"
"1",-8287.80962498436
"2",-8225.94075129847
"3",-8227.37249662123
"4",-8381.4247897293
"5",-8342.76068909528
"6",-8226.48383543793
"7",-8284.13193486081
"8",-8317.2447448045
"9",-8293.44205955402
"10",-8284.73671148688
"11",-8381.56770622073
"12",-8323.0886326067
"13",-8378.14816598083
"14",-8441.77324216569
"15",-8329.949006665
"16",-8242.78802092668
"17",-8377.61766572116
"18",-8234.10561067969
"19",-8297.41065257375
"20",-8418.06605371284
"21",-8241.92607319133
"22",-8120.69932556418
"23",-8349.83640460777
"24",-8384.26205447673
"25",-8277.24017202335
"26",-8332.83728668984
"27",-8237.13045334703
"28",-8374.08428678813
"29",-8358.45973321409
"30",-8242.28501629298
"31",-8280.91266810524
"32",-8374.56619296359
"33",-8284.90602361049
"34",-8323.61813691547
"35",-8356.36565422528
"36",-8320.61891631369
"37",-8399.25692378473
"38",-8330.53265488177
"39",-8249.94513353074
"40",-8373.97973993259
"41",-8377.28259883451
"42",-8209.66920066735
"43",-8396.18181101936
"44",-8255.78336156312
"45",-8430.98192874282
"46",-8401.23210247002
"47",-8418.88966094187
"48",-8238.76993299066
"49",-8387.54979092234
"50",-8348.96337113912
"51",-8369.95736424553
"52",-8360.7681898759
"53",-8247.18499942205
"54",-8324.83937467568
"55",-8225.86383983885
"56",-8319.76353673141
"57",-8191.12297881433
"58",-8279.41546843592
"59",-8223.73814532852
"60",-8442.78047047962
"61",-8263.75599227085
"62",-8322.14322208729
"63",-8247.16363141986
"64",-8156.40346525348
"65",-8208.28447985444
"66",-8223.90458523421
"67",-8321.68259580142
"68",-8262.49175190346
"69",-8504.40953230556
"70",-8336.38332068654
"71",-8357.67690996866
"72",-8428.9783778992
"73",-8267.5851805953
"74",-8331.6356789953
"75",-8285.86607727964
"76",-8257.78462227417
"77",-8175.4671018226
"78",-8149.90398106497
"79",-8294.51487889813
"80",-8425.81334644166
"81",-8256.38575128444
"82",-8298.27307149713
"83",-8382.42565902493
"84",-8381.67647061181
"85",-8346.05653652223
"86",-8259.09448746689
"87",-8370.50821344988
"88",-8305.44696516534
"89",-8191.11206066847
"90",-8318.00394989726
"91",-8282.59333078639
"92",-8218.70553334457
"93",-8348.13409340084
"94",-8338.83187091299
"95",-8319.16718791895
"96",-8208.30510262436
"97",-8318.3793711628
"98",-8178.79953300638
"99",-8267.49024823282
"100",-8328.36987501777
"101",-8396.86164700002
"102",-8348.29699151998
"103",-8315.46898962156
"104",-8347.2542500704
"105",-8324.54499527863
"106",-8411.20730809932
"107",-8327.6994378051
"108",-8322.82880249895
"109",-8428.38921890223
"110",-8427.41383033552
"111",-8386.38507532628
"112",-8260.65782819265
"113",-8239.97062719226
"114",-8416.14616044835
"115",-8292.55468115074
"116",-8454.45956015105
"117",-8325.87092664762
"118",-8305.61734580125
"119",-8364.48259097273
"120",-8344.77145526487
"121",-8367.09975256395
"122",-8318.58029688856
"123",-8354.85382128433
"124",-8226.95095152261
"125",-8205.64503305323
"126",-8291.62442391513
"127",-8310.16233167943
"128",-8373.56540615585
"129",-8187.63929774707
"130",-8429.51385849262
"131",-8290.4493303884
"132",-8199.08077906759
"133",-8221.32841276386
"134",-8253.0403139237
"135",-8283.26915772946
"136",-8242.08662333232
"137",-8319.28630251783
"138",-8300.40296324017
"139",-8276.24920207841
"140",-8253.55954540826
"141",-8188.94252752053
"142",-8278.08663061839
"143",-8310.18563820703
"144",-8380.11345819752
"145",-8367.81605358485
"146",-8436.87001380802
"147",-8304.42400200347
"148",-8354.40713815211
"149",-8325.13203046961
"150",-8320.95305403427
"151",-8324.62805112499
"152",-8402.0316881889
"153",-8299.58807968552
"154",-8507.59056506825
"155",-8265.13414829274
"156",-8316.77698053429
"157",-8275.64551342399
"158",-8448.38732547022
"159",-8316.63590497471
"160",-8264.27767284075
"161",-8302.70931959004
"162",-8380.62586521392
"163",-8338.96559308104
"164",-8455.38090689398
"165",-8191.80239299881
"166",-8267.22383976761
"167",-8264.83871123365
"168",-8232.00371915723
"169",-8306.55177438933
"170",-8375.99944892035
"171",-8343.25229018493
"172",-8272.906276656
"173",-8234.77150883477
"174",-8373.38942811985
"175",-8378.50926173256
"176",-8405.69673629213
"177",-8237.91077779952
"178",-8280.01965706931
"179",-8280.51891117635
"180",-8210.25495691389
"181",-8176.03578581664
"182",-8343.66348121048
"183",-8325.95097185825
"184",-8293.88588987971
"185",-8390.92549910175
"186",-8386.76239593434
"187",-8406.45759336724
"188",-8393.25522213689
"189",-8294.82537780616
"190",-8236.21149250833
"191",-8399.69813266879
"192",-8183.89533437416
"193",-8415.10371918856
"194",-8271.50562425887
"195",-8303.69744884965
"196",-8330.40168220581
"197",-8250.4089301793
"198",-8411.33850578807
"199",-8294.33648483525
"200",-8144.33345219364
"201",-8394.22248593302
"202",-8345.79403270025
"203",-8322.26678717498
"204",-8452.84142007866
"205",-8280.80011934954
"206",-8403.82531390631
"207",-8419.96165575674
"208",-8191.21962298498
"209",-8194.22500798399
"210",-8381.45578356402
"211",-8217.98966630507
"212",-8401.58360432841
"213",-8349.59230298102
"214",-8259.23947032398
"215",-8345.96273422283
"216",-8311.63943380928
"217",-8310.81388550952
"218",-8436.45044465472
"219",-8257.50455260798
"220",-8353.74831694146
"221",-8226.72928734908
"222",-8402.6887862
"223",-8418.2699315898
"224",-8332.58905789191
"225",-8294.15402576674
"226",-8403.26508669852
"227",-8323.55770917859
"228",-8190.56699024251
"229",-8306.83479709258
"230",-8358.51837630155
"231",-8276.85454608334
"232",-8378.40740641437
"233",-8336.8260239991
"234",-8327.5002092148
"235",-8293.00678603575
"236",-8290.73845493447
"237",-8363.82501129489
"238",-8367.63661698236
"239",-8370.51167594102
"240",-8300.76893982285
"241",-8286.05300622367
"242",-8267.69499872852
"243",-8327.12799509332
"244",-8297.13667084894
"245",-8350.41140470013
"246",-8317.35737060536
"247",-8330.79203150872
"248",-8243.39651295084
"249",-8456.12702433906
"250",-8287.80808645138
