"","x"
"1",16437.049483227
"2",16419.1731205006
"3",16344.8428191247
"4",16396.0779636375
"5",16660.435428275
"6",16641.2154967351
"7",17241.6567167523
"8",17168.8962950403
"9",16523.3969838931
"10",16511.0500858217
"11",16465.3337333035
"12",16499.8085514267
"13",16416.9307476541
"14",16449.4618117193
"15",16597.878446458
"16",16542.9018820883
"17",16415.0249120842
"18",17103.7583402989
"19",16282.6555296978
"20",16903.9460039374
"21",16384.3895421583
"22",17150.1627283719
"23",16345.545794294
"24",17219.2014309364
"25",16485.6941915503
"26",16219.9403671851
"27",16120.2148633919
"28",16588.1419512384
"29",16627.2759419922
"30",16516.4371826863
"31",16315.7063503845
"32",16427.4862464158
"33",16524.5413003773
"34",16298.0748280533
"35",16178.6942606007
"36",16650.7154635034
"37",16769.7497624189
"38",16309.4553812163
"39",16391.7771650159
"40",16563.5290425899
"41",16351.8506776524
"42",16502.3931345678
"43",16683.6068748931
"44",16143.8862577267
"45",17108.7641423106
"46",16558.2898381379
"47",16422.586356462
"48",16481.4883666103
"49",16274.149411689
"50",16570.8947854768
"51",16412.1667683952
"52",16435.0175108116
"53",16654.4175231023
"54",16408.3808545426
"55",16446.074382848
"56",16550.812227157
"57",16537.2787307749
"58",16600.7678617581
"59",16294.1618223483
"60",16599.3288367692
"61",16422.4567083474
"62",16863.7893621483
"63",16499.7999761541
"64",16206.190356228
"65",16485.7460780453
"66",16528.9304431586
"67",16617.2144900444
"68",16640.7093369972
"69",16677.4879674294
"70",16530.3931226894
"71",16424.3460897364
"72",16471.3355374831
"73",16620.9213445526
"74",16991.5039209237
"75",16615.8145809102
"76",16370.3068546747
"77",16466.3802975167
"78",16706.7363954636
"79",16462.6765091985
"80",16615.6905515026
"81",16521.8285586527
"82",16602.9234354173
"83",16432.4644628915
"84",16299.0500466902
"85",16273.370918678
"86",16588.2340664991
"87",16404.5156932915
"88",16326.070507392
"89",16476.2808958477
"90",16532.8874867057
"91",16496.0270954378
"92",16361.4610319627
"93",16507.245700837
"94",16678.0822975684
"95",16413.1273856072
"96",16535.8005861755
"97",16436.8940487164
"98",16750.469056806
"99",16653.0734756768
"100",16571.6942957055
"101",16511.2355293805
"102",16397.903310023
"103",16652.3180209412
"104",16612.766189021
"105",16531.8016066021
"106",16419.776829595
"107",16616.817118631
"108",16631.1226938059
"109",16754.7689309131
"110",16677.4253794287
"111",16533.8462723869
"112",16605.1771116694
"113",16569.1431644622
"114",16307.0811452309
"115",16395.5504138255
"116",16510.7575623552
"117",16288.6762601875
"118",16708.3493823232
"119",16355.6054120557
"120",16573.0031585158
"121",16479.1105666547
"122",16781.5816973936
"123",16170.615170841
"124",16100.3207621147
"125",16807.6416464096
"126",16528.6067461388
"127",16607.0689564826
"128",17220.6506913996
"129",16343.21398247
"130",16392.0520148389
"131",16457.8635353605
"132",16481.448627002
"133",16321.2682906332
"134",16573.9676082888
"135",16578.8522694651
"136",16604.2506765937
"137",16492.8371503779
"138",16939.3470044742
"139",16563.5924961002
"140",16534.144640177
"141",16370.8106603441
"142",16787.0022761237
"143",16355.9811366131
"144",16532.0197226736
"145",16547.3405647685
"146",16313.3196840105
"147",16479.4978390575
"148",16397.9959820916
"149",16511.1762854384
"150",16497.7852412576
"151",16238.9802219869
"152",16525.0137578442
"153",16539.1690689132
"154",16346.8478914519
"155",16482.3164861677
"156",16932.5029621065
"157",16385.5231705759
"158",16308.9676883906
"159",16599.0794339243
"160",16285.1211116816
"161",16641.011831921
"162",17256.117546334
"163",16427.8993024637
"164",16560.2974114709
"165",16619.7501261369
"166",16541.1916963862
"167",16462.5602627053
"168",16936.8557125413
"169",16307.2537169538
"170",16527.1200138477
"171",16554.9972202383
"172",16410.449176866
"173",16727.3725825023
"174",16588.3910429206
"175",17352.5746826817
"176",16711.6320775093
"177",16596.4631917305
"178",17354.7588747579
"179",16311.6628876612
"180",16448.1493115641
"181",16344.2309082427
"182",16540.3517476136
"183",16162.6176073641
"184",16510.3286453033
"185",16630.667065063
"186",16542.7603402454
"187",16328.3114267597
"188",16564.9429430518
"189",16444.4178152325
"190",16958.5815075874
"191",16691.1588034005
"192",17139.2478995322
"193",16266.2810387577
"194",16124.9251228562
"195",16587.0512606308
"196",16429.7473743875
"197",16627.432548298
"198",16621.5323339736
"199",16598.7345358021
"200",16314.4886359362
"201",16605.4311459949
"202",16738.8509609913
"203",16459.0652119737
"204",16610.5105199643
"205",16443.894906321
"206",16719.737544733
"207",16215.5671847959
"208",16955.8008121613
"209",16582.1299523832
"210",16561.9467017192
"211",16485.6310768743
"212",16541.8407025665
"213",16218.9452101404
"214",16450.6123406767
"215",16525.1396319032
"216",17110.7899462416
"217",16691.813814815
"218",16912.6437322313
"219",16606.199959289
"220",16588.0772877121
"221",16338.5579225772
"222",16481.4404490847
"223",16463.378574337
"224",16343.8918816281
"225",16453.5885463316
"226",16214.4831820681
"227",16530.9118851801
"228",16347.1946482961
"229",16882.1894287519
"230",16558.1207092095
"231",16385.1447725899
"232",16372.366827033
"233",16716.1007935936
"234",16363.12084996
"235",16583.8612854665
"236",16307.1909679893
"237",16526.5088924238
"238",16423.9005399446
"239",16627.6994476137
"240",16388.1170749932
"241",16518.181806858
"242",16468.7845966053
"243",16335.0550537528
"244",16607.1170408897
"245",17107.3917739529
"246",16394.2657646727
"247",16439.2457058089
"248",16411.4644949247
"249",16512.7902438009
"250",16445.0189932827
