"","V1","V2","V3","V4","V5","V6","V7","V8","V9","V10","V11","V12"
"1",0.027,0.048,0.371,0.013,0.004,0.532,0.015,0.002,0.494,0.015,0,0.589
"2",0.016,0.01,0.475,0,0.007,0.561,0.008,0.003,0.497,0,0,0.621
"3",0.005,0,0.47,0,0,0.565,0,0,0.5,0,0,0.617
"4",0.008,0.007,0.448,0.001,0.012,0.569,0.001,0.087,0.5,0,0,0.629
"5",0.004,0.006,0.41,0.007,0.006,0.512,0.021,0.004,0.491,0.007,0.038,0.582
"6",0,0,0.416,0,0,0.576,0.002,0,0.501,0.025,0,0.581
"7",0.073,0.005,0.01,0.214,0.005,0.015,0.069,0.002,0.498,0.032,0.002,0.57
"8",0.008,0.197,0.002,0.058,0.317,0.003,0.03,0.041,0.49,0.003,0.025,0.627
"9",0.009,0.001,0.46,0.001,0.013,0.503,0.002,0.011,0.497,0,0.001,0.607
"10",0,0.026,0.424,0,0,0.546,0,0.033,0.5,0,0.001,0.608
"11",0.028,0.017,0.406,0.015,0.01,0.553,0.023,0.02,0.483,0.012,0.011,0.592
"12",0.002,0,0.42,0.012,0,0.563,0.006,0.003,0.499,0.001,0.001,0.595
"13",0.025,0.006,0.35,0.026,0.001,0.583,0.05,0,0.489,0.001,0.003,0.594
"14",0,0,0.405,0,0,0.517,0,0,0.497,0,0.005,0.606
"15",0.008,0.01,0.453,0.04,0,0.516,0,0,0.499,0.003,0.029,0.562
"16",0.013,0,0.453,0.027,0,0.579,0.091,0.009,0.473,0.021,0.011,0.565
"17",0.001,0,0.432,0,0,0.53,0.026,0,0.497,0.019,0,0.608
"18",0.116,0,0.001,0.183,0,0.001,0.039,0.028,0.455,0.012,0.005,0.6
"19",0.004,0.005,0.462,0.01,0.01,0.498,0.003,0.004,0.495,0.003,0,0.601
"20",0.022,0.2,0.001,0.045,0.327,0.001,0.027,0.003,0.497,0.012,0.004,0.577
"21",0.001,0.036,0.406,0,0.012,0.526,0.045,0,0.504,0.002,0,0.582
"22",0.002,0.02,0.476,0,0.024,0.574,0,0.353,0,0,0.255,0
"23",0.001,0.001,0.42,0.01,0.001,0.565,0.001,0.043,0.484,0,0.001,0.62
"24",0.009,0.012,0,0.201,0.021,0,0.042,0.004,0.492,0.015,0.004,0.569
"25",0.001,0,0.503,0.003,0,0.568,0.002,0.001,0.5,0.013,0.001,0.59
"26",0.001,0.002,0.488,0.001,0,0.537,0,0.026,0.491,0.011,0.014,0.603
"27",0.006,0.007,0.446,0.023,0.01,0.57,0.085,0.002,0.499,0.056,0.002,0.557
"28",0.004,0.004,0.469,0.011,0.004,0.525,0.033,0.018,0.481,0.003,0.014,0.608
"29",0.012,0,0.484,0.029,0,0.513,0,0.001,0.507,0,0,0.595
"30",0,0,0.434,0.002,0.001,0.568,0.003,0.113,0.466,0.047,0.02,0.534
"31",0.001,0.001,0.438,0.005,0.002,0.559,0.001,0.006,0.498,0,0.003,0.602
"32",0.004,0.002,0.488,0.037,0.002,0.498,0.028,0.001,0.498,0.003,0.001,0.604
"33",0.01,0.007,0.471,0.029,0.008,0.479,0.036,0.021,0.497,0.034,0.039,0.58
"34",0.001,0.001,0.411,0,0,0.532,0,0.016,0.482,0,0,0.592
"35",0.016,0.011,0.422,0.004,0.011,0.538,0.019,0.006,0.492,0.003,0.008,0.594
"36",0.003,0.005,0.443,0.012,0.002,0.551,0.003,0.008,0.497,0.014,0.006,0.601
"37",0.053,0.199,0.006,0.058,0.327,0.007,0.053,0.046,0.48,0.016,0.014,0.574
"38",0,0.001,0.445,0,0,0.604,0,0,0.505,0.002,0.021,0.573
"39",0.014,0.008,0.426,0.017,0.026,0.523,0.001,0.002,0.5,0.009,0.007,0.602
"40",0,0,0.454,0.005,0.001,0.525,0,0,0.498,0.02,0.037,0.578
"41",0.002,0.01,0.445,0.046,0.014,0.513,0.062,0.006,0.499,0.023,0.007,0.567
"42",0.006,0.028,0.451,0.007,0.011,0.534,0.011,0.014,0.491,0,0.022,0.621
"43",0.016,0.214,0.004,0.063,0.307,0.005,0.058,0.016,0.497,0.008,0.026,0.601
"44",0.005,0.012,0.403,0.002,0,0.537,0,0.006,0.499,0,0.001,0.608
"45",0.005,0.014,0.012,0.213,0.017,0.015,0.037,0.003,0.497,0.026,0.003,0.6
"46",0.019,0.043,0.485,0.025,0.03,0.558,0.041,0.003,0.497,0.019,0.003,0.61
"47",0,0,0.44,0.008,0.027,0.539,0.002,0,0.529,0.005,0,0.576
"48",0.001,0.021,0.431,0.001,0.004,0.574,0.002,0,0.5,0,0,0.64
"49",0.001,0,0.432,0.001,0,0.574,0.018,0.055,0.489,0.002,0,0.595
"50",0.001,0.023,0.478,0.002,0.018,0.513,0,0,0.503,0.005,0.001,0.61
"51",0,0.008,0.422,0.009,0.014,0.525,0.012,0.003,0.497,0.002,0.005,0.615
"52",0.001,0.001,0.469,0.012,0,0.524,0.002,0.002,0.504,0.001,0.019,0.576
"53",0.052,0,0.467,0.063,0,0.522,0.04,0.002,0.5,0.05,0.002,0.563
"54",0,0.033,0.416,0.001,0,0.575,0.057,0.013,0.492,0,0,0.592
"55",0.001,0,0.428,0.001,0.025,0.522,0.001,0.001,0.503,0,0.015,0.57
"56",0,0.001,0.456,0.017,0.001,0.541,0.016,0.003,0.499,0.004,0.003,0.598
"57",0.001,0,0.42,0,0,0.521,0.001,0.027,0.474,0.049,0,0.595
"58",0,0,0.482,0,0,0.507,0.022,0,0.487,0.032,0,0.574
"59",0.007,0.001,0.457,0.001,0.012,0.54,0.041,0.001,0.484,0,0.013,0.57
"60",0,0.001,0.43,0,0.001,0.564,0.007,0,0.512,0,0,0.583
"61",0.026,0.001,0.462,0,0.05,0.502,0.001,0.006,0.495,0.005,0,0.627
"62",0.001,0.276,0.001,0.003,0.389,0.001,0.032,0.004,0.495,0.001,0.005,0.595
"63",0.002,0.004,0.431,0.003,0,0.516,0.001,0.001,0.504,0.004,0.004,0.601
"64",0.001,0.002,0.433,0.009,0.003,0.561,0.004,0.069,0.453,0.005,0.001,0.607
"65",0.026,0.004,0.433,0.003,0.002,0.543,0.001,0.001,0.5,0.003,0.003,0.598
"66",0.004,0.002,0.408,0.018,0.001,0.564,0.005,0.048,0.5,0.005,0.001,0.618
"67",0.012,0.001,0.446,0.009,0.001,0.534,0.014,0.008,0.498,0.009,0.008,0.578
"68",0.01,0.002,0.513,0.033,0.002,0.517,0.052,0.009,0.476,0.016,0.009,0.588
"69",0.001,0,0.442,0,0,0.58,0,0.01,0.488,0.002,0,0.605
"70",0.012,0.152,0.004,0.012,0.335,0.005,0.071,0.026,0.498,0.026,0.048,0.529
"71",0.019,0.002,0.431,0.001,0.022,0.506,0,0.001,0.511,0.002,0.001,0.606
"72",0,0.003,0.438,0,0,0.515,0,0.005,0.517,0,0.002,0.572
"73",0.008,0.02,0.441,0.019,0.013,0.536,0.01,0.01,0.497,0.004,0.003,0.582
"74",0.049,0.192,0.004,0.065,0.286,0.004,0.017,0.001,0.5,0.002,0.001,0.6
"75",0.009,0.008,0.405,0.014,0.008,0.522,0.009,0.048,0.478,0.006,0.007,0.598
"76",0.002,0.017,0.414,0.011,0.018,0.554,0.019,0.033,0.482,0.004,0.015,0.583
"77",0.019,0.001,0.437,0.001,0.001,0.584,0.047,0,0.492,0.015,0.001,0.588
"78",0.002,0.006,0.452,0.001,0.008,0.583,0.003,0.003,0.499,0,0.002,0.613
"79",0.012,0.019,0.437,0.041,0.023,0.507,0.039,0.008,0.499,0.033,0.01,0.583
"80",0.006,0.019,0.402,0.026,0.021,0.476,0.024,0.001,0.497,0.023,0.001,0.585
"81",0.021,0.001,0.456,0.006,0,0.582,0.004,0.009,0.496,0.001,0.002,0.585
"82",0.037,0.009,0.384,0,0.002,0.572,0,0.03,0.495,0.001,0.003,0.578
"83",0.013,0.034,0.424,0.001,0.002,0.559,0.004,0.002,0.5,0.009,0.054,0.547
"84",0.028,0.002,0.403,0.021,0,0.524,0.001,0.001,0.501,0.003,0.029,0.581
"85",0.001,0,0.45,0,0,0.559,0.019,0.007,0.502,0.001,0.001,0.611
"86",0,0,0.458,0,0.001,0.554,0,0,0.531,0.009,0.025,0.584
"87",0,0,0.448,0.002,0.023,0.504,0,0,0.491,0.002,0.026,0.553
"88",0.001,0,0.446,0.001,0.001,0.511,0.03,0.008,0.492,0,0,0.604
"89",0.038,0.013,0.435,0.001,0.002,0.555,0.091,0.035,0.479,0,0,0.576
"90",0.036,0,0.438,0,0.059,0.516,0.001,0,0.465,0,0.001,0.618
"91",0.001,0.052,0.359,0.002,0.037,0.509,0.023,0.024,0.477,0.026,0.053,0.573
"92",0.027,0.001,0.449,0,0.001,0.551,0,0.002,0.498,0.001,0.001,0.593
"93",0.017,0.031,0.421,0.022,0.02,0.541,0.053,0.026,0.473,0.004,0.005,0.581
"94",0.024,0.024,0.397,0.02,0.029,0.483,0.013,0.01,0.499,0.014,0.008,0.576
"95",0.003,0.008,0.441,0.001,0.001,0.539,0.001,0,0.499,0,0,0.59
"96",0.018,0.008,0.396,0.041,0.001,0.535,0.009,0.001,0.499,0.022,0.004,0.578
"97",0.005,0.004,0.433,0.006,0.001,0.577,0.015,0.02,0.487,0.004,0.004,0.636
"98",0.001,0.008,0.496,0.005,0.008,0.511,0.026,0.003,0.488,0.031,0.004,0.569
"99",0,0,0.428,0,0,0.561,0,0,0.515,0,0.027,0.575
"100",0.004,0.001,0.406,0.044,0.001,0.531,0.068,0.012,0.487,0.018,0.019,0.591
"101",0.059,0.08,0.4,0.025,0.047,0.53,0.031,0.116,0.479,0.002,0.006,0.621
"102",0.021,0.008,0.396,0.005,0.001,0.547,0.066,0.024,0.491,0.006,0.007,0.599
"103",0.001,0.017,0.427,0,0.001,0.533,0,0,0.504,0.005,0,0.591
"104",0.008,0.005,0.474,0,0,0.57,0.048,0,0.496,0,0,0.604
"105",0.002,0.001,0.413,0.001,0,0.589,0.001,0,0.496,0.029,0.004,0.586
"106",0.007,0.004,0.42,0.009,0.004,0.54,0.068,0.004,0.492,0.002,0.006,0.588
"107",0,0.003,0.45,0.003,0.003,0.576,0.005,0.012,0.497,0.006,0.005,0.596
"108",0.001,0.002,0.441,0.04,0.008,0.553,0.005,0.002,0.501,0.001,0.03,0.574
"109",0.006,0,0.428,0,0,0.559,0,0.014,0.493,0,0.002,0.608
"110",0.012,0.005,0.448,0.006,0.004,0.502,0,0.004,0.5,0.002,0.009,0.59
"111",0,0.018,0.407,0,0,0.523,0,0.019,0.499,0.007,0.008,0.606
"112",0.002,0,0.503,0,0,0.561,0,0,0.487,0.003,0.033,0.602
"113",0,0.009,0.398,0,0.001,0.548,0,0.017,0.502,0,0.001,0.6
"114",0.001,0.007,0.417,0.016,0.001,0.51,0.003,0.001,0.483,0.019,0,0.593
"115",0.001,0.074,0.386,0,0,0.623,0.023,0.015,0.492,0.002,0.001,0.596
"116",0.064,0,0.361,0.042,0,0.494,0.001,0,0.481,0.023,0.002,0.585
"117",0.006,0.003,0.498,0.007,0.005,0.517,0.009,0.014,0.5,0.009,0.008,0.601
"118",0.002,0.036,0.444,0.002,0.01,0.548,0.001,0.016,0.5,0.002,0.089,0.492
"119",0,0,0.469,0.001,0.001,0.555,0.053,0.022,0.467,0.017,0.001,0.578
"120",0.001,0,0.43,0.005,0,0.558,0.032,0.001,0.497,0.012,0.002,0.615
"121",0.026,0.001,0.454,0,0,0.553,0,0,0.507,0,0.015,0.595
"122",0.006,0.194,0.006,0.013,0.301,0.008,0.039,0.025,0.498,0.02,0.023,0.566
"123",0.026,0,0.392,0.05,0,0.531,0,0.001,0.505,0.011,0.009,0.597
"124",0.001,0.005,0.43,0.001,0.017,0.559,0,0.023,0.488,0.012,0,0.585
"125",0.011,0.27,0.002,0.016,0.256,0.004,0.046,0.035,0.479,0.008,0.016,0.596
"126",0,0,0.471,0,0,0.619,0.027,0,0.483,0.013,0.004,0.585
"127",0.001,0,0.396,0.001,0,0.541,0,0.05,0.5,0.001,0,0.57
"128",0.171,0.001,0.002,0.188,0.001,0.002,0.006,0.016,0.499,0.02,0.03,0.6
"129",0.014,0.003,0.402,0.038,0.021,0.47,0.013,0.004,0.495,0.001,0.001,0.59
"130",0,0,0.406,0.028,0.011,0.537,0.014,0,0.496,0,0.027,0.564
"131",0.002,0,0.463,0.009,0,0.49,0.011,0.028,0.481,0.018,0.011,0.595
"132",0,0.026,0.452,0.008,0.006,0.568,0.003,0.008,0.499,0.003,0.006,0.64
"133",0.001,0.064,0.422,0.011,0.035,0.524,0.055,0.022,0.5,0.02,0.026,0.594
"134",0,0,0.462,0.001,0.046,0.478,0,0,0.496,0,0.02,0.598
"135",0.03,0.029,0.414,0.031,0.019,0.522,0.053,0.002,0.477,0.009,0.002,0.596
"136",0.001,0.045,0.399,0.002,0.007,0.541,0.042,0.003,0.454,0.014,0.004,0.639
"137",0,0.013,0.442,0,0,0.544,0.051,0,0.495,0.034,0.001,0.571
"138",0.003,0.187,0,0.003,0.343,0,0.003,0.001,0.497,0.002,0.002,0.568
"139",0,0,0.435,0,0.003,0.486,0,0.008,0.497,0.001,0.001,0.606
"140",0.003,0.001,0.432,0,0.001,0.514,0.028,0.001,0.477,0.013,0.002,0.572
"141",0.029,0,0.453,0.022,0.001,0.53,0,0.032,0.495,0.001,0.002,0.596
"142",0,0,0.417,0,0.001,0.544,0,0,0.517,0,0.001,0.604
"143",0.004,0.007,0.452,0.009,0.012,0.562,0.015,0.027,0.499,0.002,0.007,0.585
"144",0,0,0.424,0,0.054,0.515,0,0,0.518,0,0,0.587
"145",0.007,0.025,0.425,0.001,0,0.502,0,0,0.498,0,0,0.605
"146",0.004,0.007,0.431,0,0.046,0.512,0.016,0,0.486,0.001,0.072,0.54
"147",0.007,0.015,0.456,0.024,0.017,0.47,0.06,0.002,0.494,0.028,0.002,0.589
"148",0,0.006,0.441,0.025,0.008,0.546,0.001,0.014,0.504,0,0,0.61
"149",0,0.003,0.475,0,0,0.607,0,0,0.502,0.001,0.001,0.602
"150",0.016,0.04,0.397,0.01,0.007,0.586,0.009,0.009,0.499,0.002,0.001,0.58
"151",0,0,0.492,0,0.003,0.565,0.001,0.013,0.499,0.002,0.001,0.596
"152",0.021,0.001,0.4,0.001,0,0.545,0.001,0.012,0.503,0,0.001,0.626
"153",0.002,0,0.5,0,0,0.591,0.077,0,0.464,0,0,0.604
"154",0.015,0.021,0.392,0.013,0.018,0.596,0.041,0,0.497,0,0,0.584
"155",0.001,0.002,0.408,0.028,0.001,0.567,0.069,0,0.467,0.003,0.001,0.582
"156",0.144,0,0,0.183,0,0,0.013,0.014,0.497,0.003,0.005,0.563
"157",0.007,0.015,0.47,0.005,0.009,0.573,0.016,0.01,0.491,0.011,0.011,0.612
"158",0.004,0.005,0.442,0.011,0,0.582,0,0,0.487,0.006,0.01,0.551
"159",0.01,0.001,0.391,0,0,0.58,0.006,0,0.483,0,0.001,0.599
"160",0.035,0.003,0.41,0.002,0.002,0.566,0,0,0.514,0.002,0.026,0.61
"161",0.014,0.004,0.418,0.016,0.004,0.388,0.016,0.002,0.499,0.01,0.002,0.614
"162",0.034,0.169,0.018,0.063,0.32,0.008,0,0,0.5,0,0,0.631
"163",0.001,0,0.431,0,0,0.553,0.001,0,0.506,0.015,0,0.622
"164",0.002,0.062,0.414,0.015,0.001,0.528,0,0,0.504,0,0.002,0.589
"165",0,0,0.431,0,0.001,0.572,0,0.023,0.491,0,0.006,0.594
"166",0,0,0.41,0,0.002,0.587,0,0,0.479,0.001,0.024,0.608
"167",0.017,0.054,0.406,0.017,0.019,0.505,0.015,0.042,0.481,0.013,0.016,0.582
"168",0.004,0.172,0.001,0.002,0.31,0.001,0.024,0.005,0.487,0,0.003,0.614
"169",0,0,0.495,0.02,0.028,0.507,0,0,0.521,0,0,0.585
"170",0,0,0.409,0.054,0.008,0.489,0.045,0,0.463,0,0.043,0.549
"171",0.001,0.002,0.433,0.001,0.006,0.546,0.021,0.016,0.497,0,0.002,0.609
"172",0,0,0.422,0,0,0.568,0,0,0.504,0,0,0.592
"173",0.003,0.002,0.438,0.023,0.002,0.532,0.028,0.055,0.487,0.008,0.046,0.599
"174",0,0.038,0.436,0.02,0,0.566,0,0,0.494,0,0,0.584
"175",0.17,0.001,0.01,0.093,0.001,0.008,0.004,0.017,0.489,0.008,0.008,0.548
"176",0.012,0.007,0.404,0.006,0.009,0.548,0.029,0.011,0.477,0.012,0.002,0.607
"177",0.002,0.023,0.436,0.002,0.005,0.557,0.062,0.001,0.467,0.005,0,0.578
"178",0.148,0,0.003,0.24,0,0.004,0.036,0.017,0.482,0.02,0.022,0.554
"179",0.028,0,0.469,0.003,0,0.528,0.002,0.001,0.493,0.001,0.001,0.611
"180",0,0.001,0.459,0.021,0.001,0.542,0.011,0.002,0.5,0.001,0,0.577
"181",0.034,0,0.432,0,0,0.542,0,0,0.506,0,0.041,0.577
"182",0,0.001,0.498,0,0.037,0.523,0.03,0.002,0.484,0.001,0.015,0.562
"183",0,0.001,0.501,0,0,0.53,0,0.002,0.456,0,0.001,0.587
"184",0.02,0,0.443,0,0.028,0.526,0,0.034,0.49,0,0,0.603
"185",0,0,0.432,0,0,0.545,0.048,0,0.493,0,0,0.601
"186",0,0.015,0.395,0,0.006,0.603,0,0,0.508,0.039,0,0.579
"187",0.011,0.003,0.462,0.002,0.001,0.563,0,0.001,0.504,0,0.014,0.573
"188",0.001,0.052,0.408,0.001,0.023,0.567,0,0.001,0.486,0.001,0.001,0.565
"189",0,0,0.478,0,0.001,0.562,0.05,0,0.474,0,0,0.609
"190",0.071,0.007,0.009,0.165,0.008,0.011,0.05,0.004,0.497,0.034,0.004,0.592
"191",0.001,0.012,0.476,0.025,0.002,0.526,0.012,0.002,0.514,0,0.002,0.606
"192",0,0.044,0.376,0,0.024,0.541,0.002,0.332,0,0,0.356,0
"193",0.002,0.032,0.42,0.001,0.004,0.529,0.008,0.009,0.474,0,0,0.591
"194",0,0,0.416,0.006,0.007,0.558,0.038,0,0.503,0,0.024,0.567
"195",0.006,0.009,0.429,0.004,0.006,0.535,0.009,0.002,0.499,0.003,0.003,0.588
"196",0,0.008,0.437,0,0.045,0.513,0.005,0,0.503,0.001,0.001,0.553
"197",0.015,0.001,0.41,0.009,0.001,0.561,0.008,0.009,0.499,0.008,0.008,0.575
"198",0.044,0.056,0.401,0.006,0.112,0.419,0.047,0.018,0.497,0.017,0.024,0.576
"199",0,0,0.49,0.002,0,0.55,0,0.014,0.498,0,0,0.622
"200",0.041,0.002,0.419,0,0.001,0.538,0.002,0.001,0.499,0.015,0.002,0.617
"201",0.001,0.003,0.464,0.021,0.004,0.551,0.007,0.006,0.499,0.007,0.01,0.594
"202",0.01,0.005,0.45,0.014,0.005,0.528,0.021,0.01,0.5,0.008,0.013,0.557
"203",0.002,0.035,0.445,0,0.002,0.524,0.001,0.001,0.502,0,0.001,0.591
"204",0.019,0.012,0.398,0.023,0.014,0.535,0.03,0.015,0.499,0.015,0.014,0.573
"205",0,0,0.477,0,0.001,0.552,0.004,0,0.495,0.002,0,0.58
"206",0,0,0.479,0.002,0.001,0.564,0.019,0.01,0.494,0.002,0.001,0.573
"207",0,0,0.513,0.001,0.001,0.576,0,0,0.503,0,0,0.593
"208",0.154,0.005,0.003,0.257,0.005,0.004,0.06,0.015,0.491,0.038,0.019,0.577
"209",0.01,0.017,0.447,0.004,0.037,0.575,0.012,0.054,0.479,0.008,0.002,0.601
"210",0.013,0.026,0.45,0.021,0.048,0.512,0.038,0.022,0.498,0.002,0.004,0.595
"211",0.001,0.002,0.434,0.014,0,0.559,0,0,0.478,0,0,0.578
"212",0.001,0.016,0.456,0,0.001,0.55,0,0,0.483,0.029,0,0.588
"213",0,0,0.453,0,0.001,0.544,0,0,0.49,0,0,0.586
"214",0.003,0.014,0.472,0.02,0.031,0.481,0.033,0.01,0.494,0.017,0.012,0.555
"215",0.015,0.019,0.375,0.02,0.018,0.516,0.007,0.002,0.496,0.034,0.003,0.587
"216",0.053,0.17,0.011,0.026,0.337,0.009,0.088,0.004,0.494,0.046,0.004,0.564
"217",0.005,0.003,0.383,0.021,0.003,0.518,0.014,0.015,0.5,0.01,0.011,0.571
"218",0,0.001,0.437,0,0.001,0.562,0,0,0.501,0,0.01,0.624
"219",0.006,0.013,0.439,0.021,0.013,0.52,0.044,0.058,0.496,0.001,0.004,0.611
"220",0,0,0.453,0.027,0.001,0.523,0,0.019,0.488,0.007,0.02,0.575
"221",0.01,0.031,0.414,0.003,0.004,0.528,0.019,0.005,0.494,0.006,0,0.569
"222",0.009,0.02,0.451,0.009,0.022,0.537,0.01,0.003,0.497,0.003,0.003,0.618
"223",0,0,0.504,0.031,0.008,0.479,0,0.001,0.498,0.05,0.001,0.608
"224",0.002,0.009,0.427,0.005,0.006,0.568,0.02,0.004,0.5,0.004,0.004,0.583
"225",0.039,0.042,0.362,0.015,0.028,0.516,0.012,0.002,0.5,0.004,0.003,0.578
"226",0.001,0.029,0.477,0.003,0,0.524,0.002,0.052,0.474,0.014,0.018,0.554
"227",0.003,0.002,0.453,0.002,0.002,0.529,0.002,0.025,0.49,0,0,0.603
"228",0.017,0.001,0.456,0.001,0.002,0.591,0.001,0.02,0.506,0.004,0.035,0.596
"229",0.005,0.012,0.443,0.008,0.01,0.561,0.023,0.063,0.488,0.007,0.003,0.61
"230",0.001,0.059,0.392,0.006,0.006,0.568,0,0.001,0.504,0,0,0.614
"231",0.027,0.013,0.472,0.033,0.018,0.506,0.031,0.003,0.487,0.014,0.004,0.589
"232",0.008,0.064,0.396,0.007,0.001,0.516,0.026,0.021,0.5,0.002,0.002,0.617
"233",0,0,0.467,0,0.039,0.543,0,0,0.499,0,0,0.626
"234",0.001,0.035,0.44,0.011,0.002,0.502,0,0.019,0.492,0.002,0,0.581
"235",0.015,0,0.392,0,0,0.531,0.001,0,0.489,0,0,0.6
"236",0.002,0.001,0.427,0.005,0.005,0.555,0.001,0.002,0.534,0.001,0.002,0.569
"237",0,0,0.412,0,0.069,0.552,0,0,0.507,0.001,0,0.589
"238",0.038,0.012,0.391,0.008,0.011,0.529,0.025,0.029,0.494,0.001,0.021,0.602
"239",0.001,0.028,0.452,0.009,0.051,0.529,0.042,0.022,0.454,0.017,0.021,0.577
"240",0,0,0.412,0.001,0.001,0.553,0.008,0.079,0.459,0.005,0.004,0.59
"241",0.031,0.013,0.425,0.014,0.006,0.495,0.017,0.013,0.497,0.018,0.006,0.58
"242",0.018,0.03,0.442,0.019,0.04,0.53,0.011,0.007,0.498,0.009,0.008,0.572
"243",0.013,0.002,0.474,0.001,0.008,0.5,0.004,0,0.499,0.003,0.003,0.59
"244",0.001,0,0.494,0.038,0.01,0.531,0.003,0.026,0.498,0.011,0.003,0.596
"245",0.037,0.226,0.005,0.023,0.283,0.006,0.049,0.017,0.478,0.01,0.022,0.592
"246",0.017,0.002,0.459,0.021,0.003,0.541,0.021,0.016,0.491,0,0.001,0.576
"247",0.002,0.035,0.442,0.048,0.003,0.531,0.016,0.002,0.5,0.005,0.004,0.572
"248",0.026,0.002,0.473,0.001,0,0.568,0.023,0.059,0.454,0,0.001,0.593
"249",0.001,0.001,0.503,0.002,0.004,0.524,0.015,0.002,0.5,0.005,0.002,0.59
"250",0.02,0.009,0.452,0.005,0.009,0.535,0.052,0.014,0.497,0.036,0.02,0.538
