"","x"
"1",860.874809244159
"2",834.604607671777
"3",836.368187673785
"4",839.526675161577
"5",850.08276029873
"6",853.565498342182
"7",800.665180557291
"8",805.223421336581
"9",842.099915499272
"10",829.598949715919
"11",845.785868898278
"12",781.102993761643
"13",867.564797095855
"14",813.918047259069
"15",866.219799732678
"16",841.623781045224
"17",766.024379736215
"18",914.647928974095
"19",821.761675093915
"20",824.755361545743
"21",798.940077223079
"22",773.211538462146
"23",839.387020164151
"24",789.744781296195
"25",771.040725838742
"26",871.990973310852
"27",909.720706138034
"28",858.641426086849
"29",819.709250890019
"30",778.24527746085
"31",851.996305558247
"32",798.314708194503
"33",788.140135389899
"34",838.321088563866
"35",812.22168038817
"36",804.462091019486
"37",865.282863217577
"38",873.597284216826
"39",808.232538041367
"40",846.214609063505
"41",815.830743972298
"42",832.187409311019
"43",767.689384173544
"44",881.83945215055
"45",806.46666449533
"46",808.374367778905
"47",818.81387605499
"48",853.886064814144
"49",819.227896410239
"50",853.801748106919
"51",835.371393460836
"52",859.719189860282
"53",810.003522272592
"54",865.526079739197
"55",882.086908093186
"56",786.670605429558
"57",899.531568026077
"58",816.201224884798
"59",845.969377203725
"60",824.538108908177
"61",799.385717952381
"62",866.030997102269
"63",836.198802266275
"64",831.177224653919
"65",847.921222089327
"66",905.123927978841
"67",845.147308978442
"68",801.433728072484
"69",803.887484209723
"70",835.874744637507
"71",875.028651884454
"72",785.451142617107
"73",866.194227545543
"74",865.12481110584
"75",861.000310793213
"76",841.438630035295
"77",832.091152603904
"78",862.369413229506
"79",788.147298588747
"80",860.932746512056
"81",777.228939337498
"82",868.917308191961
"83",809.260630374743
"84",851.414383135642
"85",817.09196232071
"86",841.776384751247
"87",858.239797989896
"88",829.488593365178
"89",849.920810009916
"90",857.568492975285
"91",850.561224956992
"92",857.444312895991
"93",865.985867791931
"94",838.151461623166
"95",838.379494027305
"96",855.765574561528
"97",807.672363639182
"98",789.330530995398
"99",802.259950841328
"100",837.206023663168
"101",843.187668379972
"102",832.249020038569
"103",827.352603588291
"104",844.339868416192
"105",892.660809218356
"106",805.47954153026
"107",860.504527923973
"108",804.86724592811
"109",857.540923056966
"110",738.5213637308
"111",836.540567232952
"112",832.531677200614
"113",786.976646333154
"114",807.815233225823
"115",857.746937555246
"116",820.387781138587
"117",854.445151972292
"118",797.394973838583
"119",830.03027228115
"120",845.77427094919
"121",841.997401649514
"122",871.725656416906
"123",845.815186014467
"124",830.223802527422
"125",851.22836337036
"126",896.152240038819
"127",829.181724630025
"128",852.363479739699
"129",802.593117039697
"130",847.986441479158
"131",874.344953765916
"132",856.630633089593
"133",820.677946633952
"134",887.298414714012
"135",871.7964088994
"136",907.583892010816
"137",837.253486659271
"138",811.950984921367
"139",886.217505859422
"140",848.501834635071
"141",806.398177673432
"142",866.612927411125
"143",841.231950739252
"144",828.835038252602
"145",856.097169448902
"146",815.737978618975
"147",801.460428724
"148",854.949356706392
"149",812.145036354062
"150",814.49904873462
"151",848.985026381934
"152",835.526053367869
"153",842.070441161096
"154",855.2605761532
"155",866.086037219429
"156",811.337573098501
"157",776.647795810774
"158",827.740756002354
"159",930.813180240162
"160",814.948887968734
"161",829.174280355897
"162",849.891894557366
"163",878.488459471233
"164",769.778243570399
"165",817.559888723528
"166",814.051245041275
"167",841.655551485485
"168",846.480353283046
"169",818.400676350914
"170",786.742156106907
"171",841.709645482871
"172",911.540039422904
"173",888.720255740526
"174",922.962479711262
"175",843.924440672502
"176",830.238866524594
"177",817.600268967718
"178",849.723696604245
"179",865.543910745095
"180",877.92450907723
"181",845.642478211036
"182",857.657695376533
"183",854.254784277664
"184",825.899327548398
"185",887.114381347228
"186",881.10236114407
"187",895.980392916082
"188",869.220667909866
"189",887.490900631186
"190",862.506402292172
"191",843.707155172731
"192",818.960075558977
"193",842.438498385125
"194",797.291637711262
"195",786.906586236495
"196",855.40815065813
"197",848.288522878648
"198",815.90495170798
"199",845.637627067662
"200",822.110877183718
"201",852.979675354323
"202",799.282383660017
"203",805.25599372506
"204",843.664966122032
"205",811.972829048022
"206",830.176389390608
"207",858.482097730503
"208",897.463479104624
"209",876.222646479625
"210",860.397510861842
"211",821.930446853782
"212",809.584808222915
"213",849.673780551191
"214",900.421762307374
"215",799.757920221213
"216",822.845851932278
"217",823.853297271013
"218",801.403653863784
"219",833.049909143026
"220",917.197576688955
"221",904.752909044173
"222",890.696598655416
"223",858.033713772977
"224",880.521790924254
"225",840.914728844272
"226",918.821551197037
"227",877.605027782272
"228",760.912258408282
"229",795.263256995444
"230",856.14016950043
"231",843.64608955697
"232",886.84046711845
"233",838.324040562208
"234",894.338996300641
"235",878.091842144177
"236",852.014200621401
"237",920.324940606234
"238",854.011493021939
"239",804.029245513272
"240",799.600402357436
"241",848.429107011845
"242",887.726483807042
"243",859.775140206519
"244",839.647173740469
"245",850.013911502392
"246",835.248508145386
"247",796.61332580595
"248",868.569125135547
"249",849.478344051709
"250",881.746129487242
