"","x"
"1",16.8100601991018
"2",33.0204686164856
"3",56.502718369166
"4",1.27504487388664
"5",17.1780938863754
"6",22.5352832833926
"7",50.0393153309822
"8",1.2719791016976
"9",17.1179557005564
"10",21.063239300251
"11",30.2862241983414
"12",1.35382223996851
"13",16.3678787986437
"14",20.7818409164747
"15",30.163533715407
"16",42.2662858009338
