"","x"
"1",17213.2899525275
"2",16879.7518585678
"3",17065.072367693
"4",17195.6123730198
"5",16793.0580595328
"6",17002.4005576573
"7",17140.5830669515
"8",16884.0934778593
"9",16885.4956882201
"10",17246.2713521414
"11",17034.4156276118
"12",17234.2534805036
"13",16834.8864459703
"14",17053.1113147825
"15",17021.2484099838
"16",17213.5133479224
"17",16667.6015669986
"18",17170.2508856701
"19",16985.4434187564
"20",17133.8930022298
"21",16873.6372735559
"22",17041.8308035528
"23",17215.5341393803
"24",17142.4069332935
"25",16939.4700439619
"26",16759.5913012078
"27",17207.0861930969
"28",17133.7653812428
"29",17280.4302082198
"30",17302.0699020536
"31",17060.3417730332
"32",16915.7352962309
"33",16733.1728681592
"34",17021.5590592378
"35",17009.2864930641
"36",17092.1430812206
"37",16874.2372583511
"38",17095.581873223
"39",16966.830548861
"40",17117.1579692938
"41",17056.1134077819
"42",17079.2131534215
"43",16850.0536987313
"44",16937.3593390977
"45",17088.6715822744
"46",17188.8559355869
"47",16771.7235496311
"48",16756.588737394
"49",17127.6874752686
"50",16891.9956668413
"51",17147.6509087155
"52",16684.9392890722
"53",16987.0159778982
"54",17064.1453753496
"55",17095.8269183933
"56",17022.4503102175
"57",16801.4770291867
"58",16929.3254705295
"59",17012.6651402334
"60",16775.0754129358
"61",17301.7830214409
"62",17143.5438915893
"63",16890.4661975634
"64",16874.5202516678
"65",17150.9909110656
"66",17024.1704658569
"67",16924.1659448441
"68",17067.4099973176
"69",17010.1212453819
"70",17121.9786941153
"71",17348.9546767353
"72",17030.250888923
"73",17017.6047053315
"74",16922.7163882671
"75",17064.8409923308
"76",16701.7585198595
"77",17135.6009625234
"78",17030.0797383933
"79",16997.9790995696
"80",17060.3047341954
"81",17176.4292473272
"82",17238.1971860617
"83",16920.2889632718
"84",16946.2593298877
"85",17037.281173682
"86",17337.907571051
"87",17036.5440171468
"88",17216.9201791287
"89",16981.6063255274
"90",16960.2114979723
"91",16937.6373398343
"92",17082.2748046447
"93",17043.3557133137
"94",17384.49976951
"95",16747.5534373212
"96",16950.5827988302
"97",17083.8088425406
"98",16851.7538087996
"99",16933.0204751756
"100",16997.1181605889
"101",17112.2728431855
"102",17002.1210504192
"103",17375.4112540469
"104",16995.0787015576
"105",16803.3353513535
"106",17242.215756209
"107",16917.5896201594
"108",16923.6606089692
"109",17360.8021079289
"110",17025.9038507363
"111",17004.3423080162
"112",17125.3605828814
"113",16918.9671332796
"114",17090.3446984633
"115",17119.199633365
"116",17020.8464168258
"117",16901.6993298133
"118",16984.7143479083
"119",17222.4612251453
"120",16811.9196077124
"121",16929.8214180002
"122",16940.9942283072
"123",16764.1011347294
"124",16980.8361364887
"125",17169.9958811145
"126",17201.6228048225
"127",16875.1956561147
"128",17255.3034971969
"129",17217.4308396392
"130",16998.2375602299
"131",17040.4245740354
"132",17146.5096121881
"133",16958.5788309135
"134",17042.333415521
"135",16891.6243230382
"136",16965.6804220343
"137",17124.1157989004
"138",17005.0769524097
"139",17242.1089262352
"140",17021.375230968
"141",16813.1358194429
"142",16987.139414698
"143",16866.3543330199
"144",16889.9539482737
"145",16952.9132043919
"146",17452.5127759614
"147",17228.9233682772
"148",17017.7841654011
"149",16976.8982466357
"150",16914.6815513931
"151",17241.7507331766
"152",17068.8757662057
"153",16970.7572481991
"154",16771.92332868
"155",16835.085487972
"156",17011.3189193447
"157",17147.638118624
"158",16885.9481827937
"159",17181.0080855129
"160",17077.2587005441
"161",16840.942361753
"162",17055.5666764462
"163",16908.9224278269
"164",16893.1159600193
"165",16932.2150935111
"166",16855.7816100798
"167",17142.0682884386
"168",17191.274378428
"169",16970.467052191
"170",16809.4068345233
"171",16980.1080119876
"172",17021.971445766
"173",16915.0580131622
"174",17181.2410168721
"175",17104.4188636404
"176",17209.3784685998
"177",16918.3419278811
"178",16976.1314009966
"179",17035.0142159834
"180",17315.2917629628
"181",16839.693030583
"182",16863.6405555492
"183",16882.8207548173
"184",16919.170810309
"185",17099.1604902143
"186",17070.8572177889
"187",16868.7617055636
"188",17031.2267831594
"189",17200.3145725434
"190",17065.696890217
"191",17268.1284119236
"192",17200.0003901273
"193",17082.4974640478
"194",17156.2728489389
"195",16961.2475066737
"196",16815.5202581742
"197",16916.0545564747
"198",17110.5557544244
"199",16879.1020661757
"200",16864.2902246336
"201",17161.1197626235
"202",16980.744148827
"203",17146.2893504099
"204",17081.8592648284
"205",16822.8556243881
"206",17073.8447094476
"207",16815.5247463324
"208",17106.080683226
"209",17255.0550750007
"210",17181.5832738244
"211",16789.7845366729
"212",17262.0079047431
"213",17206.7587878403
"214",17099.6464922599
"215",17116.8524367263
"216",17131.0973461104
"217",17041.2639214549
"218",16769.0632298631
"219",17064.9525314486
"220",17041.6843669782
"221",16804.1606625302
"222",16953.4883989752
"223",17038.3157156089
"224",17143.325030859
"225",16977.1299870542
"226",17015.9098944105
"227",17133.8194075767
"228",17094.9266372554
"229",16902.4594781781
"230",16905.4304652632
"231",17026.6107374325
"232",17089.2484461895
"233",17065.0656004529
"234",16924.2879086896
"235",17315.2913063994
"236",17034.991667344
"237",17116.2998848159
"238",17106.0440808975
"239",17041.1921474528
"240",16864.3780916388
"241",17185.8940003123
"242",17094.9921914621
"243",17013.5756503537
"244",17137.515467275
"245",17171.2505813209
"246",16925.1932904641
"247",17246.9654710928
"248",16976.8145632743
"249",16974.9051734761
"250",16978.5178223548
