"","x"
"1",0.6895
"2",0.7415
"3",0.713
"4",0.7895
"5",0.749
"6",0.7675
"7",0.6685
"8",0.689
"9",0.6955
"10",0.748
"11",0.6835
"12",0.7085
"13",0.684
"14",0.71
"15",0.73
"16",0.719
"17",0.7
"18",0.7415
"19",0.7045
"20",0.698
"21",0.7115
"22",0.7765
"23",0.6955
"24",0.6835
"25",0.714
"26",0.699
"27",0.7095
"28",0.7885
"29",0.6895
"30",0.7555
"31",0.7285
"32",0.7095
"33",0.693
"34",0.7075
"35",0.739
"36",0.7165
"37",0.767
"38",0.7865
"39",0.708
"40",0.6655
"41",0.7285
"42",0.726
"43",0.7125
"44",0.734
"45",0.7565
"46",0.717
"47",0.789
"48",0.7165
"49",0.7065
"50",0.693
"51",0.6965
"52",0.7815
"53",0.731
"54",0.579
"55",0.7755
"56",0.763
"57",0.779
"58",0.7445
"59",0.753
"60",0.7745
"61",0.734
"62",0.709
"63",0.75
"64",0.688
"65",0.8115
"66",0.7275
"67",0.701
"68",0.7355
"69",0.709
"70",0.6915
"71",0.7035
"72",0.717
"73",0.7115
"74",0.643
"75",0.6985
"76",0.67
"77",0.6885
"78",0.643
"79",0.6675
"80",0.7035
"81",0.71
"82",0.7715
"83",0.774
"84",0.7425
"85",0.804
"86",0.74
"87",0.73
"88",0.7005
"89",0.761
"90",0.71
"91",0.6915
"92",0.7385
"93",0.733
"94",0.675
"95",0.7335
"96",0.733
"97",0.548
"98",0.6905
"99",0.783
"100",0.741
"101",0.6215
"102",0.699
"103",0.664
"104",0.7855
"105",0.722
"106",0.7155
"107",0.7995
"108",0.712
"109",0.7135
"110",0.766
"111",0.752
"112",0.7195
"113",0.749
"114",0.7185
"115",0.733
"116",0.7645
"117",0.8015
"118",0.7275
"119",0.759
"120",0.7695
"121",0.703
"122",0.8095
"123",0.7655
"124",0.749
"125",0.677
"126",0.7775
"127",0.7615
"128",0.6695
"129",0.776
"130",0.7205
"131",0.548
"132",0.7655
"133",0.693
"134",0.696
"135",0.7765
"136",0.72
"137",0.768
"138",0.6585
"139",0.7165
"140",0.7855
"141",0.7305
"142",0.7505
"143",0.6855
"144",0.781
"145",0.766
"146",0.7325
"147",0.77
"148",0.694
"149",0.319
"150",0.661
"151",0.593
"152",0.7295
"153",0.752
"154",0.723
"155",0.732
"156",0.697
"157",0.746
"158",0.697
"159",0.7255
"160",0.719
"161",0.749
"162",0.69
"163",0.68
"164",0.662
"165",0.6875
"166",0.716
"167",0.7535
"168",0.728
"169",0.6645
"170",0.751
"171",0.7025
"172",0.7185
"173",0.759
"174",0.7325
"175",0.719
"176",0.6885
"177",0.727
"178",0.6565
"179",0.7105
"180",0.761
"181",0.7
"182",0.773
"183",0.74
"184",0.6645
"185",0.7705
"186",0.754
"187",0.621
"188",0.727
"189",0.7015
"190",0.577
"191",0.7945
"192",0.7385
"193",0.693
"194",0.746
"195",0.5675
"196",0.6955
"197",0.6975
"198",0.751
"199",0.749
"200",0.649
"201",0.722
"202",0.7425
"203",0.7055
"204",0.7055
"205",0.688
"206",0.7265
"207",0.71
"208",0.7805
"209",0.763
"210",0.735
"211",0.7485
"212",0.684
"213",0.757
"214",0.7885
"215",0.7305
"216",0.6945
"217",0.73
"218",0.7195
"219",0.7205
"220",0.6795
"221",0.719
"222",0.699
"223",0.6445
"224",0.6775
"225",0.569
"226",0.751
"227",0.603
"228",0.7465
"229",0.7695
"230",0.6795
"231",0.7745
"232",0.692
"233",0.7475
"234",0.726
"235",0.7445
"236",0.83
"237",0.7025
"238",0.7125
"239",0.675
"240",0.735
"241",0.7815
"242",0.651
"243",0.7065
"244",0.731
"245",0.7715
"246",0.717
"247",0.7395
"248",0.811
"249",0.705
"250",0.7525
