"","V1","V2","V3","V4","V5","V6","V7","V8"
"1",20.7629110825963,43.8238861370785,5.06308830349558,7.70967423292236,0.148823080642249,-0.00668290803573999,2.65086999070123,13.6991833706297
"2",18.6989581201089,41.537985143793,4.70963193427865,7.37197790257489,0.212361943680018,0.0628474774512388,1.83414087038712,11.3344202112302
"3",20.7203184245578,39.0672193297191,4.89382969326008,7.75711915744903,-0.245734543067088,0.0917795209864617,2.16014482743195,12.0957499126994
"4",19.8864922415335,39.6919954390708,4.83585548948296,7.18339848687857,-0.311411504843615,0.285630526166789,1.90222648375561,12.6254683261029
"5",21.2601347474193,42.2531435759173,5.5450056910402,7.17647936561387,-0.13465734613875,-0.0097449585175487,2.07960711717084,14.1317932475983
"6",18.8860840965937,39.7079806781691,4.71420715076339,6.99356762443869,0.1584130906727,0.068822225850546,2.53391357290595,11.1040578329971
"7",20.5388642695471,40.8425648386602,5.20837628081786,6.12959009095623,0.172250179094177,0.0757676065578941,2.03067746673849,10.203145794795
"8",19.5319619055903,44.03159923051,4.66008517886817,7.28137857180972,0.159539878035127,0.0419678421759721,2.0475408659558,14.5374629689429
"9",18.3325534719024,38.1068801687146,4.05335468084852,6.44653471554888,0.09266426454388,0.134531466235266,1.82089723277853,9.81521110089914
"10",19.6334108560371,42.2634273210829,4.69930428463331,6.58753499911751,-0.0305218442666688,0.0730748763856189,1.87212570108321,9.19421808392251
"11",20.3017656244824,42.2078002314078,4.93565653719226,6.28602332084955,-0.12928585317838,0.0643029428262182,2.33139701168464,13.9867426954027
"12",20.7038835798526,39.895964691141,5.13984709883521,6.53803122205064,-0.150205547003491,-0.0476183813088093,1.62695461575193,10.1186618249544
"13",35.364537349923,26.1982303931062,3.67217676498476,6.96928507387754,-0.692600504595417,0.0175383494089033,5.89014437352853,2.80187788464442
"14",20.0223035898767,40.5235633151665,4.59243346933966,6.45952028442831,0.187911145204222,-0.0796156942816423,2.19144873720935,17.0757555388432
"15",19.6305059729483,35.9565541300664,4.8246390027801,5.89865902449404,0.177472934468706,-0.109966982777152,1.79522071210388,13.2251102762265
"16",21.2443717418532,41.6744832030628,5.44833631060755,7.69788273465421,-0.159098806484062,0.170654934402699,2.05634617421974,9.89461616965202
"17",20.0617487239123,41.8357830843632,4.53539239996194,6.15578590207262,-0.106563665493607,0.0935545054441912,2.03992591598436,12.7002951062985
"18",19.6456664754161,41.9268191163411,4.07179778619548,7.74143020885228,0.0713282979684434,-0.041654924188647,1.99076850073508,10.8804035074697
"19",19.7926421914364,40.3351364092544,4.45691222049921,6.35375320691778,0.0923749308577731,0.0737844360428805,1.54752940070703,10.2728776120505
"20",20.1739446767083,39.9047729675505,4.20622666202373,6.93912477345923,-0.124417165893716,-0.117064325122116,2.02018915357905,9.52267215884684
"21",18.7932317280625,39.0652371820349,4.33357731321532,6.93596843188167,0.0273461015152148,0.030042933881906,1.94958613461,11.997912744141
"22",19.3385251584067,40.380195602675,4.8782792042905,7.27770581056842,-0.142465310859439,-0.0101015446173761,2.12226375876474,13.290446012066
"23",358.859237403964,28.0310568905888,1.17425631306562,6.95552762029595,-0.254451191678794,-0.008172398613845,6.39907108939201,2.955148520575
"24",19.7896650795123,40.8557411292892,4.69592529449714,6.64974352385746,0.0740385710056665,-0.0143773729122685,1.71999508386601,11.4747720856715
"25",20.8664073298108,39.7229775994887,5.10556401033858,6.50993525474207,0.0191906236073859,0.00372572766842222,1.89999688269778,12.2621223640591
"26",20.658023922043,45.6226719823953,5.38220479607089,7.20358120425179,-0.0807945158015572,0.0392998621216029,2.13038534587925,11.3208035198135
"27",18.5713308385558,36.2553584302022,5.26089548668471,5.72637068891568,0.0368572725042469,0.0721253161899146,1.92044829594064,12.0015228521848
"28",18.8182998287212,37.8574759095013,4.14216461125747,7.52789129387609,-0.21431279399939,-0.0665089658452499,1.85930319448643,10.5837231490769
"29",18.7176018704467,39.8451887269457,4.67976244447606,6.6290288222454,-0.0576091515354281,0.0627480196488616,2.15659077094826,10.9043530892051
"30",19.6252406632318,42.5036397807181,4.7236565963356,7.15287400779478,0.00208757187231671,0.0241789496540161,1.8297382729605,15.43879322806
"31",20.1474305202823,42.1818212802627,4.64778032072475,6.02251586754138,0.365982042196447,0.0373999959258007,2.49371184263205,12.5868830027677
"32",17.827553747996,40.4199404792643,4.94657883557433,7.40952210442035,-0.150018235495392,0.0352462112971014,2.32082267007761,14.7321340685312
"33",19.1901477792737,39.8654992757424,4.82299309476904,6.77333502664734,0.0878418548986615,-0.165612913868253,1.77717775286637,11.4575577240974
"34",19.8774617842452,39.1010760706176,4.83033346155963,6.69705656470477,0.355545934687914,0.0978108740317506,2.11429890307521,10.9248436857018
"35",18.5884856861101,43.0769660277662,4.76350437395847,6.72329875777711,-0.121518193312931,0.0337169989536044,1.82218762898896,11.0566250290156
"36",18.1345907569207,39.4791385775069,4.25378457513736,6.0585596084143,0.0216771022523842,-0.000632287124999336,1.85989767674914,13.0223036162671
"37",20.3076031040904,40.8380649339147,5.17031371370097,6.63167160820854,-0.105539984278581,0.0546007309562244,2.15158378000788,11.340609597941
"38",20.4589690733565,38.9044944511883,5.43113698040949,7.02559945781092,0.208810996326777,0.110191353391999,2.30276793753521,12.4919668581796
"39",20.1276441063665,40.5251601435585,4.41868112367112,6.84057259004253,0.133840152878098,0.032946591246991,2.12998317532754,10.3227826863327
"40",21.3166502779246,40.1901828121531,5.46400830348302,7.35336542854432,0.121743149315018,-0.0702250908775574,2.39582555955293,14.6725270881542
"41",21.1178420293799,41.4334348125826,5.81604181726733,7.36671031520087,-0.00343443493756221,0.0246008857148862,2.14682422109133,15.2203313184651
"42",19.1765191991631,39.1436260621315,4.38815876947298,6.0330891138741,-0.00777584071578076,0.063206248209905,2.11878497806751,11.7850509966408
"43",18.8882140238012,36.822520010488,4.45448212578793,6.18189854226388,0.0221062592847205,-0.138561072979777,1.84786220176541,13.6128330434498
"44",18.6460330106361,39.9451130824207,3.7145394128349,6.39745304838102,-0.114580620272493,0.0214410169254427,2.1168381232077,11.9681934545988
"45",18.2624854031022,42.3780569479155,4.12936755191665,7.30890360538188,0.210625484828869,0.0532818945322577,2.26223761920945,12.3443107168454
"46",20.5889579268235,37.4794919074177,4.56258123387728,7.32254647265833,-0.0077863696063407,0.0138111036935798,2.25335929721288,15.3661577035595
"47",18.8953265523938,42.5831426799983,4.84535005808017,5.59378266202394,-0.166523233193175,0.0453696972595629,2.26144764681352,12.1445678425713
"48",21.1886041178317,38.908824858133,5.94015808763167,6.42412737012435,0.120682108564382,-0.0280599390965914,2.38368536953443,16.8568434431288
"49",20.062636125216,39.6821647918498,4.92758977546999,6.43728624652611,0.0705817169282318,0.0564444881047665,2.17164591209447,12.2760559953465
"50",20.0007264313073,39.7766624770428,4.84142029461474,6.89487533244149,-0.00514119466224594,-0.0928430755678479,2.12594983403372,15.3963213725189
"51",20.6017411903595,37.3872971997283,5.20810101707901,6.10185321942945,-0.023224764877306,0.116922260485523,1.78569435033107,11.5462768521047
"52",20.2142710694695,39.9034099165627,5.23165728888023,6.81611592646238,-0.044099894926581,-0.00581360156219592,1.75163586400168,11.6836865294559
"53",21.5225257581321,38.1366925223047,4.52646959013765,6.78869586866594,-0.182343190469968,0.0677257599220717,1.36135399096743,13.0737135907087
"54",21.6527472848849,38.5097131292102,5.75172346884741,7.02551498168349,-0.1887476417376,-0.0755437484924216,1.87198794206381,13.1003075897092
"55",19.0100268583865,42.0381866512822,4.56557474987827,7.34115545791713,0.151692835856184,0.0307812474315821,2.55489906642112,14.0158897834521
"56",18.7004097366455,39.5467091965752,4.31139989821438,6.89661468728561,-0.130155174682826,0.0585704740284154,2.16322403327546,14.3983808622969
"57",19.7589651588342,41.5133780848785,4.87809116314216,6.82003738990882,0.0297326567010172,0.00453220970438442,2.18514258196575,17.5523826924035
"58",19.8739916749926,36.9187658604989,5.28002026088992,5.86193907896737,0.189355556407752,0.0304187162738953,2.50156538872004,12.5604777425747
"59",16.5986181414281,29.6527743549537,0.0673846933941225,7.47774138431848,-0.346772740577385,0.139719092171152,13.1895386732775,3.55447093395299
"60",19.3278864799106,39.8989462732493,4.64232741753126,7.0242432286744,-0.0990099740420073,0.0364863129841636,2.05716588566159,12.6002813020648
"61",19.5898617307534,40.054847084062,4.48596252737994,6.39634678991852,0.00563413065401084,-3.69152652849495e-05,1.99943829616273,13.517795420068
"62",19.5647255350651,39.2641918425394,5.12636801393225,6.60109678173345,-0.101210015253493,-0.0343505530904412,2.09914720974114,13.9055633906804
"63",19.8919367950574,39.3822572950366,4.42946816126919,6.84564633127785,-0.0488113335203095,0.194123440801542,2.06406903060791,13.3712163102507
"64",19.9299733813685,40.2261001906209,4.44362542574928,6.61132829516307,0.3391497446166,0.0362110591129318,1.93063295330671,12.5573715388844
"65",18.4019704927632,43.7284360508361,4.20807883204492,7.0105883413429,-0.0674068741251707,0.176788731556982,2.1630776482189,13.1463875251784
"66",20.1140412051661,39.9944252406799,4.40929363204258,7.11976602713712,0.212579738530435,0.020882130371889,1.64252437633968,9.8651504519692
"67",18.2012510989616,42.1187866085946,4.78367345321032,6.91906443068218,-0.00310690727936139,-0.0549847064882471,1.57509395402591,12.6109508209052
"68",19.0131003342166,34.0066960436588,4.48434961283779,8.09150868058246,-0.0100717041927852,0.21513094114134,1.30043661668689,5.59162341949269
"69",18.1174587351581,40.9041057106871,4.33330712103629,7.11317327790679,0.062430288258064,0.113535802584244,1.67045910572392,12.8839816583731
"70",20.3521483412328,39.4463124891682,4.55357381261501,6.68245788805669,-0.118590958631392,-0.0126902807873515,2.12833868209607,10.2906113706016
"71",10.1430598669743,33.4322826969946,0.824021530727988,7.79282221915428,-1.23842308163516,0.128683588746947,37.8165384871087,3.71964505333409
"72",21.3885755564332,42.7620102597665,5.20527457314666,6.52239832018545,-0.0198313420964701,-0.114205393923379,1.99092260115936,14.3362681470905
"73",20.9338666561977,39.7280735075924,5.29479528212703,6.59858107946401,-0.00584489292319424,0.00999317188028425,2.19658840760576,11.4973976155669
"74",18.4344071276649,41.9342430468062,5.001919378608,7.02051914506908,-0.083911479619215,-0.00701991780675361,1.75214641860139,11.8687811931167
"75",15.9089703122865,32.6482435710454,3.33361483173803,7.81780822505825,-0.78375780822173,0.138911269102752,5.68634529828219,3.39343297647954
"76",18.3156136701396,39.1954688722593,4.41510342468637,6.69661466102476,0.0282122071691178,-0.20768654892093,1.91348651386381,8.33564437127091
"77",21.1816514207883,38.9043750969488,5.39307078863067,7.32216119840306,0.257033301730211,-0.0209443943268055,1.86776116794965,13.3538553305632
"78",18.1675700395996,43.4912594715696,3.74330511929305,8.14477899150853,-0.0880919850838552,-0.026487050358627,2.39402119096537,9.56884531354108
"79",19.6040529255249,40.5656297855163,4.92529382607133,7.07931342465655,0.0680555771859609,0.0132859766228388,1.6350224648028,13.7329204168896
"80",37.1455907614719,28.3218825521459,0.0151762333341869,6.7166281591079,-0.0778374938265069,-0.0243920723364878,7.32634115926869,4.42419902750168
"81",19.5424896823491,41.0769480475044,4.57034646574621,7.03826600090011,-0.13021256719317,-0.0279962712316266,1.74258697069859,11.6009355320182
"82",19.0452772378601,38.270458392669,4.7671090687638,7.11380962621912,-0.0112879104662942,-0.0025600823579744,2.01305505657674,9.43995589058924
"83",19.2824536328209,42.2425214455032,4.45316552165135,7.23592581463891,-0.0338459992940154,-0.0192916345270783,2.37059020604196,12.3800687440599
"84",18.7055441938853,41.1703514557804,4.72092813159008,7.37486224779702,0.0262544904874132,-0.0588196781871187,2.10819260957522,13.7005203426413
"85",18.3076134535007,43.2926995809271,4.8437109751356,7.95058523910997,0.00534212450353038,0.123402041082001,2.13964186353693,12.2980590516419
"86",19.6686137205129,40.9106383076177,3.95938020808427,7.71329763155733,0.145008325069504,0.00425291351544782,1.64247060478297,14.3068485068008
"87",18.1455836066883,45.1567703493177,4.0642353497031,6.74275758208394,-0.0486413079984814,0.0319327431619656,1.88413127765907,12.054488883375
"88",19.0384856723185,38.749404940059,4.30415470486702,6.64420980304103,-0.0884594072614656,0.042871730009485,1.96693683888598,13.3999816267769
"89",19.6649235259936,40.2236270638028,5.28631666502033,6.71703920877383,0.0914247488041788,0.119005838995213,1.98668212183522,10.9605058048473
"90",20.4096896969958,40.6274322141843,4.46089913544032,7.00436821653498,-0.0301502105790211,-0.0256854280070551,2.54174014678784,12.6916791793108
"91",18.9367828295156,37.5558763402405,4.69669247452194,6.31079257306298,-0.0482938892041818,0.045520705702652,1.96303008313185,10.1884829235836
"92",22.1403833652054,38.1224244685401,5.95386239229166,5.79065914334406,0.0170581885679696,-0.0433336970717725,2.21244467251772,13.0485446007378
"93",19.8690853473339,41.0266312391554,4.55306055839402,7.0160358399358,-0.195707411138439,-0.00663319240141218,1.79536892941181,9.32812542956159
"94",20.7839990566938,39.0269931614353,5.45553068130548,7.48508419250266,-0.200718945653007,-0.0485677961393948,1.92424155819984,13.1674742327578
"95",20.7289075594849,47.8454219054808,4.5927239058466,8.54087204713089,-0.0388443594305647,-0.0291037678348756,2.52927641591999,10.8671844103825
"96",21.3626394097417,36.7071686876552,5.26666404649669,6.46830767049881,-0.182153795407009,0.0564705766043782,2.36878214057057,13.541883728652
"97",19.2898040046723,41.103297569384,4.46968889698469,6.54478278626997,-0.287278280679427,-0.00593823255381903,2.17846878214092,11.4257686227187
"98",20.5619494505825,39.0084366196171,4.42804259971646,7.28037161246891,0.0108038326298008,-0.0954325588658996,2.10146749295453,12.7104648193596
"99",20.6589763896601,39.2045866657422,4.83292092557886,6.53844489113941,-0.146685093839008,0.0453058891264378,2.37064719461883,13.2150064996118
"100",19.7864424418491,40.5757784490473,4.58319692088855,6.6774319864035,0.0149047410330882,-0.0738776357734263,2.17965801251933,15.121870502868
"101",19.815704236379,43.0120564608864,4.81402243735129,6.75245196846731,-0.0770468212346496,0.114170836922757,2.06653362235319,13.7250110493231
"102",18.7158955240793,39.5540453448244,4.83806405372696,7.54475568720759,-0.0739512736103452,0.0294781279818759,1.66399161894618,8.77017353692032
"103",19.1060257982193,40.2275220392951,4.2676235784057,6.62740186322347,0.208290010005821,-0.00989640593555053,1.78436331476702,9.58624262949895
"104",18.8190594722046,42.4682273031926,4.29548298531442,7.05175416638463,0.0799263396540604,-0.0182826731733346,2.19429707108094,10.2956903586226
"105",19.6209768662486,37.823546733847,4.95663022167477,6.01986173053257,0.367920876413221,-0.00316814776738376,1.80743641542687,11.2685875072677
"106",18.6428544170904,40.8114587664053,3.73725216414614,6.78078583483434,0.0695928064197686,0.0805071095418534,2.28257793676347,16.3581125401856
"107",19.4213151345052,39.8372034193515,4.00228045038267,7.5381276471052,0.0881762762195822,0.0379888099964285,1.98896870046549,10.6044091490619
"108",18.4880035218077,39.9116627729321,4.98490640451568,7.50755589712151,0.18703931754956,0.00182829655999726,1.91068777320183,12.2025200574974
"109",21.2481291255078,39.0842805180024,5.78327839395697,6.9810156126871,0.0412192970122908,0.0549650826009527,1.7720757767797,11.6430115410015
"110",19.3566075428573,44.2555789414693,4.61987893384086,7.1752234986835,0.288485435964194,-0.000230983006609208,1.91988145335078,13.0151215141322
"111",20.8463758546785,39.3342990934176,6.08937077875219,6.0477155852451,0.00934911515924438,0.0562846134433825,1.77899706116951,12.9078149499218
"112",18.0716717659911,38.9964092950047,4.50005842011005,6.93916925339562,0.396230136584638,0.0136530863764798,1.94338240575587,11.0498906186955
"113",19.592579303789,41.8391994972083,4.68643474481818,6.44663244799015,0.265795679319808,0.0156398669461753,1.96190078807493,10.2100487456588
"114",19.1107292431733,40.5424055513906,4.07969575831724,8.23658766336283,0.148157703096626,0.161955089849059,2.04250864388808,8.64615264194084
"115",19.686506539244,41.4335903142392,4.80880828983818,8.02197532415383,-0.173557312607637,-0.0333040008930521,2.07808473225039,14.0438054076705
"116",19.9100747014397,40.2108447149158,4.44990249433115,6.64497118718989,0.255794423357942,-0.0627554920095637,2.51988331816033,13.195387349528
"117",19.6703500613512,42.623515447464,4.63598163555906,7.34270545809124,0.245770222195621,0.0634402740285487,2.11910967495602,14.7165066910997
"118",20.7336868647061,39.056576340759,5.62122772528849,7.10498572734937,0.0221668885752733,-0.0733347595636383,2.14765674658301,12.0234000015652
"119",19.7784310504363,38.6061927654834,4.58991047585308,6.92750814875377,-0.242954823862756,0.0528147692785096,2.1030328207445,14.1111884327632
"120",20.0887055066257,43.3910594640603,4.54828442520769,5.55436640121807,0.0212132701182656,0.0112957894657132,2.42184099369311,16.7207110851413
"121",20.6085076726953,39.165244567287,4.73796347801137,6.24733990769314,0.0496897384672773,0.00217371063079497,2.31062465356572,11.8659265405913
"122",18.243453758899,40.3143529260231,5.24699116638094,6.3102818391412,-0.0331706125433678,-0.081872889668196,2.29202370781461,12.4069120074563
"123",18.8553822338473,38.0720232488563,4.22706440505005,7.03075310337852,-0.101976964339139,-0.0299681569594306,1.58109007127372,10.0945806892911
"124",20.2615590999209,41.3857685520668,4.95335395609129,6.38418180739085,0.0450507766420522,-0.0123644246585684,2.11853928725766,13.1401060271183
"125",19.3334943272824,40.2629976695175,4.94377208054344,7.18154886688126,0.265564611320577,-0.00971958221490354,2.46157467976473,11.9087252848668
"126",19.2952393149305,38.9962428944581,4.75025541246522,7.14582006707486,0.242866264862763,-0.0262840960672696,1.76451560321491,10.6169058845737
"127",20.1896289551132,38.900543921719,5.25607802447477,6.90535597405295,-0.0654077424721771,-0.0106666340668945,1.91836194770867,13.7335153312629
"128",20.6314105534226,41.4065438796393,4.48843677959629,7.02356781796499,-0.167058909554934,0.134127793875102,2.43756943304835,12.6615090656352
"129",19.6640104181879,42.5293888840766,5.19720327432142,6.9739750484618,0.205390615533216,0.0251617738998107,2.16913224116198,13.0950185676694
"130",19.5039928836963,38.3154102478569,4.60692002996146,6.6663774281713,0.0675545631456014,0.0179534271707215,2.43355340098617,10.7497897880221
"131",19.3267628000675,28.8886107451045,0.276650816906856,8.36660667528311,-0.339358866118857,0.0161376454783908,17.4918310098755,3.25501498416041
"132",17.6810041848067,39.6578927325635,4.42527599809812,7.25590962772461,-0.162386634942736,-0.00442129304733288,2.76683059040953,11.1936926794073
"133",20.7331963588929,38.6802560719676,5.95370844250054,7.13195431173115,0.178832799474338,-0.0202944711962187,1.82471568458748,14.4683705324736
"134",19.0575736794336,40.8463554521498,4.97208335476035,7.31626161846168,-0.0250441478021173,-0.122258454798882,2.2420138781852,10.6168550183258
"135",20.693402093293,38.2174662401549,5.16978549431993,7.61489665966974,-0.0422683103705718,0.0873291636228868,2.837027739511,10.4565429290417
"136",19.7330256101336,42.323652800355,4.81983176703661,7.0306506529406,-0.201745752855002,0.0190240655737915,2.24479045967285,9.71532709460233
"137",19.89198061199,39.6566114371504,5.22294485507828,7.62971912111852,-0.208705318971225,0.0823457618557186,1.97969341179435,12.788555605603
"138",19.8935096793918,37.043622532252,5.23354663988966,7.80599830440637,0.0571839419874593,0.082568526466746,2.28256596995345,13.4442935686815
"139",23.7531651297884,40.4023757336939,6.02017231080407,7.70257125547462,-0.161840410857546,0.0340542214308443,1.98540802006634,13.1758396238065
"140",19.8414199999141,44.2383718028096,4.66013866627623,8.19997806484419,0.0714076591096903,0.0573282069374173,1.97958682465163,13.0627932455931
"141",19.2963389520011,36.5623116009416,4.4610730780442,5.77862565576231,-0.0978939701910131,0.173872909408989,1.95972286503361,13.1830305063289
"142",18.8530647811024,38.1910749282264,4.42304020280621,6.11456352546449,-0.404483923048945,0.0296435021147122,2.12802079033669,13.8199353678969
"143",60.3995804834461,34.4102139866055,11.3786551491728,7.65397529232581,-1.19054535821388,0.059870622752607,10.1570957078578,5.74243222784279
"144",19.8262706537774,40.8016156017187,5.21855768151298,7.21501492910365,0.107325877768754,-0.161573500258301,1.84353874432252,19.0160986138188
"145",17.6213143815355,39.9506719179229,4.0218495196968,7.4887193950052,0.105140499706098,-0.0237294968978194,1.59006877699778,11.5544702611037
"146",18.593465614911,39.7262982185238,4.22372953315177,6.69888804439149,0.130105178518647,0.0298054651782523,1.79039451739666,13.5683454241168
"147",20.4688792830373,38.2246608407507,5.22411394905849,7.01157022775427,-0.0692920497908794,-0.0669745889929613,1.73933682570037,12.242400969953
"148",18.9663266115327,39.419208198505,4.85490424435946,7.12928287815805,0.104937428842638,-0.108337061134329,1.57824618473056,13.5915041490209
"149",21.5720545366388,39.5948725043822,5.59579125024482,6.29885281981262,-0.29592635131381,0.0611185264237826,2.52622894973891,13.5771528376373
"150",20.3646755095182,40.0994818822412,4.90968214919849,7.25860980466264,-0.116595542452667,0.0584148946059704,1.68115820688949,13.147658959193
"151",21.5095517959379,38.2957986246286,5.36644870521298,6.57922429648631,0.198088029444916,-0.099287729175519,2.75084655976374,14.9670142167047
"152",19.5712099274377,39.2755666121482,4.79924709527115,5.65703534160252,-0.108500798914939,0.00312750043899532,2.20300827750864,12.6499583319459
"153",19.5223462315945,41.2515529104824,4.71213910341509,6.9493651102946,-0.00547359539852818,-0.0923480179717909,2.0393705003488,20.0748369645952
"154",19.7214648601306,39.4576485524744,5.18398572629789,7.39976356717935,-0.11250321556434,-0.0790630957623993,2.02348724834642,11.6017208012929
"155",19.0204118682517,41.6862643515475,5.11448459972573,6.68332237901131,-0.0463119580566006,-0.0522065212941218,2.28737068008283,11.3296772316883
"156",18.421109014874,43.634887822362,4.74393081286011,8.0920186651475,-0.0358078053794764,0.153715890083472,1.90260878937766,12.5148453961863
"157",19.5402022763983,37.8746465581051,5.21990573995406,6.62613994940635,0.0751766133525597,-0.036172937164395,1.6831059929771,12.2814641074251
"158",18.7651969707528,43.7809657412308,3.71896935403952,7.21539626159762,-0.092367431561201,-0.0694563185663737,2.16749280538545,13.5079947846038
"159",20.4373718680703,38.8756721786621,4.21185836703571,8.05692080872728,-0.0556565826542882,-0.060266074155164,1.81752361646752,8.12608080540008
"160",19.9385019725666,43.0053205518309,5.21712272970251,7.19418670054578,-0.212000655870838,0.107515228887896,1.74855185836806,12.989857365262
"161",18.985331175503,39.9216037800611,4.80998501637872,7.20170320848159,0.279575817063107,-0.119111990914306,2.10189484836838,12.6233658903631
"162",19.8814081250126,38.007808328399,4.91911244562649,7.14656727604976,0.239487885634368,0.00198366788079249,2.12756001097525,13.8152397858934
"163",20.3684309021197,40.1442408374816,5.31187445344758,6.32593197369211,0.0245882594429244,-0.0923281456198502,1.96759850289951,12.0186049779279
"164",19.6971036271992,45.1942605832316,4.88937138115058,6.0355583296197,-0.0121896046946369,-0.0128273933425478,1.67471617095477,11.1496407705462
"165",18.4127785310543,40.9129917952776,4.2282790849149,6.60020390801793,-0.177688672709074,-0.00197655446742707,2.11928684802115,13.5025230408135
"166",18.447932849095,41.0944020105502,4.30565311026746,7.08032267349463,0.248887987845436,-0.0704097241307239,1.68014648006737,12.5047130313887
"167",18.6075294978474,39.2301322228747,4.99231490273473,6.17766974343655,0.151818152248963,0.0692956189271482,1.91123354402373,12.2515401087966
"168",19.3244222512858,37.3529150544987,4.73073998593709,7.51247190208466,-0.0700836199630091,0.0641404006538966,1.76311144273046,11.9353751760623
"169",20.3589819254895,38.1627731736655,4.62754007531671,7.28450731168518,-0.124745950188223,0.006886078319342,2.1404973893287,12.268182956786
"170",7.59643386938048,31.0029021086886,0.183193936149649,7.85560557743809,-0.680939816298468,-0.103635196911479,4.29757853081066,3.56503307676182
"171",10.0391907464405,26.8465713488716,0.0020929386760577,6.44349500064772,-0.111508813557347,-0.0339497135782064,8.17605850318396,3.111117598385
"172",20.3271312342665,37.215809553319,4.82316872417924,6.34205046687779,-0.181793387876848,0.0522113515648487,2.17558672719338,11.3779120374212
"173",19.3033639463774,41.7654363341406,4.87990463325999,6.31578653369956,-0.110327856914221,0.0703409061925269,2.26402528712146,10.2283215088637
"174",22.5168752520102,39.8270045821294,6.04879220511739,6.37691890093531,-0.0392823577016593,-0.0710951581842431,2.033773751965,11.4199960288635
"175",20.5010399568323,37.1920615131036,5.13407280420603,5.87820796041025,-0.149520752265709,-0.13157500272514,2.07002362205805,12.8549732950941
"176",20.370358022119,39.5857766329598,5.51989544470691,6.2273877714298,-0.0201411268945991,0.088096671138928,1.9836284224853,13.3155364291768
"177",20.8298237897665,40.0108897340856,4.74282107096729,6.3139262091447,-0.0431936465876471,0.065757770621333,2.01598899459513,11.1117509532654
"178",19.6832427735173,42.0263713249923,4.68166298487209,7.34509600921054,0.0997361161057224,-0.0348304767591675,1.91083615165627,12.5792499148695
"179",20.9036130420002,41.355549908328,5.32857334328022,6.54670074334606,-0.190404016333001,0.0415942082868873,2.08180568831011,13.466612396625
"180",21.3761932228522,41.4184066068247,5.3487338477803,7.19796906079696,-0.21836122691526,-0.0982976711651726,2.27844761127773,14.1521455843934
"181",13.9699262186973,31.5083711734923,0.945526926997849,7.61153583388225,-0.461492876109793,0.0207251962812647,11.9411175710394,3.19133826877105
"182",20.6106584140872,41.6569927346573,5.13119910621482,6.19035217993602,-0.0347273869869748,0.00446520155874868,2.14026504958805,11.6389716782957
"183",17.9036597665215,38.0360139809704,4.08802210492099,6.53492292174247,0.209589058799876,0.0761731640365636,2.08466223978344,10.3445344711295
"184",18.0722729417976,38.8920824287731,4.46093307987883,7.10650741058426,-0.213840243593653,-0.019303221382837,1.6578207410938,12.5652490009015
"185",20.4090405314027,40.2862438274718,4.69665116354687,6.3298310574802,0.137639124426008,0.0684151076788773,1.90482584784583,11.8550124248379
"186",18.4785448008826,42.5950276462795,4.67894619411366,7.85342450542873,0.0769217906674058,-0.13375798000582,1.95870058469467,11.0375197141896
"187",19.9686954542879,40.4206995529759,4.83508802941141,6.84705107941715,-0.179467562645469,-0.00717136800683571,1.92806698745425,14.9314285949286
"188",19.799948121231,40.7024951084114,4.16525943909526,6.83821683636612,-0.0810729090627639,-0.0106082564414245,2.04492852306691,13.8091022859265
"189",19.7094050986724,39.429473442155,5.11966788649909,6.33825812062969,-0.2719226745564,0.112325322811497,2.09615172467152,12.5496416536372
"190",19.5412016618765,38.2698253484939,5.27570959876351,5.87810801320403,0.170392620837094,-0.045905144237117,2.53582910839614,9.88989849845536
"191",19.359892268782,38.673948275328,5.18122833861691,5.93507589370382,-0.100617498575352,-0.00541722405821778,2.31854141274406,11.4165285617478
"192",18.7739485479025,39.9832649340669,4.87332531614049,7.29199071739651,0.0945943939581791,0.0601386787766807,2.28466187099919,8.32480231917321
"193",18.5886719528621,38.7351834192863,4.42752644407375,6.73496928684825,-0.151638430299864,0.153527895802289,1.87356798879259,10.8492529843104
"194",20.0359255744616,40.1818578827677,5.12863599495413,7.42216938345766,-0.280062446191554,0.0819147899905613,2.03631981364251,10.3470057189394
"195",20.2290258826703,40.6538490643423,4.78549826435337,6.89300324305922,-0.0123185933093096,-0.0545701912064348,2.15937815788286,11.7506173157627
"196",20.4222103258942,42.980675134934,4.51705864281136,7.28672935704439,0.0493698949011493,0.0392756298148135,2.36333788197325,15.0713853067097
"197",18.1254708270602,40.7466268078615,4.71441751839578,6.96766405825297,0.301038783286052,0.0322533836930316,2.13945462234881,12.3895413119524
"198",20.0072718260887,37.1325727017657,4.90598053807301,7.61077750640989,0.048141356873303,-0.00359048678645381,1.9631953273689,8.42678303277428
"199",20.7133155476428,39.4177211932803,4.78057130425899,7.62089334905096,-0.0884470695992726,0.200620662662697,2.18815263402743,10.6766842909878
"200",18.4024004465372,40.5071980255821,4.36288858653412,6.45192410672116,0.0716219494800066,-0.103061500530251,2.23799195845982,11.9318068935954
"201",21.1052003671623,40.6114244698983,4.64424268409883,7.32476575611654,0.216648411129292,-0.110251221490054,2.08415173851293,9.65125861260475
"202",18.4596596594203,41.0329146887836,4.69413452439648,7.53646576884392,0.128472458897801,0.0722398129023231,1.66549092388747,13.7838097103924
"203",4.36041091968474,25.7564158435171,0.901642919514394,6.68557376365229,-0.697373879274868,0.195989868410225,5.06500527483914,2.49097918549207
"204",17.3996810625508,40.2422641151068,4.1240359883247,6.31050587179145,-0.211765866721485,0.0745981429443291,2.02689619971426,11.3367071980672
"205",20.5714345968629,41.9442753434548,4.86793706818749,7.11136351145692,0.0824558022384234,-0.0144286299901397,2.93151290755856,13.767932147059
"206",21.8282870082373,40.4298714971185,6.1483674905262,6.80200897562409,-0.0678064719146642,0.0881500711887043,2.04422526357627,15.2203841585413
"207",19.8360874432135,36.6194677697083,4.71919391314783,6.98149036790435,-0.0440113114160507,-0.0101902300846192,1.78874488867244,11.7603362388084
"208",18.5921095118456,37.1780136550161,4.69244737427284,6.02019353155718,-0.0293663318695812,-0.0134118119886542,2.10407864111769,14.8330647965749
"209",19.6954291983367,39.9122088339092,5.01757006991784,6.58547587276451,0.0764668902748559,0.117146631643855,1.79068084297855,10.1380294975252
"210",19.479420984773,39.0400164723704,4.90718437230434,7.57797356666264,-0.00802974679977,-0.0036083097517298,1.8595004859319,12.5822461041831
"211",256.884927275969,33.968295611426,810.262015079771,7.93688948668204,-1.61917180963781,0.0420275207040804,6.02069540146887,4.84341134453736
"212",18.2025514637769,43.19343956501,4.41608704965191,7.40387671879143,0.0700839801597021,-0.0459846445557756,2.02225227548913,12.5642622437641
"213",19.4129629260432,40.4031198001631,4.70412745207789,6.565289107937,-0.0818274244396341,0.0414724273539707,2.14346712246733,15.3893438394515
"214",20.6392727751039,45.3311200001876,5.03477896477194,9.23978524461189,-0.0778052585358525,-0.0561916291067932,2.16070694252801,10.7280828006462
"215",20.2528680542172,37.7492572767894,5.28246036480543,6.9191832038076,0.0944661810051567,0.0376573784455099,1.93891394713881,13.2422827796533
"216",20.0664570055481,39.6412355630179,4.28979082047309,6.16198900382983,0.0125168123788196,-0.046479319783934,1.93656215242035,10.1292892890304
"217",20.3471510845371,40.4473587867887,4.25200628562683,7.01659052330438,0.23105165014433,0.0346386034139717,1.92212801164049,11.7876306163184
"218",19.6101663656316,44.3309739420674,4.11138814181345,8.82640444578842,0.163278376755424,0.000621577832351154,1.62186790133248,10.2982759727906
"219",19.1665142012576,43.6474545006215,4.84390616617213,7.05582507257299,-0.0942079758042707,0.0771832958488012,2.01897023861211,14.3406431680996
"220",19.4942169018271,38.8987587906872,3.92321959638525,6.22329735935114,0.0500476752003164,-0.0184930700695603,1.92529462250969,11.8960779639591
"221",19.9739016406246,38.4385522581968,5.02626736252754,6.22256175815508,0.0502298063592944,0.0156989539843266,2.14680938483221,10.2694014470895
"222",18.25383314531,41.7825978746909,4.11296747592388,7.16293943515666,0.224025934092577,-0.0467703586462132,1.69315877605741,12.6365706197205
"223",20.4020154439153,42.5034369194694,4.85322612302476,7.32048870779341,0.0554005447098359,0.0872384587363808,2.04373571873521,8.5592524581244
"224",19.5993189332044,41.9023039342252,4.34893365098188,6.3749167282961,-0.130018788350568,-0.0697618759712737,2.02080162435766,12.0278555734051
"225",20.9754516647974,42.7007467889141,5.43184279519893,7.61846737703268,-0.0589339785059416,-0.0155116425647032,1.95918065633694,14.1850943493997
"226",19.8788794309437,39.2293039021365,5.72089820232039,6.92075501533624,0.0253689131346413,0.00299738020656691,2.02061035476419,12.0812156626476
"227",16.6419094169028,42.4948245116774,3.60858237701902,7.32377296108817,-0.0883104606749573,-0.0601771655709978,2.35327149384987,9.55071037028424
"228",18.8829476542666,40.2549092692439,4.67454594906188,7.39777234387935,0.0389799111403132,0.0027422296211315,2.32628990719443,16.108041946494
"229",21.4578257395751,45.9368657885316,5.40919099061947,6.83207344451716,0.0519734655313372,-0.0551423028291636,2.24057294526399,13.7325735393253
"230",19.0858243727935,37.5347943061325,4.14996915283166,6.15448212895766,-0.122223964609011,0.0768478390395131,1.84860200222912,10.2966922324227
"231",21.0995714219662,40.1540327539904,4.96749689970721,6.06687616874436,0.049693644749516,-0.0141671357080999,2.01118056053822,14.9438132487232
"232",20.2326402031395,38.2471349131612,5.21485668947797,6.84119163910839,-0.264041771055251,-0.0385749461263138,1.8605787041861,11.9569835297377
"233",18.2283654590288,40.9094676043506,4.15707092043504,7.83127919521149,0.056331791025856,-0.174735130346484,2.34822309632833,10.1163212118543
"234",20.5994304215232,39.6969119170388,4.99361747988222,7.80273095527228,0.0214729019628128,-0.0930801973440703,1.97725073148746,11.5760887349428
"235",19.590716689279,38.4327331000537,4.56961510464907,6.45190870011919,0.033506310658707,-0.094324031200632,2.08533362691106,11.2481720992268
"236",19.0947259689333,39.0314325526594,4.24771853052611,7.12649426861547,-0.300600174973126,-0.00349338288414967,2.28586774168995,11.2815156582023
"237",18.1429506641629,39.9972572538602,4.21721681807303,8.1164531957348,0.0239882264838123,0.179054412136498,1.8948941950954,13.1959020330756
"238",19.9126898550354,44.4663941463368,4.46826133547438,6.90240649246852,-0.203541014789609,-0.1063554360501,1.96957426831111,10.6241468446431
"239",23.1845482313571,41.7115395062904,6.35231334785064,6.93682445272794,-0.0685128578343646,-0.025991422871102,1.80638817266082,10.5074559394674
"240",19.1179680319856,38.7252629243843,5.13805008502877,7.07119522713898,-0.216404543241141,0.00444570978499549,2.26428162896762,12.3115082217608
"241",18.5304286253841,38.3242992949012,5.16207781022809,6.82349758551438,0.0695931256925133,0.0308777378143493,2.00914832913801,15.057317673718
"242",18.8135927384576,40.9614515842991,3.70486457500683,7.24594251780468,-0.0691636390582782,-0.0889794231958451,2.10947316283336,10.5816473214277
"243",17.6501926694871,40.6999515987539,4.41701572112582,7.52517788060994,0.0938369624659743,-0.0406600775978971,1.7150906153743,8.81287219194373
"244",20.4642932894694,47.177850892637,4.94686691959341,8.44061225669767,0.0790816689224436,-0.0369743819100131,1.99779793526928,9.98392855060147
"245",19.3989170336383,41.4669519054785,4.75534193335337,6.58174545724969,-0.161860572517982,-0.131813654077252,1.9990254200955,10.3626833136542
"246",19.8067739599083,38.9880947181393,4.88625115508664,7.89335346810285,0.357890906213441,-0.254238257454964,2.45300170593213,12.5798546146516
"247",18.7343018200662,38.2036930983697,4.3650709552656,6.51508880128908,-0.240117438655161,-0.013562476164722,1.92615378756804,16.6213328844534
"248",19.6818631678016,43.0554402364751,4.44960882664158,6.90412834056018,0.216951438167289,-0.0671442287829172,1.90045268052282,11.2041002143113
"249",20.5984926489463,39.5878052198436,4.97403598208984,6.16543697215827,-0.123427602617507,0.131623722728898,1.98425003679729,12.4839364693401
"250",21.0720874907162,42.5736257279132,4.95265845530667,9.03291613290331,0.138334687696724,-0.0538408184681171,2.36143973601967,11.1659759309542
