"","x"
"1",16930.0575653759
"2",16660.2256383017
"3",16821.5904543984
"4",17073.6786668822
"5",16730.2275688369
"6",16749.8788250703
"7",16772.2679633003
"8",16632.2525101445
"9",16638.7055561166
"10",16833.163066318
"11",16777.7110669099
"12",16985.8120349941
"13",16843.6739041703
"14",17090.5162154235
"15",16664.7926081156
"16",16794.2515370215
"17",17059.4670337614
"18",16703.1191689507
"19",16803.7261342479
"20",16893.8152360898
"21",16871.4202401472
"22",16708.0073334683
"23",17097.297711049
"24",16701.8559108436
"25",17015.6850421648
"26",16772.4445002036
"27",16810.4455507657
"28",17064.7459235141
"29",16762.5593981294
"30",16952.6978432232
"31",16851.5526193901
"32",17079.6359939333
"33",16718.4607334647
"34",16821.4597137257
"35",16729.7279897839
"36",16684.6982448747
"37",16894.6512023613
"38",16891.3619446856
"39",16839.6194063982
"40",16848.5028413508
"41",16944.4396559448
"42",16697.0513550787
"43",16833.9051019901
"44",16806.9096811837
"45",17110.2667605973
"46",16900.71102772
"47",17064.8822297392
"48",16582.4399864977
"49",16753.4731204365
"50",16740.2047630411
"51",16889.8727901757
"52",17042.7930051503
"53",16987.2167928506
"54",16921.0696467458
"55",16907.5190950591
"56",16893.4864807415
"57",16900.1687029743
"58",16970.5716681895
"59",16822.2996947939
"60",16961.395735306
"61",17129.897149184
"62",17000.1510486966
"63",16810.8448769146
"64",17142.3670300471
"65",16824.5815490936
"66",16532.4351992578
"67",17021.9913262082
"68",16918.1330739574
"69",17091.9160806233
"70",16855.4428333356
"71",16709.387397152
"72",16888.0154784791
"73",16567.7724522415
"74",16495.1889690782
"75",16785.6124919105
"76",16797.799546354
"77",16975.9373636433
"78",16858.5341158985
"79",16855.1920262648
"80",16846.9938165992
"81",16645.1668507482
"82",16850.3249067472
"83",16735.491344182
"84",16738.4875738003
"85",17088.3641736092
"86",16892.4408459631
"87",17191.3371057775
"88",16768.2825101458
"89",16667.195117804
"90",16575.6219613326
"91",16966.1456335201
"92",16825.5342474647
"93",16889.769642359
"94",16808.4789741098
"95",16758.612408837
"96",16665.5335917935
"97",16560.3183734127
"98",16718.4159524562
"99",16872.5290245191
"100",16799.8479011795
"101",16776.870737341
"102",16763.4996922059
"103",16768.2786946182
"104",16588.7194378714
"105",16790.8373197322
"106",16757.5207880694
"107",16813.5539161053
"108",16878.3425442196
"109",16707.2320517501
"110",16988.2437697379
"111",16980.8159914468
"112",16749.0890184155
"113",16894.4341821392
"114",17012.912538185
"115",16749.8932650841
"116",16602.5086912566
"117",16800.177298044
"118",16801.9876702089
"119",16845.30831351
"120",16810.1554240693
"121",16964.1747446697
"122",16617.4283274282
"123",16779.0632648791
"124",16802.0859113493
"125",17021.6387605921
"126",16934.6341815969
"127",16648.3969330258
"128",17174.1131614606
"129",16968.7645269235
"130",16858.5323535918
"131",16703.7933709726
"132",16718.8837687514
"133",16951.167029671
"134",16883.0518121746
"135",17161.8355740856
"136",16973.0552351483
"137",16819.4802624537
"138",16880.9074634992
"139",16998.947595132
"140",16920.0998368209
"141",16731.1532283557
"142",16797.7380055686
"143",16992.4921937472
"144",16947.1147213465
"145",16658.5103830329
"146",16815.5814826042
"147",17024.4330413778
"148",16808.3470141839
"149",17032.2262935255
"150",16694.1527105012
"151",16856.7479739687
"152",16683.5061943103
"153",16767.2470837833
"154",16845.4689064648
"155",16862.0570391116
"156",16732.5177805881
"157",16634.9305560607
"158",16807.4371359904
"159",16892.2553003521
"160",16915.6574336558
"161",16669.0520734352
"162",16854.0397062214
"163",16810.3580472822
"164",17012.6765545238
"165",16619.5866160664
"166",16977.7797700278
"167",16882.1065799968
"168",16739.7054660515
"169",16890.3367078322
"170",16714.0420095682
"171",17154.7596376734
"172",16849.0174273363
"173",16789.9859622503
"174",16661.3400955594
"175",17082.9207809076
"176",16965.6401549335
"177",16761.086743599
"178",16905.52034278
"179",17068.5969683071
"180",16716.0702053778
"181",16955.4664210587
"182",16874.380788139
"183",16987.2652541335
"184",16929.2356869557
"185",16689.5947352398
"186",16902.1573571437
"187",16664.2477645201
"188",16805.8775239456
"189",16932.3427754408
"190",16864.9716255833
"191",17030.0181595139
"192",16946.4215802401
"193",16653.6309527025
"194",16796.3227739783
"195",16509.7668526137
"196",16810.5655976106
"197",16846.9028000542
"198",16975.0456243672
"199",17012.460847074
"200",16977.9882615844
"201",16697.3246727291
"202",16803.1017582214
"203",16741.7702266662
"204",17251.4397434309
"205",16871.488260536
"206",16919.9871928814
"207",16837.4605898492
"208",16898.8941658947
"209",16884.6404288855
"210",16648.2423946591
"211",16761.4857823084
"212",16859.3844316025
"213",16788.7547072084
"214",16939.5348994491
"215",16746.5695992718
"216",16803.7639342795
"217",16744.1833934216
"218",17039.3612235346
"219",16681.6784344522
"220",16928.2682509639
"221",17075.1916748048
"222",16892.2668098028
"223",16866.6124908156
"224",17028.5698315217
"225",16793.7568180161
"226",16764.2183538331
"227",16860.9952581128
"228",16843.2162306956
"229",17119.5367371902
"230",16836.9279234613
"231",16936.8814453346
"232",16849.0453863785
"233",16917.5420704743
"234",16875.2787572794
"235",16695.7100329844
"236",16716.9878968485
"237",16655.8502981659
"238",16904.2069493462
"239",16870.1044093248
"240",17205.415489917
"241",16710.9251172333
"242",16808.0396312824
"243",16894.2097955073
"244",16815.3572476228
"245",16967.2005576707
"246",16830.4980504027
"247",16936.6257905041
"248",16945.4972993827
"249",16728.834698556
"250",16978.3199194311
