"","x"
"1",-8455.02878268796
"2",-8320.11281915087
"3",-8400.79522719921
"4",-8526.83933344112
"5",-8355.11378441844
"6",-8364.93941253515
"7",-8376.13398165013
"8",-8306.12625507224
"9",-8309.35277805829
"10",-8406.58153315902
"11",-8378.85553345494
"12",-8482.90601749706
"13",-8411.83695208515
"14",-8535.25810771174
"15",-8322.39630405778
"16",-8387.12576851077
"17",-8519.7335168807
"18",-8341.55958447536
"19",-8391.86306712393
"20",-8436.90761804489
"21",-8425.71012007362
"22",-8344.00366673416
"23",-8538.64885552451
"24",-8340.92795542182
"25",-8497.84252108238
"26",-8376.2222501018
"27",-8395.22277538283
"28",-8522.37296175707
"29",-8371.2796990647
"30",-8466.34892161161
"31",-8415.77630969507
"32",-8529.81799696666
"33",-8349.23036673234
"34",-8400.72985686286
"35",-8354.86399489193
"36",-8332.34912243736
"37",-8437.32560118065
"38",-8435.6809723428
"39",-8409.80970319912
"40",-8414.25142067538
"41",-8462.21982797239
"42",-8338.52567753935
"43",-8406.95255099503
"44",-8393.45484059186
"45",-8545.13338029867
"46",-8440.35551385999
"47",-8522.44111486961
"48",-8281.21999324883
"49",-8366.73656021825
"50",-8360.10238152053
"51",-8434.93639508786
"52",-8511.39650257514
"53",-8483.60839642528
"54",-8450.53482337289
"55",-8443.75954752956
"56",-8436.74324037074
"57",-8440.08435148714
"58",-8475.28583409474
"59",-8401.14984739697
"60",-8470.69786765298
"61",-8554.94857459199
"62",-8490.0755243483
"63",-8395.42243845731
"64",-8561.18351502353
"65",-8402.29077454679
"66",-8256.21759962892
"67",-8500.9956631041
"68",-8449.0665369787
"69",-8535.95804031163
"70",-8417.72141666779
"71",-8344.69369857599
"72",-8434.00773923956
"73",-8273.88622612073
"74",-8237.5944845391
"75",-8382.80624595526
"76",-8388.89977317701
"77",-8477.96868182166
"78",-8419.26705794925
"79",-8417.59601313239
"80",-8413.4969082996
"81",-8312.58342537412
"82",-8415.16245337359
"83",-8357.74567209098
"84",-8359.24378690014
"85",-8534.18208680458
"86",-8436.22042298155
"87",-8585.66855288874
"88",-8374.14125507291
"89",-8323.59755890198
"90",-8277.81098066632
"91",-8473.07281676004
"92",-8402.76712373234
"93",-8434.88482117949
"94",-8394.23948705488
"95",-8369.30620441852
"96",-8322.76679589677
"97",-8270.15918670635
"98",-8349.20797622812
"99",-8426.26451225954
"100",-8389.92395058976
"101",-8378.4353686705
"102",-8371.74984610293
"103",-8374.13934730908
"104",-8284.35971893572
"105",-8385.41865986608
"106",-8368.76039403469
"107",-8396.77695805265
"108",-8429.17127210979
"109",-8343.61602587505
"110",-8484.12188486896
"111",-8480.40799572339
"112",-8364.54450920777
"113",-8437.21709106959
"114",-8496.45626909251
"115",-8364.94663254205
"116",-8291.25434562831
"117",-8390.08864902201
"118",-8390.99383510446
"119",-8412.65415675498
"120",-8395.07771203464
"121",-8472.08737233486
"122",-8298.71416371408
"123",-8379.53163243953
"124",-8391.04295567465
"125",-8500.81938029605
"126",-8457.31709079844
"127",-8314.1984665129
"128",-8577.05658073028
"129",-8474.38226346177
"130",-8419.26617679592
"131",-8341.89668548632
"132",-8349.44188437568
"133",-8465.5835148355
"134",-8431.52590608732
"135",-8570.91778704282
"136",-8476.52761757413
"137",-8399.74013122684
"138",-8430.45373174959
"139",-8489.47379756601
"140",-8450.04991841047
"141",-8355.57661417785
"142",-8388.86900278429
"143",-8486.24609687358
"144",-8463.55736067326
"145",-8319.25519151643
"146",-8397.7907413021
"147",-8502.21652068889
"148",-8394.17350709196
"149",-8506.11314676277
"150",-8337.07635525061
"151",-8418.37398698435
"152",-8331.75309715514
"153",-8373.62354189163
"154",-8412.7344532324
"155",-8421.0285195558
"156",-8356.25889029407
"157",-8307.46527803034
"158",-8393.71856799519
"159",-8436.12765017603
"160",-8447.82871682792
"161",-8324.52603671761
"162",-8417.0198531107
"163",-8395.17902364111
"164",-8496.33827726191
"165",-8299.79330803318
"166",-8478.8898850139
"167",-8431.05328999839
"168",-8359.85273302576
"169",-8435.16835391608
"170",-8347.02100478411
"171",-8567.37981883671
"172",-8414.50871366815
"173",-8384.99298112515
"174",-8320.67004777972
"175",-8531.4603904538
"176",-8472.82007746676
"177",-8370.5433717995
"178",-8442.76017139
"179",-8524.29848415355
"180",-8348.03510268888
"181",-8467.73321052934
"182",-8427.19039406948
"183",-8483.63262706676
"184",-8454.61784347787
"185",-8334.79736761988
"186",-8441.07867857186
"187",-8322.12388226003
"188",-8392.93876197278
"189",-8456.1713877204
"190",-8422.48581279167
"191",-8505.00907975693
"192",-8463.21079012007
"193",-8316.81547635126
"194",-8388.16138698914
"195",-8244.88342630687
"196",-8395.28279880528
"197",-8413.4514000271
"198",-8477.52281218358
"199",-8496.23042353701
"200",-8478.99413079222
"201",-8338.66233636453
"202",-8391.55087911072
"203",-8360.88511333308
"204",-8615.71987171547
"205",-8425.74413026802
"206",-8449.99359644072
"207",-8408.73029492462
"208",-8439.44708294733
"209",-8432.32021444275
"210",-8314.12119732953
"211",-8370.74289115418
"212",-8419.69221580125
"213",-8384.3773536042
"214",-8459.76744972453
"215",-8363.28479963592
"216",-8391.88196713974
"217",-8362.09169671082
"218",-8509.68061176729
"219",-8330.8392172261
"220",-8454.13412548197
"221",-8527.59583740238
"222",-8436.13340490141
"223",-8423.30624540779
"224",-8504.28491576083
"225",-8386.87840900805
"226",-8372.10917691655
"227",-8420.4976290564
"228",-8411.60811534781
"229",-8549.76836859509
"230",-8408.46396173066
"231",-8458.44072266732
"232",-8414.52269318925
"233",-8448.77103523713
"234",-8427.63937863971
"235",-8337.85501649221
"236",-8348.49394842426
"237",-8317.92514908297
"238",-8442.10347467312
"239",-8425.0522046624
"240",-8592.7077449585
"241",-8345.46255861665
"242",-8394.0198156412
"243",-8437.10489775364
"244",-8397.67862381139
"245",-8473.60027883534
"246",-8405.24902520136
"247",-8458.31289525206
"248",-8462.74864969133
"249",-8354.41734927798
"250",-8479.15995971557
