"","x"
"1",-4234.46012124771
"2",-4080.68418962694
"3",-4090.43348387884
"4",-4099.26256893328
"5",-4125.58450882893
"6",-4102.88098159585
"7",-4125.0456673716
"8",-4109.12108957443
"9",-4314.35566566644
"10",-4157.18316117894
"11",-4036.34950068357
"12",-4090.63846742764
"13",-4062.17637191556
"14",-3995.04173366589
"15",-4119.64025636401
"16",-4255.9028951702
"17",-4268.09453068776
"18",-4140.62304973622
"19",-4173.32949854723
"20",-4002.12779065154
"21",-4035.07487255154
"22",-4052.81218245586
"23",-4155.26080455385
"24",-4141.15952754309
"25",-4038.32799110459
"26",-4206.45018554699
"27",-4149.19439752721
"28",-4076.82423418454
"29",-4143.56786100338
"30",-4118.30588680784
"31",-4143.90907365445
"32",-4053.08457365975
"33",-4117.36794611628
"34",-4098.00555114514
"35",-4169.8601524124
"36",-4064.7841768013
"37",-4117.1673359572
"38",-4067.38084210416
"39",-4083.69891124949
"40",-4061.46631841653
"41",-4016.77759394929
"42",-4128.99347181718
"43",-4160.96666314899
"44",-4066.39661582173
"45",-4153.95980407933
"46",-4048.22037501718
"47",-4160.96788357134
"48",-4088.70433800149
"49",-4089.8442869949
"50",-4267.05593744306
"51",-4098.48232250384
"52",-4074.71706260387
"53",-4111.45247312265
"54",-4095.6314461547
"55",-4218.08449994803
"56",-4202.51936476285
"57",-4106.5568279472
"58",-4103.83525314663
"59",-4060.60958098633
"60",-4134.54367858401
"61",-4123.02367691803
"62",-4060.16011685393
"63",-4123.19200213687
"64",-4220.97496194862
"65",-4076.29483393141
"66",-4082.33769764707
"67",-4059.64437807911
"68",-4043.46250917244
"69",-4177.78015227404
"70",-4087.04716158912
"71",-4022.15023927019
"72",-4108.56071598688
"73",-4200.10018448778
"74",-4149.753407095
"75",-4044.58551360766
"76",-4140.60395499049
"77",-4098.16962657971
"78",-4149.44815329631
"79",-4208.77892657959
"80",-4231.9045446731
"81",-4141.40660675759
"82",-4161.55687832219
"83",-4120.64163280165
"84",-4084.59949832846
"85",-4044.0983508844
"86",-4090.42870001758
"87",-4209.73030370962
"88",-4095.67625284248
"89",-4124.28007358029
"90",-4064.46949948877
"91",-4134.15473529887
"92",-4098.38185483584
"93",-4150.30200067821
"94",-4197.43988704212
"95",-4091.11868453906
"96",-4082.37232010632
"97",-4074.7883165667
"98",-4137.928431471
"99",-4086.41763122701
"100",-4136.90749783253
"101",-4116.70373829221
"102",-4145.02123937307
"103",-4167.50420826274
"104",-4069.62640511569
"105",-4044.29473933859
"106",-4024.4394645703
"107",-4229.29948786185
"108",-4121.21195357452
"109",-4105.00644797155
"110",-4175.25852001587
"111",-4055.07338426224
"112",-4117.21023696411
"113",-4156.17479812741
"114",-4135.04826515504
"115",-4081.50258616995
"116",-4089.95766495088
"117",-4092.79004418136
"118",-4178.65695327929
"119",-4126.34463831788
"120",-4155.50647154661
"121",-4103.10984859029
"122",-4117.95282736704
"123",-4116.77167621408
"124",-4050.52479212077
"125",-4083.992918074
"126",-4174.69093919329
"127",-4031.7531970794
"128",-4129.5535975768
"129",-4188.01573704195
"130",-4126.93797854027
"131",-4064.87864931577
"132",-4069.66055985846
"133",-4144.95483436006
"134",-4215.37756553718
"135",-4076.33234804565
"136",-4195.77087470847
"137",-4188.47036072219
"138",-4293.96569853782
"139",-4099.29762998078
"140",-4126.85668750754
"141",-4228.20223766871
"142",-4324.20640638385
"143",-4079.26315152329
"144",-4145.08162073014
"145",-4199.76279860186
"146",-4114.14567858428
"147",-4121.90989515967
"148",-4055.66323298978
"149",-4091.76575742715
"150",-4125.57140079289
"151",-4050.02295748615
"152",-4104.99434144791
"153",-4127.17606586677
"154",-4114.69635736388
"155",-4209.57621059113
"156",-4095.6844824086
"157",-4134.16606754246
"158",-4105.61603358174
"159",-4157.46668415373
"160",-4081.17052813268
"161",-4084.18847462307
"162",-4169.64608379401
"163",-4090.32311977787
"164",-4175.88864924451
"165",-4086.55472811537
"166",-4052.4101839312
"167",-4076.10683157127
"168",-4059.72465747009
"169",-4130.52975920319
"170",-4026.42267769692
"171",-4090.22775834643
"172",-4067.40369599035
"173",-4050.51118793996
"174",-4068.86113282217
"175",-4018.20440136692
"176",-4125.46449046984
"177",-4172.40513869013
"178",-4010.85627783524
"179",-4061.44391970832
"180",-4018.01574927083
"181",-4149.58605241122
"182",-4069.52458175036
"183",-4211.86825997235
"184",-4091.91405605262
"185",-4090.03828116383
"186",-4027.8745394663
"187",-4168.95886387047
"188",-4157.27700863294
"189",-4058.3982833975
"190",-4118.10232061043
"191",-4087.59621241194
"192",-4057.12345755678
"193",-4057.01723788565
"194",-4126.32082083132
"195",-4244.43338488246
"196",-4119.79549615767
"197",-4091.55481600045
"198",-4106.28150950966
"199",-4113.49889341841
"200",-4092.64473486418
"201",-4080.7033931421
"202",-4070.68592230348
"203",-4084.51160684832
"204",-4136.07571841515
"205",-4084.40410206651
"206",-4101.17192693835
"207",-4070.01923327581
"208",-4169.67067526807
"209",-4122.33685047788
"210",-4069.3986078234
"211",-4115.18281808582
"212",-4090.01020599093
"213",-4173.41639051469
"214",-4192.99863129833
"215",-4063.56765262331
"216",-4330.67381219978
"217",-4131.08685106114
"218",-4030.2222146744
"219",-4138.56246227211
"220",-4101.81061784034
"221",-4107.17215401813
"222",-4095.20960001065
"223",-4072.19155171651
"224",-4136.18788458529
"225",-4181.18795790586
"226",-4103.08354748653
"227",-4332.15798979023
"228",-4049.15245811853
"229",-4088.2572119869
"230",-4088.37097617319
"231",-4069.39209214624
"232",-4216.53047353002
"233",-4092.50580602296
"234",-4094.72071555959
"235",-4075.0580727996
"236",-4084.20348095888
"237",-4030.93640282083
"238",-4034.06630415199
"239",-4187.69237674368
"240",-4068.41958435651
"241",-4197.06993457542
"242",-3993.36939606096
"243",-4112.62022060741
"244",-4148.18819982945
"245",-4095.37790512092
"246",-4058.29403594985
"247",-4064.09659683666
"248",-4111.66957215661
"249",-4067.54903966453
"250",-4217.02408681142
