"","V1","V2","V3","V4"
"1",0.31,0.507,0.351,0.547
"2",0.368,0.469,0.261,0.611
"3",0.324,0.463,0.29,0.511
"4",0.355,0.407,0.37,0.577
"5",0.301,0.438,0.318,0.553
"6",0.39,0.455,0.297,0.602
"7",0.432,0.408,0.503,0.31
"8",0.367,0.498,0.374,0.533
"9",0.345,0.502,0.376,0.519
"10",0.347,0.359,0.41,0.538
"11",0.477,0.367,0.525,0.303
"12",0.353,0.513,0.353,0.586
"13",0.313,0.477,0.339,0.492
"14",0.281,0.424,0.312,0.537
"15",0.385,0.469,0.377,0.477
"16",0.34,0.472,0.347,0.581
"17",0.353,0.438,0.32,0.521
"18",0.476,0.372,0.534,0.345
"19",0.315,0.505,0.348,0.55
"20",0.378,0.387,0.397,0.476
"21",0.397,0.438,0.407,0.45
"22",0.359,0.453,0.407,0.587
"23",0.343,0.498,0.394,0.501
"24",0.388,0.432,0.412,0.573
"25",0.405,0.435,0.35,0.568
"26",0.38,0.446,0.357,0.526
"27",0.366,0.404,0.349,0.5
"28",0.419,0.45,0.348,0.529
"29",0.405,0.426,0.365,0.586
"30",0.411,0.41,0.348,0.524
"31",0.428,0.431,0.36,0.565
"32",0.33,0.465,0.361,0.475
"33",0.377,0.461,0.385,0.467
"34",0.38,0.494,0.366,0.551
"35",0.353,0.343,0.334,0.486
"36",0.375,0.525,0.356,0.532
"37",0.399,0.449,0.4,0.523
"38",0.42,0.436,0.289,0.546
"39",0.345,0.421,0.382,0.534
"40",0.375,0.425,0.291,0.472
"41",0.456,0.356,0.585,0.288
"42",0.446,0.375,0.464,0.295
"43",0.317,0.439,0.327,0.52
"44",0.404,0.465,0.37,0.606
"45",0.407,0.496,0.357,0.53
"46",0.355,0.426,0.353,0.535
"47",0.372,0.408,0.347,0.517
"48",0.427,0.463,0.332,0.526
"49",0.321,0.452,0.351,0.496
"50",0.307,0.458,0.284,0.557
"51",0.406,0.498,0.306,0.531
"52",0.358,0.473,0.354,0.51
"53",0.277,0.484,0.407,0.487
"54",0.452,0.397,0.501,0.373
"55",0.398,0.411,0.4,0.497
"56",0.352,0.429,0.306,0.557
"57",0.366,0.414,0.373,0.491
"58",0.373,0.425,0.378,0.604
"59",0.294,0.479,0.358,0.56
"60",0.378,0.495,0.373,0.544
"61",0.364,0.419,0.341,0.497
"62",0.401,0.452,0.43,0.514
"63",0.341,0.507,0.321,0.517
"64",0.34,0.439,0.317,0.542
"65",0.358,0.449,0.28,0.499
"66",0.387,0.432,0.34,0.533
"67",0.419,0.469,0.341,0.5
"68",0.393,0.443,0.338,0.55
"69",0.396,0.437,0.401,0.482
"70",0.365,0.41,0.319,0.571
"71",0.488,0.404,0.569,0.344
"72",0.382,0.436,0.344,0.52
"73",0.284,0.51,0.321,0.536
"74",0.432,0.385,0.449,0.319
"75",0.472,0.306,0.538,0.314
"76",0.407,0.501,0.341,0.503
"77",0.386,0.464,0.407,0.534
"78",0.31,0.355,0.367,0.542
"79",0.422,0.44,0.314,0.569
"80",0.324,0.414,0.364,0.5
"81",0.325,0.415,0.301,0.539
"82",0.291,0.552,0.39,0.552
"83",0.333,0.442,0.351,0.585
"84",0.417,0.449,0.323,0.529
"85",0.374,0.504,0.376,0.496
"86",0.311,0.393,0.372,0.488
"87",0.435,0.414,0.34,0.534
"88",0.361,0.433,0.386,0.541
"89",0.403,0.438,0.327,0.55
"90",0.366,0.486,0.408,0.498
"91",0.342,0.492,0.406,0.55
"92",0.401,0.366,0.499,0.378
"93",0.403,0.376,0.394,0.5
"94",0.326,0.474,0.345,0.547
"95",0.263,0.507,0.327,0.513
"96",0.331,0.447,0.366,0.592
"97",0.428,0.335,0.495,0.36
"98",0.318,0.489,0.422,0.507
"99",0.399,0.462,0.394,0.485
"100",0.379,0.446,0.363,0.614
"101",0.31,0.421,0.41,0.491
"102",0.364,0.436,0.421,0.531
"103",0.454,0.506,0.368,0.576
"104",0.357,0.559,0.339,0.538
"105",0.355,0.465,0.319,0.585
"106",0.436,0.402,0.503,0.36
"107",0.382,0.48,0.382,0.477
"108",0.408,0.466,0.378,0.528
"109",0.315,0.515,0.334,0.5
"110",0.312,0.446,0.33,0.539
"111",0.407,0.385,0.399,0.477
"112",0.341,0.383,0.325,0.457
"113",0.343,0.458,0.32,0.599
"114",0.406,0.5,0.351,0.495
"115",0.396,0.477,0.353,0.56
"116",0.377,0.514,0.297,0.527
"117",0.389,0.469,0.39,0.488
"118",0.418,0.396,0.344,0.589
"119",0.332,0.358,0.385,0.545
"120",0.341,0.466,0.344,0.548
"121",0.408,0.446,0.32,0.481
"122",0.378,0.431,0.293,0.607
"123",0.403,0.449,0.365,0.563
"124",0.339,0.466,0.356,0.569
"125",0.431,0.378,0.493,0.377
"126",0.358,0.419,0.349,0.559
"127",0.419,0.433,0.366,0.483
"128",0.424,0.44,0.335,0.476
"129",0.368,0.384,0.408,0.469
"130",0.375,0.384,0.351,0.54
"131",0.412,0.446,0.397,0.51
"132",0.394,0.486,0.348,0.49
"133",0.356,0.496,0.357,0.518
"134",0.327,0.441,0.324,0.523
"135",0.361,0.501,0.397,0.514
"136",0.461,0.364,0.493,0.288
"137",0.39,0.46,0.354,0.524
"138",0.353,0.404,0.361,0.5
"139",0.409,0.412,0.404,0.492
"140",0.37,0.465,0.375,0.473
"141",0.321,0.413,0.325,0.529
"142",0.319,0.438,0.378,0.581
"143",0.448,0.384,0.522,0.344
"144",0.416,0.433,0.369,0.503
"145",0.412,0.505,0.31,0.533
"146",0.36,0.439,0.403,0.561
"147",0.46,0.319,0.459,0.379
"148",0.388,0.473,0.365,0.467
"149",0.36,0.473,0.383,0.567
"150",0.302,0.517,0.342,0.586
"151",0.384,0.443,0.367,0.579
"152",0.338,0.434,0.397,0.534
"153",0.359,0.438,0.395,0.497
"154",0.436,0.41,0.305,0.557
"155",0.356,0.456,0.401,0.537
"156",0.358,0.416,0.29,0.519
"157",0.386,0.494,0.286,0.494
"158",0.38,0.467,0.287,0.513
"159",0.359,0.47,0.381,0.592
"160",0.308,0.429,0.351,0.554
"161",0.306,0.49,0.333,0.505
"162",0.32,0.466,0.383,0.508
"163",0.375,0.424,0.34,0.498
"164",0.451,0.406,0.569,0.38
"165",0.372,0.424,0.36,0.463
"166",0.371,0.459,0.279,0.527
"167",0.382,0.49,0.276,0.545
"168",0.352,0.437,0.353,0.515
"169",0.348,0.481,0.412,0.499
"170",0.41,0.47,0.39,0.505
"171",0.375,0.393,0.417,0.514
"172",0.312,0.416,0.369,0.501
"173",0.369,0.446,0.382,0.542
"174",0.37,0.436,0.355,0.514
"175",0.363,0.485,0.294,0.565
"176",0.383,0.397,0.373,0.483
"177",0.333,0.413,0.353,0.505
"178",0.377,0.491,0.341,0.547
"179",0.437,0.39,0.445,0.374
"180",0.293,0.449,0.326,0.539
"181",0.299,0.424,0.387,0.502
"182",0.353,0.444,0.367,0.503
"183",0.37,0.451,0.372,0.533
"184",0.369,0.486,0.4,0.501
"185",0.392,0.369,0.384,0.554
"186",0.338,0.488,0.395,0.538
"187",0.365,0.468,0.355,0.523
"188",0.388,0.462,0.388,0.479
"189",0.31,0.453,0.384,0.547
"190",0.317,0.493,0.358,0.513
"191",0.364,0.519,0.38,0.541
"192",0.338,0.444,0.416,0.543
"193",0.366,0.466,0.349,0.504
"194",0.434,0.45,0.376,0.523
"195",0.318,0.471,0.299,0.542
"196",0.35,0.453,0.413,0.485
"197",0.501,0.324,0.551,0.304
"198",0.385,0.473,0.331,0.574
"199",0.373,0.389,0.356,0.528
"200",0.398,0.441,0.314,0.588
"201",0.345,0.466,0.39,0.516
"202",0.386,0.486,0.347,0.54
"203",0.528,0.353,0.498,0.403
"204",0.455,0.37,0.496,0.37
"205",0.421,0.436,0.365,0.612
"206",0.292,0.46,0.374,0.541
"207",0.43,0.386,0.33,0.505
"208",0.402,0.446,0.353,0.488
"209",0.373,0.425,0.325,0.568
"210",0.35,0.496,0.363,0.588
"211",0.341,0.44,0.38,0.498
"212",0.333,0.451,0.303,0.524
"213",0.279,0.409,0.387,0.481
"214",0.354,0.505,0.385,0.564
"215",0.395,0.431,0.357,0.536
"216",0.326,0.554,0.367,0.529
"217",0.343,0.508,0.365,0.547
"218",0.288,0.461,0.348,0.544
"219",0.299,0.511,0.345,0.571
"220",0.304,0.419,0.366,0.567
"221",0.39,0.451,0.41,0.52
"222",0.358,0.457,0.342,0.525
"223",0.363,0.44,0.363,0.589
"224",0.388,0.451,0.305,0.546
"225",0.42,0.3,0.448,0.375
"226",0.425,0.433,0.438,0.556
"227",0.323,0.442,0.365,0.52
"228",0.422,0.39,0.51,0.349
"229",0.384,0.488,0.361,0.541
"230",0.358,0.448,0.397,0.532
"231",0.37,0.515,0.333,0.54
"232",0.402,0.489,0.392,0.552
"233",0.366,0.415,0.33,0.524
"234",0.428,0.442,0.316,0.565
"235",0.372,0.38,0.387,0.505
"236",0.425,0.371,0.48,0.255
"237",0.37,0.573,0.327,0.569
"238",0.426,0.408,0.359,0.513
"239",0.421,0.37,0.556,0.327
"240",0.333,0.501,0.379,0.488
"241",0.403,0.448,0.352,0.534
"242",0.371,0.436,0.319,0.525
"243",0.35,0.443,0.376,0.476
"244",0.392,0.49,0.289,0.459
"245",0.431,0.336,0.546,0.302
"246",0.333,0.378,0.297,0.581
"247",0.355,0.494,0.33,0.5
"248",0.375,0.508,0.385,0.496
"249",0.391,0.466,0.351,0.521
"250",0.411,0.476,0.358,0.543
