"","V1","V2","V3","V4","V5","V6","V7","V8"
"1",25.2961430480153,35.252447331068,5.23188801332922,6.90185486264113,0.0475768488887717,0.0434138403772398,1.94501545144535,11.0679520547059
"2",25.1166383451881,33.9860071190224,4.94001681676764,6.81370713291169,-0.011739214450659,0.0444495914373884,1.88652064742373,11.4669405634607
"3",25.4408852362084,33.8318521196409,5.2605456980468,6.78602864880816,-0.0745647516821143,-0.0145369252171829,2.05237359433157,11.1146716445818
"4",25.1470547975311,34.687082874085,5.0527530521993,6.7243434846376,0.0542763625065048,0.043284394374494,1.94482907567715,10.7543682014445
"5",25.4245066508145,34.3283895111242,5.11662021283762,7.03948989471503,0.0486525198117563,0.0176048810636437,1.91153224656208,11.580739684115
"6",25.6775368147691,34.3968874256891,5.01110791159749,6.98724948022274,-0.0947334244588177,0.0426805457266773,2.11683470611667,11.1804795454197
"7",25.1698540670944,33.9808293475955,4.96626586474831,6.52912069787763,0.0431025381760611,-0.0764682799540029,1.9442072084494,12.4629782799262
"8",25.2379665445718,34.5674452922169,5.12665022740757,7.07593081850113,-0.00899459373455543,-0.00946885543908651,1.9665010483365,10.7490184657375
"9",25.8472482584633,34.1704718720063,5.25474495167063,6.83062791582889,0.000691921958800048,0.00461021473700749,2.0900959819516,11.2041422794602
"10",24.7557710364224,34.2063102754595,4.78370088304117,6.79481120091001,-0.00386322028699152,0.00692225756384025,2.07542506480025,9.5471999010197
"11",25.5411850404312,34.6710818097936,5.26818017137237,6.89750829503729,-0.0360571139318424,-0.022163628447257,1.96761356434228,10.5368726213362
"12",25.2982900252459,34.8899802968461,5.32737352184587,6.98602482630627,0.0389864015502907,-0.0218254619604798,2.03112319950882,11.1630746464803
"13",25.4321569956662,34.4866533327543,5.39605271853278,6.91567225527131,0.0148470250113023,-0.0188451381497355,1.99334205918482,10.2477440827078
"14",25.4159561642045,34.2491477880735,5.20861732207682,6.98356695641586,0.022357117757246,0.0107050359535594,2.0508061446841,10.4030522118395
"15",25.4629498849007,35.4667569702736,5.1745385698618,7.49837437922309,0.00278394547515155,-0.00608333089645937,2.22325711667147,11.6606060047149
"16",25.3806050463532,34.8651698576351,5.07959497037429,6.91562583538729,0.0107925881906687,0.0141576368942465,1.93705972191243,12.3837525631697
"17",25.4396991559095,35.2148318064834,5.22642730586599,7.18026556709511,-0.0397001027198883,0.0237733060762022,2.11918812980272,12.2573307394378
"18",25.4690352938263,34.8291751115454,5.15610053289667,6.96826352065007,0.0515218503481964,-0.025312553791519,1.93109429779635,11.8239411788821
"19",25.721727084471,34.5602759934284,5.06539274144962,7.15608573044676,-0.020251985773523,-0.0532132205989764,1.94896588839622,12.1741955522874
"20",25.6135178941608,34.54579926042,5.27602280276644,6.95297825423397,-0.000225675013794758,0.0354555020458743,2.04846462644917,11.54158811971
"21",25.4445344814136,33.4271313759372,5.1304699162385,6.76984778896403,-0.0526505893714603,0.00884418082308179,2.05359904445089,10.3230357288383
"22",25.1738691361054,34.0359301406199,5.01173663004709,6.80897717453973,-0.0377985925820779,0.0582732035351111,2.00798217075642,12.5299735268429
"23",25.610299165302,35.6291476735506,5.19278343738405,7.08478797613142,-0.0322192740653489,0.00969927523822191,2.12620211874624,11.0693606156217
"24",25.3712931073179,34.3108900071847,5.18463894092301,7.09092017690244,0.0222344108445236,0.0335828685807166,1.90066678039296,11.8328524157405
"25",24.8711727732986,34.2042875153601,4.81896366599207,6.6911785304523,0.0287732787730199,0.0152456319085629,2.11050708073125,10.8535833503172
"26",24.9651209953364,33.4567084132605,5.07835723144302,6.6731946352477,-0.021814723920693,-0.0295464084177555,2.129606174022,10.6275892609881
"27",25.4380659275441,34.4891708394597,4.89705727870175,6.90942876483541,-0.0219081533094801,-0.0286163507329313,1.95742475140536,11.4509374175642
"28",25.6193963910393,34.4448732085783,5.5199939350997,6.96986517246402,0.0484725100850034,0.0727118648973782,1.90788644407128,12.402657997621
"29",25.6496781468394,34.4474572618456,5.33446031017529,7.1550661684889,-0.0183597557750863,-0.00103621185176267,2.13847803461498,11.4969601139005
"30",25.6695829322598,34.3868826472262,5.00325244797053,7.06448405010771,0.042939971499539,0.00226566339601633,1.99636439966949,11.8033917020356
"31",25.507760480697,34.376977286032,5.28398122793481,6.87623969875674,-0.0292078634591669,0.0113937727144413,2.03337061317787,10.8703097404017
"32",24.9203561228886,33.9632772205546,5.19240945774713,6.96388853685014,-0.0565205909722207,-0.0270393521470368,1.92541241562738,10.7079129407096
"33",24.7040976363365,34.7762151375127,4.8594593630465,6.69343494589038,0.010168451013158,-0.0135903162380817,1.89051189251176,12.1436484974059
"34",25.3307960487762,34.3026051318197,5.20363902991668,7.09347301750063,0.0303273463422818,0.00312102196386631,2.01537602406231,11.6245391190413
"35",25.316221404813,33.691759316966,5.16379243969413,7.02151507110203,0.0246814887641863,0.04004589936796,2.13254852939075,10.7509870926706
"36",25.3994165689518,34.0643657554168,5.17271806394248,6.57162526967896,-0.0239424760876118,0.0114575171007694,1.87186063275264,10.3115133052711
"37",25.0990111739198,34.2315823526019,5.09798611016661,6.97819912300758,-0.0074237953880629,0.0256800016772681,1.78224091103499,10.2724154675675
"38",25.2817667783489,33.6845524879537,5.03156738918706,6.65113945591886,0.0136846254091499,0.00223538091915653,1.96808879134224,10.4104040586665
"39",25.2954317234522,34.97821812544,5.12432606405176,7.13221958640155,-0.0540089684881551,-0.0191909548049861,1.97969405325679,11.3546180323241
"40",25.2270587578145,34.5607460333225,5.05284629739255,7.02681413982969,-0.0977506275577158,0.00267189672725578,1.9427471856819,12.1459824289454
"41",25.5152395672302,34.5224989607838,5.07511275409439,7.16239262949279,-0.00189642165022516,-0.0469367234472408,2.07253890157523,10.9946970022712
"42",25.6891109143336,34.7341829378451,5.4638366239904,6.71979084698908,0.0805932978735788,-0.0210226518359567,2.1859040191444,12.8139921331724
"43",25.7150765937894,34.7041522596385,5.15555506023726,7.12725181599846,-0.0562015467459512,0.0380378513392644,1.95784681837049,11.3060326011543
"44",25.3852537186328,34.4884469963503,5.08848480989672,6.87834723002458,0.0607839032943054,-0.0117505814141485,2.0594191994018,11.8975715547665
"45",25.702197224299,35.4952276178633,5.42898144626834,6.86298128531028,0.0415851873452094,0.0268130401721649,1.97288656210857,11.4798623526927
"46",25.8077117577333,35.2863210760405,5.28829700886515,7.14363678701341,-0.0518994358468488,-0.0525103451874341,2.10609457923737,10.8041492713546
"47",24.978748612449,35.2831368254292,5.14020463767715,7.11597440856119,0.0080878783151365,-0.0114981083179151,2.03954633017581,10.655084514724
"48",25.5117856608659,34.4902071674133,5.1455249428849,7.15601636293262,0.00385856540898698,0.0218947755287359,2.19118419952057,12.82283746129
"49",25.2976407987178,34.2740792625464,5.01069344894187,7.0123203569742,0.00169362506999742,0.0127988979448744,1.79612110986873,11.8106845526913
"50",25.6056570982845,36.004542896527,5.21513009846999,7.04859304698792,0.0909708111863155,0.0236420657251767,2.11145633937828,10.915495452881
"51",26.1177926081402,33.776976741959,5.33628326031823,7.08182393422151,0.099472733330895,-0.0318371390173372,1.889612591497,11.2497491749229
"52",24.9946843134367,35.3380268056859,4.87828981662268,7.5516631147064,0.122292579164648,-0.0349649883940538,1.95825414073543,10.0070300069034
"53",24.9093788261712,35.153304643185,5.06075890959324,6.64606766658449,0.00365215901482364,-0.0204901340098063,2.08707865102768,11.0616802957491
"54",25.6989799958357,34.9248658946736,5.20969460609308,6.94562787112156,0.0425523186474145,-0.053466682524497,1.97194774376172,11.2334819754867
"55",25.3135825623318,34.2686477232039,5.02587870073706,6.61058805574316,-0.0321673269197034,0.0511630800770851,2.09948919325728,11.5151959429653
"56",25.4200732672956,34.3890683366046,4.84288054614097,6.81306956080884,0.000482502523819989,-0.0431907555169481,1.8657569242373,10.9066485609781
"57",25.4738100680045,34.9190425160503,4.92606879751456,6.99962197867463,-0.0568022037885066,-0.0415170184370708,2.08984266717974,11.8771885306336
"58",25.1082859257404,34.158460474836,5.19245326625095,6.81695944650362,0.012300013236769,0.022398140324364,2.11811082789179,10.8979250654527
"59",25.8605981198932,34.7554463528036,5.2667954972515,7.14509375439426,0.000880800062669979,0.0330597557073954,1.97799109541609,11.9097456363627
"60",25.1142245100919,35.384391876497,5.05308025224354,7.35189550972598,-0.0568237148195677,0.018252825360428,1.83874450987542,10.4166531922462
"61",24.8485415505555,33.7973611449642,5.01934810921306,6.81478257218629,0.0522370401291905,0.00665790998317079,2.0167133459344,10.8096534096821
"62",25.304298741119,34.9116442602591,5.03779161748374,6.78943476813136,0.0858869509336953,-0.0542448215797231,2.10536363906748,11.0902759016114
"63",24.8947730360648,34.3835667828632,5.04079608360926,6.97909181617044,-0.0549879331788331,0.024310320107066,2.04367111848048,10.3201374331386
"64",25.3052634336248,33.9166770111583,5.0549916868386,6.85330432597967,-0.0870593701125693,-0.0245463794637173,2.05881068191412,11.3791784552164
"65",24.9335909543389,33.8177558007252,4.95239771465293,6.97939384370774,-0.048382987479673,0.0136604022385857,1.86330988628207,10.671746553909
"66",25.411635620598,34.6148939992044,4.9330273543852,6.9233482859091,0.178809768149058,-0.00659898673029004,1.92420638425387,12.22780881744
"67",25.1178332435649,33.4082971255135,5.21995794367686,6.75053123000385,0.00859849859258103,0.0170721903935767,1.90826754784597,10.3635643180956
"68",25.25427370553,35.5663358915936,5.09453038143785,7.2056277823588,0.00634623430067096,-0.0266023278074064,1.95129008865997,10.7133949143676
"69",25.3001095740719,34.5631279068346,5.29511387923739,6.84142677660361,0.0123593141003229,-0.0137843093346322,2.0110017879272,11.6203580046057
"70",25.4807371756521,35.0076783460073,5.10746277118224,7.18893129092192,-0.0333133917074743,-0.0184954909191423,1.97317908817107,11.0189017556553
"71",25.6681376478729,35.3134308693373,5.06519046946244,7.49518187556889,0.0497248902186012,-0.0532693250898323,1.87628522231058,11.2792679294664
"72",25.4123332459569,34.353225290589,5.16754032651086,7.26843883195223,-0.0102641727742321,0.0183843654629838,2.18853389750511,11.2009335624043
"73",25.1199125114426,33.7349619793321,5.32478229854875,6.79614808195918,0.093399504805502,0.0588820432370435,1.78469084518051,10.9934183166216
"74",25.4661944679983,35.4270478760422,4.99118509427983,7.00483018839751,0.0758204237122408,0.0181498804151509,2.19297647047141,12.7130740342517
"75",25.3139313950796,34.6551187651196,5.21397379644894,6.92136870034855,0.0500658632305108,-0.0499780686288575,2.04243220336956,11.2341730624548
"76",25.3803047226562,33.5059010208473,5.21891655845216,6.87997713955472,0.0189154280622668,-0.0211209953526575,1.90273007163996,10.6480873993269
"77",25.1754461476281,34.1206521422158,5.09455319110127,7.08060412214505,-0.0389960657616291,0.00189362293760295,2.08934511058834,11.6291988002366
"78",25.383852812805,34.1228319599404,5.15130288411296,6.7763063997268,-0.0751295046539361,-0.00371793081360036,1.97865391455848,11.4948742571556
"79",25.3327606155769,34.0716732037783,5.14645613032146,6.99459654397118,-0.0266855153002394,0.0318769092453152,1.84772290138486,11.3837831425949
"80",24.7570645213865,33.7195524090995,5.04555180332058,6.77516966439486,-0.0313867003902346,-0.037325250300885,1.91050987896581,10.7216572651828
"81",24.9644637344882,34.6594965230813,4.85696004621578,6.78884456048202,0.081485783674942,0.0235570486448752,1.86217005083968,11.3634074724088
"82",25.9352489247268,33.3923476903029,5.38152457438679,6.86732636459544,-0.0144249133074964,0.0275330585453165,2.10533357893684,10.1730666938753
"83",25.5974658582594,35.5353347272111,5.11118660849348,7.22050612769737,-0.0539381395912926,0.0216065835867542,2.00075869220045,11.4192416069778
"84",25.2496497632162,34.0354873450279,5.17082615445625,6.89083707679433,0.0653063009472431,0.0092042943752218,1.93838903973473,10.7811559470782
"85",25.2648198269825,34.4443327036192,5.04705512370158,7.19309624110331,0.0368418052743864,0.04103207635219,1.90839990276169,10.1468367478482
"86",25.2954116875833,33.9480329715261,5.08677944695414,6.73068853833907,0.00220896540808773,0.0145925083941932,1.96685139426619,11.4813426471507
"87",24.9345909850047,35.462560143241,5.16548701991351,6.93710380625174,-0.00405794892719506,-0.0471868511364726,2.02191577691978,10.5321732684696
"88",25.0107284279912,33.8563023994228,4.83366190096481,6.74295024302874,-0.0338664527619154,-0.0354821585557874,1.98456477269579,11.743614310347
"89",25.4005638431749,34.4846074752508,4.94153005841464,7.52859382707901,-0.015341093174228,0.00362753369222159,2.00280928983451,11.0294051513024
"90",24.5515119343872,34.6007321453987,4.95734767023833,6.84070089973973,0.100574351040534,0.0131719977858443,1.94224251659104,10.3356177162505
"91",25.0700405182582,34.7835780047629,5.12502436201445,6.86892691479045,-0.00442880384861714,-0.0384303928370394,2.068311733279,12.3249983156987
"92",25.2014197879318,34.8132244578462,4.95740392769218,6.78072777162228,0.0127142597745178,-0.0685289085961372,1.92315182336923,10.6648655650306
"93",25.2902860696482,33.9322699547524,5.07476054371707,6.78192673636525,-0.0176892848920871,0.0112962048207958,2.00767732208714,10.4857169192831
"94",25.4147330536213,34.2799429044224,5.10230755230661,6.70654700183366,0.0417098670408929,0.0422193000991722,1.99065119327849,10.9938046064727
"95",25.3945092007163,35.5294461711629,5.15323312746692,6.97960767304405,0.0260532168032975,0.0264267752628721,2.13812455571479,11.2984863759565
"96",25.7582041721425,35.1345833486277,5.15182084742557,6.95574787374001,0.0631004118893624,-0.0062895707719259,2.05031052295111,11.7762845242488
"97",25.5723702764474,33.8743007071997,5.1470243070541,6.65476465363006,-0.0552463799260966,-0.0148919936767633,2.01158457823879,13.1443566111626
"98",24.897973201284,36.2240237876857,5.05073488209326,7.09306496094765,0.0551683010796925,-0.0220541188998462,2.10810835300602,11.0697037563154
"99",25.8183428383686,35.5671169609725,5.27438787279787,6.77666983967887,0.0130015740006433,-0.0166749477074829,2.09222707907992,12.7502886620419
"100",25.4137297048967,35.6382607647757,5.36961442174203,7.21058201898787,0.0704879914692599,-0.0451577966066433,2.02062992396376,11.8996313197787
"101",24.9613960747925,34.596526041979,5.09902666117603,6.91242721772092,-0.0364390310732526,-0.0181222604472137,1.86009848031096,11.8068136612796
"102",25.5920400939241,35.1902384319593,5.15366127252784,6.99478532793074,-0.0613706393420682,0.00886627776177146,2.0228579616393,11.306127177879
"103",25.6710571903156,35.1173652976056,5.01470356604248,7.13172249982337,-0.0356407249999766,-0.0241802625526169,1.95820637684699,11.3458211897645
"104",25.6918422004325,34.2749376642992,5.21721282109763,7.09852418784942,-0.0371183964847421,-0.017706134593175,1.98079444949176,11.3246634618848
"105",25.1097805846489,35.5233393279124,5.19411177240999,7.06298393446284,0.0129297565045076,-0.0496512056088678,1.91126696162777,10.9445902240651
"106",25.1677134479764,34.6065620392865,5.0865434758138,7.07354758233332,0.095937946029996,0.0211640803967359,1.80064163867917,10.6709364968603
"107",25.2269800332062,36.2347096323058,5.17338045732547,6.92639395292985,0.0299926136145236,-0.0134560873803293,2.08970004399711,10.3020596231605
"108",25.4506190803599,34.6971318262385,5.25568996511947,6.99642887361219,-0.0010790574782093,-0.0170140830304009,1.89475289848463,11.3850866518037
"109",25.2073748278077,35.6029627345324,5.13852656482736,7.4129800577377,0.0563007965476622,-0.0488228420818732,1.87013638725238,11.1327835539082
"110",25.4892782588825,35.1429575556937,5.05033463977267,7.14089289597698,0.0265521109179797,0.0157682568050792,1.98972202964217,11.6555278325598
"111",25.4488421787544,33.8035481139323,5.15220068979922,6.87949802494098,0.0562388687752014,0.0349191579210592,2.15666400548411,14.4595634101251
"112",25.2321628624233,34.5048548879501,5.01417692280612,7.14930280243654,-0.105550784012219,-0.0319948784129179,2.04898394980979,11.6868117443067
"113",25.5437723969578,34.772933491202,5.34287930243521,6.98702686877623,0.0931917896775389,0.00679585125021331,1.99695453023037,11.5448169413168
"114",25.3112352271366,34.8974821021204,5.13415420535323,7.22896916652253,-0.0227154509266872,0.0213245554040792,2.04168559281051,11.2367954871155
"115",25.5292886460549,34.6201835262899,5.25838377621074,6.99139181639788,-0.0371318707931431,0.0315398113656165,1.76156692259804,10.969528548955
"116",25.304215516483,33.8789206657106,5.1295093583196,6.74144135074295,-0.0441413962709588,-0.0313616666722971,1.9235774463581,11.7635694173921
"117",25.4723732726862,35.0330962629328,5.11838169127128,6.97127313091308,0.0463772022150965,0.0424675795325256,1.82578356333507,12.0482073590032
"118",25.0643293374555,34.8215827789281,5.16963504578915,6.85211615704823,0.0539513362089957,0.00531047102002423,1.99180830940214,11.8254999781233
"119",25.0461388094494,34.8643121988671,4.92880181411499,6.93589744411021,-0.0562078778918549,0.00562472669273237,2.05288251117727,11.8630717062488
"120",25.400836521818,35.1054245192145,5.30644795980121,7.08101438719233,-0.0275428829033547,-0.0249959164834592,2.13810912233837,11.4851909970155
"121",25.0913118216897,34.7746176033016,4.9309621581691,7.02344134790105,-0.0680203670376494,-0.0251484063306225,2.05626170716281,10.7319959104844
"122",25.1783736002456,35.8484429087123,4.93816808455772,6.96284744968297,0.0386964290137952,-0.00795569771985375,2.01209826053703,12.4040325645958
"123",25.2113981475797,34.683314154764,5.03940995250037,7.0520240341019,-0.0109007425935602,0.0120913515140195,2.10985187425709,11.2937425050101
"124",25.1380193686707,34.1553453802731,4.96564571197249,6.8585930092824,-0.00191039550912368,0.00954775532321175,2.09112058146533,10.9475648957383
"125",25.2758285347118,34.6410526856032,5.1943846140622,6.99481374045416,0.0912901884115623,-0.0339035661510559,2.07487397586358,11.6582936250959
"126",25.3832401375308,34.4857666756579,5.33452503835923,7.01513097000684,-0.027825425271331,0.00237600004685558,2.00828734859813,12.7211346509269
"127",25.1911551199537,34.5173888669957,4.85776938616544,7.13085815707945,-0.0103306792623766,-0.0275908647026222,1.84422745956916,11.7941131359948
"128",25.1578927976024,33.4264743830813,5.18021869848627,6.43330644282987,0.00899905450395799,0.0159657905750012,1.98577413690962,10.5358234722967
"129",25.8606090997778,35.3960770013787,5.08773535733957,7.00060239873774,-0.07500017989161,-0.0153190461039003,1.95855902023072,11.9513965876905
"130",25.4577316045475,34.8462519816566,5.21158728378765,6.75512559852844,0.00741003043788391,-0.0124015610018516,2.03387387971255,11.7503236646659
"131",25.7736644664685,35.72855426443,5.32642147852798,7.25302889750998,-0.0296222152405094,-0.0123706534162824,2.25270615137771,12.4044493335307
"132",24.8037387437137,34.8064431589356,5.0862206657389,6.6721989257576,-0.0141835317762611,0.0424351206550722,1.94464050175466,10.6690209800945
"133",25.7418650082517,34.5248591536122,5.29305856527374,6.96925727956142,-0.0465334304846351,-0.00481570428953993,1.98253250095331,11.6886354416687
"134",25.0823496091831,34.7923153115911,4.81395942133806,7.18183777680438,-0.0389802733457563,0.0242770137249969,2.02374861798396,10.6420447281356
"135",25.7860124327237,34.0199401813406,5.10892264873828,7.06780104562959,0.0289902117728289,-0.0230974900603817,2.06361609349846,11.6633788197296
"136",25.1859131777665,34.9121154195326,5.01300612227623,7.03947453703058,0.0564958840897756,-0.00949405315818397,2.01761958398545,10.3562914143741
"137",25.4764284433242,33.7359151730078,5.24440508502934,6.63451823382409,-0.0014526115570526,-0.0196436405686232,1.99467753115297,11.1814740613908
"138",24.8291363405577,34.888878330204,4.81316930510002,6.87053374980811,0.0298954794586434,0.05123561792596,1.87545838765159,10.5728036327271
"139",25.0904363567552,33.6766429219528,4.9563640234329,6.92330228601446,-0.0667215426653321,-0.00272274177893398,1.98667709198067,10.0180463618653
"140",25.5112746879535,34.968196006068,5.09316057083015,6.90672710364846,0.00325248150376403,-0.029602944010801,1.95826636837844,11.2182464806968
"141",25.3679697222874,33.775631047326,5.05281069191589,6.54738517063992,-0.00207829488393579,-0.00902714696413157,1.90851133759134,11.3170877905153
"142",25.0714243201648,34.3261310953161,5.1324895859991,6.9930572142809,-0.0571938746096877,-0.0210632473955629,1.90328133818335,11.2156007684693
"143",25.9191177996987,34.1977647702114,5.32541804526516,6.95881694041258,0.0339855320417489,-0.0214957601757995,1.89866403520882,11.3319733366411
"144",24.8540369409486,35.3069124996193,5.17094985493253,6.82133297617539,-0.062773928838848,-0.0246917993537294,2.03095229277386,11.5045229501142
"145",25.7394869345102,34.6739855048186,5.23219803964331,7.31332305220212,0.0776948511112808,0.0267345715993133,1.98568880726058,11.1909553693986
"146",25.4450710619288,34.8568348381457,5.11688858734675,7.07196794990343,0.0555638095150084,-0.0451653294501692,2.00988378993927,12.1755235030542
"147",25.6088207288758,34.6813786906591,5.0851046178284,7.30027153888626,0.0688331648827304,-0.0161901910242908,1.99485567039874,10.9871858012457
"148",25.3912834024054,35.7255312856287,5.18786255160283,6.95544419855723,-0.016953911580252,0.00440066232409228,2.00362049532918,11.1796650116276
"149",25.5588190694241,35.5188145762361,5.33961923307827,6.89677107493381,0.0326633323918663,-0.0365760012365203,2.17829468583417,11.5598835318777
"150",24.9360517204865,34.6045945716034,5.040377019273,6.87603830990154,-0.0716336175486826,-0.0262540035830742,1.94840549944164,11.5477240359141
"151",25.3600175135212,34.6932325852409,5.19759847813207,6.79709021713286,0.0311921255493035,0.013563236486762,2.00955289251263,12.3236193173518
"152",25.1208626202903,34.4459148562729,5.14310512168872,7.04402956729305,-0.00197722677362057,0.000611214623793376,2.09396371548653,10.926561864515
"153",25.3446418961633,35.1575301799643,5.15227832037534,7.07897182058641,-0.0019217662208583,-0.0135995762165921,1.79805339108815,11.9172582268864
"154",25.8537321595465,33.7601613412697,5.08812663493323,6.68705893938115,0.0758338759519018,-0.00608738823232208,1.90961852542194,12.3737080651225
"155",25.1194130829154,35.8922172125545,5.16456425065122,7.15565901645386,0.00332667553522715,0.0155600929595675,2.18318785718612,11.8872888379662
"156",24.940487453609,35.1663794951931,4.99468070914979,7.12115312212475,0.015600831081557,-0.0362934304779138,1.96415719662426,11.629412375877
"157",25.1470580124272,34.2931743348692,5.2338687080805,7.07797259056326,0.0525046497033319,-0.00544713776199967,1.75584426130496,9.87675962256483
"158",25.1332340170969,34.8671757463153,5.12169611230211,6.94139304387667,-0.0447968332294624,0.00497829360944728,1.93723313337229,10.3411485387804
"159",25.7621364899846,34.3417343124738,5.21447458858431,6.97309501892433,-0.00787314435058756,-0.0160750697026455,2.08218335816878,11.4189074837867
"160",24.9164516136184,33.2710237957459,5.09011334966875,6.52991359221371,0.00376566185186951,-0.00330434896600142,1.82589226688195,11.690791803025
"161",25.2684768768478,34.4410702952342,5.11268482726275,6.72652233019354,-0.0635645300698561,0.0161566140299006,1.81245204086971,11.2751230988665
"162",25.6374250045147,33.5165997160143,5.28584477043901,6.71330217057822,0.0848732617290352,-0.0338490797070868,1.98618861864672,11.208367327297
"163",25.8924171995568,34.9818986968777,5.25032887750109,7.34532842386242,-0.0582924991395156,-0.02422293275127,1.91961894013151,12.5810838242422
"164",25.0102474463051,33.8443598123834,5.099270911908,6.52248860844615,0.0589839282195059,-0.0438396255759062,2.01341429532689,11.2848560925477
"165",24.8216651723021,34.309663871431,4.89190607815537,6.71071901807254,-0.0804031061329968,-0.0184789271109537,1.86284713962259,10.6981299350213
"166",24.7576261417269,34.3774867544402,4.83296211465316,6.92619593525706,0.0688417613700355,-0.00911123553531326,1.99693671713965,10.4341881215933
"167",25.6935513250233,33.6177194983063,5.36289424339477,6.86511899908929,0.0234723041739824,-0.0100943875913202,2.06577020449941,10.9824437403608
"168",25.6368607906178,34.3314717927966,5.17325739518118,6.8198387183991,0.0189462477059079,0.0284329387355131,2.08496157015375,10.8133750079314
"169",25.4719585357744,34.4295242001358,5.31593081072041,6.89856648520998,-0.0551992684341803,-0.0173064475199057,1.98046984489288,11.5425852112554
"170",25.4436640160685,34.1840760147865,5.18274743972587,7.10025850372484,-0.00742718189363473,0.0405591386960044,2.08154279520268,10.6120826061337
"171",25.357214872163,34.5999431791603,5.00029243798893,7.16297202964807,0.0107072327077933,-0.0302513476707439,2.0534149476408,12.4616604949681
"172",25.5127513406861,35.3441711352466,4.95757389621297,6.95676243068326,-0.0305336844424031,0.0109677734627049,1.98252899574184,11.2573820836848
"173",25.9886436451476,36.1333747483935,5.17522305887519,7.37564295414889,-0.00473796609108823,-0.0152319147722235,2.10214047653691,13.0585254011158
"174",25.2735152560258,34.3911135284654,5.3350187716379,7.10931529618962,0.107548290783594,0.0426717947067489,1.967913324553,10.7795334723162
"175",25.1089252105426,33.7265826173417,5.15541307300767,6.56957162864323,-0.0332740698706708,0.0312314190750787,1.84219788923827,11.1831792549038
"176",25.5720154379045,34.6435815306529,5.32737837625232,6.7896207816188,0.0232600461221447,-0.00957421555447609,2.06333960573473,11.5841817677385
"177",24.693202545427,34.4112932321723,5.14124801585632,7.10331769862782,-0.0137858015284162,0.0222903565299731,1.90250428192792,10.9887695002895
"178",25.6966710232322,34.1681106605022,5.10924958433554,6.69083195656565,0.0617772845795584,-0.0238874369838392,2.06729021643909,11.0115603818497
"179",25.1489130632514,34.8460283992712,5.09777644771074,6.86759056112029,0.0548740165581093,-0.0230172178571815,2.33518526554445,10.5475661407239
"180",25.0301103150265,34.1894376909148,4.97548964558618,6.82786578273364,0.00705960972635863,-0.0143371817473179,2.18633594815603,10.2269117965334
"181",24.9863582164032,34.3597758050059,5.09086038718876,7.04412938500983,-0.00499566106831206,-0.0363394481968657,1.94134304621359,12.2930214986106
"182",25.0228085257294,34.1629979721947,5.08707119736788,6.80875971526925,-0.013879365815363,-0.0385388589391704,1.9995833240485,9.78306111094563
"183",25.2672254408644,35.1851480062593,4.98483145537326,7.32278994855568,-0.0212878129572421,0.0205899514956411,2.1905057229959,12.011976935762
"184",25.3347036100403,34.7302622469221,5.33876543663866,6.86917062527344,0.0149693547522321,0.0110774272143827,1.86612958119445,10.9848001186919
"185",25.0451276372757,34.2577288840503,5.04946436899306,6.94577795937948,0.0379560173897654,-0.00177453080896425,1.95413588940858,11.7764244833798
"186",25.2079355815647,35.2461312209781,5.00166740045464,6.95812911121043,-0.062913255010839,-0.0164332695032182,1.89229594523213,11.5910757421956
"187",25.5464558094831,34.1165643362411,5.16606997355744,7.16610879792914,0.0182154065005827,-0.037973645627207,1.85678219042646,10.9141444024386
"188",25.568771869233,34.9735126893004,4.9410112611855,7.40022263130873,-0.0644613067929003,-0.0107463279055426,2.15722668872416,12.7751626978084
"189",25.1543531233345,35.1692811145485,5.05271869299713,6.78179062796012,0.0229817826350396,0.0236335086508285,1.99982168986469,11.9764910979155
"190",25.6054997158633,34.9363691743568,5.24249185230579,7.05958824813458,-0.10587131367679,-0.0726647959750472,1.89661970724604,12.7212118897557
"191",25.6305001563133,33.3545021696971,5.41105355717271,6.81510183631302,0.0283099715250746,-0.00872135185259717,1.92327848236366,11.6943433499271
"192",25.3879367719774,34.5172948332338,5.20239145824983,6.87275641524031,0.0996666899489075,-0.00912453902093524,1.97808117453545,10.9879055866741
"193",25.1885592183277,34.3473358815737,4.91689705396497,6.87579402291216,0.0883843444870739,-0.0268657014351572,1.95068939818609,9.37260765648285
"194",25.6110577863238,34.9758877194127,5.23701061313418,7.21070546327951,-0.0698483843540986,-0.00880365198121924,2.09838461430525,11.1230114750787
"195",25.3221906625648,34.198163859315,4.95560236556686,6.87380813856773,0.0150848050626506,0.0121897034541714,2.06850659480616,10.8788156335308
"196",24.5799270800239,33.8903289482687,4.7732634151774,6.45962487038699,-0.0738202316767696,0.0112766045104036,1.79118567662218,10.7747448503301
"197",25.4046709469695,35.5000307906098,5.367071144478,7.15049535948602,0.117154494584325,-0.0444928850648917,1.9255864908404,11.0397447512936
"198",25.6020228465809,34.9341689653515,5.07249346536906,6.86564857135504,-0.00499356273660721,-0.0388572366574354,1.98722926450475,10.7249367772692
"199",25.3093595345873,34.0014727827095,4.96044544773459,6.68334593511914,0.00865455128182007,-0.0277680044238193,2.06168653892736,11.4941522603715
"200",25.3213782111079,33.3196048560731,5.00528039960329,6.69106706118905,-0.0281593398952284,0.00513754141680113,1.99158039467317,12.1867835989265
"201",24.672805423729,34.9152783928276,4.96445763849001,6.47573404738696,0.0485018107001329,-0.0230028889576661,1.93401860790248,11.5059119230877
"202",25.685028752341,34.4511554877876,5.07753585901777,6.87812468034434,-0.0539545561323984,-0.0606339977701683,1.90550597844983,10.1683636186431
"203",25.0588145393459,34.2940817164768,5.11780419399738,6.92592962262299,0.03215569452365,-0.0163922946363988,1.9372501050101,10.6408982562178
"204",26.0439165382522,36.1025500903679,5.04159249951003,7.21127914341198,-0.0059274687051516,0.00711212427886932,2.26604984554999,11.2610335546901
"205",25.4128306700621,34.4127852044548,5.14016921616087,6.93485827949375,-0.0580018688225452,0.0316674222111726,1.92953883114005,11.681701984974
"206",25.5646750914407,34.8821409162752,5.19868287226875,7.12249951237264,0.0574294328643942,-0.0376529360797013,1.84880736878698,10.0193783767429
"207",25.2569916734413,34.7473717101623,5.06784102808978,6.96766600598425,0.0968480020189855,0.0211954970659014,2.00461689939974,12.7534716757482
"208",25.1067829746822,34.0423447749317,5.02582974241954,6.99996856777562,-0.0982472866180902,-0.0427346649515116,1.89980397804637,11.3636639600772
"209",25.6382187768051,34.9172482380945,5.21775733764427,6.85769778440514,-0.0443279794799965,0.0136683100173533,2.02216960647305,11.3305181762214
"210",25.9336907470548,34.7538532795353,5.32984315452188,6.76041305796242,0.0327985454595538,-0.0440947297161783,2.05327683533507,13.1202314620156
"211",25.0766201899444,34.7483700128008,5.19758707493759,6.78925275197116,0.0102165187171708,0.0409122850239512,1.94561674575591,11.0446648392971
"212",25.6745367012669,34.3917628617122,5.35186265044019,6.53108517044639,-0.0232558304191308,0.00451101420128672,2.05207361624719,11.3817211956406
"213",25.7938664586051,35.1433440551233,5.23798001961282,6.62307118587879,-0.0157747565416711,-0.0253585159948093,2.04313001426558,11.1727142013845
"214",24.8472022742007,35.1401199962512,5.23837209796192,6.87414207123575,0.0232219063999305,0.0194008656576404,1.89111205510969,11.2996361754323
"215",25.1335307384788,34.1037438433216,5.19669583102492,7.03011557423546,0.0258726414210706,0.00558252086681021,1.9394270659353,10.9567635145228
"216",25.8100247443341,34.4926980113089,5.35066543681734,7.07551288746955,-0.0353119385275876,-0.0115341209941299,1.99012645206537,10.8883117234007
"217",25.3793630677464,34.3657554243191,5.27321536517161,6.89224345395158,-0.00421342605956337,0.00859471893065368,2.0070740272078,11.1399095636554
"218",25.5802658462561,33.8886683788742,5.09261871827446,6.97875090633282,0.0573759501822943,0.0168096222826308,2.10839744168672,11.1074799182534
"219",25.169011987826,35.7198621781555,5.30527606526008,7.43488845855228,0.022838721109583,-0.00139063015802279,2.10735460997962,11.6789040911145
"220",25.5045268520758,34.2683721545247,5.17308393003243,6.60623732081818,0.0487235047845312,-0.0133941844379299,2.09527585853316,12.4957116600039
"221",26.0373242141623,35.1092676541589,5.40344529125805,6.96041512254403,-0.00300557834315341,-0.0139745360091525,1.9927643696372,11.540174397818
"222",25.5624895279491,34.7138141572858,5.11191156552173,7.2532894748912,0.0328799372311724,0.0453294424654249,2.02189933077354,11.5269115986023
"223",25.5164715829071,34.6643610858243,5.14318163771047,6.92830322906786,-0.0546944961651997,0.0105638757402525,2.09240400273799,11.0899817390032
"224",25.3390590208109,33.8280511926786,4.90365204062847,7.12967463182346,-0.0159806742853683,-0.0444865617772441,1.9827999468292,11.1832227097284
"225",25.9095197884583,33.7016834294377,5.4895314919675,7.13356900087326,-0.0235898245658054,-0.0177271963048679,1.96776421645037,11.9053799629321
"226",24.9557608767327,34.3463813935128,4.93582710217554,6.91910513182369,-0.0488589320811604,-0.0321670455043258,1.92811756708645,10.7774895187103
"227",25.1262890549976,33.3431449160724,5.25982810790265,6.57279948400285,-0.0888822701884071,-0.0264361512619194,1.9971823081479,11.9254313070868
"228",25.2882087668459,34.9903205717136,5.38538861199786,7.09155401721996,0.000601709331818117,-0.0472895878176844,2.03531266394031,11.3411267696547
"229",25.4783513466325,35.4780356806224,5.25786813396567,7.37868612292316,0.0332964253136958,-0.0321462125464666,2.0336494276295,11.0061725649074
"230",25.2277186124891,33.9574325481693,5.11296807318042,6.73783337435816,0.0639617340662076,-0.00501339981338394,1.8830950120404,12.0036201910725
"231",25.2165132627216,34.601194963948,5.05032759482979,7.4318899586052,0.0227333634211718,-0.0244127252212462,2.04581871714716,10.8918010612439
"232",24.563558092619,34.5806407941102,4.94337753019267,7.02052069660255,-0.0606683563277784,-0.0591386064510298,2.00880436689661,11.3966646840622
"233",25.4019335943966,34.1314859260914,5.16085157762935,6.90915113199474,0.0345756780284264,0.01050173327528,1.9578027287692,10.5768237915472
"234",25.5358255712349,34.2490399264831,5.20330793195254,6.90019959001292,0.031293079895616,-0.0129355001091606,2.04270519243852,10.7069257708252
"235",25.4721243427618,34.3207074958309,5.05035839882541,7.05302202897874,-0.00234488086850267,0.00922646129871178,2.01491557883974,12.2455724309291
"236",25.238411683034,34.9321438109037,5.06320051350635,7.27199256220177,0.0460666809691667,0.00670527640839837,1.93375195196696,10.8932924912547
"237",25.5176670366285,34.6150818588265,5.42151784836473,7.04170503186234,-0.0346764810626326,0.0376487291734312,1.90826307293499,12.050517901696
"238",25.5871167429103,34.6156214282271,5.26732787472768,6.88949756692265,-0.126255818753029,0.0286590226836416,2.04921592276012,11.6581271022731
"239",25.5726494989376,34.7920767120047,4.91865504381826,7.17422065980888,0.0565583380921231,-0.0781886890134194,1.97877186199276,11.4119544939623
"240",25.1089450931066,34.6163397097959,5.34671034678635,6.8594454905628,-0.00679965673204562,0.00890814688054266,1.99977730087862,11.1747015705479
"241",25.0142201600168,33.9460553189852,5.10421658514835,6.92649754392878,-0.0378639132563378,0.0645708719642877,1.95299951373624,10.9907425325539
"242",25.785889490552,35.3003487693235,5.203287286872,7.10159171713818,0.0607261850414473,-0.0346874145519184,2.11526855142246,10.9438806537081
"243",24.615175444297,34.6915069063588,5.05927884441351,6.83611189267952,-0.0850001468502981,0.0320483743290055,1.86681180254228,11.721755177097
"244",25.7364436110846,35.3168131209799,5.19941724610471,7.24269760889733,-0.0918330869545244,0.0472455452535071,1.88121472191049,10.8017769715571
"245",25.507428350608,34.4974535453735,5.15749473721146,6.65657637065306,0.0279694445744834,-0.0550620759653612,1.91289339891757,12.0410926683962
"246",25.0844968161078,34.1779996864822,5.16788824890639,6.8294331495219,0.00890776828851509,-0.0491701998977177,1.99950595304852,11.635518827773
"247",25.6639193268026,35.2757310348456,5.32937351993996,6.72692121496111,0.00282392609367808,0.000138856453178523,1.91472066988405,11.864352940565
"248",25.0539658170532,34.3244609922153,5.17795622940984,6.89768654874646,0.0762870727243621,0.00526229002909725,1.94197394104195,11.0331580641505
"249",25.6665388653622,35.7718747992839,5.03946466992857,7.08364029419867,-0.155390015881369,0.0591738260519954,2.19731545423275,11.9766425857739
"250",26.0435684913275,35.2042268301691,5.28028064970507,7.37688425323882,-0.0697119939528098,0.0177805521076047,2.00824831860248,11.0643060409822
