"","x"
"1",4076.19269693504
"2",4255.07723880843
"3",4224.98705824815
"4",4097.85348117018
"5",4308.16912730613
"6",4231.34332263497
"7",4226.52071472873
"8",4273.96774390839
"9",4082.73749246885
"10",4139.87197258641
"11",4131.78564500314
"12",4169.41875925479
"13",4141.40095667891
"14",4205.8033659602
"15",4223.2529618849
"16",4251.2241562847
"17",4182.78017311598
"18",4141.04379256072
"19",4206.9399774496
"20",4168.24105907475
"21",4242.36814515751
"22",4167.38603973134
"23",4148.12211918172
"24",4146.09515891104
"25",4185.32259852422
"26",4186.14035229896
"27",4147.54404121833
"28",4196.59154358959
"29",4258.95057222459
"30",4121.41433646725
"31",4229.20413209324
"32",4174.75955715491
"33",4041.01437535424
"34",4224.92820818243
"35",4211.09409892428
"36",4122.98690100149
"37",4090.90719029325
"38",4163.42995934688
"39",4211.92099328046
"40",4166.98518719992
"41",4149.65074497227
"42",4190.5305684334
"43",4209.57468836689
"44",4029.61441890039
"45",4092.57412243493
"46",4026.66160983683
"47",4084.52426770958
"48",4204.95946320147
"49",4148.32433246691
"50",4197.02535211193
"51",4105.73984088744
"52",4054.68223519213
"53",4264.89676535737
"54",4188.10421979331
"55",4217.29240183774
"56",4096.332805225
"57",4117.22519776903
"58",4089.69098000278
"59",4091.12225126908
"60",4182.73606726309
"61",4217.60458815139
"62",4156.47503577958
"63",4093.27951220857
"64",4217.98700242055
"65",4086.23241997354
"66",4228.07912068749
"67",4144.10837018535
"68",4090.06022914439
"69",4104.04837218287
"70",4142.81087522754
"71",4196.97893886664
"72",4248.30335015674
"73",4128.67643693957
"74",4108.44256724742
"75",4173.64091044755
"76",4057.95285102479
"77",4093.86488385733
"78",4244.2447517521
"79",4183.02980750573
"80",4318.02963250321
"81",4137.18968656383
"82",4363.20871576797
"83",4175.32325027892
"84",4083.46957058667
"85",4167.62124962564
"86",4148.21259641254
"87",3963.86269876659
"88",4146.06130475877
"89",4036.71406187976
"90",4316.28222191189
"91",4196.15862491873
"92",4228.39701581593
"93",4233.97092006534
"94",4081.38951548646
"95",4182.08619535211
"96",4173.05009529742
"97",4096.16894131689
"98",4134.72548017923
"99",4153.53459989034
"100",4134.66417213195
"101",4154.62303388884
"102",4192.51822175319
"103",4216.1795370627
"104",4284.84293147846
"105",4084.27212487704
"106",4195.05001930185
"107",4169.35987205988
"108",4167.23323686942
"109",4127.81627951286
"110",4150.26656435734
"111",4242.46146008031
"112",4074.66113348998
"113",4159.19225095569
"114",4035.20550958816
"115",4101.48545667157
"116",4133.13509550351
"117",4268.99730092654
"118",4211.00990973465
"119",4180.33851993584
"120",4111.64741952675
"121",4279.59616723156
"122",4122.94759954321
"123",4135.69746196276
"124",4279.22806391977
"125",4138.82481896484
"126",4267.00042920132
"127",4195.86318627484
"128",4178.23697707059
"129",4166.20914696026
"130",4229.18091536528
"131",4182.28905093063
"132",4152.46322683639
"133",4028.06830250427
"134",4207.3894704897
"135",4085.90760813982
"136",4139.58953154284
"137",4286.34030784264
"138",4201.41843888459
"139",4217.81057185231
"140",4208.47326978445
"141",4015.23145153654
"142",4149.71501497603
"143",4116.4802361143
"144",3995.76415252628
"145",4266.28954378023
"146",4207.66633806285
"147",4362.99038705472
"148",4199.77197594671
"149",4096.89944715734
"150",4071.89730477651
"151",4238.3068096148
"152",4097.4986262981
"153",4186.85602944255
"154",4163.61529783423
"155",4044.51924950707
"156",4245.16150792102
"157",4261.35265164767
"158",4357.51503372468
"159",4047.27412370752
"160",4158.94660750036
"161",4160.34479440535
"162",4092.18664414735
"163",4160.06966125859
"164",4122.26769723016
"165",4165.55295566807
"166",4194.12241243907
"167",4166.05597565982
"168",4231.07053098108
"169",4153.92809208156
"170",4124.91108753057
"171",4154.06506285052
"172",4294.48688484012
"173",4174.15568525558
"174",4227.4718449038
"175",4192.91977151549
"176",4214.71717926462
"177",4142.27173490076
"178",4249.5975137338
"179",4091.88586321914
"180",4107.12948693107
"181",4125.13679320499
"182",4205.62031581093
"183",4191.12618767353
"184",4164.58587020699
"185",4261.92283979772
"186",4004.39659788845
"187",4361.38758169112
"188",4058.73459526436
"189",4035.78087173323
"190",4263.98817369989
"191",4178.85172167573
"192",4122.50506911439
"193",4121.88898303973
"194",4060.86183678209
"195",4127.71393777705
"196",4263.31951250985
"197",4141.65168339188
"198",4188.0631212371
"199",4021.81130955143
"200",4216.21505781438
"201",4054.23502958176
"202",4118.15920994248
"203",4186.67414736215
"204",4188.97936403771
"205",4238.38133042728
"206",4190.80753439657
"207",4150.3955825372
"208",4298.48483001304
"209",4242.75268126874
"210",4307.07063126665
"211",4202.90455590475
"212",4370.94142274235
"213",4108.99721707877
"214",4092.313547532
"215",4278.81111741839
"216",4225.77790934322
"217",4178.41934618259
"218",4160.5233166874
"219",4136.79113783485
"220",4157.94791043627
"221",4055.6471217131
"222",4161.67609320051
"223",4291.15056469001
"224",4220.29351132217
"225",4234.22428534014
"226",4189.7639153359
"227",4019.16717461912
"228",4200.94673492893
"229",4159.46905908452
"230",4073.76382443677
"231",4118.93906233546
"232",4207.85170248775
"233",4120.63578630442
"234",4203.04665936815
"235",4252.1932221522
"236",4153.73745271034
"237",4174.05743971845
"238",4150.83155921834
"239",4101.88114845522
"240",4170.8072780061
"241",4169.32779323555
"242",4157.01120536247
"243",4170.83926451291
"244",4195.16076845626
"245",4215.98233298321
"246",4124.1449529065
"247",4122.45119513347
"248",4188.65610830606
"249",4170.35526423474
"250",4208.74262371451
