"","x"
"1",-4168.39494929494
"2",-4301.53836107605
"3",-4225.82696414568
"4",-4176.88662602457
"5",-4229.46949729849
"6",-4194.52420180235
"7",-4145.89581756715
"8",-4254.77835864688
"9",-4251.61123475603
"10",-4206.64369279386
"11",-4206.81432196681
"12",-4199.70307351286
"13",-4224.45011779825
"14",-4173.38445920559
"15",-4171.69747598364
"16",-4284.6482242157
"17",-4076.08223948066
"18",-4197.75369026306
"19",-4286.87168628033
"20",-4184.04010085356
"21",-4104.2279902065
"22",-4173.60367416363
"23",-4124.87292127125
"24",-4206.71519338042
"25",-4123.97949380018
"26",-4188.4977550471
"27",-4205.89266341165
"28",-4115.80409136916
"29",-4268.74828184457
"30",-4162.59844353743
"31",-4170.4471617711
"32",-4179.58125059881
"33",-4156.80110371935
"34",-4152.92716592386
"35",-4178.60095332575
"36",-4120.19001551055
"37",-4178.97650075213
"38",-4199.6320908286
"39",-4241.48259644611
"40",-4199.07726377744
"41",-4259.67808768731
"42",-4200.4956222899
"43",-4165.65388177261
"44",-4215.45942001539
"45",-4125.24861063459
"46",-4258.42600243633
"47",-4249.01788206094
"48",-4183.60093521431
"49",-4054.38386462244
"50",-4259.6768225422
"51",-4123.5923533747
"52",-4156.17542679279
"53",-4209.10420437298
"54",-4139.40666873333
"55",-4195.15147966726
"56",-4182.32292409674
"57",-4188.99567233672
"58",-4155.09092963898
"59",-4172.41488334388
"60",-4225.79952394669
"61",-4117.09380937634
"62",-4221.12085614235
"63",-4158.65280912859
"64",-4225.54014330943
"65",-4189.34154998931
"66",-4169.13506011368
"67",-4266.46763520584
"68",-4161.20202796149
"69",-4201.91170218846
"70",-4096.24002907841
"71",-4203.40885053059
"72",-4139.66884878726
"73",-4179.80233581983
"74",-4151.4910840466
"75",-4135.13375137351
"76",-4171.55050697632
"77",-4093.34132228052
"78",-4145.7636557376
"79",-4126.880437657
"80",-4099.61829802148
"81",-4290.97526770484
"82",-4201.95991884428
"83",-4138.82053411627
"84",-4208.37862088185
"85",-4189.43495024356
"86",-4201.25333304734
"87",-4195.07744535257
"88",-4193.15454526482
"89",-4294.63422863826
"90",-4160.03773538868
"91",-4250.05073623929
"92",-4123.32631007795
"93",-4172.19232062275
"94",-4262.11576642422
"95",-4201.43651290879
"96",-4142.96340158841
"97",-4263.83332883936
"98",-4089.69575627259
"99",-4184.52100432895
"100",-4186.343447298
"101",-4151.32657552689
"102",-4168.43838671803
"103",-4180.21238274225
"104",-4134.99581026838
"105",-4125.57179959004
"106",-4114.81388727216
"107",-4186.85017859857
"108",-4118.20590931707
"109",-4185.91830533379
"110",-4227.2383853458
"111",-4262.46490859302
"112",-4168.96274499674
"113",-4200.45732002082
"114",-4293.49493828733
"115",-4206.78685125061
"116",-4221.58656116827
"117",-4209.62759257453
"118",-4198.31170549458
"119",-4216.23394256949
"120",-4162.67730914877
"121",-4173.52828610609
"122",-4198.19831276051
"123",-4181.35128925914
"124",-4158.79951366009
"125",-4298.4544223748
"126",-4229.43961063979
"127",-4122.12287881047
"128",-4205.80565846591
"129",-4174.55030451695
"130",-4271.72031096044
"131",-4201.53452071342
"132",-4109.0879273295
"133",-4247.7620371404
"134",-4229.83417882206
"135",-4183.23089364755
"136",-4175.33773321731
"137",-4220.7833195027
"138",-4204.16749954564
"139",-4232.95945010387
"140",-4175.23252830754
"141",-4232.9407670492
"142",-4192.51843210724
"143",-4218.15978306506
"144",-4186.52527254928
"145",-4134.42418945552
"146",-4257.53070261047
"147",-4171.14428111671
"148",-4237.59864248653
"149",-4162.16397260691
"150",-4212.57112354774
"151",-4147.62703929962
"152",-4214.2927902532
"153",-4231.5739326805
"154",-4196.18952518133
"155",-4149.0521614706
"156",-4127.5544443125
"157",-4169.7719640241
"158",-4227.41119353902
"159",-4190.28292163243
"160",-4181.75509634373
"161",-4172.14850928173
"162",-4188.44513807635
"163",-4293.54668430006
"164",-4286.07129630974
"165",-4224.12395506527
"166",-4234.41883222417
"167",-4184.37997124585
"168",-4218.74157037731
"169",-4230.04901619655
"170",-4164.56494351742
"171",-4155.61923600618
"172",-4088.46169551816
"173",-4222.26832582494
"174",-4113.80351505573
"175",-4184.87919226162
"176",-4222.82903274076
"177",-4203.97524096316
"178",-4230.36653789144
"179",-4171.07201784675
"180",-4296.96557006332
"181",-4160.25515517286
"182",-4162.74098169988
"183",-4121.72448485756
"184",-4227.2931852464
"185",-4218.16671523567
"186",-4222.4837460581
"187",-4139.15708419692
"188",-4193.69092372182
"189",-4155.08544243162
"190",-4206.56069427892
"191",-4184.28130018006
"192",-4229.0477144016
"193",-4141.45305453437
"194",-4109.08303032357
"195",-4130.72721920126
"196",-4183.93598404443
"197",-4197.2829254398
"198",-4117.43495933052
"199",-4205.45164832544
"200",-4172.14239684233
"201",-4188.99887655793
"202",-4165.41681254286
"203",-4217.89840239073
"204",-4216.62638972045
"205",-4207.54136469808
"206",-4165.84651596115
"207",-4256.94744455061
"208",-4235.50837672913
"209",-4173.48199251659
"210",-4250.4586143068
"211",-4187.30893839547
"212",-4188.88132301695
"213",-4250.71903788151
"214",-4166.4930071664
"215",-4223.11759597864
"216",-4178.24290347911
"217",-4184.60948606515
"218",-4140.11183712447
"219",-4231.88117551662
"220",-4184.01263974435
"221",-4199.08666931446
"222",-4239.82178669312
"223",-4179.14747289898
"224",-4165.57760266042
"225",-4184.74315884548
"226",-4112.8891945628
"227",-4193.8819324541
"228",-4190.32505351911
"229",-4193.90885139242
"230",-4161.70824973006
"231",-4139.46030321317
"232",-4230.04608758353
"233",-4170.83007303947
"234",-4124.65871509864
"235",-4196.26383968975
"236",-4101.92227904056
"237",-4144.19431005443
"238",-4146.12585301715
"239",-4155.93167606415
"240",-4227.11234335314
"241",-4222.87853076432
"242",-4211.84296334095
"243",-4159.6317231382
"244",-4226.74429318886
"245",-4238.0859531745
"246",-4181.3215756056
"247",-4121.40990428108
"248",-4206.10166665684
"249",-4182.20653324838
"250",-4201.09993786466
