"","x"
"1",16864.2194651506
"2",16871.1706973224
"3",17019.8572763282
"4",17087.1289024994
"5",17068.7072714283
"6",16956.9200104823
"7",17080.3830665574
"8",17136.0824659426
"9",17176.026239436
"10",16960.979265502
"11",16753.1470909178
"12",17019.6412352442
"13",17019.8969778575
"14",17187.9525662803
"15",17110.5304211428
"16",16902.4419514664
"17",16778.3852017102
"18",16872.2344523039
"19",16903.5349996147
"20",16820.8398642106
"21",17082.9698143593
"22",17113.1317787308
"23",16906.8211336863
"24",17188.5238159849
"25",16917.5498335285
"26",17134.97570687
"27",17136.2857906332
"28",17215.1760700811
"29",17117.8022903732
"30",17112.70944407
"31",17027.7436063232
"32",17098.4699496805
"33",16949.7294190049
"34",16890.2193744995
"35",17235.8593881868
"36",17099.2664956782
"37",16991.8421121266
"38",17185.9796043047
"39",17031.5237595705
"40",16980.0985251633
"41",16838.0849688795
"42",17044.4878323005
"43",17070.721604199
"44",16825.1062711419
"45",16961.7736272277
"46",16627.3391533837
"47",16955.8020359083
"48",16981.1467157265
"49",16776.4485731427
"50",16947.3059164586
"51",16978.1801904327
"52",17247.1422503671
"53",17066.2486373162
"54",17086.1459994618
"55",17099.2077400897
"56",16748.3370027565
"57",17171.1698473051
"58",16871.058836056
"59",16932.9479946593
"60",17283.3356283545
"61",16902.2042348028
"62",17147.6741379841
"63",16783.5545253518
"64",17052.8224354667
"65",16967.0786876125
"66",17082.5449789339
"67",16914.0173171419
"68",16906.2801090406
"69",16728.1802955772
"70",17258.1360303328
"71",17127.5956943942
"72",16902.1864696891
"73",16868.8598189253
"74",16817.3160600466
"75",16871.5430832648
"76",16912.0578008584
"77",16630.4801265777
"78",16956.0504698541
"79",16997.7747870197
"80",16806.3793006901
"81",17013.9480551683
"82",17214.8215468155
"83",16631.9244122648
"84",17002.3878596629
"85",16979.4218544303
"86",17206.2843436489
"87",17221.4385083304
"88",16825.7370837849
"89",16873.280119367
"90",16790.1589298112
"91",17170.8614937207
"92",17193.8371239077
"93",17086.7676469835
"94",16855.3845817796
"95",16714.3048208109
"96",16960.2829260433
"97",17117.6394650525
"98",17232.4897165135
"99",16928.5948659221
"100",16863.9022729913
"101",16753.5809032683
"102",16982.8375599684
"103",16826.3282940173
"104",17052.3787318835
"105",17026.549109743
"106",17079.4786109202
"107",16966.626679562
"108",16889.3496259664
"109",16791.0675049765
"110",16946.1819705084
"111",17039.184655367
"112",17092.2571252985
"113",16750.7116246594
"114",16946.4088724047
"115",16958.0466345741
"116",16873.2038242336
"117",16720.031133695
"118",17087.2971708395
"119",16646.0870689337
"120",17058.4891106749
"121",16762.4819959236
"122",16892.0464076105
"123",17054.7786733301
"124",17121.6210714943
"125",17056.6073312961
"126",17061.3279167091
"127",17017.1605275693
"128",17021.3269716996
"129",17009.4821681173
"130",17028.0889362263
"131",17194.060312834
"132",17141.5544998006
"133",16955.2430491697
"134",17125.7366440832
"135",17154.7812420581
"136",17048.2349182415
"137",16891.3319643705
"138",16982.7248918244
"139",17033.9999531943
"140",16828.8184753851
"141",17189.1908221688
"142",16883.074991042
"143",16852.1572394782
"144",17147.7976343662
"145",17083.2474113527
"146",16956.7990535255
"147",17147.7971641529
"148",16927.1471277917
"149",17295.1725147253
"150",16931.0444753432
"151",17165.7326180508
"152",16626.6500558023
"153",16934.3603759267
"154",16887.426977035
"155",16914.2321891927
"156",17053.1678429849
"157",16938.4705870622
"158",17073.3909161598
"159",16960.1250103571
"160",16778.7624905086
"161",17102.6071395235
"162",17076.041107899
"163",16812.1451270648
"164",17013.4790034949
"165",16864.0082876041
"166",17144.2735228381
"167",16751.2038858738
"168",17128.049851201
"169",17210.9805306643
"170",16824.262835114
"171",17241.3210007493
"172",17119.7401776244
"173",16935.1028203835
"174",17155.9980041308
"175",17046.0501831342
"176",17084.7570113567
"177",17107.4586871645
"178",17157.8417625462
"179",16947.1537686832
"180",16841.2635617091
"181",17009.2023445069
"182",16941.2576481187
"183",17292.0279803095
"184",16992.7704771409
"185",16888.2995616731
"186",17058.8393467755
"187",16983.0007096508
"188",17114.8586933663
"189",17188.3487552495
"190",17159.7500680402
"191",17019.3099791911
"192",16912.2795627696
"193",16911.2110830624
"194",16974.1130720362
"195",17493.7807688158
"196",17050.5428495868
"197",16908.8921967399
"198",17001.2224661162
"199",17338.5895209435
"200",17198.3921280202
"201",17251.884880187
"202",16782.0034942635
"203",16898.1821628269
"204",16987.4619764376
"205",16995.1266056804
"206",16982.9072083245
"207",16766.3980399791
"208",16678.0165800168
"209",17130.0711114625
"210",17029.4604620624
"211",17113.2255313
"212",17070.6580849794
"213",17114.4783242354
"214",16972.8491925359
"215",17248.1070126755
"216",16698.0353423625
"217",17058.2786772026
"218",16988.1776350137
"219",17158.5945981177
"220",17235.1182230603
"221",16892.5125535848
"222",17229.2978111095
"223",16684.1592706326
"224",16623.195724016
"225",16793.4771474076
"226",16825.149925365
"227",17085.7311062207
"228",17066.8454694368
"229",16917.4013474607
"230",17158.2227184928
"231",16973.1224987237
"232",17059.8991459559
"233",16825.0649131918
"234",17022.6513821481
"235",16861.4270097393
"236",16884.9347725354
"237",16866.0513833069
"238",16936.6444443737
"239",16895.7283868677
"240",16770.8011272225
"241",17007.3804179375
"242",17072.618290491
"243",17172.7246668453
"244",16849.640378065
"245",17130.6213423884
"246",17004.0868008034
"247",17149.38568026
"248",17185.9848105789
"249",17057.7919486777
"250",16881.3494303406
