"","V1","V2","V3","V4","V5","V6","V7","V8"
"1",0.161,0.363,0.144,0.287,0.119,0.315,0.294,0.389
"2",0.001,0.417,0.096,0.411,0.123,0.407,0.216,0.372
"3",0.161,0.351,0.177,0.304,0.011,0.249,0.235,0.449
"4",0.25,0.29,0.123,0.448,0.263,0.334,0.198,0.362
"5",0.233,0.258,0.149,0.436,0.262,0.232,0.201,0.347
"6",0.142,0.231,0.149,0.317,0.104,0.317,0.16,0.388
"7",0.125,0.328,0.18,0.389,0.082,0.344,0.22,0.29
"8",0.038,0.413,0.17,0.309,0.322,0.229,0.152,0.434
"9",0.134,0.302,0.185,0.345,0.27,0.305,0.219,0.379
"10",0.109,0.176,0.154,0.402,0.226,0.27,0.179,0.446
"11",0.141,0.269,0.047,0.343,0.213,0.242,0.203,0.284
"12",0.186,0.251,0.074,0.535,0.217,0.285,0.21,0.399
"13",0.154,0.303,0.21,0.335,0.147,0.341,0.175,0.421
"14",0.065,0.351,0.05,0.492,0.093,0.339,0.155,0.421
"15",0.269,0,0.2,0.419,0,0,0.287,0.39
"16",0.152,0.404,0.169,0.436,0.151,0.428,0.14,0.512
"17",0.554,0.129,0.201,0.586,0.001,0.38,0.205,0.283
"18",0.247,0.265,0.15,0.342,0.178,0.273,0.145,0.366
"19",0.221,0.292,0.159,0.44,0.198,0.256,0.152,0.482
"20",0.084,0.318,0.056,0.546,0.145,0.307,0.305,0.288
"21",0.176,0.151,0.126,0.533,0.196,0.171,0.249,0.384
"22",0.109,0.429,0.13,0.448,0.193,0.348,0.163,0.342
"23",0.177,0.372,0.179,0.41,0.049,0.414,0.242,0.378
"24",0.144,0.354,0.121,0.354,0.083,0.256,0.202,0.388
"25",0.202,0.217,0.059,0.508,0.315,0.289,0.228,0.411
"26",0.139,0.31,0.177,0.333,0.2,0.297,0.238,0.379
"27",0.183,0.296,0.061,0.504,0.194,0.185,0.125,0.498
"28",0.145,0.395,0.185,0.372,0.19,0.312,0.151,0.466
"29",0.134,0.283,0.163,0.478,0.202,0.3,0.16,0.468
"30",0.16,0.312,0.204,0.373,0.136,0.352,0.273,0.352
"31",0.119,0.221,0.083,0.422,0.218,0.338,0.218,0.388
"32",0.187,0.247,0.157,0.485,0.262,0.234,0.122,0.488
"33",0.212,0.285,0.195,0.42,0.185,0.312,0.159,0.332
"34",0.036,0.363,0.242,0.268,0.094,0.347,0.288,0.28
"35",0.193,0.271,0.068,0.454,0.246,0.351,0.282,0.297
"36",0.118,0.319,0.061,0.457,0.11,0.349,0.232,0.346
"37",0.192,0.397,0.234,0.367,0.285,0.248,0.161,0.439
"38",0.018,0.394,0.137,0.309,0.177,0.31,0.252,0.409
"39",0.13,0.306,0.242,0.324,0.221,0.302,0.241,0.295
"40",0.156,0.329,0.051,0.397,0.138,0.304,0.205,0.333
"41",0.197,0.334,0.042,0.503,0.184,0.294,0.136,0.419
"42",0.178,0.16,0.319,0.258,0.225,0.27,0.18,0.339
"43",0.194,0.254,0.131,0.415,0.113,0.229,0.138,0.478
"44",0.139,0.255,0.166,0.398,0.272,0.273,0.221,0.318
"45",0.166,0.236,0.039,0.401,0.231,0.219,0.204,0.312
"46",0.096,0.279,0.205,0.323,0.304,0.228,0.167,0.359
"47",0.128,0.317,0.176,0.302,0.255,0.223,0.287,0.401
"48",0.162,0.291,0.087,0.459,0.298,0.249,0.213,0.383
"49",0.178,0.186,0.128,0.496,0.2,0.368,0.224,0.343
"50",0.163,0.238,0.154,0.361,0.201,0.347,0.222,0.366
"51",0.147,0.399,0.177,0.287,0.227,0.417,0.153,0.359
"52",0.084,0.432,0.078,0.354,0.111,0.364,0.295,0.369
"53",0.094,0.273,0.078,0.453,0.234,0.223,0.221,0.363
"54",0.113,0.372,0.213,0.357,0.117,0.337,0.246,0.384
"55",0.215,0.311,0.157,0.298,0.22,0.331,0.192,0.379
"56",0.196,0.279,0.066,0.523,0.232,0.26,0.093,0.376
"57",0.056,0.369,0.161,0.213,0.179,0.313,0.264,0.343
"58",0.146,0.295,0.037,0.404,0.201,0.369,0.209,0.413
"59",0.145,0.237,0.093,0.455,0.24,0.269,0.137,0.409
"60",0.105,0.376,0.152,0.481,0.252,0.327,0.208,0.428
"61",0.17,0.325,0.145,0.447,0.023,0.43,0.215,0.401
"62",0.171,0.227,0.023,0.52,0.161,0.229,0.225,0.393
"63",0.14,0.309,0.112,0.428,0.192,0.318,0.182,0.405
"64",0.057,0.398,0.216,0.369,0.271,0.25,0.148,0.446
"65",0.129,0.304,0.074,0.338,0.14,0.351,0.226,0.383
"66",0.112,0.342,0.105,0.44,0.187,0.163,0.262,0.363
"67",0.131,0.308,0.105,0.423,0.06,0.363,0.225,0.391
"68",0.223,0.222,0.138,0.401,0.376,0.127,0.194,0.395
"69",0.234,0.284,0.175,0.355,0.121,0.345,0.245,0.436
"70",0.113,0.251,0.187,0.451,0.113,0.23,0.142,0.428
"71",0.192,0.253,0.136,0.406,0.2,0.318,0.253,0.328
"72",0.158,0.296,0.04,0.498,0.157,0.281,0.232,0.45
"73",0.112,0.344,0.17,0.362,0.265,0.335,0.181,0.444
"74",0.133,0.248,0.16,0.466,0.143,0.382,0.186,0.429
"75",0.142,0.296,0.164,0.404,0.053,0.349,0.147,0.427
"76",0.027,0.404,0.215,0.347,0.235,0.31,0.203,0.337
"77",0.281,0.327,0.126,0.271,0.276,0.294,0.173,0.34
"78",0.116,0.296,0.04,0.439,0.173,0.298,0.167,0.458
"79",0.135,0.305,0.108,0.35,0.14,0.312,0.135,0.412
"80",0.117,0.342,0.179,0.322,0.124,0.357,0.209,0.364
"81",0.111,0.401,0.123,0.412,0.04,0.371,0.144,0.412
"82",0.238,0.173,0.131,0.394,0.147,0.281,0.062,0.477
"83",0.258,0.278,0.061,0.452,0.167,0.334,0.262,0.355
"84",0.174,0.301,0.182,0.383,0.094,0.373,0.182,0.412
"85",0.088,0.361,0.172,0.277,0.133,0.4,0.166,0.302
"86",0.138,0.326,0.166,0.379,0.159,0.272,0.323,0.417
"87",0.061,0.413,0.128,0.373,0.128,0.165,0.229,0.33
"88",0.14,0.195,0.186,0.476,0.001,0.192,0.269,0.416
"89",0.168,0.227,0.172,0.398,0.256,0.179,0.226,0.424
"90",0.126,0.432,0.08,0.432,0.168,0.254,0.085,0.376
"91",0.081,0.483,0.206,0.342,0.229,0.244,0.194,0.391
"92",0.148,0.304,0.074,0.423,0.158,0.263,0.18,0.445
"93",0.139,0.3,0.143,0.398,0.158,0.39,0.229,0.401
"94",0.211,0.287,0.193,0.355,0.181,0.301,0.229,0.334
"95",0.143,0.258,0.106,0.471,0.332,0.213,0.274,0.348
"96",0.181,0.31,0.267,0.308,0.187,0.187,0.25,0.337
"97",0.032,0.271,0.175,0.37,0.106,0.441,0.161,0.357
"98",0.151,0.339,0.163,0.357,0.17,0.265,0.178,0.466
"99",0.141,0.252,0.117,0.458,0.17,0.351,0.219,0.296
"100",0.16,0.201,0.238,0.367,0.224,0.327,0.245,0.353
"101",0.147,0.332,0.084,0.464,0.143,0.333,0.139,0.378
"102",0.238,0.286,0.061,0.406,0.21,0.286,0.171,0.337
"103",0.126,0.366,0.103,0.406,0.081,0.363,0.169,0.439
"104",0.133,0.188,0.187,0.388,0.235,0.292,0.278,0.311
"105",0.147,0.328,0.121,0.469,0.114,0.402,0.218,0.41
"106",0.12,0.319,0.231,0.315,0.14,0.368,0.298,0.299
"107",0.219,0.223,0.121,0.362,0.171,0.352,0.198,0.433
"108",0.476,0,0.241,0.536,0,0.693,0.179,0.246
"109",0.219,0.304,0.164,0.358,0.137,0.354,0.212,0.42
"110",0.112,0.297,0.138,0.375,0.261,0.322,0.193,0.431
"111",0.166,0.076,0.182,0.597,0.003,0.026,0.201,0.301
"112",0.291,0.295,0.108,0.441,0.278,0.288,0.13,0.413
"113",0.209,0.323,0.086,0.514,0.308,0.28,0.16,0.433
"114",0.1,0.268,0.119,0.454,0.036,0.339,0.165,0.478
"115",0.184,0.252,0.174,0.374,0.235,0.26,0.194,0.39
"116",0.155,0.306,0.114,0.408,0.3,0.233,0.196,0.399
"117",0.155,0.313,0.168,0.365,0.143,0.312,0.091,0.458
"118",0.174,0.201,0.179,0.406,0.066,0.261,0.217,0.34
"119",0.155,0.246,0.089,0.543,0.258,0.224,0.176,0.404
"120",0.158,0.147,0.25,0.354,0.243,0.271,0.231,0.318
"121",0.178,0.302,0.151,0.372,0.114,0.417,0.191,0.414
"122",0.062,0.263,0.141,0.409,0.165,0.225,0.13,0.456
"123",0.206,0.299,0.216,0.384,0.147,0.294,0.219,0.348
"124",0.139,0.306,0.159,0.407,0.221,0.36,0.159,0.287
"125",0.165,0.239,0.066,0.408,0.163,0.311,0.146,0.457
"126",0.138,0.355,0.145,0.429,0.244,0.277,0.222,0.439
"127",0.025,0.387,0.208,0.374,0.263,0.28,0.132,0.477
"128",0.194,0.262,0.16,0.483,0.193,0.216,0.173,0.392
"129",0.252,0.24,0.163,0.386,0.149,0.389,0.13,0.428
"130",0.125,0.182,0.232,0.413,0.144,0.268,0.265,0.331
"131",0.155,0.061,0.289,0.555,0.25,0.104,0.246,0.344
"132",0.18,0.216,0.098,0.4,0.193,0.212,0.202,0.38
"133",0.179,0.365,0.144,0.434,0.138,0.383,0.244,0.384
"134",0.229,0.281,0.185,0.326,0.234,0.332,0.115,0.445
"135",0.21,0.306,0.146,0.371,0.244,0.311,0.226,0.448
"136",0.215,0.281,0.079,0.387,0.149,0.297,0.284,0.35
"137",0.109,0.417,0.189,0.329,0.249,0.274,0.259,0.407
"138",0.187,0.226,0.157,0.327,0.103,0.38,0.231,0.364
"139",0.262,0.072,0.191,0.566,0.227,0.187,0.258,0.241
"140",0.069,0.348,0.034,0.475,0.108,0.332,0.233,0.38
"141",0.154,0.293,0.156,0.434,0.226,0.348,0.098,0.417
"142",0.127,0.33,0.032,0.472,0.234,0.265,0.173,0.372
"143",0.031,0.519,0.028,0.513,0.101,0.303,0.226,0.399
"144",0.155,0.285,0.179,0.448,0.091,0.376,0.164,0.453
"145",0.219,0.382,0.215,0.286,0.098,0.294,0.24,0.393
"146",0.108,0.393,0.19,0.303,0.228,0.331,0.224,0.355
"147",0.114,0.336,0.086,0.425,0.268,0.31,0.225,0.41
"148",0.188,0.264,0.186,0.402,0.306,0.229,0.224,0.384
"149",0.125,0.27,0.238,0.336,0.212,0.277,0.102,0.378
"150",0.217,0.186,0.183,0.342,0.139,0.331,0.216,0.393
"151",0.153,0.266,0.205,0.328,0.225,0.305,0.173,0.508
"152",0.141,0.299,0.138,0.472,0.211,0.22,0.188,0.381
"153",0.169,0.23,0.173,0.46,0.177,0.288,0.256,0.372
"154",0.254,0.271,0.175,0.37,0.242,0.23,0.236,0.413
"155",0.152,0.127,0.18,0.321,0.159,0.27,0.186,0.34
"156",0.117,0.329,0.062,0.375,0.286,0.233,0.187,0.42
"157",0.156,0.284,0.026,0.53,0.225,0.186,0.169,0.403
"158",0.164,0.326,0.164,0.365,0.148,0.349,0.253,0.456
"159",0.209,0.143,0.094,0.4,0.126,0.339,0.181,0.374
"160",0.118,0.3,0.073,0.516,0.213,0.187,0.108,0.37
"161",0.22,0.267,0.213,0.367,0.238,0.246,0.201,0.407
"162",0.19,0.365,0.126,0.305,0.206,0.394,0.173,0.348
"163",0.153,0.283,0.125,0.389,0.126,0.213,0.219,0.41
"164",0.174,0.227,0.244,0.226,0.223,0.329,0.146,0.376
"165",0.107,0.363,0.119,0.425,0.208,0.296,0.168,0.379
"166",0.21,0.134,0.097,0.49,0.313,0.221,0.219,0.376
"167",0.215,0.332,0.225,0.368,0.259,0.35,0.184,0.391
"168",0.257,0.236,0.167,0.378,0.264,0.29,0.136,0.366
"169",0.126,0.305,0.254,0.356,0.216,0.31,0.237,0.376
"170",0.166,0.154,0.136,0.384,0.093,0.248,0.228,0.46
"171",0.162,0.393,0.131,0.42,0.234,0.338,0.104,0.453
"172",0.115,0.311,0.055,0.48,0.143,0.343,0.168,0.481
"173",0.194,0.279,0.079,0.478,0.192,0.242,0.261,0.336
"174",0.265,0.322,0.06,0.487,0.152,0.291,0.187,0.424
"175",0.226,0.291,0.132,0.451,0.17,0.359,0.13,0.427
"176",0.131,0.263,0.063,0.443,0.198,0.26,0.197,0.403
"177",0.206,0.263,0.097,0.457,0.201,0.289,0.198,0.398
"178",0.11,0.314,0.17,0.391,0.187,0.305,0.243,0.402
"179",0.096,0.284,0.035,0.463,0.215,0.23,0.199,0.394
"180",0.115,0.301,0.228,0.372,0.108,0.262,0.179,0.459
"181",0.111,0.377,0.141,0.299,0.06,0.363,0.229,0.387
"182",0.166,0.303,0.225,0.37,0.111,0.405,0.174,0.451
"183",0.145,0.349,0.219,0.315,0.095,0.358,0.209,0.473
"184",0.195,0.235,0.199,0.426,0.125,0.361,0.215,0.433
"185",0.189,0.3,0.173,0.355,0.221,0.242,0.197,0.41
"186",0.082,0.28,0.095,0.399,0.234,0.291,0.166,0.426
"187",0.264,0.282,0.079,0.538,0.141,0.333,0.195,0.341
"188",0.066,0.162,0.199,0.297,0.101,0.251,0.2,0.333
"189",0.204,0.249,0.146,0.4,0.042,0.409,0.195,0.423
"190",0.122,0.376,0.048,0.497,0.163,0.341,0.163,0.401
"191",0.163,0.238,0.228,0.349,0.258,0.273,0.173,0.42
"192",0.124,0.288,0.289,0.225,0.249,0.266,0.23,0.34
"193",0,0.223,0.089,0.67,0.453,0.001,0.232,0.262
"194",0.106,0.339,0.211,0.347,0.211,0.232,0.259,0.387
"195",0.041,0.189,0.276,0.235,0.117,0.383,0.14,0.472
"196",0.155,0.381,0.148,0.365,0.194,0.344,0.158,0.464
"197",0.161,0.202,0.186,0.453,0.215,0.316,0.254,0.329
"198",0.116,0.404,0.183,0.363,0.276,0.209,0.24,0.428
"199",0.149,0.177,0.204,0.392,0.189,0.343,0.115,0.376
"200",0.101,0.315,0.113,0.476,0.135,0.344,0.193,0.368
"201",0.151,0.274,0.239,0.28,0.214,0.342,0.18,0.382
"202",0.122,0.313,0.222,0.392,0.13,0.35,0.146,0.481
"203",0.169,0.252,0.155,0.387,0.182,0.282,0.193,0.405
"204",0.127,0.304,0.05,0.547,0.175,0.268,0.117,0.446
"205",0.186,0.324,0.139,0.424,0.159,0.25,0.241,0.386
"206",0.155,0.218,0.187,0.384,0.125,0.128,0.158,0.376
"207",0.195,0.291,0.038,0.429,0.166,0.345,0.225,0.377
"208",0.056,0.284,0.067,0.48,0.179,0.338,0.177,0.334
"209",0.228,0.151,0.122,0.343,0.223,0.296,0.224,0.358
"210",0.225,0.223,0.095,0.484,0.158,0.343,0.188,0.424
"211",0.185,0.195,0.249,0.334,0.245,0.153,0.204,0.322
"212",0.186,0.308,0.004,0.453,0.179,0.33,0.254,0.377
"213",0.028,0.39,0.212,0.319,0.141,0.348,0.224,0.383
"214",0.182,0.263,0.055,0.378,0.34,0.273,0.234,0.375
"215",0.074,0.343,0.178,0.454,0.143,0.311,0.157,0.426
"216",0.158,0.272,0.196,0.295,0.214,0.304,0.19,0.381
"217",0.129,0.327,0.14,0.402,0.214,0.158,0.064,0.535
"218",0.138,0.284,0.111,0.228,0.398,0.312,0.174,0.412
"219",0.076,0.381,0.13,0.392,0.188,0.212,0.174,0.308
"220",0.163,0.301,0.161,0.387,0.211,0.244,0.167,0.413
"221",0.06,0.293,0.17,0.168,0.238,0.224,0.168,0.448
"222",0.156,0.22,0.105,0.401,0.055,0.398,0.16,0.362
"223",0.193,0.223,0.233,0.296,0.149,0.314,0.275,0.399
"224",0.157,0.297,0.162,0.352,0.229,0.311,0.222,0.39
"225",0.022,0.393,0.16,0.478,0.278,0.163,0.297,0.409
"226",0.003,0.358,0.128,0.474,0.204,0.241,0.233,0.322
"227",0.18,0.334,0.183,0.418,0.172,0.108,0.08,0.533
"228",0.114,0.274,0.152,0.436,0.26,0.354,0.109,0.397
"229",0.145,0.34,0.146,0.441,0.136,0.271,0.109,0.401
"230",0.165,0.224,0.128,0.445,0.212,0.33,0.186,0.347
"231",0.816,0,0.153,0.635,0.269,0.09,0.24,0.316
"232",0.088,0.385,0.073,0.442,0.21,0.347,0.231,0.425
"233",0.055,0.388,0.083,0.471,0.089,0.364,0.249,0.379
"234",0.15,0.232,0.112,0.403,0.166,0.291,0.171,0.457
"235",0.15,0.277,0.062,0.435,0.18,0.108,0.213,0.373
"236",0.226,0.171,0.138,0.427,0.269,0.203,0.129,0.52
"237",0.092,0.373,0.083,0.458,0.349,0.272,0.149,0.447
"238",0.147,0.305,0.14,0.347,0.229,0.297,0.11,0.469
"239",0.149,0.314,0.253,0.284,0.2,0.383,0.302,0.317
"240",0.147,0.303,0.237,0.353,0.105,0.311,0.165,0.451
"241",0.182,0.204,0.14,0.408,0.181,0.316,0.208,0.526
"242",0.156,0.285,0.079,0.472,0.256,0.308,0.143,0.391
"243",0.149,0.329,0.194,0.275,0.26,0.235,0.21,0.324
"244",0.102,0.352,0.134,0.355,0.221,0.288,0.086,0.467
"245",0.157,0.421,0.315,0.302,0.202,0.298,0.076,0.506
"246",0.11,0.309,0.142,0.309,0.277,0.382,0.167,0.388
"247",0.167,0.192,0.152,0.387,0.239,0.278,0.178,0.41
"248",0.11,0.281,0.148,0.354,0.121,0.149,0.206,0.387
"249",0.231,0.266,0.198,0.337,0.307,0.308,0.214,0.474
"250",0.172,0.288,0.107,0.451,0.16,0.36,0.224,0.348
