"","x"
"1",16760.5993872096
"2",16675.3521720213
"3",16924.5557783645
"4",16870.9327667261
"5",16665.7135464997
"6",16674.2498186521
"7",16754.9203230723
"8",16489.3910838173
"9",16579.1061650756
"10",16842.1159396519
"11",16697.142602423
"12",16766.6985366674
"13",16420.2273121996
"14",16980.892408226
"15",16727.3788873776
"16",16604.9824824224
"17",16880.6267753635
"18",16960.3176581883
"19",16809.1058591724
"20",16770.8120817116
"21",17088.8196925881
"22",16851.412899658
"23",16544.676098109
"24",16590.0848443804
"25",17004.2514965476
"26",16948.6979534417
"27",16592.2554816571
"28",16717.1716586414
"29",16850.8989189633
"30",16873.4454145028
"31",16729.0026706868
"32",16761.2620033687
"33",16825.4440519107
"34",16710.0159846258
"35",16856.327301264
"36",16851.825047189
"37",16494.243909033
"38",16688.090280656
"39",16834.534927843
"40",16615.5542199101
"41",16878.5956656438
"42",16739.0326404037
"43",16610.2538489761
"44",16789.3000451781
"45",16607.4519303102
"46",16653.1608146354
"47",16751.6937331569
"48",16426.0488145089
"49",16932.2281553929
"50",16580.6210196466
"51",16784.6415943934
"52",16870.8861416002
"53",17052.7372893896
"54",16854.6560142528
"55",16758.2373957471
"56",16761.3860334723
"57",16827.226498934
"58",16912.7095344008
"59",16690.8849995034
"60",16980.0544866231
"61",16715.0521149593
"62",16897.1061531347
"63",16555.5008893639
"64",16947.248784384
"65",16825.8441980779
"66",16716.2081252542
"67",16700.2275582748
"68",16727.6201638113
"69",16609.0936637943
"70",16794.9733827569
"71",16619.55524663
"72",16771.4803514609
"73",16901.035131481
"74",16898.15922777
"75",16702.261959818
"76",16729.2366730997
"77",16953.3565093773
"78",16694.7083656504
"79",17130.6897187195
"80",16735.3220084941
"81",17015.5750579939
"82",16946.2184550215
"83",16821.2563738515
"84",16875.3675820937
"85",16784.129424044
"86",16762.8261225815
"87",16353.6623217189
"88",17081.3572082881
"89",16810.5141375067
"90",16836.3532207241
"91",16931.9457790375
"92",16568.416978107
"93",16646.3004025801
"94",16764.5236647017
"95",16669.067257062
"96",16859.7264231249
"97",16616.2952441593
"98",16676.7542987719
"99",16893.7983327575
"100",16332.8802707617
"101",16942.292027868
"102",16661.5662547628
"103",16753.0575293839
"104",16782.0486123658
"105",16550.2318865858
"106",16785.9108920346
"107",16947.0351392809
"108",16730.083634948
"109",16637.1788628133
"110",16828.0131725477
"111",16663.6928157674
"112",16813.1620679836
"113",16920.9272522614
"114",16778.149868066
"115",16627.8392348945
"116",16753.7869755199
"117",16822.4871165916
"118",16905.2473283965
"119",16924.3229747313
"120",16698.5998421438
"121",16640.0977929759
"122",16741.1051288895
"123",16741.6675779705
"124",16634.9345746072
"125",16973.787842203
"126",16565.3648498907
"127",16809.9104064326
"128",16973.6930756214
"129",16569.259383819
"130",16479.5496599133
"131",16872.0464671534
"132",16660.9769655628
"133",16680.6658660521
"134",16749.4245152096
"135",16739.2113296568
"136",16743.4947585793
"137",16685.738177801
"138",16627.0474924417
"139",16674.607164196
"140",16885.0063226354
"141",16808.1037861004
"142",16589.6034519183
"143",16783.4677726204
"144",16673.6801650629
"145",16951.8370427722
"146",16608.2468113229
"147",16710.5289172193
"148",16772.7647184936
"149",16936.2039789055
"150",16382.5905833483
"151",16705.4371484928
"152",16590.0921621782
"153",16602.2462084382
"154",16734.6195251324
"155",16615.6765245088
"156",16568.8311756754
"157",16671.6135139611
"158",17043.8703681427
"159",16750.906877575
"160",16672.242616933
"161",16505.0136470648
"162",16722.0374024693
"163",16672.3377319923
"164",16661.928212788
"165",16760.2421515939
"166",16734.5261504773
"167",16607.0232600309
"168",16609.8803545511
"169",16828.3869257594
"170",16712.6683006221
"171",16834.6954360349
"172",17100.8179728803
"173",16668.1445259817
"174",16850.4383909865
"175",16711.2172706615
"176",16546.4287587939
"177",16711.6507734571
"178",16763.4335551105
"179",16764.033430626
"180",16508.5474134614
"181",16581.2626508052
"182",16704.4588018441
"183",16571.4831803657
"184",16743.779512852
"185",16820.5068806741
"186",16792.969149385
"187",16645.631847416
"188",16405.1920084493
"189",16688.7076714366
"190",16552.7131707384
"191",16557.9095215973
"192",17028.0244970454
"193",16724.466338732
"194",16702.8561012658
"195",16649.8289922967
"196",16937.2343326475
"197",16819.2692152105
"198",16928.9431830837
"199",16767.5639292152
"200",16821.5964200444
"201",16701.4538752438
"202",16457.6109187085
"203",16876.4535798897
"204",16918.4281582865
"205",16855.8312165956
"206",16575.88185237
"207",16906.0973169772
"208",16473.582905996
"209",16595.5124557403
"210",16864.5978628856
"211",16698.7645850737
"212",16992.1728727956
"213",16634.8580801424
"214",16845.8521741587
"215",16657.3813533162
"216",17032.7652421447
"217",16733.6511173533
"218",16774.7580323901
"219",16579.7556931144
"220",16562.6022338078
"221",16832.8996477391
"222",16567.1053281259
"223",16554.6514763786
"224",16654.2317046243
"225",16628.6810443369
"226",16776.9565414725
"227",16744.8048719698
"228",16574.1305961746
"229",16897.8616233979
"230",16781.9034067667
"231",16923.8261621792
"232",16829.7794036286
"233",16874.2996387866
"234",16528.3058881631
"235",16692.2112408241
"236",16469.678733918
"237",16927.2599126538
"238",16644.2458337268
"239",16410.5851750588
"240",16572.4171287043
"241",16649.3636659764
"242",16767.6272133795
"243",16385.7243723956
"244",16853.2262140779
"245",16889.3128632081
"246",16711.4941127229
"247",16877.6741233723
"248",16768.8177674683
"249",16751.2633988663
"250",16913.4870965075
