"","V1","V2","V3","V4","V5","V6","V7","V8"
"1",20.9467685825256,40.6985469218677,5.7808289507528,7.63824113490006,0.0340459928866005,-0.016613304210877,1.69464616210278,6.73211668686245
"2",22.0696441191015,38.5863378447133,6.58799901685583,7.95685421371353,0.00862291460356769,-0.0335365606952354,1.99477819578047,8.00664106010217
"3",20.3767634932981,38.8681002068032,6.02132873376594,7.59891915850865,-0.139651375606244,0.0735761388532717,1.54691235790912,7.3746862888496
"4",21.5954322650363,39.4843382751077,5.75612166644802,7.73933250611574,0.0280331335594775,0.0684380705872285,1.6067406708806,6.9589827991983
"5",20.7601068684538,40.0852803602488,5.72407102881676,8.77881130210715,-0.0716613392495538,-0.062802522020069,1.81121269392215,8.96851380818965
"6",20.7417118760587,36.8433484753231,5.59027925797911,6.63719576388528,-0.014665668536555,0.0878973378847506,1.78694425201502,6.68041205954624
"7",23.2558012279932,39.4631765936679,7.29877472665585,7.41687671357722,-0.123433215921435,0.00789395396924243,1.42393958238622,8.28921853095833
"8",21.6486177881051,39.2828718924056,6.16926796907597,8.1715875570236,-0.0139754810850303,-0.0169312134408408,1.65251181741266,6.32460373825635
"9",20.8449441205181,37.8194074999699,5.80210834558352,7.13850545923517,0.0133151706878531,0.0238362061283687,1.75643087552376,6.83154346314477
"10",20.0647985775474,37.8168512030148,5.69924258290429,8.38941711020482,-0.131713232477687,0.0350646858936119,1.52714145617222,3.48429491671871
"11",20.1084878057019,38.1513843220556,5.54413931133587,8.55238521584913,0.0540706666094789,-0.0161654666454842,1.78156659292463,5.98200684360591
"12",20.1811256944914,38.4195685286377,5.00016336268449,8.74063336556252,0.223080032369999,-0.00158171805522424,1.55097699668369,7.0813939587802
"13",20.978761352721,38.4368203396184,6.18959236519162,8.37372341169363,0.468662273096169,0.0922799544185956,1.37994617568878,6.38274135175624
"14",19.0181667873437,37.9016000231281,5.60142025910134,7.95544343372972,0.0113657130114674,-0.00560205645941652,2.02431085448477,4.29771437098132
"15",20.5504981653745,38.4442104694077,5.18941483636777,7.81846280153054,-0.177777928760882,0.00335776818565046,1.77406122718975,6.62929002610655
"16",19.5063483182596,35.7164386896352,5.24469705633344,7.48993981777536,0.00719260318649013,0.0281217664923879,1.5854791101135,5.04392858912488
"17",21.1667091764943,37.7042690166946,6.11816298930454,6.72336894449853,0.0502484293353139,0.0337241540142729,1.73366542908317,9.40922219518667
"18",22.3901904395751,41.0096294466711,6.28293867355637,9.43462291249146,0.00824773171133376,0.00668518674354259,1.63828779177185,9.01567625244387
"19",19.8931150812704,38.1449426898962,5.51658976051792,7.75996612287705,0.0402097837552184,-0.032599981843676,1.69175810388669,5.73855948486878
"20",20.6614409230629,38.2783530815548,6.12103912848275,8.7467569510362,-0.0157452512568535,0.0384280586635464,1.62573702953085,5.84809320033336
"21",21.7961107507384,40.1818574229842,6.11867409740436,7.71677522699645,0.0192907513809031,0.020967615057638,1.72698666182681,6.9768865060946
"22",22.1454732401965,39.5966707989009,5.61956528510891,7.5077958630379,-0.142478531876886,-0.0186863448161841,2.0317305358298,5.21744140320399
"23",20.1751628542026,37.2306358144713,5.35366274514562,7.70272687994768,-0.0876419023434208,0.0625277815904504,1.66992832049767,6.37058149550874
"24",20.8526495259253,38.174566250767,5.66541280700141,7.70538991902186,-0.105896152323821,0.0283820710250843,1.41027394618843,5.40321021503094
"25",21.7837514557484,38.6157691981976,5.74180424928956,8.14198421917789,-0.264894352120597,-0.0282393768582454,1.47531078992269,6.59717956518056
"26",21.4735746627794,39.7374765948114,5.96558256655958,7.1520149227253,-0.078926741983943,0.022973695208301,1.63521347878479,5.22108688674736
"27",21.0678652354034,37.6494053942611,5.3044318423083,7.85813531065067,-0.142264706645142,-0.0582092299366197,1.77574523888305,6.44951099233614
"28",19.9328072069695,35.8441473593489,5.57683774971015,8.39968096331592,0.0463092928901236,-0.0370726719896216,1.412320760549,5.96830707200845
"29",20.6330722296277,37.818013483399,5.98502674984029,7.48804384921713,-0.0124334177684736,0.0422061233232026,1.92964888399686,5.29488225601669
"30",20.8178775374367,39.9164923166574,5.86598231007649,8.759245588009,0.0986170850988679,0.0354895443656135,1.66896298048129,8.11277942510847
"31",22.7636759740086,41.0920808598352,6.54235732321239,7.47009565664268,0.0252305203630051,-0.04777261002236,1.6840056722331,8.70809313717858
"32",21.5691987792812,39.6320584123097,5.29177840598856,8.17286728443389,-0.0335560967787029,0.00670773792775804,1.60028122149731,8.30673724264443
"33",21.5321890663116,37.8060388943698,5.8855089931499,7.97819219768534,0.0547546221866706,0.0139383234800653,1.46520343550424,5.63355932531284
"34",20.9615888276193,40.6030817366328,6.35650109598402,9.57851965177722,-0.110563868362098,-0.0567472533251861,1.57374417829853,6.6255495867654
"35",20.8807398632803,38.5836258032319,5.91304948211734,9.10238461705706,-0.054192547489204,0.0361201989071325,1.42473506037561,6.10846184316692
"36",20.906046387706,38.95620915925,5.76693744971753,8.57955677722429,-0.166914246324229,0.000419215503063446,1.60794768799719,8.55212904457101
"37",20.1094451518715,37.2473486810098,5.45848990119042,8.16922684537993,-0.0328972323564611,-0.0419157762373513,1.41266878771259,6.30696424643547
"38",20.0358210722645,39.2061454593375,5.04936983892879,8.4122747565297,0.1255930560348,0.0458250443978354,1.67893839417732,5.15547793275738
"39",22.5239018283792,39.3780445398154,6.35446517740566,7.94044539624625,-0.0709182849379414,0.0461782251077686,1.90247750010581,7.0873989108178
"40",21.1190119973666,40.0411791982787,5.91771483674517,8.37290016871936,-0.176091018540654,0.0869971953202661,1.45462275286631,7.3256468413325
"41",20.4646466375294,38.2387356303309,5.37864823562851,7.8083454724783,0.250159979100175,-0.0022506353875781,1.52051906761081,6.2519686984997
"42",21.361735390655,38.1207262120205,5.95210309889728,8.31729628346217,0.0825001506845498,-0.0776807364475976,1.65599802549772,6.26373487822941
"43",20.5300109644235,37.5835160653434,5.99141441899134,7.78728609137228,0.0205689597999218,0.0642822153597267,1.4373608750435,7.90054891548783
"44",20.1786521388697,38.1787572978177,5.35682415776216,8.2781373006727,0.00256549861786626,-0.043517499059476,1.45219284318001,6.33937050145115
"45",20.5991839725174,37.9484714003729,5.36790285147002,7.10897250476216,-0.108922289742471,-0.0453632427961396,1.52294823819436,9.5854147726358
"46",20.2604934101214,39.0298653588452,5.89347613162463,9.10852360066662,-0.0840793726696654,0.0159680371567257,1.60127705106031,7.59027980505457
"47",20.9257197172553,36.0741111969923,5.69000436844739,7.83624025583195,0.224050118136186,0.0584504021521351,1.31049712728276,7.25543393300626
"48",20.7891908634956,39.3494908288803,5.92028750255991,8.15444631955765,0.00414974252861973,-0.0433437708250934,1.71684012904633,7.8851814702433
"49",22.1192804785622,38.9624426407952,6.27880339115448,7.98332750270849,0.0401730509250728,0.0221675044984801,1.6967551518688,6.40993271594601
"50",21.7252024009909,39.5656740547904,5.53935916311687,7.873080077883,0.0433711516590425,-0.0329477995511563,1.71445483110241,5.93047671614869
"51",21.275713805649,39.0695460772264,6.15770033415218,7.35440254449959,0.0287529157663358,0.0112476833374457,1.50496900178352,7.96080574983046
"52",21.2308093974875,38.1810395636841,5.39932778307002,8.56810343683617,0.0920085643197989,0.0154956674920059,1.72327717973542,6.78994845759662
"53",22.4000328291449,39.3583624423825,6.20114120750481,7.77012282536346,-0.160091261275614,0.0799138081942121,1.63508430183505,6.85934411737802
"54",20.7688154272029,38.2349017177666,5.30830849506944,7.41167504273514,-0.124520961469215,-0.0237085242131276,1.66448359668236,7.08980778834535
"55",21.0619141057055,39.5613721444869,5.60575927673471,8.45471233930566,-0.229649890998432,0.090966513678573,1.89309300033607,6.38026844356735
"56",21.206473732607,38.1188636241204,5.7092330007864,7.54304880269123,0.173538966494564,0.0385170373200035,1.79452551855833,5.7717225074779
"57",20.7403159364206,38.4261569007569,5.34479943627791,6.78816801190295,-0.0246043388743569,-0.0526336571779047,1.74409517856243,4.56832748718897
"58",21.3250970800537,38.1674687015509,5.7071191426568,7.51106652094504,-0.0749631964300072,-0.0446814387181091,1.71143209569176,5.01699770407869
"59",20.5607283289508,38.0434254529396,5.75421662095913,7.23158357558907,0.00304337957189037,0.0391752330186588,1.40092734641739,8.52294591437703
"60",20.1814792416504,37.6368328517584,5.2201348819973,8.36094851606783,0.106389008720651,0.038617986275892,1.44222530409571,6.10098013194505
"61",21.2953221710727,37.7751342915831,5.47209908802719,8.18974468275783,0.0595562610338407,0.0405559833842822,1.92452453962207,5.46488961878422
"62",21.3849041242974,39.0734240464856,5.73616137168485,7.75886204479981,0.127031700482564,0.00551237485962083,1.60345436768354,8.06558320495782
"63",21.0079790346964,39.2062661968057,6.24996046647605,7.77581960507483,0.0324689802292793,-0.0391438546365411,1.87139820318439,5.20167659375787
"64",21.0863186568979,38.0612862989012,6.10320621064943,7.10771028708255,-0.079454148251358,-0.00771979345070855,1.65412108918217,6.85675738455214
"65",21.8541887376626,37.4031588114066,6.07185047580461,7.25131896372718,-0.119140963015473,0.0319258156050521,1.65169276349771,6.25839184439094
"66",20.441964815257,37.5036939842893,5.23667650101565,7.21433710755968,-0.0619494462808014,0.052476223031552,1.69311293083568,5.96600772169172
"67",21.4625004337068,38.8892595568484,6.09599462857302,8.01441359364395,0.126077814648415,0.0270583996584232,1.64990235366528,6.58222811679384
"68",21.7678965378941,37.5442209938488,6.35065662809348,7.4933406091856,0.00793695978794138,-0.11618331302819,1.48318652868037,7.1857972930631
"69",20.6918500996519,39.2365666641659,5.63941649955579,8.92535870106944,0.245071604069638,0.0264576559529007,1.47374789509072,6.01711286116175
"70",21.815363212828,38.7869405242486,6.12460579201261,8.00888837913132,-0.140703913072229,-0.0092395170523622,1.6040975952792,7.66598519220143
"71",20.7782517550268,40.015818806069,5.89998725399294,9.5295099775114,0.0850685773540985,-0.0413793596257549,1.54208760168262,6.77965448111737
"72",21.4915253300813,37.5096366106788,6.19380154359734,7.43083830570778,-0.151663032299035,0.105725631353978,1.64905265559641,7.00429300762423
"73",22.8349222890039,39.1584858374612,6.76860663461643,7.97946377920892,0.123345968966584,-0.0212464456664612,1.62996517736914,7.09948451074485
"74",21.4031203189339,39.5704102142249,5.74053455331675,8.77877012962587,-0.0681364113255356,-0.0458922882947225,1.62239072284124,8.18884472745605
"75",20.9344508910216,40.2660804174703,5.7957539718969,8.06498974445673,0.0913918089487781,-0.0260981565635753,1.42683313130186,5.64290538451678
"76",20.2783545422955,39.5093731123709,5.64151031642629,8.20188275706613,0.118090723294502,0.00267654993197242,1.78546307482503,7.183190285623
"77",20.0640676816128,39.032320807743,5.46671054946478,8.57799378916362,0.27582630833375,0.00783310838500515,1.75557274146188,6.81634388954679
"78",21.045224913178,38.4556035353608,5.92316178448246,8.23138226286337,0.118186114304918,0.0498259428410092,1.64780635030445,4.66839391949228
"79",21.4218806215027,37.9398755426868,6.25289169001553,8.85442270540618,0.0265200258554562,0.0574781329102449,1.16809208356925,9.17287523324926
"80",21.3027463721631,37.7409807264,6.16612861447075,7.77803448955579,0.0618219803397709,-0.106803294338535,1.27149071486137,7.44340378436512
"81",20.2909894532223,38.2791310873051,5.76952370359852,9.52116432778531,-0.0113711296115157,-0.0470984666911884,1.70713464316549,3.96547215256584
"82",19.5336449614349,37.0977659324524,5.44668164367195,8.33671343276532,0.0712900504634815,-0.0756878325016783,1.4957314729148,5.61335280288519
"83",21.64943698553,38.3130834249754,5.99635053346961,8.41724050454973,0.192354595903113,0.0828983453642612,1.16316257644605,4.92292325589668
"84",20.4870549964822,38.0229403796924,5.40940970254652,8.31493870346112,-0.096438869544113,-0.0350378132011529,1.8820249865927,5.78570207620366
"85",22.1439286461338,38.7660326006847,6.48314480418434,7.45630677286616,0.259425445528314,0.0145601332904258,1.82906306364427,5.66847564782785
"86",20.1615767000733,37.2402800620084,4.88124675692505,7.48679299618514,0.0525536156484675,-0.0518457388441663,1.49573460852229,5.26846191615549
"87",22.1081833229833,38.8123216141686,5.8683711764243,7.79967933311237,-0.150873337200025,-0.0538250013252309,1.63891249928705,7.55498327247051
"88",19.8597311818507,37.4314801891364,5.66413961807238,7.3301940146138,0.0383825689566346,0.0650588972509549,1.38009338874187,8.34369574803529
"89",21.4810086458372,38.4511142741694,5.41167086263524,8.76187038909484,-0.045673409983101,-0.0584549799476556,1.85298485333008,5.18533658956512
"90",21.940700692513,39.9024134406656,6.06757507021876,7.90891064839914,0.0313804962402507,-0.0308584555319706,1.59293063451492,8.07214398969095
"91",20.373266965001,38.9746097172369,5.27462571306907,7.67882950443876,0.0675458383467187,0.0624946601260443,1.83997266304227,5.61437102970879
"92",20.7729622794952,37.4072822766987,5.79732273388423,7.48792415971458,-0.126268548711382,0.0658289892201938,1.64443020817447,6.77776644825067
"93",20.863783928205,38.4962420065227,6.06569514248432,7.07495509096825,-0.109369018634476,-0.0374583563859306,1.94477621826378,7.61921653284209
"94",23.3418317279446,41.0724888718211,6.75329820919905,9.11004724196027,-0.14967091107473,0.0295297753732573,1.68431244046442,5.96480783668784
"95",20.6262640763327,38.3580544196898,5.49397470309049,8.14227893406368,0.161442269887404,-0.0854416458086973,1.67325621809843,6.38369638293531
"96",21.8113181963914,39.7886182974978,5.91315598192264,7.09208024953303,-0.0138998598618967,-0.073502493634687,1.8009916729771,7.88463674163965
"97",20.9084343072857,39.5297517392796,5.8292272835129,7.99484934468879,0.0484056802362757,-0.00604212329289397,1.77410814440863,6.63204501486754
"98",20.6872527686094,40.5088546304945,5.85451179802921,8.68565684642351,-0.0407192273931398,-3.73099868779542e-06,1.1656805450116,5.5371348061599
"99",21.0674762367164,39.5857720167406,5.70776990097561,8.23807052825016,0.0963246128922086,0.0396133851532495,1.64793032396111,7.18754341552662
"100",21.1169789403693,41.5660783851139,5.82393698421385,8.15403078160382,0.13695455447208,0.117596617749934,1.79701952495545,8.14991145018215
"101",21.2980704318267,40.0127430996687,5.89567267268538,8.83494815407993,-0.0852101269560201,0.0281530913700098,1.54631184512032,6.69938200526436
"102",21.7358007776511,37.2557356483155,7.23822188216519,8.00756096395681,0.215360911051154,-0.0438950760698007,1.42629671223838,7.19724576568587
"103",21.2583355263745,38.8135962221051,6.54905732202588,8.28494952238431,0.0292388945457786,0.0629152769863864,1.42785284967112,7.65939269612515
"104",21.5768615939679,39.3792560831333,6.16514000896353,7.68533087983149,-0.107502762774389,-0.0386689868060316,1.77134444879543,7.14931149784311
"105",19.8022448653381,37.6008538654365,6.22245149206402,7.75829832109036,-0.00655703406741434,0.0463032220697591,1.50909005710547,7.45001109466978
"106",20.9310806402068,39.9472213601484,5.37446137658529,8.6060463472946,-0.116060976541068,0.0381694156517708,1.82149697826274,7.83637220938904
"107",22.2933598451833,38.2552706239036,6.81659576519144,6.72233846849337,-0.161551887102611,0.0528699864831993,1.44137226713945,7.79043619182126
"108",20.6264213193169,39.0526617834317,5.61044692810326,8.62165006142954,0.130718032232946,0.114418551966759,1.77724373058239,4.72659375941015
"109",22.3614779307809,38.5704460217074,6.12564662915954,6.75118727222914,-0.021263200086695,-0.00897706252472866,1.90431574675734,6.80842466326465
"110",20.0133167155103,38.7059051424026,5.38869701201669,9.3395587416351,0.255911679723033,-0.070917006712341,1.62508454500794,5.21854804729377
"111",22.0709458877358,38.6377293080264,5.92041072662233,7.7494844433236,-0.0878245493661939,0.107493830458688,1.59510047050054,7.20346881637712
"112",20.8010002099058,37.7533611973893,5.30228863573471,7.92267798570977,0.0105041098890733,-0.0470019618039703,2.01366792697228,5.98970071004298
"113",21.9492516880796,40.9396200150499,6.17708880791436,7.95375892347495,0.0359058528461512,-0.0649778056826092,1.46641853264005,5.43399919131246
"114",20.4866571435311,37.9957790284531,5.26572831312539,8.16995842137664,-0.0353176855328557,0.0131127502079672,1.66550349753954,5.372793564517
"115",20.9706335871529,38.8143052733684,5.45447324774007,7.84476985698572,0.101682628044509,-0.0557661519472163,1.90761862387154,3.95861114212325
"116",20.415732220556,38.3584931690571,5.28082347769629,8.4096597676474,-0.156343232718119,0.0532815061304787,1.56861104457258,7.59483677813898
"117",21.063209950032,38.6725551629713,5.79853317707684,7.05126621047733,-0.169777520933636,-0.0221187752556762,1.76249574875528,7.12430573040335
"118",20.1493566694028,40.7766969064797,5.36044248938431,7.19862052212679,-0.0041612882451951,0.115977276231463,1.71503414939157,7.66983021120286
"119",20.7923383455882,38.7361388306727,5.42922326982309,8.26246620628109,-0.112994353713995,0.01515274099134,1.45574577494338,6.00307278572138
"120",21.8743850965809,37.608822974011,5.83412922103131,6.54812971264922,0.180892433219028,-0.0802103747875118,1.4292795868231,8.07962149486572
"121",22.2720251726398,38.0285711253513,5.68003227103704,7.55494379480748,0.0978425563639067,-0.048109128087677,1.94500937837458,7.16067887440677
"122",21.8583558025123,39.9269851163963,5.93976372179151,8.21429497858444,-0.146712871980298,0.0606483294263766,1.42718632833702,6.9841190583713
"123",21.5359379497283,40.4125357423925,6.04093113681928,8.84939338198128,0.112504641263819,-0.0553054730263676,1.89942975606667,5.34314451160475
"124",19.7660531021145,36.0006067625057,5.27767368326873,7.43654460139791,-0.0502096088224354,-0.0567497848213559,1.90049026446514,6.67892848977861
"125",21.1591200948913,38.3967470222725,6.60616835320322,8.20752798087996,-0.0692276529710088,0.0610559063036548,1.62235357451441,5.83599925256863
"126",22.2733840717983,38.8396510260844,6.30922934933529,7.68172720725628,0.146788777173406,0.0187493377589029,1.85706746024716,7.92151627317877
"127",20.4969824808275,38.4358004258943,5.90499775474124,8.62005336820548,-0.0704500441052732,-0.0038560770805327,1.34815824612628,5.12633180023094
"128",19.6625673678717,35.4016194146528,5.11673538343142,7.32278131277688,-0.0974181018643593,0.011412184711139,1.53681585012387,4.18381137570749
"129",20.6126165138005,38.2155369333819,6.09040465053486,7.20052559109067,-0.141272124960418,0.0605120706349658,1.82499023380273,5.47317668606842
"130",20.4854377066649,39.821370603696,5.40424741533239,8.03405731537026,0.0431707970425166,-0.0226817010985492,1.5746349292715,7.17422711311253
"131",21.6640413804992,39.0136969209999,6.69841545491165,7.45732910078124,-0.169813911775649,-0.0333079968798016,1.38525748150756,7.07966977716168
"132",20.0988314642726,38.2488090397003,5.1535768221818,7.53706229204217,-0.0812878225869459,0.0096581329953306,1.64986530795594,4.64683556376392
"133",21.7693967695004,41.2950031733922,6.807139401101,8.44994547647492,-0.038428410215043,-0.0564389732926823,1.66040830636602,7.91173120239277
"134",21.0715387077943,38.1007579040932,5.68419076994986,7.63594636776853,-0.0746481202621583,0.00834108495936545,1.75617807353778,7.64007983758122
"135",21.0093421082917,40.1733071969774,6.12704886215253,8.60910057145381,0.0785316886396791,-0.114045833268674,1.67813672850516,7.48971504820514
"136",21.8036809611276,42.2239443225435,5.83378886659708,8.98636264274781,0.082473378371237,-0.0438600539978485,1.47235928906291,6.21111609184665
"137",21.8315826323577,38.8761420382163,6.03105102359649,7.94180172241637,0.0954676972730873,-0.101202619854259,1.25091747471613,7.24462379730849
"138",21.4990293940974,38.8446206421722,5.62152218564537,7.77828483091033,0.0978256931768339,0.00969991067875633,1.93443284729749,5.94740166198625
"139",21.3307449937562,38.222745634429,6.35732640031893,7.89236626458094,0.0124273106272227,-0.00164468744867982,2.04718580135758,7.47806586510731
"140",22.903167289637,38.03342041148,6.48540710885791,7.68488394794723,-0.0744642340174379,0.0416444684388999,1.83231977195235,6.51840873717344
"141",21.6618781163395,39.6739612816138,6.11827390600375,7.99253193337172,-0.0872731656112818,0.00620909081479584,1.68578640871889,6.04379839691139
"142",20.9545715650926,40.0968762654715,6.03611866528599,8.90738620082425,0.0937630817418098,-0.00410812943148228,1.79272700949307,8.40799716401399
"143",20.0092346620081,37.6372665521724,5.14065774956285,8.5396290336704,0.0468353911248984,-0.0172441922453778,1.52057412412756,4.60426580062548
"144",20.4744230985684,38.2878392043978,6.02559188503683,8.28869220371306,-0.0177451865950506,-0.0142298069679147,1.43112839313538,6.75496397434572
"145",20.3365474498378,37.6561354334129,5.1258194830957,7.98909842971579,-0.0308152023767671,-0.0493446341641019,1.74122064589742,5.29882217206945
"146",20.3076138341906,39.6834911610086,5.74915117498225,7.30337059324689,0.157636508115982,-0.0424227560282628,1.70007194067378,6.91422762844021
"147",21.1644470504786,38.7390630576301,5.91145521424682,8.0249912239846,0.0969776350783493,0.000445572695551954,1.43224773708223,6.16280990079517
"148",19.455885511644,37.5973881712107,5.15137889061821,7.98541036939133,-0.0498899738385002,-0.00940269942038121,1.73504888887322,4.17485498982444
"149",21.2100631938709,38.9273534197981,5.7005978883204,8.3516569355898,0.178401503743675,0.025195679366973,1.27733808243082,5.64862727439305
"150",21.8260968834592,40.429574186057,5.76981453125584,7.84743354281511,0.129918365265421,-0.0527596501600153,1.64509392727361,5.45877895680415
"151",21.2662293220943,39.320645503797,6.65447944874542,8.30616143149897,0.239234081164341,0.0309521165262963,1.63196420088232,9.09164187694875
"152",20.1749524410711,37.8420882169841,5.36423780964457,8.38608733813452,-0.0445763546205496,0.0146647785423398,1.74264454462151,6.14893140732424
"153",21.2129484547667,37.3912132040175,5.48138948356814,7.91016800271345,0.083923759629055,0.10244440154582,1.64151006635978,8.25107605951103
"154",20.4824220302572,39.5492079007988,5.47764748850994,8.23894450932425,0.126247513550882,-0.00897057267866852,1.59796749031077,6.16394323367711
"155",21.8716119679343,37.3219581290319,6.0562954408047,7.61827431593068,-0.0620693473191423,-0.0574876422906236,1.46669152304845,5.82008705154158
"156",20.3967011187907,37.2193523843206,5.14696408213771,6.24612164426534,0.100348863659852,-0.0830003464603769,2.09466384965138,6.0963649733131
"157",21.4379240200187,39.9003166897029,6.12244915519311,7.73827610333,0.182065760848574,0.0414360028420579,1.75426742546679,6.25438284436863
"158",20.7015614876425,39.8397184293607,5.90021019303706,8.70491953406112,-0.0838369475285176,-0.0145924713335523,1.55343951180022,6.22538932154352
"159",19.8509562881104,38.4354389191217,5.30326277176107,7.88054965261551,-0.135051931785836,-0.00231699406353686,1.6393532677388,4.52991445782493
"160",21.2007460710735,38.6852578481173,6.1223310163798,7.52138470818451,-0.0611309260514354,0.0603339425158321,2.0533107579374,7.72071073641203
"161",21.3985012909953,38.6853885312989,5.99083463557278,7.97115072075252,0.0852081343065689,0.104579672468972,1.5533167055083,7.15218980800633
"162",20.9490125761189,38.5263005654578,5.98291363221291,7.40240064000814,-0.0506540161018898,0.0501181652728055,1.71198273627248,6.53126192112742
"163",20.2841496833098,36.0847880827092,5.34779738021515,7.65298843782973,0.207852018309337,0.082952515900902,1.60806666712605,5.47891563574208
"164",21.8206679504063,41.384393915355,5.82692994070345,9.23038070353879,-0.171136593255471,-0.0915177869895108,1.76601742061871,6.10937832650966
"165",20.7450880333039,37.5882035085832,5.15504295900172,8.6034300543881,-0.10532836296977,-0.0273964150786403,1.74128912232487,3.98291900330566
"166",22.1255180578695,39.1707485481688,5.90917156060911,7.90892645050883,0.00604657948491156,0.0576882381104797,1.72962637929749,7.74633496093299
"167",21.214881422059,39.6049868410444,6.05497305950457,8.37286110928649,0.0624326348724153,-0.0837575110863852,2.10742443220878,8.80946629307534
"168",20.9678534117633,39.3379900011292,5.7953728500137,7.5201631601518,-0.0215525080119344,-0.0410230953136254,1.80195729360235,7.54410586491477
"169",21.3032347416331,37.3312438302986,5.45274929281842,6.71545137934294,-0.158750999961049,-0.0602486952386406,1.75744553277179,7.2896952981661
"170",21.6761392557761,39.2451076705138,6.29063704934858,8.21080508326132,-0.0655497510149173,-0.0518090045574255,1.91040802025044,7.90919084707608
"171",20.1884595870963,38.15641799168,5.64749748605199,7.42661819720461,-0.0585228566555162,0.0416251548968999,1.6996797451035,7.27925230665186
"172",21.3908348875613,39.6636234133814,7.0695272199379,7.59124728357461,0.0146635588214591,-0.032780213156722,1.44742315718144,8.20710197428989
"173",20.661252634675,38.1897746440036,5.47686272698905,8.3951356505854,0.0597636802970016,-0.0299481417516845,1.50862773022223,4.59537245714407
"174",21.1052245624002,38.039903323941,6.00880387885462,7.40769330857116,0.116136619177701,-0.0241181156120906,1.28708413855869,6.8540693382255
"175",19.6825662627285,38.3637372843576,5.72149028783834,7.46992799604462,0.0285353051617878,-0.0327905659949743,1.50731600751789,5.34321983356742
"176",19.5268182651581,37.4889621548481,5.54892708758155,7.93895994103307,-0.0297560177723745,0.110753460562765,1.52757412544579,5.05702293256796
"177",19.7040208176865,37.7108340312811,5.78106851024791,8.13441719452207,0.137946570529903,-0.0179614253901838,1.32006533192662,4.81525990143208
"178",19.1425142867718,38.0211143143105,5.23352228839589,8.53351800466049,-0.0175866017210935,0.090668219589296,1.77235896895786,6.49440655491051
"179",20.1307855217367,38.4421566980294,5.67630198869434,7.93590504160422,0.0712986913672835,0.0433111603158257,1.71259231601949,7.28749899824123
"180",20.304070208117,38.1703585412438,5.3991607280657,7.56403829378655,-0.0773117594478113,-0.048201645460333,1.37665940942097,5.89082148293437
"181",22.2541940236308,38.0168129009217,6.52842213463383,8.40751554573076,-0.174992115725972,-0.0142589648736151,1.57319784070417,7.23031977768977
"182",20.8271508033728,36.7927905612539,5.45320632990281,7.91809240582026,0.0504234657217258,-0.0261389393191265,1.70640627467833,5.296776196958
"183",19.2554775123493,38.1141736958811,5.31209381346691,7.84912998982515,0.331902547436888,0.0150081625137981,1.52215539604644,5.8489682992838
"184",20.5564201919105,37.7531541353968,5.74454438408465,7.03998730947676,-0.0943403247994558,-0.0459780525996018,1.7649932442247,8.25504376906311
"185",21.2661588036262,38.5704737170996,6.30507419818317,8.04774971448822,-0.000285809854409436,0.0232414485392275,1.36050730609291,6.86967071218755
"186",20.9868886491298,39.4897997976678,6.64201659980267,8.1226139142923,0.0443164987490187,-0.144917271344863,1.62232234729824,8.07448221404043
"187",20.7810466043925,39.2376577227572,6.23451978361331,7.86350452996845,-0.230868114406265,0.0125378658303703,1.81281162179529,6.51229331827044
"188",21.7915222421515,39.1193132971455,6.04819182754704,6.89382970731299,0.0202331173060202,0.0402380495798262,1.75399309013243,7.10087315276557
"189",20.7814533406099,39.0891279361449,5.78756623789354,7.981888487779,0.179712196379451,0.0355797628226174,1.67402623724568,5.9277808920977
"190",20.0642403790225,37.5379994193303,5.76316491096472,7.82207533789186,0.177933670814335,-0.0629973690451828,1.34512917370654,4.59729727500607
"191",21.9976868229145,40.1661207608898,5.74434172361593,8.30595717850801,0.13775197061151,-0.0264773738577929,1.41232772652641,7.8222732645154
"192",20.7926589657978,37.2971211026492,5.45138549244091,7.8201978917317,-0.00879512987723541,0.00955647622248704,1.64586503136352,6.84207848836546
"193",21.2367843027105,39.366218879354,6.27126628585046,7.33007971308791,-0.201091683356539,-0.158459781810723,1.56420302887278,5.53560324788084
"194",20.9993107579786,38.262248241198,5.69134234725999,8.3373349943385,-0.0297971232275871,-0.0412842183708995,1.48411774242655,5.64828497445575
"195",21.674116039455,40.6693292480166,6.09886335005377,7.54424943248431,0.107780919800983,0.0465203123193644,1.78434834858619,6.18218869313693
"196",20.2302150512251,37.876797139139,5.43194650209339,7.53915571195228,0.00185335735539249,0.0213534219084341,1.6643822382987,7.73066542892749
"197",20.5798186783328,39.6802148403289,6.14687669135276,8.41794984213861,0.150203894802106,0.00188594959203302,1.47615091863553,5.99285290464544
"198",22.4680189093182,38.4424569460441,6.6443523046452,8.23368398527209,0.161861491757853,-0.0798458822781998,1.49797146519547,9.24529102136788
"199",21.3451809568856,39.0644300442249,5.63094848768568,7.76790330928193,0.131011856286318,0.0485800723692335,1.82596766227674,5.62235290251952
"200",22.5295317819475,39.0359132947806,6.32923865234339,7.56692489952027,0.0268072361022897,-0.0628543566185546,1.92907709778233,8.83961756747833
"201",20.619843653006,37.2079646622714,6.28516154922532,8.14243891065386,-0.162557926024436,-0.117227787027758,1.53605744837358,7.86036946112906
"202",19.8511234133512,36.6901197795971,5.1844672608529,8.16701731719561,0.0367793792072998,-0.00841577411774351,1.600733726508,5.58929424467083
"203",20.9577777691663,38.6331824168001,5.66521388489305,7.55981008605486,-0.0593698149751734,0.0557069970909936,1.78149848623246,4.86188454416927
"204",20.9448646347879,38.8517783573552,5.22061616605584,7.8070613242036,0.0866084030100232,-0.0541218126309418,1.38728956877965,5.97602214896955
"205",21.4525769188538,40.0674505464567,6.10459884591788,8.18944418519269,-0.0894977409493878,0.0467537183273627,1.79413572574267,5.05457897455629
"206",22.3562547569789,40.8191483379621,6.13594219739141,8.33285256400131,-0.103110806052589,0.0150640216956648,1.74472256179493,6.43911844249714
"207",20.2971154086211,39.6635092328655,5.28050223397361,8.71675579841814,0.114670271788012,-0.0618596101242033,1.212329088126,7.41019003102959
"208",20.1215869237209,38.021322942921,5.20046272157603,7.82627529709288,0.131635333699389,-0.00611228490768217,1.67128896868709,5.29587678830595
"209",22.1885733745834,40.0424413319208,6.32176890250021,9.18869666487829,0.0263413791525699,-0.0052191791325364,1.48039897116447,6.85999732462364
"210",21.1038233943352,38.8514595821276,5.69774351323824,8.08095166951323,-0.124373050779103,-0.0379107225142324,1.71598848434001,6.47086711290393
"211",19.897063703769,36.4817170875931,5.2636485283346,6.85315336965953,-0.01015708657565,0.0314369577376523,1.62332941109181,7.70363980369166
"212",21.4889912785506,40.5379056898145,6.23471887339143,8.36436599712616,0.0361423422450728,0.0542276550706269,1.66911092974178,8.92790809914399
"213",21.203448662054,37.7355828131799,5.67372445504773,8.48088194238824,-0.0115362089113053,-0.0306843597722484,1.80713052677808,6.36775641743909
"214",21.7759821025206,39.9553703283072,6.10709186955604,8.5969189295508,0.0958080627918088,-0.133454069815255,1.5262573420849,5.61089140570839
"215",20.1475543973239,38.250423105138,5.96375920090244,8.65241172901438,-0.0583331518267256,0.0718902965251333,1.51665449912249,6.4875780285649
"216",20.7054005085537,37.0097247331276,5.96252345378082,7.55520178846988,0.199353898811857,0.0457370467702178,1.61653946358225,6.04278291936938
"217",21.7927063513958,36.6886904754952,6.38038114200737,7.82143196333779,0.0807624896453462,-0.0500494556769851,1.44868997511138,8.10932850339055
"218",21.262810042157,38.4655333224356,5.51096016527239,8.85514328372715,0.116017140403719,0.0588614926514151,1.8098290050542,7.44849376796515
"219",20.6264122435055,38.3140531329312,5.4857706527079,7.66746358603497,-0.00131733971659121,-0.108541054238473,1.39712650497385,5.9272345519823
"220",21.9116283805559,38.2893364611648,6.24744828128721,7.0735001896622,0.0674858097665257,0.0605678354315274,1.61668226303963,6.7673859458318
"221",21.0448240176098,38.5676401472762,5.86171815252095,7.90918183515364,0.05499346559926,-0.0178667329742198,1.59664394094077,6.29024433257015
"222",20.4051219317734,39.3107868668683,5.5222852341233,7.70873037307508,-0.0334658091316551,0.0165412275398435,1.59060174237435,5.60774421781504
"223",20.4712997044244,39.2950803558302,5.91443064833952,8.81308388143719,0.0772573532310419,-0.0574270528736928,1.69940392721262,8.46690346076635
"224",22.0831843809563,39.8233538492569,5.79918360056474,8.25830057671124,0.0623579842936418,0.0670958822888069,1.84220042225258,7.18605327876497
"225",21.262957917154,38.0470072616572,5.3957878771025,6.91126489703041,0.0152459900308962,-0.058951542646327,1.55553979290502,4.5862036536744
"226",21.7670945711854,39.5271254765235,6.06231877375911,8.26367025120777,-0.0171716376478957,0.0884629572441085,1.83112587009551,7.48602316709206
"227",20.8213558028996,38.6661919009964,5.30365829088079,8.2690783851536,0.302360097188699,-0.0761472915064176,1.8627323599376,4.4767762496991
"228",21.0557654772867,39.4848574258983,5.94455399377561,8.51318528322192,0.0355360664491032,0.0281254582154351,1.79347437054327,7.21303910635032
"229",21.5138661527427,37.7642780975073,5.68803367204893,6.98625078410635,-0.0780101749671168,-0.0196639090794262,1.3637820674637,7.03016773244201
"230",20.6794799151315,37.3433666685314,6.13450979884076,8.34366636760449,-0.140283873652855,0.0346854346490366,1.31018516926026,6.51850719714976
"231",20.3474601725588,38.5097428842173,5.48089525876128,8.45411061868197,-0.0930767720263647,0.017094538457764,1.6495266278369,5.12978767089245
"232",20.0034534480441,38.1735591316669,5.20786309500961,7.74445674270012,0.0837470423237739,-0.0010745088187536,1.3257219784976,6.06949254885144
"233",20.885129501186,40.096460886798,6.08861478263796,8.34885492101804,0.0325426895252795,-0.0217601423681661,2.01030464825983,7.58444414769001
"234",21.6192353971239,39.6528699306255,6.09077643622346,8.50030874024771,0.0949816566971218,0.00896310054155866,1.55905324199158,8.10206966237374
"235",20.8612800117307,38.3552146444473,5.53292442250249,8.51743477156155,0.0992442269806099,0.014114021695506,1.5276714618154,5.95245671166143
"236",20.9220940404917,39.4415645442546,6.22210371556292,7.07333651096921,-0.0375086301996034,-0.0665843023009226,1.94206521389908,5.86653676736176
"237",20.7035669095417,38.8037266635782,5.30822513851382,8.59515155982777,0.0946414278124732,0.0064875787644215,1.65387792258623,6.44468177702954
"238",21.3807845108396,41.3930054460578,6.51075648745256,8.07624207640018,0.026320010626676,-0.0369492265829009,1.67470711966479,7.61084561557684
"239",22.0183398953734,40.6315058746769,6.25054383399453,8.36367409496253,-0.136591536284657,-0.0435187412335762,1.59807078357755,5.75551279738018
"240",20.4008109607229,38.3184936169229,5.79265939349242,9.2798930805671,-0.129151882952996,-0.0520458309562399,1.34171020184274,6.74394226874031
"241",20.4594249703359,38.2012188785505,5.86006752346798,7.92204833331094,0.0988579165059576,-0.0077627132223134,1.7475737769042,5.39820964465734
"242",21.0536950371387,37.331474141792,5.59373596772832,7.20616940057705,0.0760498624283021,-0.0030482814012186,1.73409576595793,5.88753488332884
"243",21.6719069315926,38.8181391652764,5.35934593997617,6.53176698289619,0.217686651227112,-0.00576388794163578,1.99770398509691,7.75417154440255
"244",21.369525471627,36.7047360007157,5.98295424246272,7.63534971596337,0.0592589840073486,-0.0371349490676052,1.38502994325339,7.63374534085409
"245",21.0819531703365,36.7575892470849,6.05451497283597,7.63723711547551,0.00694448530070587,0.0284470256484804,1.83831786314275,6.85505300527243
"246",20.4052159239161,39.8390118524006,6.11382472097687,8.2091960257213,-0.0705940803315173,-0.120506928237271,1.46503793116339,5.21588783567012
"247",20.2570735169789,40.3552550038818,5.7203653743708,8.06735759105155,-0.0155941462472058,0.0131329157653242,1.58208352248443,4.92698834336547
"248",19.5446400944006,39.5467411883304,5.70280671080428,8.64872106956174,-0.0738520245011453,-0.00913488038093273,1.46832706546908,4.78024193741481
"249",21.8788020956178,39.595732678494,6.43167872103707,8.5227387505809,-0.149908278363655,-0.0105832971235992,1.49846535946604,8.55405706476524
"250",21.354439054782,38.7926986513727,5.92862740284307,6.99824486552421,0.0948487802194427,-0.0376547160331382,1.71693045558877,5.9212389258979
