"","x"
"1",-8193.40259425007
"2",-8214.18105952139
"3",-8238.1895402196
"4",-8190.19155025651
"5",-8159.47907000172
"6",-8176.18036039351
"7",-8280.45589053064
"8",-8260.02612164991
"9",-8339.43164318746
"10",-8261.89366531287
"11",-8276.07884644672
"12",-8198.79120181061
"13",-8247.5145437862
"14",-8260.5316692946
"15",-8151.0744118458
"16",-8172.4371300755
"17",-8330.81803922536
"18",-8265.11369865103
"19",-8271.60127367966
"20",-8359.54373456104
"21",-8186.7478890802
"22",-8243.9089069984
"23",-8196.83858740831
"24",-8109.11661105461
"25",-8316.39626944087
"26",-8185.03037395379
"27",-8261.33186151361
"28",-8270.93808960609
"29",-8245.51768524563
"30",-8116.70105520359
"31",-8113.67110048772
"32",-8244.67233184218
"33",-8338.27204777721
"34",-8054.0135146118
"35",-8258.61941690618
"36",-8255.58370954553
"37",-8073.60232468842
"38",-8160.13157532458
"39",-8192.75264248297
"40",-8331.89948380599
"41",-8142.60479555785
"42",-8320.69792706904
"43",-8269.19183490582
"44",-8276.09283432812
"45",-8183.64277787192
"46",-8245.41529430441
"47",-8349.1527799222
"48",-8179.60128291655
"49",-8412.66583590182
"50",-8275.02493880469
"51",-8286.74131712781
"52",-8254.4439177112
"53",-8230.58281521896
"54",-8371.99473227694
"55",-8267.59366896296
"56",-8299.39198478224
"57",-8088.23737459715
"58",-8285.58530236095
"59",-8113.90899492989
"60",-8166.6461395736
"61",-8211.94685634695
"62",-8236.44813883289
"63",-8326.06964772828
"64",-8237.36329939125
"65",-8206.7215681587
"66",-8209.45724328762
"67",-8285.63330936868
"68",-8204.45119127462
"69",-8257.99539089889
"70",-8327.31848120256
"71",-8263.51665869023
"72",-8213.9158842039
"73",-8143.48185509246
"74",-8320.32452874981
"75",-8264.61353238926
"76",-8249.96964547814
"77",-8279.43960464438
"78",-8287.12358862608
"79",-8232.24147446639
"80",-8119.31418431932
"81",-8195.06078022127
"82",-8282.02113251016
"83",-8272.25131550421
"84",-8297.47619562557
"85",-8262.70088164857
"86",-8281.86434285005
"87",-8251.21944694537
"88",-8292.48599338162
"89",-8231.94442761068
"90",-8225.50488793554
"91",-8187.67649300266
"92",-8247.98020012765
"93",-8175.09461903364
"94",-8227.85208680285
"95",-8240.56048247159
"96",-8097.533165704
"97",-8217.88828987379
"98",-8184.31930921192
"99",-8196.25002730788
"100",-8163.60910501267
"101",-8224.7705663696
"102",-8196.6233954012
"103",-8305.70394292204
"104",-8331.93638639826
"105",-8099.44413353243
"106",-8204.3583470711
"107",-8157.52927634573
"108",-8213.21600263071
"109",-8138.11020136638
"110",-8253.75781850686
"111",-8179.74770013402
"112",-8352.81452840226
"113",-8331.01569642544
"114",-8230.59198566135
"115",-8270.88590468132
"116",-8251.91291312404
"117",-8185.66893237249
"118",-8270.05182992625
"119",-8210.34609650793
"120",-8267.06444804018
"121",-8184.66481959528
"122",-8184.4273875936
"123",-8189.97375913562
"124",-8327.46810744878
"125",-8138.55503570954
"126",-8186.62567898317
"127",-8347.55654004579
"128",-8128.75538152154
"129",-8338.86067393845
"130",-8228.73804149611
"131",-8203.60591743959
"132",-8281.95414487292
"133",-8157.50194942605
"134",-8246.74902975949
"135",-8198.30279256409
"136",-8244.67572706532
"137",-8337.66484165756
"138",-8330.58182986096
"139",-8325.90096478413
"140",-8273.4674632293
"141",-8298.07223078065
"142",-8218.35257961165
"143",-8309.99342692285
"144",-8285.38014091454
"145",-8167.56469393354
"146",-8214.14929735847
"147",-8241.70113979583
"148",-8208.4351260706
"149",-8236.94656055748
"150",-8266.77209458618
"151",-8255.78199520553
"152",-8234.33283544576
"153",-8209.13320419326
"154",-8349.01809082596
"155",-8347.91553035503
"156",-8146.29332144747
"157",-8377.05384166588
"158",-8213.5604907318
"159",-8191.54762968464
"160",-8207.01873949535
"161",-8254.67821543733
"162",-8285.87664429184
"163",-8227.23393132575
"164",-8263.23478920754
"165",-8160.34339243953
"166",-8267.21400813887
"167",-8196.96305581545
"168",-8122.98028427457
"169",-8377.38207508337
"170",-8175.65037082006
"171",-8200.90205021693
"172",-8219.03796610427
"173",-8236.28258101693
"174",-8111.84748003056
"175",-8255.06250452346
"176",-8225.8523678569
"177",-8243.19537724012
"178",-8194.61263833196
"179",-8309.53092503945
"180",-8245.21137898562
"181",-8307.13504455729
"182",-8184.96621637343
"183",-8177.8478250728
"184",-8221.49260663485
"185",-8147.67537223075
"186",-8227.12608997556
"187",-8318.62727698204
"188",-8173.81580175811
"189",-8183.52662088308
"190",-8162.44070729543
"191",-8216.23495887678
"192",-8127.10112211592
"193",-8193.56182724308
"194",-8230.90461373041
"195",-8290.5629900132
"196",-8187.16522571236
"197",-8273.7698909514
"198",-8213.08526881372
"199",-8286.94143037815
"200",-8170.35340866632
"201",-8154.12830017772
"202",-8258.55509855805
"203",-8194.35295770694
"204",-8286.5193613087
"205",-8198.88784702699
"206",-8344.57051975821
"207",-8223.73295718598
"208",-8274.93868957765
"209",-8239.27024749933
"210",-8289.41824207373
"211",-8207.38687867102
"212",-8325.23881461084
"213",-8203.43909631449
"214",-8273.16223279026
"215",-8295.53480247137
"216",-8116.04535591652
"217",-8319.13266656437
"218",-8263.87293783163
"219",-8272.35748241833
"220",-8327.05794291908
"221",-8239.05578680227
"222",-8171.55313293705
"223",-8207.42610894518
"224",-8236.42328844007
"225",-8203.18913618938
"226",-8178.62341611445
"227",-8163.21301075793
"228",-8158.06615281767
"229",-8139.73667685443
"230",-8181.30818405905
"231",-8303.92985985744
"232",-8147.08803095352
"233",-8214.11125055507
"234",-8316.96347436717
"235",-8333.6089402003
"236",-8162.2762763264
"237",-8192.47319591669
"238",-8269.95813011503
"239",-8259.1394678373
"240",-8209.14699893647
"241",-8249.55454523881
"242",-8336.83779936507
"243",-8234.17182596743
"244",-8204.83821230629
"245",-8184.32267993012
"246",-8210.38825838127
"247",-8211.51888523244
"248",-8345.5172598677
"249",-8272.60580216475
"250",-8264.69186917887
