"","x"
"1",-405.369381994241
"2",-402.62349084026
"3",-396.717405242798
"4",-414.730941917012
"5",-374.687576900701
"6",-387.301927042166
"7",-409.847745473735
"8",-397.031945350743
"9",-430.998601084854
"10",-368.553081832444
"11",-402.31215334894
"12",-435.229843469478
"13",-421.57789212942
"14",-425.822525661734
"15",-429.044841557316
"16",-399.464202391576
"17",-402.539239947857
"18",-392.816346253987
"19",-387.079437218453
"20",-376.241122992677
"21",-400.76805631361
"22",-404.921901907036
"23",-373.820589067635
"24",-382.622261520557
"25",-385.381961863781
"26",-391.929925421369
"27",-374.701031437899
"28",-416.707586813659
"29",-364.966544100718
"30",-383.245730291136
"31",-378.950978417367
"32",-402.274973922004
"33",-390.580543798469
"34",-402.957045181977
"35",-433.962582793523
"36",-396.858120668169
"37",-414.777639915086
"38",-407.548607582279
"39",-376.200464988398
"40",-397.420088423492
"41",-388.957618195212
"42",-398.602303648551
"43",-382.539607896903
"44",-383.863735136613
"45",-386.072474095563
"46",-382.328443150759
"47",-391.323520090109
"48",-377.008310400872
"49",-412.227456066093
"50",-383.348050664481
"51",-409.156875445365
"52",-390.149167082811
"53",-406.263867078996
"54",-405.231870826656
"55",-432.524405946819
"56",-408.864901529339
"57",-390.326415337017
"58",-387.322744041498
"59",-402.679581966064
"60",-389.345103541209
"61",-398.743249205436
"62",-395.134571695588
"63",-354.886660344756
"64",-403.875175832759
"65",-400.023251669511
"66",-376.762649181964
"67",-397.773471503226
"68",-379.721799268915
"69",-404.803704409157
"70",-387.576365570019
"71",-383.66294750048
"72",-395.920278542291
"73",-391.173058525623
"74",-411.835984291626
"75",-416.431746991732
"76",-366.043149585732
"77",-382.938810484615
"78",-389.668975323425
"79",-404.334536493882
"80",-406.675621188013
"81",-398.529844259976
"82",-376.053261871255
"83",-410.005696327876
"84",-373.548996922596
"85",-404.830338315602
"86",-376.096758879767
"87",-390.331456544127
"88",-400.824589664239
"89",-400.541939606872
"90",-382.016722927583
"91",-366.931193065969
"92",-395.041063836249
"93",-378.736985032912
"94",-417.662962123549
"95",-387.721721850601
"96",-390.580058961581
"97",-395.292822826364
"98",-369.341683881847
"99",-371.055397958258
"100",-412.925063804753
"101",-387.365384541597
"102",-388.810941256432
"103",-410.580529052644
"104",-383.473190733406
"105",-392.023691011635
"106",-404.085051688639
"107",-408.76531481307
"108",-391.53582933763
"109",-376.074282776514
"110",-372.832973812871
"111",-391.400850155696
"112",-395.928486665393
"113",-361.709511410643
"114",-398.766961696024
"115",-349.968749804588
"116",-390.073824493536
"117",-395.094919460494
"118",-419.622136473902
"119",-392.517482589567
"120",-415.480696019249
"121",-380.132427637749
"122",-387.889768307274
"123",-363.297409559307
"124",-391.568593165944
"125",-436.743141756555
"126",-400.975333949914
"127",-385.403392605461
"128",-385.387529419793
"129",-386.237382648705
"130",-357.169701960942
"131",-413.350174651731
"132",-405.594489491387
"133",-387.900578219464
"134",-382.089179852023
"135",-404.791592975468
"136",-386.122330442186
"137",-390.843956425897
"138",-405.190529545049
"139",-392.942491881831
"140",-382.521240424744
"141",-369.37571489584
"142",-389.83028690275
"143",-370.689925548117
"144",-397.441517103105
"145",-413.566130909881
"146",-388.940023643254
"147",-376.584042126468
"148",-426.918663153636
"149",-413.666353043715
"150",-385.086268541956
"151",-389.039313026377
"152",-406.095601705385
"153",-401.251525737573
"154",-389.967712804968
"155",-369.390644564016
"156",-405.873022590148
"157",-405.296757643254
"158",-404.012973807706
"159",-413.319748376862
"160",-407.686123685772
"161",-382.089876820456
"162",-388.633704326629
"163",-379.469409038993
"164",-391.526912501547
"165",-388.00251647422
"166",-402.921167319066
"167",-380.743040187826
"168",-398.726958077236
"169",-400.164886423698
"170",-376.735045439901
"171",-397.569240554475
"172",-399.394509756037
"173",-404.253425634234
"174",-412.385328487637
"175",-374.461940900327
"176",-380.960067666427
"177",-411.747357827817
"178",-404.883847257234
"179",-396.687977764687
"180",-434.146779036414
"181",-382.314021727215
"182",-359.746222364377
"183",-375.405211142502
"184",-389.985409923217
"185",-403.245184265063
"186",-398.097062391808
"187",-396.289847093231
"188",-381.381474662371
"189",-411.791832584739
"190",-400.9085120746
"191",-379.239215286369
"192",-406.273311725728
"193",-428.253720645851
"194",-390.458362436507
"195",-400.716354575351
"196",-392.045144843944
"197",-411.838481003649
"198",-365.016935983335
"199",-416.466208904058
"200",-414.536853474089
"201",-402.646242353187
"202",-399.805373887866
"203",-402.089219332622
"204",-379.034683233921
"205",-374.915144681562
"206",-385.10377660602
"207",-398.43645021713
"208",-380.264401610064
"209",-375.115150478512
"210",-398.753105460828
"211",-388.87924429734
"212",-390.576655688873
"213",-407.248578660736
"214",-387.515135824191
"215",-387.504791125626
"216",-393.729327513848
"217",-393.375179775151
"218",-410.20020157838
"219",-384.890828414938
"220",-386.712437716091
"221",-394.450636042659
"222",-408.844449704596
"223",-375.062152691582
"224",-407.937980383963
"225",-412.077799155846
"226",-377.598130332877
"227",-364.612746418357
"228",-391.086244642443
"229",-400.402931655314
"230",-404.036077159102
"231",-402.620065198742
"232",-393.471457331338
"233",-389.250248481335
"234",-399.091715945635
"235",-391.87517082143
"236",-392.249941896927
"237",-366.769241107245
"238",-380.208219864228
"239",-407.291607026954
"240",-371.774677883411
"241",-407.926247429084
"242",-416.652218954243
"243",-391.448024043884
"244",-401.451867874836
"245",-385.503713486481
"246",-406.158589334815
"247",-419.931151799653
"248",-399.789332828867
"249",-360.789218429611
"250",-390.855159336859
