"","x"
"1",16562.2395262903
"2",16353.4759716152
"3",16407.4448069255
"4",16209.1195240844
"5",16375.7225745954
"6",16515.6286943345
"7",16474.9621856242
"8",15878.4604187168
"9",16218.6282808565
"10",16233.2847774966
"11",16249.1072924183
"12",16184.4448710998
"13",16366.099440347
"14",16414.2531899763
"15",16023.479032571
"16",16207.2491341299
"17",16391.4278602231
"18",16118.0494470762
"19",16575.9283327911
"20",16415.7622536179
"21",16435.9534972474
"22",16150.3161319689
"23",16328.241647461
"24",16359.4813442755
"25",16218.7397259394
"26",16253.5758327253
"27",16428.4116951518
"28",16438.8692197006
"29",16432.4206324637
"30",16333.7320104507
"31",16347.0009724241
"32",16343.5330360169
"33",16420.0885706989
"34",16292.5815687635
"35",16339.9278146058
"36",16276.1663475609
"37",16510.6939941412
"38",16518.4008747895
"39",16526.409926465
"40",16304.0297544442
"41",16302.6490155564
"42",16295.5861165687
"43",16494.4572629483
"44",16274.7510065512
"45",16374.132357135
"46",16244.0144924446
"47",16443.069010756
"48",16411.868161791
"49",16421.2429777498
"50",16240.4379264763
"51",16452.3089415717
"52",16205.9439325104
"53",16287.4059957644
"54",16343.0022584593
"55",16211.2979459951
"56",16376.6947268546
"57",15905.4959591788
"58",16210.8038597465
"59",16527.8040241646
"60",16294.7428919823
"61",16246.7332088233
"62",16191.9980362613
"63",16513.5209548038
"64",16233.871618876
"65",16345.6190786526
"66",16291.0511480838
"67",16351.5471373358
"68",16411.6641932164
"69",16120.3688505806
"70",16359.9570020373
"71",16213.6600066205
"72",16011.6581232287
"73",16387.0394287367
"74",16422.2712792262
"75",16621.9380170612
"76",16334.4974208695
"77",16311.7971570819
"78",16230.7154913901
"79",16246.135658284
"80",16271.454636937
"81",16241.7939280616
"82",16198.7277023417
"83",16389.0503716044
"84",16381.1107952535
"85",16205.5288702467
"86",16103.5709232303
"87",16022.1934668029
"88",16610.7856344863
"89",16317.7524541533
"90",16536.4463596796
"91",16582.1063706806
"92",16790.9553221814
"93",16244.4374858514
"94",16226.6514136977
"95",16405.975414052
"96",16297.2689533196
"97",16374.1498571637
"98",16586.8417772001
"99",16124.099013699
"100",16363.6190171597
"101",16230.7373577234
"102",16353.2517706779
"103",16133.4477218502
"104",16326.477481778
"105",16378.1326814894
"106",16401.7275063239
"107",16516.7125179768
"108",16399.1858992136
"109",16361.9258615217
"110",16603.2961839249
"111",16472.4055915506
"112",16288.6635630258
"113",16533.0744052125
"114",16405.3270954923
"115",16384.0215988143
"116",16425.1875675087
"117",16365.5739212145
"118",16247.5309219599
"119",16108.627469411
"120",16359.8558225501
"121",16281.2655681206
"122",16399.2005031342
"123",16252.784353915
"124",16225.032983705
"125",16034.2205726642
"126",16304.6860856921
"127",16388.0041582812
"128",16607.9165067042
"129",16473.6090721218
"130",16699.9762083553
"131",16148.957103356
"132",16252.7776061038
"133",16630.4396520433
"134",16163.5836343375
"135",16324.1888504224
"136",16265.2048662223
"137",16227.3039034499
"138",16438.4236607215
"139",16429.5980734188
"140",16375.7808078753
"141",16341.8323608075
"142",16337.62416889
"143",16298.3149776084
"144",16569.9996195856
"145",16329.5413290942
"146",16267.5744583402
"147",16414.374916539
"148",16136.4964125383
"149",16304.3735599949
"150",16437.1880986343
"151",16460.8983406135
"152",16047.5459361242
"153",16142.9831578277
"154",16235.4806707362
"155",16371.34033159
"156",16605.9271374243
"157",16238.0345698628
"158",16403.2265709224
"159",16262.1027850826
"160",16537.9316608088
"161",16600.3915315897
"162",16183.5290517576
"163",16074.4513148425
"164",16538.8409317361
"165",16108.187208508
"166",16605.7913736243
"167",16549.4548049705
"168",16306.1786340142
"169",16368.9384041409
"170",16291.7696171154
"171",16309.8098977391
"172",16352.6316569867
"173",16341.3620228018
"174",16108.4316382103
"175",16399.95397366
"176",16313.1847922633
"177",16248.5895773834
"178",16361.2575218725
"179",16230.8355004879
"180",16386.7150166021
"181",16336.4064249125
"182",16314.5101647567
"183",16183.5562425928
"184",16138.8000267498
"185",15938.0034989418
"186",16122.1380182566
"187",16156.401033903
"188",16224.6779319322
"189",16297.8694203149
"190",16587.4596517427
"191",16553.6564278596
"192",16319.6555816856
"193",16171.8589439741
"194",16474.8564151711
"195",16368.1905014379
"196",16324.9406172356
"197",16303.6642262484
"198",16601.1083104867
"199",16421.6360382442
"200",16454.5671772381
"201",16242.4726538994
"202",16576.0497673521
"203",16118.7614766228
"204",16294.5115118585
"205",16309.1586626463
"206",16378.3709870884
"207",16388.2170300402
"208",16388.1763956535
"209",16339.9526487911
"210",16119.6600764951
"211",16570.6177276596
"212",16396.2221380943
"213",16620.1302928846
"214",16329.8261989908
"215",16279.406340065
"216",16181.7006788194
"217",16672.7778011795
"218",16137.9160043876
"219",16575.4667357339
"220",16436.6353654696
"221",16319.7283495945
"222",16421.8863883129
"223",16266.1851153156
"224",16280.8428424364
"225",16499.2690049991
"226",16304.9827857711
"227",16249.431082291
"228",16193.9046473791
"229",16335.8168333609
"230",16255.7059877006
"231",16227.7359164356
"232",16315.832963723
"233",16283.1892076824
"234",16276.3602261868
"235",16177.70984703
"236",16239.6606789733
"237",16430.3518051751
"238",16301.1012411986
"239",16452.6866880337
"240",16563.1927920198
"241",16009.9485796571
"242",16299.9472582806
"243",16264.9450501202
"244",16300.0560994482
"245",16461.3322860213
"246",16223.8880246096
"247",16354.4276777586
"248",16177.8408419433
"249",16324.0046675632
"250",16099.336186027
