"","V1","V2","V3","V4","V5","V6","V7","V8","V9","V10","V11","V12"
"1",0.139,0.091,0.339,0.128,0.051,0.233,0.145,0.047,0.443,0.041,0.065,0.346
"2",0.1,0.073,0.406,0.057,0.067,0.287,0.079,0.12,0.413,0.04,0.094,0.285
"3",0.111,0.107,0.369,0.112,0.103,0.301,0.073,0.113,0.381,0.087,0.165,0.226
"4",0.117,0.106,0.305,0.097,0.088,0.258,0.079,0.128,0.443,0.117,0.093,0.29
"5",0.086,0.083,0.263,0.102,0.092,0.312,0.09,0.177,0.28,0.042,0.114,0.39
"6",0.152,0.072,0.316,0.129,0.031,0.279,0.118,0.102,0.312,0.111,0.102,0.427
"7",0.111,0.089,0.353,0.124,0.119,0.222,0.103,0.087,0.453,0.08,0.084,0.255
"8",0.078,0.125,0.349,0.106,0.084,0.222,0.128,0.054,0.369,0.028,0.161,0.263
"9",0.132,0.09,0.287,0.092,0.119,0.27,0.16,0.168,0.232,0.11,0.119,0.392
"10",0.118,0.096,0.21,0.114,0.093,0.353,0.109,0.134,0.275,0.089,0.049,0.393
"11",0.096,0.12,0.296,0.13,0.013,0.31,0.135,0.099,0.371,0.108,0.087,0.272
"12",0.08,0.1,0.243,0.125,0.078,0.311,0.117,0.094,0.268,0.116,0.152,0.411
"13",0.128,0.117,0.242,0.123,0.147,0.315,0.057,0.119,0.349,0.154,0.115,0.382
"14",0.114,0.085,0.247,0.113,0.04,0.241,0.102,0.039,0.352,0.117,0.114,0.351
"15",0.008,0.091,0.336,0.171,0.055,0.376,0.089,0.074,0.303,0.12,0.141,0.368
"16",0.066,0.122,0.241,0.079,0.103,0.331,0.091,0.092,0.355,0.088,0.164,0.368
"17",0.097,0.061,0.235,0.123,0.104,0.363,0.167,0.159,0.242,0.089,0.155,0.383
"18",0.122,0.116,0.355,0.131,0.123,0.253,0.074,0.107,0.417,0.109,0.103,0.304
"19",0.083,0.068,0.339,0.093,0.11,0.221,0.097,0.064,0.427,0.08,0.094,0.237
"20",0.117,0.084,0.324,0.167,0.117,0.365,0.161,0.116,0.234,0.106,0.089,0.388
"21",0.085,0.056,0.369,0.114,0.133,0.24,0.091,0.126,0.413,0.129,0.092,0.278
"22",0.028,0.208,0.391,0.045,0.091,0.244,0.097,0.073,0.44,0.048,0.129,0.336
"23",0.089,0.096,0.381,0.131,0.1,0.236,0.15,0.102,0.361,0.006,0.132,0.316
"24",0.12,0.061,0.343,0.118,0.071,0.249,0.12,0.108,0.389,0.111,0.112,0.258
"25",0.055,0.099,0.37,0.122,0.089,0.197,0.099,0.168,0.337,0.139,0.094,0.338
"26",0.085,0.113,0.344,0.081,0.089,0.296,0.093,0.115,0.399,0.128,0.017,0.338
"27",0.145,0.167,0.316,0.06,0.105,0.3,0.101,0.063,0.438,0.051,0.083,0.303
"28",0.116,0.178,0.364,0.034,0.15,0.197,0.143,0.061,0.421,0.051,0.149,0.278
"29",0.076,0.076,0.296,0.038,0.138,0.354,0.09,0.124,0.251,0.102,0.092,0.405
"30",0.136,0.097,0.359,0.099,0.116,0.251,0.106,0.133,0.364,0.085,0.103,0.314
"31",0.05,0.012,0.432,0.096,0.117,0.271,0.078,0.119,0.398,0.16,0.059,0.307
"32",0.159,0.065,0.246,0.057,0.088,0.293,0.134,0.086,0.276,0.056,0.11,0.405
"33",0.127,0.071,0.372,0.087,0.044,0.281,0.106,0.089,0.427,0.057,0.1,0.284
"34",0.126,0.001,0.267,0.112,0.104,0.378,0.078,0.126,0.27,0.057,0.188,0.381
"35",0.078,0.098,0.331,0.158,0.105,0.258,0.073,0.137,0.419,0.084,0.092,0.325
"36",0.139,0.082,0.31,0.082,0.085,0.322,0.136,0.066,0.312,0.092,0.173,0.362
"37",0.087,0.085,0.257,0.044,0.134,0.339,0.117,0.125,0.285,0.056,0.142,0.388
"38",0.089,0.078,0.284,0.114,0.092,0.309,0.127,0.108,0.294,0.123,0.144,0.362
"39",0.139,0.074,0.242,0.043,0.084,0.336,0.024,0.072,0.31,0.103,0.117,0.382
"40",0.092,0.063,0.426,0.129,0.125,0.232,0.156,0.041,0.394,0.106,0.112,0.289
"41",0.122,0.121,0.216,0.097,0.131,0.274,0.095,0.131,0.26,0.102,0.048,0.382
"42",0.102,0.113,0.267,0.046,0.077,0.354,0.118,0.023,0.315,0.099,0.114,0.381
"43",0.104,0.024,0.326,0.029,0.16,0.333,0.11,0.118,0.332,0.077,0.1,0.406
"44",0.107,0.057,0.195,0.103,0.089,0.442,0.131,0.09,0.294,0.117,0.037,0.445
"45",0.055,0.136,0.262,0.147,0.146,0.317,0.106,0.067,0.302,0.124,0.132,0.377
"46",0.147,0.093,0.332,0.131,0.081,0.267,0.087,0.099,0.456,0.077,0.136,0.236
"47",0.091,0.097,0.256,0.044,0.126,0.379,0.104,0.169,0.291,0.079,0.097,0.395
"48",0.116,0.09,0.25,0.133,0.112,0.382,0.042,0.129,0.279,0.088,0.093,0.414
"49",0.129,0.098,0.236,0.05,0.158,0.352,0.093,0.086,0.278,0.032,0.076,0.459
"50",0.146,0.044,0.435,0.071,0.117,0.296,0.104,0.064,0.443,0.059,0.032,0.241
"51",0.062,0.148,0.262,0.126,0.135,0.341,0.052,0.128,0.26,0.128,0.045,0.408
"52",0.023,0.199,0.31,0.111,0.108,0.36,0.099,0.065,0.269,0.084,0.151,0.347
"53",0.107,0.07,0.313,0.135,0.103,0.333,0.088,0.161,0.348,0.074,0.096,0.412
"54",0.069,0.146,0.355,0.064,0.038,0.27,0.082,0.082,0.407,0.148,0.125,0.329
"55",0.075,0.118,0.258,0.092,0.061,0.33,0.125,0.084,0.301,0.065,0.104,0.388
"56",0.125,0.08,0.254,0.181,0.083,0.338,0.054,0.12,0.357,0.108,0.076,0.413
"57",0.104,0.061,0.271,0.143,0.098,0.367,0.07,0.13,0.312,0.08,0.14,0.357
"58",0.07,0.151,0.246,0.117,0.104,0.331,0.113,0.157,0.266,0.032,0.095,0.428
"59",0.061,0.1,0.37,0.124,0.091,0.256,0.105,0.119,0.37,0.078,0.056,0.3
"60",0.038,0.184,0.219,0.121,0.052,0.332,0.121,0.124,0.282,0.102,0.143,0.383
"61",0.136,0.03,0.455,0.058,0.169,0.24,0.11,0.119,0.418,0.12,0.078,0.328
"62",0.032,0.071,0.364,0.106,0.095,0.259,0.065,0.14,0.407,0.047,0.07,0.358
"63",0.16,0.047,0.258,0.037,0.144,0.38,0.097,0.146,0.274,0.114,0.101,0.388
"64",0.159,0.076,0.295,0.089,0.092,0.292,0.078,0.099,0.444,0.057,0.104,0.289
"65",0.095,0.087,0.316,0.014,0.116,0.384,0.09,0.164,0.249,0.115,0.137,0.393
"66",0.081,0.12,0.31,0.09,0.135,0.248,0.098,0.106,0.442,0.123,0.08,0.25
"67",0.054,0.074,0.315,0.195,0.085,0.325,0.106,0.118,0.369,0.132,0.087,0.314
"68",0.056,0.142,0.215,0.084,0.128,0.353,0.078,0.115,0.313,0.118,0.107,0.372
"69",0.098,0.147,0.242,0.182,0.06,0.37,0.068,0.091,0.322,0.106,0.1,0.372
"70",0.108,0.084,0.228,0.166,0.091,0.315,0.069,0.141,0.277,0.107,0.069,0.45
"71",0.056,0.161,0.32,0.08,0.091,0.26,0.145,0.044,0.417,0.074,0.083,0.326
"72",0.085,0.049,0.266,0.125,0.036,0.378,0.069,0.096,0.246,0.07,0.105,0.414
"73",0.092,0.136,0.288,0.153,0.038,0.325,0.102,0.108,0.27,0.074,0.105,0.409
"74",0.098,0.059,0.266,0.081,0.134,0.354,0.128,0.168,0.222,0.109,0.066,0.436
"75",0.098,0.183,0.242,0.095,0.073,0.361,0.058,0.106,0.317,0.11,0.113,0.351
"76",0.063,0.084,0.252,0.153,0.119,0.299,0.154,0.089,0.253,0.078,0.084,0.44
"77",0.109,0.115,0.225,0.058,0.121,0.329,0.084,0.088,0.276,0.097,0.152,0.427
"78",0.151,0.143,0.229,0.16,0.04,0.35,0.187,0.017,0.303,0.058,0.118,0.451
"79",0.086,0.091,0.262,0.133,0.07,0.349,0.072,0.072,0.36,0.117,0.077,0.394
"80",0.099,0.097,0.237,0.091,0.164,0.333,0.108,0.053,0.316,0.076,0.138,0.388
"81",0.115,0.092,0.338,0.162,0.123,0.164,0.092,0.124,0.413,0.09,0.137,0.277
"82",0.117,0.084,0.33,0.106,0.135,0.246,0.143,0.083,0.353,0.134,0.137,0.239
"83",0.096,0.077,0.329,0.09,0.085,0.246,0.081,0.11,0.359,0.015,0.124,0.345
"84",0.005,0.1,0.261,0.139,0.08,0.361,0.076,0.099,0.282,0.114,0.057,0.418
"85",0.139,0.093,0.269,0.055,0.112,0.399,0.131,0.044,0.324,0.045,0.172,0.388
"86",0.133,0.144,0.199,0.124,0.087,0.383,0.135,0.122,0.306,0.053,0.104,0.422
"87",0.094,0.126,0.339,0.165,0.097,0.217,0.122,0.07,0.389,0.044,0.096,0.308
"88",0.11,0.172,0.24,0.03,0.053,0.392,0.083,0.06,0.355,0.083,0.088,0.408
"89",0.085,0.122,0.4,0.077,0.083,0.193,0.138,0.127,0.358,0.081,0.105,0.291
"90",0.091,0.107,0.249,0.051,0.127,0.283,0.094,0.064,0.308,0.076,0.094,0.444
"91",0.176,0.129,0.241,0.076,0.037,0.299,0.074,0.049,0.437,0.097,0.094,0.289
"92",0.107,0.093,0.242,0.142,0.111,0.36,0.083,0.069,0.288,0.086,0.116,0.379
"93",0.171,0.079,0.258,0.103,0.087,0.281,0.098,0.121,0.285,0.121,0.068,0.413
"94",0.086,0.188,0.32,0.113,0.031,0.208,0.112,0.096,0.349,0.118,0.089,0.31
"95",0.127,0.118,0.298,0.046,0.114,0.277,0.119,0.1,0.373,0.074,0.075,0.282
"96",0.167,0.047,0.357,0.05,0.163,0.185,0.065,0.123,0.427,0.113,0.082,0.281
"97",0.116,0.125,0.209,0.062,0.082,0.35,0.159,0.038,0.331,0.015,0.14,0.448
"98",0.001,0.17,0.246,0.063,0.092,0.314,0.022,0.171,0.283,0.038,0.112,0.417
"99",0.109,0.147,0.314,0.04,0.084,0.295,0.086,0.152,0.389,0.021,0.165,0.31
"100",0.114,0.057,0.258,0.077,0.21,0.333,0.123,0.1,0.266,0.12,0.107,0.361
"101",0.166,0.115,0.269,0.069,0.111,0.362,0.114,0.144,0.363,0.152,0.096,0.296
"102",0.118,0.149,0.348,0.068,0.117,0.255,0.134,0.103,0.412,0.132,0.036,0.332
"103",0.074,0.122,0.36,0.141,0.042,0.28,0.102,0.065,0.402,0.128,0.075,0.333
"104",0.093,0.087,0.227,0.065,0.095,0.393,0.094,0.078,0.327,0.089,0.134,0.394
"105",0.108,0.099,0.414,0.109,0.123,0.234,0.06,0.107,0.399,0.129,0.116,0.269
"106",0.053,0.23,0.194,0.078,0.049,0.407,0.118,0.134,0.258,0.101,0.079,0.46
"107",0.194,0.111,0.273,0.051,0.166,0.212,0.061,0.116,0.35,0.081,0.074,0.312
"108",0.067,0.052,0.314,0.106,0.08,0.39,0.101,0.097,0.317,0.121,0.113,0.362
"109",0.071,0.167,0.343,0.118,0.064,0.223,0.083,0.061,0.389,0.099,0.141,0.28
"110",0.071,0.131,0.213,0.098,0.032,0.394,0.117,0.13,0.234,0.144,0.073,0.442
"111",0.08,0.086,0.295,0.137,0.109,0.284,0.092,0.074,0.295,0.117,0.053,0.442
"112",0.029,0.12,0.192,0.045,0.102,0.391,0.104,0.115,0.32,0.112,0.043,0.392
"113",0.081,0.187,0.36,0.159,0.09,0.242,0.099,0.032,0.412,0.072,0.08,0.311
"114",0.1,0.137,0.324,0.092,0.046,0.266,0.047,0.105,0.398,0.066,0.093,0.309
"115",0.163,0.015,0.274,0.022,0.115,0.398,0.086,0.093,0.323,0.077,0.149,0.334
"116",0.087,0.095,0.245,0.086,0.107,0.366,0.064,0.111,0.306,0.103,0.181,0.368
"117",0.101,0.072,0.392,0.119,0.077,0.162,0.117,0.093,0.416,0.034,0.125,0.285
"118",0.061,0.102,0.241,0.103,0.121,0.372,0.095,0.09,0.316,0.063,0.122,0.39
"119",0.107,0.15,0.193,0.087,0.161,0.305,0.059,0.123,0.406,0.044,0.035,0.421
"120",0.097,0.14,0.316,0.085,0.086,0.314,0.133,0.151,0.293,0.171,0.068,0.345
"121",0.133,0.049,0.33,0.081,0.104,0.281,0.103,0.129,0.388,0.161,0.013,0.271
"122",0.115,0.104,0.336,0.083,0.098,0.232,0.13,0.085,0.457,0.055,0.168,0.241
"123",0.078,0.066,0.295,0.137,0.094,0.223,0.087,0.114,0.41,0.139,0.11,0.277
"124",0.099,0.122,0.252,0.08,0.086,0.327,0.082,0.084,0.293,0.073,0.135,0.422
"125",0.122,0.064,0.245,0.084,0.097,0.246,0.09,0.119,0.294,0.122,0.035,0.421
"126",0.045,0.099,0.334,0.066,0.085,0.201,0.098,0.124,0.363,0.134,0.109,0.265
"127",0.066,0.11,0.283,0.071,0.05,0.42,0.05,0.106,0.298,0.124,0.059,0.413
"128",0.085,0.088,0.26,0.166,0.051,0.378,0.099,0.116,0.252,0.12,0.123,0.399
"129",0.107,0.1,0.276,0.107,0.071,0.339,0.002,0.106,0.288,0.114,0.094,0.392
"130",0.098,0.111,0.275,0.133,0.045,0.34,0.121,0.087,0.335,0.081,0.097,0.436
"131",0.104,0.06,0.25,0.073,0.082,0.351,0.163,0.054,0.327,0.14,0.085,0.372
"132",0.04,0.174,0.322,0.156,0.069,0.249,0.132,0.102,0.363,0.088,0.086,0.297
"133",0.118,0.058,0.381,0.12,0.078,0.251,0.065,0.1,0.407,0.133,0.075,0.315
"134",0.107,0.124,0.369,0.072,0.126,0.202,0.082,0.143,0.361,0.11,0.09,0.33
"135",0.081,0.092,0.219,0.101,0.081,0.336,0.127,0.129,0.294,0.134,0.07,0.422
"136",0.119,0.061,0.185,0.113,0.076,0.37,0.112,0.133,0.251,0.139,0.077,0.434
"137",0.118,0.095,0.245,0.069,0.045,0.361,0.028,0.12,0.285,0.148,0.13,0.381
"138",0.134,0.108,0.295,0.03,0.104,0.309,0.107,0.07,0.429,0.108,0.04,0.379
"139",0.149,0.11,0.325,0.061,0.053,0.221,0.11,0.121,0.373,0.104,0.081,0.284
"140",0.072,0.083,0.328,0.126,0.089,0.25,0.137,0.107,0.405,0.02,0.126,0.321
"141",0.09,0.006,0.255,0.051,0.129,0.302,0.155,0.001,0.273,0.054,0.175,0.396
"142",0.197,0.075,0.236,0.09,0.084,0.347,0.054,0.16,0.305,0.096,0.086,0.374
"143",0.065,0.091,0.328,0.152,0.092,0.379,0.097,0.092,0.304,0.121,0.084,0.378
"144",0.104,0.049,0.268,0.03,0.12,0.357,0.081,0.042,0.325,0.147,0.085,0.406
"145",0.1,0.121,0.208,0.124,0.102,0.357,0.113,0.126,0.314,0.104,0.123,0.398
"146",0.154,0.105,0.243,0.116,0.075,0.341,0.159,0.102,0.32,0.075,0.088,0.408
"147",0.185,0.086,0.34,0.104,0.021,0.25,0.104,0.095,0.413,0.095,0.025,0.323
"148",0.071,0.13,0.423,0.045,0.145,0.246,0.111,0.122,0.401,0.161,0.012,0.321
"149",0.091,0.129,0.331,0.146,0.164,0.226,0.139,0.09,0.375,0.109,0.119,0.281
"150",0.108,0.094,0.245,0.092,0.084,0.328,0.066,0.062,0.341,0.152,0.051,0.381
"151",0.071,0.064,0.327,0.072,0.125,0.223,0.121,0.075,0.401,0.065,0.115,0.289
"152",0.105,0.149,0.232,0.195,0.008,0.386,0.05,0.053,0.295,0.149,0.057,0.419
"153",0.11,0.097,0.258,0.138,0.078,0.354,0.088,0.12,0.303,0.046,0.147,0.448
"154",0.117,0.07,0.239,0.026,0.102,0.352,0.103,0.09,0.277,0.108,0.089,0.393
"155",0.136,0.07,0.222,0.086,0.125,0.368,0.131,0.095,0.322,0.074,0.099,0.438
"156",0.089,0.094,0.27,0.134,0.09,0.288,0.126,0.059,0.28,0.1,0.059,0.397
"157",0.042,0.108,0.4,0.094,0.069,0.257,0.087,0.068,0.409,0.067,0.08,0.291
"158",0.123,0.08,0.254,0.101,0.119,0.318,0.122,0.08,0.291,0.113,0.051,0.471
"159",0.105,0.09,0.376,0.059,0.103,0.295,0.065,0.19,0.294,0.062,0.11,0.34
"160",0.1,0.062,0.199,0.071,0.089,0.343,0.084,0.104,0.319,0.086,0.073,0.379
"161",0.102,0.14,0.256,0.058,0.142,0.37,0.038,0.17,0.277,0.074,0.06,0.397
"162",0.082,0.098,0.235,0.172,0.065,0.372,0.054,0.082,0.364,0.08,0.106,0.395
"163",0.073,0.047,0.307,0.046,0.167,0.335,0.122,0.048,0.322,0.053,0.124,0.399
"164",0.09,0.13,0.247,0.07,0.166,0.291,0.079,0.023,0.342,0.049,0.172,0.354
"165",0.102,0.077,0.326,0.114,0.023,0.343,0.094,0.087,0.434,0.085,0.143,0.314
"166",0.164,0.113,0.277,0.065,0.149,0.323,0.133,0.039,0.331,0.047,0.094,0.436
"167",0.072,0.114,0.156,0.113,0.091,0.377,0.088,0.1,0.26,0.122,0.091,0.42
"168",0.116,0.099,0.405,0.105,0.109,0.208,0.118,0.076,0.375,0.07,0.132,0.329
"169",0.095,0.127,0.197,0.077,0.054,0.366,0.127,0.104,0.28,0.069,0.12,0.396
"170",0.141,0.078,0.279,0.069,0.13,0.35,0.11,0.122,0.295,0.132,0.086,0.366
"171",0.05,0.142,0.242,0.1,0.103,0.353,0.065,0.093,0.334,0.113,0.098,0.366
"172",0.062,0.121,0.328,0.139,0.069,0.207,0.093,0.06,0.396,0.087,0.169,0.278
"173",0.114,0.054,0.228,0.083,0.147,0.345,0.063,0.056,0.35,0.079,0.077,0.39
"174",0.078,0.148,0.227,0.131,0.15,0.292,0.001,0.114,0.289,0.133,0.066,0.41
"175",0.067,0.092,0.246,0.096,0.113,0.319,0.021,0.198,0.322,0.092,0.088,0.371
"176",0.148,0.087,0.326,0.103,0.06,0.222,0.103,0.103,0.418,0.08,0.057,0.325
"177",0.075,0.085,0.302,0.08,0.094,0.299,0.102,0.131,0.343,0.075,0.118,0.373
"178",0.163,0.122,0.209,0.117,0.12,0.315,0.073,0.07,0.324,0.122,0.122,0.338
"179",0.103,0.109,0.242,0.137,0.09,0.317,0.145,0.073,0.319,0.072,0.109,0.401
"180",0.147,0.089,0.238,0.147,0.165,0.315,0.143,0.005,0.32,0.051,0.129,0.384
"181",0.077,0.114,0.328,0.116,0.109,0.224,0.118,0.086,0.431,0.178,0.068,0.285
"182",0.077,0.102,0.218,0.088,0.111,0.356,0.098,0.103,0.267,0.146,0.044,0.396
"183",0.085,0.12,0.253,0.148,0.056,0.368,0.163,0.075,0.309,0.095,0.101,0.418
"184",0.096,0.104,0.352,0.091,0.112,0.204,0.089,0.071,0.394,0.112,0.082,0.311
"185",0.083,0.121,0.261,0.122,0.046,0.345,0.08,0.077,0.316,0.123,0.121,0.359
"186",0.086,0.136,0.277,0.124,0.082,0.344,0.15,0.101,0.261,0.108,0.146,0.368
"187",0.083,0.105,0.394,0.09,0.087,0.239,0.122,0.061,0.441,0.159,0.053,0.25
"188",0.096,0.091,0.383,0.099,0.06,0.277,0.085,0.106,0.411,0.161,0.027,0.248
"189",0.08,0.075,0.343,0.089,0.153,0.246,0.062,0.052,0.441,0.072,0.134,0.289
"190",0.163,0.053,0.304,0.049,0.18,0.343,0.199,0.065,0.3,0.051,0.115,0.393
"191",0.114,0.05,0.244,0.055,0.125,0.351,0.069,0.124,0.294,0.131,0.003,0.416
"192",0.078,0.16,0.289,0.07,0.078,0.247,0.113,0.11,0.447,0.151,0.029,0.325
"193",0.109,0.037,0.399,0.124,0.105,0.245,0.109,0.118,0.352,0.127,0.128,0.305
"194",0.113,0.11,0.309,0.129,0.118,0.34,0.056,0.117,0.332,0.077,0.109,0.409
"195",0.072,0.112,0.269,0.116,0.108,0.341,0.091,0.128,0.25,0.068,0.149,0.375
"196",0.072,0.095,0.242,0.078,0.14,0.288,0.086,0.198,0.245,0.108,0.037,0.421
"197",0.143,0.035,0.402,0.142,0.096,0.242,0.142,0.105,0.366,0.034,0.112,0.277
"198",0.114,0.087,0.333,0.133,0.106,0.21,0.112,0.09,0.398,0.044,0.155,0.272
"199",0.161,0.107,0.268,0.034,0.125,0.34,0.079,0.116,0.305,0.119,0.065,0.415
"200",0.135,0.075,0.266,0.078,0.088,0.383,0.137,0.09,0.308,0.081,0.108,0.403
"201",0.082,0.051,0.289,0.098,0.034,0.35,0.123,0.133,0.238,0.154,0.035,0.397
"202",0.103,0.09,0.261,0.091,0.091,0.338,0.021,0.099,0.303,0.091,0.097,0.415
"203",0.088,0.152,0.208,0.108,0.155,0.352,0.139,0.102,0.274,0.082,0.119,0.423
"204",0.047,0.137,0.277,0.085,0.081,0.362,0.077,0.083,0.306,0.097,0.1,0.421
"205",0.051,0.113,0.335,0.065,0.108,0.293,0.125,0.032,0.317,0.129,0.114,0.379
"206",0.102,0.152,0.34,0.115,0.14,0.236,0.136,0.052,0.39,0.086,0.082,0.354
"207",0.126,0.079,0.249,0.105,0.082,0.347,0.111,0.061,0.328,0.114,0.038,0.472
"208",0.06,0.108,0.278,0.119,0.114,0.34,0.109,0.127,0.304,0.082,0.105,0.417
"209",0.073,0.107,0.384,0.066,0.125,0.244,0.056,0.086,0.446,0.167,0.064,0.272
"210",0.103,0.148,0.226,0.149,0.135,0.305,0.058,0.11,0.3,0.126,0.07,0.441
"211",0.147,0.102,0.34,0.127,0.045,0.239,0.121,0.111,0.381,0.127,0.121,0.32
"212",0.119,0.111,0.317,0.147,0.067,0.288,0.083,0.118,0.408,0.174,0.095,0.188
"213",0.113,0.116,0.338,0.096,0.079,0.258,0.126,0.032,0.436,0.097,0.103,0.302
"214",0.082,0.089,0.179,0.054,0.143,0.362,0.114,0.105,0.297,0.096,0.129,0.399
"215",0.077,0.145,0.305,0.118,0.068,0.263,0.094,0.137,0.385,0.168,0.017,0.293
"216",0.11,0.103,0.259,0.15,0.098,0.363,0.105,0.032,0.338,0.066,0.098,0.353
"217",0.152,0.082,0.279,0.078,0.069,0.36,0.156,0.053,0.256,0.082,0.095,0.441
"218",0.044,0.071,0.366,0.096,0.11,0.254,0.125,0.162,0.329,0.107,0.049,0.315
"219",0.097,0.125,0.353,0.051,0.066,0.237,0.12,0.137,0.373,0.076,0.089,0.323
"220",0.041,0.139,0.27,0.111,0.092,0.313,0.071,0.141,0.3,0.073,0.101,0.423
"221",0.112,0.072,0.315,0.013,0.157,0.299,0.114,0.017,0.246,0.126,0.129,0.377
"222",0.082,0.167,0.334,0.088,0.013,0.235,0.02,0.135,0.427,0.085,0.139,0.299
"223",0.111,0.097,0.178,0.088,0.131,0.32,0.071,0.074,0.33,0.127,0.094,0.387
"224",0.077,0.106,0.289,0.106,0.146,0.345,0.13,0.028,0.287,0.126,0.117,0.398
"225",0.053,0.115,0.411,0.116,0.048,0.252,0.118,0.077,0.433,0.075,0.136,0.33
"226",0.103,0.09,0.363,0.075,0.138,0.189,0.127,0.057,0.426,0.018,0.101,0.357
"227",0.117,0.12,0.318,0.107,0.094,0.273,0.153,0.052,0.387,0.079,0.116,0.33
"228",0.08,0.081,0.279,0.125,0.14,0.302,0.076,0.111,0.267,0.099,0.111,0.395
"229",0.164,0.054,0.244,0.066,0.125,0.296,0.076,0.117,0.287,0.132,0.072,0.415
"230",0.053,0.074,0.384,0.09,0.136,0.214,0.106,0.05,0.469,0.168,0.084,0.269
"231",0.136,0.034,0.204,0.13,0.036,0.427,0.133,0.071,0.273,0.065,0.128,0.394
"232",0.063,0.174,0.223,0.132,0.033,0.437,0.142,0.147,0.246,0.066,0.114,0.417
"233",0.118,0.008,0.272,0.027,0.119,0.389,0.119,0.079,0.299,0.115,0.079,0.429
"234",0.08,0.042,0.402,0.044,0.174,0.22,0.14,0.083,0.433,0.08,0.087,0.276
"235",0.104,0.124,0.291,0.057,0.152,0.361,0.086,0.11,0.346,0.075,0.123,0.324
"236",0.114,0.044,0.334,0.058,0.148,0.303,0.043,0.114,0.401,0.15,0.082,0.254
"237",0.14,0.024,0.271,0.112,0.151,0.343,0.13,0.087,0.295,0.085,0.1,0.407
"238",0.041,0.094,0.417,0.146,0.142,0.234,0.111,0.092,0.417,0.044,0.132,0.318
"239",0.121,0.008,0.232,0.127,0.103,0.335,0.078,0.16,0.264,0.073,0.082,0.426
"240",0.082,0.053,0.194,0.107,0.051,0.365,0.125,0.1,0.287,0.076,0.109,0.422
"241",0.1,0.061,0.273,0.137,0.174,0.265,0.102,0.101,0.312,0.099,0.107,0.382
"242",0.174,0.056,0.337,0.1,0.143,0.254,0.062,0.111,0.4,0.083,0.115,0.306
"243",0.05,0.084,0.252,0.123,0.114,0.387,0.087,0.021,0.363,0.085,0.102,0.393
"244",0.067,0.074,0.298,0.049,0.137,0.362,0.018,0.127,0.296,0.111,0.063,0.413
"245",0.111,0.1,0.213,0.077,0.11,0.352,0.075,0.114,0.318,0.052,0.118,0.403
"246",0.143,0.086,0.236,0.114,0.075,0.343,0.054,0.067,0.307,0.119,0.139,0.413
"247",0.105,0.065,0.262,0.138,0.058,0.311,0.147,0.111,0.294,0.047,0.139,0.372
"248",0.125,0.099,0.36,0.097,0.122,0.182,0.128,0.033,0.439,0.049,0.097,0.284
"249",0.11,0.067,0.272,0.115,0.069,0.337,0.117,0.12,0.294,0.113,0.066,0.415
"250",0.131,0.09,0.33,0.113,0.084,0.223,0.021,0.116,0.43,0.129,0.047,0.303
