"","V1","V2","V3","V4"
"1",0.436,0.506,0.334,0.497
"2",0.403,0.489,0.354,0.506
"3",0.385,0.505,0.404,0.499
"4",0.446,0.494,0.353,0.53
"5",0.418,0.494,0.389,0.492
"6",0.412,0.505,0.375,0.535
"7",0.45,0.489,0.35,0.536
"8",0.331,0.512,0.371,0.556
"9",0.387,0.519,0.352,0.566
"10",0.391,0.49,0.332,0.505
"11",0.346,0.463,0.359,0.475
"12",0.398,0.45,0.344,0.567
"13",0.449,0.465,0.385,0.538
"14",0.435,0.542,0.345,0.504
"15",0.368,0.484,0.344,0.516
"16",0.399,0.453,0.382,0.461
"17",0.413,0.462,0.338,0.524
"18",0.413,0.481,0.351,0.479
"19",0.46,0.47,0.371,0.485
"20",0.393,0.495,0.36,0.508
"21",0.361,0.49,0.307,0.508
"22",0.349,0.47,0.348,0.517
"23",0.401,0.536,0.368,0.535
"24",0.383,0.511,0.393,0.481
"25",0.42,0.518,0.301,0.573
"26",0.36,0.512,0.396,0.445
"27",0.355,0.514,0.363,0.484
"28",0.388,0.487,0.414,0.481
"29",0.367,0.441,0.344,0.552
"30",0.41,0.483,0.385,0.546
"31",0.407,0.488,0.339,0.557
"32",0.352,0.471,0.334,0.503
"33",0.423,0.541,0.342,0.482
"34",0.321,0.442,0.368,0.507
"35",0.408,0.513,0.288,0.527
"36",0.369,0.519,0.352,0.522
"37",0.401,0.48,0.365,0.484
"38",0.395,0.508,0.368,0.539
"39",0.364,0.488,0.396,0.512
"40",0.396,0.482,0.424,0.559
"41",0.46,0.502,0.392,0.546
"42",0.406,0.515,0.402,0.5
"43",0.411,0.513,0.408,0.45
"44",0.435,0.531,0.337,0.522
"45",0.386,0.491,0.436,0.499
"46",0.402,0.472,0.37,0.497
"47",0.344,0.501,0.388,0.542
"48",0.368,0.486,0.378,0.486
"49",0.387,0.519,0.386,0.48
"50",0.398,0.56,0.397,0.502
"51",0.383,0.542,0.383,0.54
"52",0.363,0.482,0.397,0.515
"53",0.334,0.521,0.362,0.476
"54",0.373,0.476,0.36,0.479
"55",0.448,0.501,0.355,0.595
"56",0.349,0.503,0.369,0.535
"57",0.401,0.484,0.392,0.496
"58",0.357,0.486,0.322,0.489
"59",0.457,0.494,0.4,0.498
"60",0.388,0.507,0.391,0.581
"61",0.382,0.498,0.414,0.451
"62",0.428,0.466,0.385,0.516
"63",0.374,0.477,0.391,0.475
"64",0.404,0.49,0.377,0.611
"65",0.369,0.469,0.358,0.476
"66",0.322,0.52,0.395,0.476
"67",0.408,0.474,0.31,0.503
"68",0.392,0.434,0.35,0.52
"69",0.398,0.454,0.303,0.606
"70",0.463,0.438,0.394,0.497
"71",0.426,0.524,0.257,0.586
"72",0.441,0.454,0.342,0.469
"73",0.379,0.478,0.391,0.5
"74",0.441,0.482,0.435,0.514
"75",0.408,0.505,0.365,0.577
"76",0.38,0.503,0.364,0.507
"77",0.426,0.551,0.342,0.478
"78",0.366,0.483,0.309,0.49
"79",0.432,0.513,0.335,0.53
"80",0.444,0.439,0.295,0.44
"81",0.4,0.5,0.364,0.539
"82",0.382,0.456,0.354,0.566
"83",0.411,0.504,0.353,0.557
"84",0.392,0.518,0.34,0.527
"85",0.316,0.502,0.366,0.512
"86",0.409,0.476,0.331,0.512
"87",0.34,0.473,0.4,0.52
"88",0.353,0.5,0.386,0.509
"89",0.386,0.481,0.415,0.478
"90",0.418,0.455,0.35,0.511
"91",0.37,0.495,0.373,0.522
"92",0.331,0.457,0.269,0.485
"93",0.362,0.484,0.366,0.522
"94",0.377,0.512,0.362,0.505
"95",0.362,0.481,0.337,0.531
"96",0.377,0.502,0.406,0.472
"97",0.325,0.49,0.383,0.522
"98",0.373,0.483,0.374,0.523
"99",0.374,0.455,0.348,0.477
"100",0.449,0.496,0.366,0.496
"101",0.459,0.507,0.405,0.518
"102",0.413,0.497,0.342,0.494
"103",0.413,0.506,0.407,0.579
"104",0.368,0.492,0.303,0.525
"105",0.382,0.439,0.401,0.475
"106",0.383,0.409,0.384,0.501
"107",0.436,0.491,0.387,0.501
"108",0.425,0.463,0.346,0.472
"109",0.43,0.495,0.334,0.533
"110",0.372,0.486,0.344,0.502
"111",0.347,0.535,0.322,0.554
"112",0.373,0.412,0.323,0.538
"113",0.377,0.49,0.393,0.508
"114",0.391,0.513,0.333,0.499
"115",0.37,0.489,0.363,0.465
"116",0.403,0.495,0.293,0.572
"117",0.431,0.504,0.358,0.563
"118",0.362,0.493,0.387,0.521
"119",0.414,0.472,0.297,0.535
"120",0.374,0.523,0.358,0.502
"121",0.38,0.525,0.343,0.491
"122",0.438,0.534,0.326,0.543
"123",0.375,0.433,0.373,0.524
"124",0.331,0.439,0.312,0.495
"125",0.388,0.396,0.344,0.497
"126",0.378,0.496,0.379,0.517
"127",0.411,0.504,0.345,0.496
"128",0.424,0.481,0.389,0.5
"129",0.398,0.493,0.329,0.53
"130",0.354,0.519,0.323,0.538
"131",0.445,0.468,0.373,0.609
"132",0.434,0.475,0.326,0.495
"133",0.404,0.498,0.358,0.471
"134",0.41,0.455,0.391,0.55
"135",0.355,0.479,0.309,0.502
"136",0.398,0.488,0.382,0.478
"137",0.412,0.486,0.345,0.557
"138",0.325,0.508,0.38,0.552
"139",0.373,0.519,0.367,0.557
"140",0.313,0.476,0.336,0.486
"141",0.405,0.512,0.408,0.476
"142",0.38,0.498,0.381,0.577
"143",0.413,0.506,0.335,0.5
"144",0.386,0.488,0.372,0.48
"145",0.378,0.492,0.337,0.568
"146",0.419,0.532,0.382,0.521
"147",0.418,0.458,0.355,0.438
"148",0.397,0.467,0.349,0.537
"149",0.396,0.518,0.384,0.49
"150",0.433,0.511,0.365,0.511
"151",0.411,0.516,0.366,0.481
"152",0.452,0.484,0.368,0.496
"153",0.374,0.52,0.371,0.509
"154",0.408,0.476,0.382,0.457
"155",0.442,0.499,0.42,0.563
"156",0.345,0.481,0.363,0.543
"157",0.376,0.475,0.337,0.497
"158",0.414,0.552,0.385,0.519
"159",0.414,0.454,0.364,0.52
"160",0.427,0.477,0.389,0.474
"161",0.358,0.517,0.355,0.447
"162",0.355,0.52,0.427,0.501
"163",0.445,0.485,0.386,0.516
"164",0.389,0.527,0.345,0.515
"165",0.426,0.43,0.414,0.519
"166",0.393,0.433,0.348,0.542
"167",0.377,0.543,0.399,0.535
"168",0.421,0.48,0.36,0.502
"169",0.376,0.502,0.345,0.488
"170",0.447,0.459,0.372,0.476
"171",0.396,0.498,0.373,0.487
"172",0.362,0.459,0.352,0.458
"173",0.391,0.476,0.349,0.47
"174",0.381,0.509,0.343,0.509
"175",0.355,0.485,0.399,0.546
"176",0.414,0.5,0.404,0.601
"177",0.336,0.5,0.342,0.496
"178",0.347,0.468,0.303,0.536
"179",0.359,0.499,0.376,0.519
"180",0.394,0.468,0.375,0.533
"181",0.375,0.499,0.348,0.463
"182",0.425,0.526,0.373,0.511
"183",0.411,0.502,0.355,0.457
"184",0.351,0.487,0.369,0.526
"185",0.386,0.497,0.36,0.511
"186",0.348,0.516,0.341,0.509
"187",0.403,0.47,0.344,0.525
"188",0.362,0.475,0.399,0.53
"189",0.33,0.52,0.383,0.558
"190",0.438,0.518,0.394,0.497
"191",0.44,0.449,0.37,0.525
"192",0.358,0.524,0.359,0.546
"193",0.457,0.47,0.398,0.583
"194",0.422,0.507,0.356,0.535
"195",0.351,0.495,0.357,0.526
"196",0.412,0.527,0.363,0.492
"197",0.434,0.487,0.36,0.524
"198",0.44,0.488,0.352,0.503
"199",0.334,0.481,0.287,0.559
"200",0.321,0.464,0.35,0.519
"201",0.369,0.436,0.335,0.518
"202",0.412,0.51,0.369,0.548
"203",0.394,0.467,0.374,0.454
"204",0.367,0.546,0.336,0.51
"205",0.352,0.465,0.323,0.497
"206",0.432,0.505,0.418,0.492
"207",0.406,0.521,0.396,0.509
"208",0.41,0.484,0.39,0.57
"209",0.443,0.496,0.382,0.521
"210",0.391,0.527,0.371,0.505
"211",0.417,0.451,0.407,0.51
"212",0.436,0.473,0.337,0.454
"213",0.355,0.453,0.347,0.505
"214",0.348,0.492,0.304,0.531
"215",0.403,0.441,0.355,0.465
"216",0.391,0.507,0.392,0.509
"217",0.399,0.498,0.345,0.544
"218",0.389,0.479,0.397,0.499
"219",0.422,0.518,0.278,0.498
"220",0.398,0.459,0.355,0.551
"221",0.385,0.479,0.349,0.5
"222",0.415,0.478,0.34,0.534
"223",0.428,0.473,0.306,0.522
"224",0.359,0.44,0.346,0.52
"225",0.405,0.481,0.337,0.5
"226",0.418,0.486,0.374,0.529
"227",0.408,0.498,0.377,0.557
"228",0.366,0.46,0.368,0.529
"229",0.363,0.485,0.329,0.537
"230",0.392,0.475,0.308,0.482
"231",0.449,0.519,0.312,0.471
"232",0.363,0.499,0.355,0.573
"233",0.379,0.5,0.401,0.536
"234",0.382,0.5,0.358,0.523
"235",0.4,0.52,0.406,0.537
"236",0.396,0.481,0.314,0.526
"237",0.392,0.447,0.348,0.549
"238",0.37,0.52,0.364,0.515
"239",0.387,0.538,0.35,0.485
"240",0.461,0.445,0.356,0.516
"241",0.36,0.529,0.363,0.528
"242",0.365,0.466,0.403,0.499
"243",0.385,0.478,0.376,0.514
"244",0.374,0.47,0.294,0.555
"245",0.37,0.539,0.323,0.512
"246",0.361,0.507,0.349,0.541
"247",0.365,0.47,0.411,0.47
"248",0.365,0.493,0.377,0.547
"249",0.39,0.497,0.423,0.488
"250",0.463,0.486,0.316,0.585
