"","x"
"1",4305.58917379353
"2",4213.96552910518
"3",4296.98047244064
"4",4154.16593277157
"5",4257.15480961304
"6",4249.82672788618
"7",4279.14818891852
"8",4280.10746669716
"9",4239.4007535663
"10",4320.99751052568
"11",4403.98450007302
"12",4255.84878796228
"13",4251.00093172769
"14",4230.44598819188
"15",4178.07342926182
"16",4298.04344899263
"17",4314.22606375351
"18",4309.85928135455
"19",4211.66301356448
"20",4359.93982497993
"21",4349.64473578326
"22",4204.96444735132
"23",4362.55769396103
"24",4202.58667139302
"25",4179.14586723981
"26",4181.19028050451
"27",4264.87347909152
"28",4122.78046082952
"29",4117.10367751547
"30",4358.15601789641
"31",4310.73911362087
"32",4302.11619345046
"33",4285.70418881179
"34",4311.51374422688
"35",4316.30391381747
"36",4243.19157744703
"37",4232.66867319478
"38",4309.44228512903
"39",4222.42421200023
"40",4161.85091773933
"41",4343.28355848973
"42",4194.42648730754
"43",4184.22677592839
"44",4309.3899384451
"45",4246.57396857225
"46",4232.09057695495
"47",4254.77183071263
"48",4190.18187177816
"49",4147.88016097142
"50",4198.42217284882
"51",4328.89360357319
"52",4265.17696259842
"53",4246.15962746122
"54",4406.39663475327
"55",4365.42697290289
"56",4319.29059812089
"57",4282.05679835335
"58",4559.00007093634
"59",4281.12064437275
"60",4152.71717552826
"61",4269.36260119707
"62",4320.79260275123
"63",4292.35674289293
"64",4298.37092158253
"65",4320.16231000752
"66",4367.74651389852
"67",4247.61323083446
"68",4281.50065238619
"69",4359.17868346941
"70",4253.72042532611
"71",4270.64112926785
"72",4217.41070472135
"73",4208.40251982082
"74",4367.64440793447
"75",4231.97759318358
"76",4221.54273320477
"77",4157.65596457751
"78",4271.0554278763
"79",4301.12510020645
"80",4307.40734053394
"81",4241.13998181933
"82",4399.38726806426
"83",4098.20221170024
"84",4247.89227635973
"85",4314.10310783425
"86",4424.63160867431
"87",4374.59112009649
"88",4165.17374452426
"89",4262.83819902942
"90",4296.99593008627
"91",4352.59607431535
"92",4305.1711197351
"93",4215.95994555498
"94",4241.40805985625
"95",4214.45725878321
"96",4346.34406682547
"97",4336.01311788828
"98",4311.46252195742
"99",4222.41269356768
"100",4227.95950331299
"101",4351.94367400613
"102",4299.28271948312
"103",4307.34883394293
"104",4235.88038731575
"105",4191.03784702811
"106",4342.27917195453
"107",4254.97606761842
"108",4213.82601776154
"109",4217.94733135679
"110",4256.08546661978
"111",4128.02140720995
"112",4231.92071438945
"113",4233.61309825959
"114",4383.85338212626
"115",4368.24130024056
"116",4360.55536318392
"117",4153.85005233404
"118",4236.80462304435
"119",4337.60108147696
"120",4627.81922137022
"121",4353.52536730801
"122",4339.44847840445
"123",4129.88740361779
"124",4264.23433516842
"125",4402.05906719092
"126",4207.63133388757
"127",4259.68500356429
"128",4169.79665416208
"129",4145.11590368766
"130",4287.56577944877
"131",4169.67574708859
"132",4295.94499675076
"133",4712.576063312
"134",4324.15703493102
"135",4331.17655099779
"136",4157.69383011939
"137",4395.99218737916
"138",4292.15588343598
"139",4383.68691136904
"140",4304.79179829384
"141",4289.99586584769
"142",4290.85551086307
"143",4177.16796860272
"144",4348.22666612391
"145",4189.07545678354
"146",4244.56391246319
"147",4263.28891332483
"148",4354.2528961083
"149",4327.36599082988
"150",4208.12851778112
"151",4226.12516364673
"152",4302.82165171517
"153",4188.90008325412
"154",4218.90824596384
"155",4402.17880183054
"156",4315.14291351396
"157",4335.89102158813
"158",4275.42479597617
"159",4175.32922887686
"160",4247.43942349675
"161",4124.68293319696
"162",4205.89906013632
"163",4200.81785110203
"164",4240.95676187659
"165",4190.19011963418
"166",4207.99146846939
"167",4257.35746305044
"168",4309.26754614271
"169",4376.9854064304
"170",4296.29596001786
"171",4208.62009626505
"172",4299.03542435132
"173",4247.70153785624
"174",4322.38005400296
"175",4166.17211805017
"176",4250.11261692007
"177",4287.61411531109
"178",4194.46590549103
"179",4419.65181041205
"180",4258.22111754868
"181",4336.72478177923
"182",4397.6892480309
"183",4276.75690565175
"184",4247.12738110031
"185",4268.26349789492
"186",4227.84929197013
"187",4280.73085634126
"188",4247.86093945869
"189",4261.73603506109
"190",4354.27539846533
"191",4666.93310640365
"192",4184.92093984262
"193",4224.85703949154
"194",4219.75283786737
"195",4302.61031549928
"196",4299.93137504926
"197",4237.0827758029
"198",4223.03840482174
"199",4205.46372244993
"200",4424.46834740874
"201",4472.4811424213
"202",4381.12510033713
"203",4368.47510788184
"204",4680.81425669237
"205",4315.12105987256
"206",4205.63630561627
"207",4234.64698156542
"208",4405.70564447206
"209",4201.12889828926
"210",4366.25320504279
"211",4273.42947736583
"212",4233.47472134287
"213",4226.98488399961
"214",4341.26329005232
"215",4377.59239724548
"216",4316.9880682288
"217",4242.49298021616
"218",4115.34274526934
"219",4332.51658391225
"220",4220.10525290612
"221",4391.55786141719
"222",4287.0988932317
"223",4291.52642120072
"224",4206.03867564797
"225",4260.2750674908
"226",4156.93237492435
"227",4407.56597590802
"228",4333.02610603742
"229",4282.80438563039
"230",4327.52100528385
"231",4269.92287668385
"232",4091.71514674546
"233",4243.18485319345
"234",4366.60692654209
"235",4299.7253368561
"236",4130.71465984742
"237",4271.28599042209
"238",4635.35942324784
"239",4340.11109670488
"240",4276.64976854632
"241",4243.40620080588
"242",4254.97359131055
"243",4267.301146243
"244",4318.22464450778
"245",4302.46263948786
"246",4334.7716432837
"247",4234.45907466171
"248",4229.5009139596
"249",4247.95439638651
"250",4290.28463850366
