"","V1","V2","V3","V4","V5","V6","V7","V8"
"1",19.4293794842261,40.2906369696833,4.69009241869719,7.04533303320383,-0.0653414795353649,0.0142069994565974,2.03177232247973,12.4954296939314
"2",19.720335844285,40.2504146373598,4.63461053521614,6.88901540499383,-0.0971378145062141,-0.0174520627317337,2.0051359445769,11.3471382532511
"3",19.5501235907122,39.7578324446652,4.75461367767799,6.51425925096628,-0.00734147130071294,-0.00791820530673137,2.08604737297043,12.2919978996992
"4",19.6815010368849,40.1281439827103,5.25981917216026,6.68782641746369,0.00206732972609593,-0.0317655555230104,2.24681176165918,13.2843890489352
"5",19.6678432580835,40.1656610690362,4.59185768610298,7.55561850911222,-0.0365771768563922,0.00101887260558863,2.20800568144618,13.4366058524652
"6",20.5158178386304,40.0412188165186,5.19622498287869,6.86134521685175,-0.0198440652778412,-0.000674539422948484,1.91121397173569,14.2881437853769
"7",20.2576813479038,40.2018410161127,4.82316108213619,6.8862329825161,-0.0425189103189592,0.0129959346013569,1.82511249477905,14.3695619453095
"8",20.0641625443001,40.4676859820056,5.02442609784552,7.03483124934654,-0.036518610385892,0.0179674729470628,2.13879331930101,12.382878635674
"9",20.2900855139447,39.9602558096239,4.83863035307669,6.65949803962786,-0.0242939171332073,-0.00207099543853444,2.0685697969472,10.5598473772022
"10",20.2526101171781,39.6347112446596,4.98918396374674,6.75497698798211,-0.00205382797136609,0.00418388050565255,2.02970154591436,12.0903797667137
"11",20.1069349905341,40.5375379936599,5.16694267073864,7.52132998987688,-0.0190157993399751,0.0183712848010067,1.76663788184043,12.7825874789482
"12",19.6867604376623,39.7453416103009,4.9759991695886,6.88536969332217,-0.0394770942795906,0.0211944690526798,1.96000489791727,12.458466403232
"13",20.6611788166767,40.6466110793658,5.29790603509904,6.65692643480731,0.0929858926977026,-0.0478244835197656,2.19826488624273,10.5986079614692
"14",19.5421076978192,39.7608844239139,5.05980292647404,6.37602319623407,0.0418761787348369,0.00164648489252276,2.01669339064867,15.2971352742163
"15",19.8279801094531,39.8953685421818,4.90509951452116,6.81126735001177,0.024504388546405,0.0165782545388853,2.33890829783522,11.6170396148869
"16",19.917293590973,39.6036306766328,4.83191361002528,6.71192608594476,-0.0297898066926843,-0.0397342710538211,1.90303138538669,12.350362394027
"17",20.3737444581025,39.9310967755878,4.95186765215985,7.53817359424891,-0.00468324469118979,0.0236475544636287,1.68989837922025,12.2691666058605
"18",20.1687700247552,40.2084324219318,4.97326286146865,7.31863005602816,-0.0576370057983592,-0.00429295319703948,1.88074438288426,10.6747220533517
"19",20.2152821886813,40.0990178969532,4.64249848629471,6.9032646226398,0.00408859316583545,-0.00934425068914349,1.95959678831782,12.7370821905662
"20",20.2135297633782,40.6103990687829,5.31953971440643,7.02665405575146,0.0366039063225459,0.040267962297108,1.70906244613536,12.0375864697246
"21",20.4868396018953,40.3705618295886,4.9973917174688,6.64666100303806,-0.0762497342569238,0.0235914832929034,1.81828534488305,13.8512202511785
"22",19.9721917856262,40.1343322896635,5.02673964131091,7.09992880365012,0.0596148763335548,-0.0158024781151979,2.07996595779149,12.0253430955946
"23",20.1339757023737,39.6771782727815,5.35402226680939,6.36482587084512,-0.0225795882265753,-0.000151992450364602,1.8012854856251,13.1275993854204
"24",19.8840676474693,39.8461914996616,4.35618249097266,7.04260146244899,-0.0267537610316645,0.021718376170366,1.85857242954426,14.058674858921
"25",19.9139846926847,39.6916653060277,4.52176342879857,6.62050921194747,-0.0797772535553796,-0.0054620675802291,1.98333743029661,13.417678996913
"26",19.483706395021,39.2198725089518,4.52165054030053,7.20335052794124,0.030392621764463,-0.0154221667430043,1.8548097236497,12.3598932343681
"27",19.7984158593545,39.9279340416243,5.03265349336055,6.94838251554863,0.0162583419684648,0.0191516540573668,1.9264934652554,10.3453987992611
"28",20.1613487055902,39.8337747174742,4.59569874986753,6.59221299469423,0.00166425071139764,0.000329557373085103,2.16421296143963,14.5813310736561
"29",20.4911994316235,40.3406681171268,4.62327326100745,6.86078713153828,-0.00210436072294156,0.0150163242377934,2.02611898508673,13.2016582833228
"30",20.0489702519475,39.3413288124943,5.02512370426168,6.73927239280338,-0.00370528862779974,0.00790486564014984,1.97577140137106,11.6568445319378
"31",20.1812393419191,39.9269042580201,5.05645944486514,6.89688709790606,-0.0390612661134306,-0.011388916854682,2.10628998304869,12.7909926511978
"32",20.0384071122082,40.0416800253895,4.61910102019296,7.36159644740188,0.0294135764440903,0.00204608141069414,1.73476843896432,11.3678785523573
"33",20.2101070340412,39.3753750829862,5.20426319571743,6.82874152667764,0.057236340460869,-0.0138250861988486,2.38210498923989,12.6672007202997
"34",20.126204651293,40.9636794700137,4.85672174472467,7.56496119121051,-0.00854752242133473,0.0245577231132113,2.04909874788559,12.544731692768
"35",20.5098503158864,39.5260487802558,5.33927956191927,6.7312619978523,-0.0270075006208745,-0.00619419382746737,2.12962169225722,11.9305528813058
"36",19.5602388190387,40.4025168030347,4.64667626917846,7.4812610545773,-0.0472099422941929,0.0430772177558153,2.06828771459215,12.0538358427797
"37",19.9039211989447,40.0242189417086,4.92238533213348,7.53180757532916,0.0825665827347499,0.034178377848299,2.37668989653415,11.3851451726521
"38",19.7853289064003,39.8367953968057,4.84137070412428,6.79453940357829,0.0809417536240802,0.0185065853801902,1.99790517926921,11.0281431816401
"39",19.8305495179319,39.4173598845027,5.10995185841497,6.74571029988501,0.0323200133303295,-0.015626413602005,2.13318866097652,12.8096608676797
"40",19.754135418772,40.7607625865009,4.84076419363701,6.76390963218348,0.0574892660327949,-0.0220979256412663,2.10627611492467,12.4162516200645
"41",19.9321544792453,40.0200641913419,4.81724356269805,7.94687207892853,-0.126658726113662,0.022464683669534,2.02740422967544,15.3083601106519
"42",20.4288747333894,40.1531713452431,4.90080922625374,7.02617611475464,-0.0474995109469719,-0.0171621306019837,2.02514606949236,12.1688160006955
"43",19.9313935344779,39.3954078586886,4.5307455517652,7.62545879417033,0.127761646937655,0.0149173515096513,2.21029789101577,11.2553679269738
"44",19.9319324994394,40.2631751980797,5.04550632303774,7.115124088065,-0.136786286153275,0.0102999986997774,1.87226504592413,12.6808536802232
"45",19.9114936498103,40.0462870962603,4.73288852271125,6.77746533044462,-0.014904238116434,-0.00249393719224388,2.05008114375244,11.8951062706308
"46",20.140030496158,40.5298849052534,5.0982504957671,7.17801604956587,-0.0522926957275219,0.0078761189928086,2.0197909578912,12.2923171674773
"47",19.9550516207551,39.8640082175819,4.87632381480887,7.6649073328609,0.068035236484725,0.00641708063737928,1.91994467869682,10.8481658057171
"48",19.8182542339568,39.5410309664728,5.03231754951004,6.36711821581251,0.00932415082518874,-0.00373923642981217,1.98877384805145,13.5189406734724
"49",20.039009176189,40.3249012416812,5.42198019929773,6.75124892227612,0.0434348892829029,0.0019607137601188,2.29291883531013,12.2855308112361
"50",19.8554287776112,39.6793815913689,5.16188532828464,6.65842747087368,-0.0831215168829591,-0.0440240324515336,1.96896026528548,12.5456634233146
"51",20.1342907344274,39.8939024778276,5.38579164741854,7.17115952204974,0.0899366977528754,0.0147493557337131,1.78689167146978,12.0190154959797
"52",19.9562729805212,40.6588761815387,5.06288978443024,7.29736720630749,-0.00908342566777543,-0.021751707906727,1.85005132154395,14.608487012694
"53",19.8631198509436,40.5285448566421,5.04908128550068,6.91040391851176,-0.0709219368186879,0.0222734096921918,1.851425550197,15.7851705219064
"54",19.9814202138576,41.1341681176534,5.08161537023763,6.71283545075785,-0.0478259454161242,0.054047336816849,1.85763843469113,11.6918460968339
"55",20.2465687022649,39.6735287936097,5.03305631082184,6.82308962651944,0.0355760673429807,-0.00388177597807606,1.97931436694407,12.05841658844
"56",20.1132858543409,39.1602785532371,4.9036365688497,7.00658169969318,0.100624316971606,-0.0307290745807548,1.92045868597238,12.0677847741752
"57",20.305203070997,40.1311577758396,5.21800133381137,7.32951678438681,0.0590894351959069,-0.0177441674727739,2.18296854497464,12.1642696880977
"58",13.0459818196908,30.5319606355652,0.0779496027509178,10.0087000353243,-0.353077259375761,0.0165228088599361,12.7009860630251,3.84406072565838
"59",19.428791249482,39.4529217788469,4.47152833900832,6.4994023658286,0.0178528117154802,-0.00175483537516848,1.85471397909243,11.931377938654
"60",19.7642638264299,39.7649520030606,4.42447713722321,7.03207393782235,0.068121568584431,-0.024218517158184,2.01788365626616,14.0517886959812
"61",19.9912659764721,40.0114519217534,5.4188916591653,7.03895340824246,-0.0338172549073861,-0.0327288904737654,2.08519666911691,13.2780962651332
"62",19.7571383364557,39.7285041302716,5.00548224508098,6.34826028264779,-0.0177160292264663,-0.0166630465439625,1.96584921697841,13.0882059364702
"63",19.3857478846848,40.0938549478678,4.6456122124891,7.22312600092644,-0.0225332575122418,0.0270359925804312,2.14001575484408,11.8921590267043
"64",19.9935363688858,40.2667987807907,5.10493034411786,7.39459844908405,0.0220892208351887,-0.00728712107976817,1.99390227824358,13.5049062992231
"65",20.0522033475974,40.1389835168681,4.96342267330863,7.03807395836649,0.0145322168904558,-0.0437477816443195,2.14952776922332,14.1138119827849
"66",19.9948950678778,39.7721128920605,5.12238163159645,7.3082491915375,0.0509098394519923,-0.00304060874387421,2.04176186313096,10.8758767245518
"67",19.4964421308405,39.5951301406221,5.00047688422204,6.60480463297474,-0.00811684239580137,0.00990622089443538,2.26744946583736,12.9208184334807
"68",19.9192374270763,39.6793240639254,5.0128387770643,6.6146766064382,0.0779211252998438,-0.00252987173189464,1.98916372336556,10.6178843518074
"69",20.2753894116244,39.6298341360118,5.34438172555952,6.65875961641085,-0.0102721218651648,-0.00505773516871672,1.81912522207587,11.2131527135697
"70",19.2522959342238,39.8457723171277,4.81570661661555,6.98895007631626,0.067383377696068,-0.0256805626027461,2.17437398654863,11.6174512154284
"71",19.6295976040343,40.3855930211036,4.66488492060327,6.83601707048169,-0.0607244202035914,0.0173727083223858,2.05594212093381,14.4427999792339
"72",20.4884781255243,39.9573538191842,5.15464039536483,7.33232511727248,-0.00014982678706439,-0.0121092372915009,1.81791631262523,11.9652518867687
"73",20.1834753975992,39.7214465706759,5.45401953637781,6.66371696475079,-0.0161229519472136,0.0438110871339266,2.16155429682628,12.1035678483838
"74",19.8033045634558,39.0650060399043,4.86255933308063,6.87513982370497,0.0648246076005002,0.00851485468525414,1.90583079242523,12.9191252940498
"75",20.0706022805392,40.4116915765553,4.90179218988742,6.9443257991963,0.0541921877763812,-0.0238631732042125,2.1207055466825,12.3543662812653
"76",20.4173860640661,40.1750631330647,5.09974783585167,6.70391982982658,-0.00995782353077968,-0.0173070941263939,2.06322104874211,11.3849052494551
"77",20.5523967040236,39.9446277052364,4.89434213336385,6.36768355582746,0.00445254606225054,0.0217897184453881,1.9730731124649,12.6905391873831
"78",20.4239774391649,39.7904896416791,5.2908132499768,6.93730353108306,0.01828258811805,-0.00220591268525812,2.24298416855806,13.3372050798663
"79",19.3131681400223,40.1919876674236,4.88311160289853,7.36353184397262,-0.0316677164383251,0.023999870451914,2.18557436909357,10.5673624146222
"80",19.8439185892099,40.5029960365578,4.8350134505438,6.55890849329253,-0.0487423885947673,-0.0229095750707347,2.22556054344413,12.393437907758
"81",20.2085352977041,40.2685380678662,4.93402984521163,7.50799548690048,-0.0925573820037684,-0.0320662620863315,2.00521172050863,11.7948591806374
"82",20.2531771336084,40.0417777185306,5.43975528166416,7.62507190121143,0.0417053940872207,-0.00197837443177009,2.15620335866148,14.4823754809017
"83",19.7286271046765,39.9983330728502,5.33720358918504,6.76669887781835,-0.02493485503762,-0.0115792184011538,1.82213465863402,13.4140554249371
"84",19.6179181297283,39.7960451429766,5.18252861400362,6.60193134685264,-0.0202031989399946,-0.00405072512212958,2.0896620153035,11.3220668238686
"85",19.6414648097933,39.7418042934588,4.84537414948966,7.29576585223675,0.0126440508086544,-0.00328615857261723,1.93108982536596,11.7867598743322
"86",19.8299723245383,40.3339317637319,4.93362526352411,7.23230704035795,-0.0123735781520815,0.0350614195204021,1.8026902893905,10.7249173120008
"87",19.618817131719,39.7442609293665,4.8889376742061,6.93152293211492,0.00769987962936514,-0.0182463186902564,1.86603315628329,11.614047406208
"88",19.8366502935188,40.2897619111394,4.86210926076569,7.17768814601233,-0.123714279109944,0.00572944398107708,2.31561488151732,12.8611978637803
"89",20.1079749739152,39.5779466664539,4.78095627222489,6.81076846025344,0.00287163728701918,-0.00845927133705816,2.18417607468972,10.8197220631799
"90",20.3632489952737,40.0324606037649,5.4208135722191,6.9200983350209,0.0437642090230138,-0.0232853782710947,2.1751581254744,11.8089416972376
"91",19.9103356537014,39.3462772506481,5.01808861208773,7.04013825241189,0.0201545856909408,0.00535817071260688,2.02335067629181,11.6359389829798
"92",19.7954720407586,40.0781686475403,5.04398325269286,7.57332645035955,0.052267367854107,-0.0183211202809227,1.93734437474688,10.8632750934891
"93",20.0244404406716,40.100720770097,5.17044105495942,6.92759065643027,-0.0487759892920861,-0.0382865710772105,2.0115358285451,11.5391898696259
"94",19.6339298680546,39.6017330742974,5.11626185532617,7.01680763225241,0.0303106110309884,0.0154383359671031,2.06946288884449,12.9206930283211
"95",20.0145630571283,39.9427023703716,4.89255288494577,7.18261310428784,0.0729085752621715,0.00500161725914451,2.1776844608843,14.2379223267248
"96",19.8999819384277,39.0535838408217,5.07271013720413,6.91962530069707,0.00880831616021567,0.00789778029117802,2.2277390235293,11.6625776272099
"97",19.8707294798635,40.5744365614802,4.92850955328889,7.66166540907,0.0095531849328988,0.014613948740293,2.15095866555266,11.9146842547958
"98",20.2092559321024,40.1516017665474,5.04428546567353,7.12974775555594,-0.0152738879232553,0.00258227442863138,1.76910520569475,12.5508848829795
"99",19.5470521061674,40.4653881165679,4.81198681855831,7.08672098151852,-0.0850339327440586,-0.0235628016701098,2.04989923756515,11.9054528778873
"100",20.2329437801046,40.4588094776932,4.83640129470532,6.68699632014125,0.00767041140892909,0.0187301140580058,2.30426325963519,10.6107618134447
"101",20.1565277511544,40.033972829764,5.32009598822661,7.01288621878547,-0.100865263565988,0.00926759225257895,1.95919352918975,12.7399476296113
"102",20.0519279879729,40.3588921941442,5.25320660295945,6.71137467124861,-0.0729756879172291,-0.0236180411481528,1.95078547388616,14.5701219613705
"103",19.8834669333992,40.1293919541562,5.04921542146134,7.46739577230233,-0.0501547865521764,-0.00346988182707265,1.81106796553925,12.5201581598367
"104",20.0394209739602,39.627847438378,5.00247058246367,6.81743432883102,0.0516266945016753,0.0159539730254696,2.41148409316134,11.3670852837353
"105",19.4651995323279,40.2013304563664,4.79956271410768,7.05779243375181,-0.00311276096942642,0.0160806571753813,2.19867455445492,12.0861977329176
"106",19.7570175414384,39.8316061912677,4.86763458469151,7.1345987408099,0.00420159752552425,-0.0259086083616481,1.90243435890244,11.3808263463464
"107",19.8306392234738,39.4998563150026,5.02326086193293,6.73617191962935,0.0141418914610816,-0.0194888312521656,2.13609808692462,11.6882407772058
"108",20.5019464078432,39.9936385719904,5.10061523536992,6.49318231784627,0.0563834657507045,0.0468254379625457,1.77329908685062,13.1557075423075
"109",20.3179211254982,40.0930779864483,4.725342130045,6.72121180784502,0.000671523327350782,0.00101785757422203,1.73874991281026,12.3881760527169
"110",20.1955957672426,40.4592896522872,4.62427730814132,7.41177953960211,0.00118347767498725,-0.0325029267032927,1.99908175830086,12.2200570449908
"111",20.3987247925196,40.2776874239261,4.87882027928153,6.44041187610938,-0.058341404755935,-0.00974110584464484,2.2358038835285,12.4059932758697
"112",19.9510294018693,40.2638245282436,4.80619072841243,7.03093640509288,-0.0761558831885028,0.00256864363117421,1.79870266163701,13.640091082515
"113",19.6865495407037,39.9766556648287,4.57793785611581,7.1898945009079,-0.0419383947495128,-0.00453187573704431,1.94422015184526,12.7199790216411
"114",20.2980920515586,39.2127552000539,5.16709960479984,7.37584405814,0.0653676648377635,0.00632101752013308,1.92120764065231,11.8585987308852
"115",19.4211763711339,40.3383516807334,4.99177903376614,7.18305493653553,0.0520109911489086,0.0034669275638145,1.88436103349101,10.2828205603258
"116",20.097570902311,41.5145256109226,5.03682857232034,7.17710696561046,0.00898168912061133,-0.0343067144596492,1.95750072526896,10.6948188947996
"117",20.5068633852315,40.3720501136886,5.43419396231245,6.61192113479355,-0.0354128486012228,-0.0192280879209601,2.02949791474499,13.4692678979468
"118",20.1172172355938,40.5864575295453,4.86558101852033,7.32676687537841,0.0301576524244937,-0.0222641925969567,2.23840147447259,12.5964030471787
"119",20.2760618149457,39.6150923564053,4.87296911048214,7.50533851498875,0.0578259191947842,-0.0315011023941933,1.79278405840082,12.0369393006149
"120",19.6953379204013,28.7799987663739,0.543057070394437,10.1846985255719,-1.41171611842762,0.0490822572913828,25.7965514228316,3.51761136660534
"121",20.1366743812841,40.1350837294417,4.98460858410982,7.27165389448837,-0.0774980406338607,0.0338842215649607,2.01452192101726,12.8994240962957
"122",19.6219489551441,39.4143903092404,4.44440263391469,7.73561608175968,0.0587047914854064,-0.0264924285340226,1.99627077831781,12.4156532303749
"123",19.6415871069044,40.178189233099,5.09285593478832,6.97012271533064,-0.0337869105321272,0.0186206098893345,2.16853640439213,11.5386869608727
"124",20.2280490408305,39.8979146373033,5.04909203092674,7.37812350091829,-0.0528110397996277,0.0099077364894266,2.07302104848847,12.4552631550911
"125",19.7265343936821,39.0606422886312,5.06835611697961,6.74675371784713,-0.0802918744949632,0.0348442494489802,1.69091927069863,10.8894516998886
"126",20.2105369247683,40.0794045393431,4.94277429871262,7.43180532480198,0.0711942374890491,-0.0108511342730911,1.83498407154755,13.1578812652814
"127",19.6708811554696,40.0702242653376,4.44145352808553,6.73807995297085,0.0489625468667251,0.0186717256863921,1.84201487101782,12.3997392813162
"128",19.9866154429986,40.312594202523,4.85433953161477,6.67946867956828,0.021496274278457,0.00569488687478807,2.02926481043389,12.3175504006686
"129",19.7635652087408,40.1392769088473,5.11187478218836,6.99191680685096,-0.00732080074831962,0.025647205350456,2.09105343264313,13.822506235712
"130",19.8292936625424,40.6461689269199,4.98817350566253,7.28499622328637,-0.0909305026289175,-0.031262170181158,2.39924165255368,9.61929774957177
"131",19.637604169048,40.3022882246414,4.72221318282874,6.65814159784038,0.0378064441036894,-0.0273493494483319,2.29510015041748,12.9132102062776
"132",19.8727710435905,40.1036667535721,5.3496979955041,6.54963310689425,0.111879749215826,-0.0146357681729432,1.95070863324927,12.7472601416358
"133",18.4470480081133,31.3325550257482,1.37940781961452,10.3203585369371,-0.526375277359071,0.0779575439119675,45.5872267157449,3.10803132045593
"134",20.1950640686801,40.3738737620636,5.17633988602198,7.0125430035068,-0.00473388349912781,0.0272522743229074,2.10073361926584,12.3853020274836
"135",19.7124252998324,40.4796326173977,5.02507705132403,6.22808517365647,0.0424228175414098,-0.0120679882827075,1.804775479886,11.3819181217632
"136",19.9890558799123,40.0283767006831,5.04641018074883,7.31160248250156,-0.048123565023291,-0.0194145580122281,2.20710235128375,12.2838436808972
"137",20.3121080513828,40.2505915830707,5.04141057576716,7.58124338152703,0.0160728047641952,0.0149119366453426,1.99399348222591,12.4656015566537
"138",20.5256178161107,39.4185028753228,5.22083591964919,7.3406788808349,0.0138130920918172,0.0188189771320056,2.13470322981209,10.6261900016539
"139",20.2183779923006,40.0863738813198,5.40311885088518,7.00342714427497,0.0545261224894409,-0.0171726752866351,2.01602601923293,10.6784278601338
"140",20.3114403873791,39.5771691093555,4.99015024657762,6.84604222229139,0.0142662835451077,-0.0307309105728798,1.90378489558037,11.7088344967033
"141",19.9789542389334,39.4005327718451,4.96944797073806,6.94717537901982,0.0809842605882373,0.00743266448817672,2.13877477304933,12.3153333391749
"142",19.912222431567,39.9016079954364,4.70677306838675,7.0205341762521,0.0154248713109181,-0.0153744646730839,2.05479276488869,12.1132165866295
"143",20.1011165729542,40.4955237466938,4.93563114763807,7.04224438886535,-0.00758509965303412,-0.0239502140860427,2.22722531076835,11.9300062396471
"144",19.494361059185,40.5788180311551,4.95146348373992,6.97362998880057,-0.0381650213854311,-0.00134031109123586,2.25216172631332,10.3478993555759
"145",19.6358679963328,40.6251291092951,5.20228983046557,6.80248915658899,0.0872370147737331,-0.0346979948673968,2.33499154814666,10.7110261362307
"146",19.9428657497232,40.3088532657739,4.96410087123295,7.20421157927896,0.0589518040060903,0.0053180909110289,1.79229466669925,12.1325149769446
"147",20.0838420344032,39.6607282762728,4.49013568425668,7.37029689231675,-0.0223555575680178,0.0182342505315579,1.74014831721224,11.0368303480252
"148",20.4743252548566,40.0763041053298,4.9877634540936,7.69748663493308,0.0137672867676676,-0.0137273952904718,2.02910574378263,10.2107736173605
"149",20.296827470289,40.1329937068437,5.07221191947793,7.0601899426516,-0.0198916656006155,-0.000415933394893015,2.04617040098554,11.2219233198621
"150",19.4601379277014,40.7005790584867,4.7588582399461,7.83870333487469,0.0135295783415565,-0.00024944136847662,2.2663841717431,12.777578900662
"151",19.6016621268044,39.5806493506686,5.13167193499468,6.49309180030455,-0.0126791193416178,0.00542113141872364,1.90659753629501,13.4411564580716
"152",19.9952523492897,40.333630724529,5.00802043583542,7.39014693239524,-0.0213112524976919,-0.0334543085598859,1.81342915522062,14.1646453251318
"153",20.0138360092648,40.4300669713022,5.22052180794571,7.43723589100052,0.0294262785346237,0.0192548877780311,1.94344082349609,12.3876406766766
"154",19.6294599783742,39.9942078385437,4.48729683345949,7.07363118383657,0.0568139712698819,0.025949015794429,1.94445443221155,12.7734067618616
"155",20.2471347329802,40.0569012838885,5.44431127638333,7.62221129460909,0.0349826810767248,0.00775038911146426,1.88504483584591,11.2552788814884
"156",19.9209431447982,40.4411018322374,5.29841210433112,6.95810464183146,-0.0408014436899274,-0.00422164837561877,1.95775998435872,11.5168936421213
"157",20.1124246818067,40.4400210117756,5.25484049117361,6.94245870859977,0.033844470648068,-0.0160858751328869,1.95271389712678,13.6259682289985
"158",19.8894137777797,40.033522308379,4.94222520560489,6.82792458401482,-0.0120556011785732,-0.0201307125743578,2.19984775369932,11.517438646487
"159",19.9566159878441,40.342393180744,4.66575432460619,6.91525453803953,0.038119204312423,-0.0131190582467852,1.97577971123635,11.4502116039253
"160",19.4462624924078,40.0673279715568,4.92415886517699,6.65997509101756,-0.00326266904328285,-0.00690092133548194,2.48419380947357,13.0122460824253
"161",19.9934030337597,40.5863579219269,4.8492243379995,6.80019692957449,0.0815325001535482,-0.0317451740151064,2.12779194739976,12.3968333148058
"162",19.8681521551621,40.2397932975486,5.04086804014919,6.39363636396875,-0.00107372456696354,-0.0178619577177604,2.21563071326002,12.3245894626878
"163",19.7555003561093,40.3003275007882,4.58730431561153,6.87014371930116,0.023394911949527,-0.00177933947074649,2.04628649341287,13.0724900327755
"164",19.5810018161713,40.4659726609772,4.78879643703549,7.30072442092588,-0.104910074954052,-0.0183101524669526,1.89180607501582,11.8746980377188
"165",19.4592750183157,40.0695444927363,4.53748372262314,7.11054068933305,-0.0321022760559081,0.0126288873058298,1.99844541033808,12.3434219321533
"166",20.0591513343715,40.73091757328,4.91949066927722,6.91491087517639,0.0713044622867789,-0.0107771215035645,2.29498912515546,14.2638614828838
"167",19.7741376908136,39.9316536109312,4.84326363514201,7.25400793837523,0.0944340441301493,0.023415451002595,2.18537591760117,12.2082533221851
"168",19.851772535986,39.4691882877425,4.75927265464915,6.61842471258878,0.0424319790578928,0.0117869531915015,2.01858117936313,10.6105138672799
"169",19.9286429559825,39.9696402230881,5.21890123174662,7.61724329230121,-0.089513167139923,-0.0381617607789953,2.37196254564619,12.0839806309893
"170",20.0017044884375,40.0352076338327,4.77824715483329,7.26494732998851,-0.0594875054984212,-0.00693701462890557,1.96781029137165,10.6092066739592
"171",20.2521081043919,40.2005831456057,5.12496167888011,7.14769069338751,0.0141875479242583,-0.015211615756975,2.05177361672684,14.1810700953279
"172",19.8519238203576,40.8663219504939,4.89201117153424,7.46638603262497,-0.00260965099406649,-0.0362696695382486,2.02872380763267,12.9209363257722
"173",20.0784831595059,40.0274086060168,5.40280151641147,6.86792969891424,0.0817765112487595,0.00527846900425506,2.12837647018974,11.5498832544002
"174",19.9199900035789,40.5116928612347,5.15991338533815,7.16936065824488,-0.0578413094589109,0.0377861516578086,1.98751142368076,13.1563312554897
"175",21.153530508844,40.5810332315206,4.91795840481559,6.91451045830351,-0.0995963631399376,0.0152962801684277,2.16076527795808,13.0155566445437
"176",19.7885760756203,40.3135689827133,4.61911903819278,6.60174922996085,0.0701232790266102,0.0167931316548697,2.09347970802794,10.6757198846837
"177",19.4038659905758,40.0164435347936,4.82275331995158,7.18349090463381,0.0306118383487977,-0.00321487736722245,2.09485320222504,11.9032743533055
"178",20.5946868360538,41.1862599156812,4.92932524220638,6.58335250323686,0.0429038463781321,-0.0593233618179328,2.09378626126701,13.9949480809224
"179",20.2190486002537,40.2211707607889,5.44551594229953,7.10194595854878,0.0124934666258632,0.0284860194756581,1.89025158394354,11.3457756751249
"180",20.4069773386607,40.273914517955,5.03399418917551,6.8069688954141,-0.0802009129327948,-0.00552346014658744,2.16319864634931,11.7020570822425
"181",19.8787461714731,40.7498355433019,5.14879991319041,6.77871949898588,-0.0303615939104103,0.0355880322079333,2.12066403905857,13.0647333841308
"182",19.5673355740428,39.38671059219,5.01734284679249,6.71620575920175,-0.0470714849747777,-0.0170986066447379,1.83186376653376,10.719170945455
"183",19.7769076153472,40.1240866178565,4.76690744987529,7.09421300444431,0.189728108840435,0.00218387287440896,2.14900461766916,10.3893090640431
"184",19.6409932755794,40.2260559416092,4.71597571551928,7.17512055307146,0.0225575638328048,-0.0128187175439907,1.7758346072531,11.6035282488562
"185",19.5088779064784,39.6076422798602,4.64520972439182,6.47789551271319,-0.0121311929821076,0.00383683667539044,2.0431130664024,12.5114170736866
"186",19.8676845067686,40.8278536936645,5.2760843511936,7.53874592247625,-0.0155599565364607,-0.0011673032041591,2.0446115512741,12.8532316122562
"187",19.5000904679361,40.2247326884118,4.71722506980846,6.73756526294332,0.029784402708942,0.0176108286400724,1.88440264510659,12.7712607665101
"188",19.735159565742,39.8268099923978,4.75845452832798,6.86318427944314,0.0647131214431266,0.00611615205090818,2.05598571369411,12.0569559875604
"189",20.242316507021,40.2151880494731,4.7224228444922,6.94457625170536,0.0110581443267914,-0.0144498918447862,2.23822798453348,12.081378582928
"190",20.0639259847987,40.018277066117,5.32226531891529,7.29783532203941,0.00643083012233585,0.0240202361376927,1.76889157265984,13.0611548532259
"191",5.49719473866752,30.3596970022265,0.350839070093879,9.98178132911679,-1.55754544466302,0.0101266351520572,11.7722516907184,3.28795686225069
"192",19.9043150000378,40.0697708784228,4.56477864769642,6.52129737798946,0.0437477781848317,-0.022393164630437,2.23410876627343,11.8094889452136
"193",19.4651099303429,40.5594517439447,4.85053550827412,7.10162387903441,-0.00827172068141268,0.0104680449546691,2.10712876890153,12.1066263803948
"194",20.1120657262435,40.7146545101209,4.73308832075392,7.22717189730625,-0.0178448902318554,-0.0205801526259019,2.01912606431393,11.6546668795484
"195",19.9590668609245,40.6273684033317,4.93483185233559,7.05608751909435,0.0234102754582106,0.00984007748398173,1.7880475489021,10.3613979913081
"196",20.0986051474923,40.2848659919638,4.56844976647949,6.91273566689797,0.0164833052018713,0.0193106252837417,1.65630583784094,11.7600302065888
"197",19.6907040381544,40.3176373393515,4.8549776238183,6.3730438376152,-0.0285009702015203,-0.00935836744568609,1.90747696416504,13.4862149787144
"198",20.2724725813838,39.7824601142743,5.12566263201019,6.68340062515598,0.0902652055054097,-0.0359405729382853,2.02146411402656,12.7039349402395
"199",19.6223697363301,40.2816534061511,4.77284231578418,7.50241405599676,0.059039561609802,-0.0397964597239565,2.02819910906245,12.4216420322486
"200",19.8770641230347,40.3331324956444,4.7966977819607,6.92178605825605,-0.0618251211838832,0.00511260907654559,1.91742627989503,11.6223894611425
"201",20.7005497781035,40.6693800124085,5.39285195078132,6.80322756446824,0.042744672222158,-0.0112421329425127,1.8316443529875,12.3822070792396
"202",20.6043625037229,38.9627513012935,5.16239472789687,7.10231749101709,0.0309769511813421,0.00295314911502709,1.99093566559461,11.3630765238141
"203",20.1208264797686,40.0563977649336,4.69178486565169,6.90786503768339,0.0092073470237178,0.0220748049678818,2.0512371463006,9.34516222250785
"204",0.225714801361977,30.0266587611221,59327.6071246395,10.4401642519586,-1.66039081527816,0.0366312791126967,12.0261788472292,3.43331660360673
"205",19.8484627070714,39.8864034110497,4.7640630427375,6.82604850704413,-0.0307394414856557,0.0198942041184776,1.97466247702324,11.0342763317447
"206",20.2565029851386,40.3618420021065,5.3104006032816,6.95462919480899,0.031258569187222,-0.00681293955233925,2.38994871593086,11.0919496620493
"207",21.0318285437893,39.9816887239555,4.96196385782116,7.26798327522869,0.0124241153036712,0.0103234686352472,1.84438551563399,12.4378989319778
"208",19.5774600916936,39.5007688730452,4.89709556055044,7.44776426694543,-0.0310116144358397,0.011057589481859,1.85775908767113,12.2139622215917
"209",19.5593670165871,40.0854170287945,5.04717128803839,6.86143265562266,-0.0184017329908903,-0.0100610215443255,1.98219611663075,12.3311753110195
"210",20.3080805855307,39.6482831646023,5.00848848267841,7.26141486590555,0.0720467730873558,-0.0393806060644232,1.90225052006004,12.3474235844447
"211",20.0089611150532,40.17760639936,4.94903031382612,6.87168020662738,0.000988100248176776,-0.000723272564470036,2.18069629458263,11.1056304912913
"212",19.9065620802468,40.5089291283109,4.58362781382116,7.17884444237329,0.0560133959314429,-0.00997966813987284,2.15819235810017,13.1905919861393
"213",19.6992715225749,40.3898028171289,4.7778575457718,6.85606534401302,-0.0101168120166486,0.00878204027223495,2.06886275243072,11.9050688588745
"214",20.0780971435655,40.4078769579634,4.71020251093035,8.04648780993221,-0.0180811501542772,0.0228564365049021,2.02774982277528,12.0140535194863
"215",19.9476303643708,39.6548164232908,4.78453196864171,7.43984049660412,-0.0539453611202263,0.00070970696926596,2.00833141117933,11.378378073222
"216",19.752341287423,40.2263401818757,4.91962895700533,6.62511900751587,-0.0121259650071508,-0.0325934203871392,2.08785277132681,11.5503372116349
"217",19.7379375645235,39.9493086326053,5.29923778080942,7.11003378177627,0.0558360063927739,0.0239871686747785,1.75083251968687,12.4820388186386
"218",19.8572105815277,39.9923129975095,4.7277965286617,6.92448155834356,-0.0461924385377388,-0.0260422828604603,2.35898404041377,13.5054472357797
"219",20.2641696571027,40.041860912179,5.15603594899498,7.06235597214054,-0.00462755988172814,-0.00838664722465873,2.03374774449678,10.8137132768206
"220",20.073011187299,39.6195780182509,5.30480516937297,6.91545714736566,-0.0645503783977529,0.022218777816549,2.18600233548861,13.4071738189362
"221",20.0260157641527,40.4723474118032,5.51725241317845,7.32449242423267,0.0560804795655505,0.0273779748976711,1.97108771617771,13.7375019793153
"222",20.3016976600529,40.0871206072043,5.0727498379765,7.01245653123877,0.00488634346655857,-0.00460066024305025,1.86177072078844,11.0261670875703
"223",20.5350969977749,40.3538490102605,5.07333719668652,6.57761586012781,0.0543036031833434,-0.0319702776659646,2.16172372839305,10.4559502280873
"224",20.0075334176224,40.2876596472022,4.39246309896252,6.86262032770332,-0.129097716295281,-0.0171538995465048,1.67055158770988,12.4348721516997
"225",20.239947059176,39.6387341981744,4.67789649696275,6.72996455187752,-0.00694773810717302,-0.002829850185072,1.83724308422289,13.446749156747
"226",19.6459917485252,40.3100396860012,4.56618593102555,7.48068631302354,0.0239689970072322,-0.0363289184172434,2.24836277186856,11.7351738428099
"227",20.2057897571662,39.6866954815596,5.25044659815451,7.48760300510426,-0.0249894526548339,0.00425989591773717,1.84099923683865,12.4951910526023
"228",20.1278283034027,40.8426757626542,5.16140489462158,6.72630742092682,0.0368619956898606,-0.0206463812572634,2.14787847894556,13.2762119246986
"229",19.6188551553845,40.6369475637778,4.99161481314049,7.34141778576897,-0.0228626164846454,-0.0154411359995642,1.85650896775358,15.8466402330285
"230",20.0231028937353,41.1160256840069,4.76744002791144,7.49919894256788,0.0617158649888513,-0.000756530962523733,1.88982660761365,13.022447998453
"231",19.964321810268,40.0341991275262,4.87621383108384,7.42523203631815,-0.00814594243601633,0.00015542484311354,2.30094310002652,11.6853281471138
"232",19.343241188751,40.5370301492593,4.43423921544599,6.79489160034449,-0.028857506406808,0.00270173691508595,2.20354181071596,13.3819297116707
"233",19.9936558499631,39.6309225470698,4.77687762115378,6.72191560839834,0.0847354409720501,0.00179569127827346,1.85131450360605,14.2142953604267
"234",19.6700313079624,39.8726231172911,4.87248097296744,6.84268771079479,0.000345433366898389,-0.0327267513097369,1.9577189365962,12.0961139070587
"235",19.841814344971,40.7420988177126,4.8167268521363,7.18386206466743,-0.0436896587019817,-0.0345369507401903,1.69583775021134,12.2988496309388
"236",19.4628332012758,40.1465955697659,4.69867489229285,6.38367435116676,-0.024887624287249,-0.0136440443209194,2.1312682954651,13.2641750832412
"237",20.3594887863943,40.0080733829558,4.71540965482782,6.40528970189691,0.0138544737486432,0.0124343661660922,2.20839826376239,11.9417011015771
"238",123.543984198415,28.4266611798388,73.4782526921863,9.34856131751237,-0.471086949123522,0.0280778685544216,4.60523080432575,3.13829819583651
"239",20.3245921197004,39.822368664633,5.06801999497131,7.42760753997252,0.0485548231849851,-0.00887886501146976,2.06501352158413,11.7074745471818
"240",19.1685000420106,39.103623931816,4.39134953636779,6.97751356850657,-0.0183156696250871,0.0207623399750955,1.73005096445616,12.8736302891882
"241",19.9789533865904,39.9990752893673,5.072247932633,6.85304493065877,-0.100459994374718,-0.0271722085811556,2.00394841627293,13.2864608604594
"242",19.597776574182,40.002615667723,5.06027886921693,7.20638104371985,-0.00731249150145453,0.0130179021717662,1.83271065392811,13.3222150677147
"243",20.0343241920645,40.2678491866897,5.2574523566403,6.79368896190284,-0.000217422338580404,-0.0091780873618013,1.96121271028779,11.9387142959365
"244",19.5888940815802,40.0563965214174,4.84947077026716,6.65457564239896,0.056782411937841,-0.0014455834139695,2.01659737133996,11.7072942046911
"245",20.0268160826163,40.281663325948,5.42283887269626,7.68605104856938,0.0546895690170477,0.0120595405274945,2.25053627339583,10.8357787186863
"246",19.8701620415969,40.3564307916197,5.11035017421134,7.86990701850297,-0.0362547224751856,-0.0202396784796299,1.97529774206728,12.7378300721112
"247",19.1636288358912,39.7892067531721,4.25904850181926,7.37767513002522,0.0419651700919975,0.039935483261559,2.17050905572333,10.7065200597639
"248",20.1103506785302,39.3847706470866,4.80294817853305,6.93940204192201,-0.0531661588030752,-0.0234386979410164,2.3195651504135,11.1369666864685
"249",20.4907896644076,39.7819063292888,5.15011592380364,7.02393409699387,0.0134695640044728,0.0121763200705435,2.10891728375324,10.9643252006365
"250",20.5513044210247,40.3521051605165,5.1234553542798,6.66921704434086,0.0570932581659351,0.0229274461812483,1.8835606163087,13.2939447051064
