"","x"
"1",0.939
"2",0.9375
"3",0.9345
"4",0.931
"5",0.939
"6",0.9445
"7",0.9415
"8",0.9565
"9",0.9285
"10",0.9405
"11",0.9345
"12",0.941
"13",0.9495
"14",0.9565
"15",0.936
"16",0.9445
"17",0.93
"18",0.9475
"19",0.9525
"20",0.9405
"21",0.9305
"22",0.945
"23",0.934
"24",0.957
"25",0.9495
"26",0.941
"27",0.936
"28",0.9485
"29",0.9225
"30",0.944
"31",0.923
"32",0.9385
"33",0.936
"34",0.939
"35",0.9455
"36",0.9445
"37",0.9495
"38",0.9325
"39",0.9575
"40",0.927
"41",0.944
"42",0.952
"43",0.9355
"44",0.9525
"45",0.9415
"46",0.9275
"47",0.939
"48",0.9435
"49",0.9415
"50",0.935
"51",0.94
"52",0.9485
"53",0.9295
"54",0.937
"55",0.94
"56",0.954
"57",0.9285
"58",0.944
"59",0.937
"60",0.9265
"61",0.94
"62",0.946
"63",0.942
"64",0.925
"65",0.947
"66",0.942
"67",0.9455
"68",0.948
"69",0.9475
"70",0.93
"71",0.9495
"72",0.948
"73",0.944
"74",0.9295
"75",0.944
"76",0.949
"77",0.9285
"78",0.942
"79",0.933
"80",0.9505
"81",0.9425
"82",0.945
"83",0.9425
"84",0.933
"85",0.9435
"86",0.95
"87",0.9465
"88",0.933
"89",0.943
"90",0.9515
"91",0.945
"92",0.944
"93",0.935
"94",0.942
"95",0.9325
"96",0.937
"97",0.94
"98",0.9455
"99",0.946
"100",0.928
"101",0.9375
"102",0.9405
"103",0.95
"104",0.9465
"105",0.9515
"106",0.939
"107",0.931
"108",0.9285
"109",0.9385
"110",0.9375
"111",0.944
"112",0.9495
"113",0.9465
"114",0.931
"115",0.9445
"116",0.945
"117",0.9485
"118",0.9415
"119",0.9265
"120",0.934
"121",0.939
"122",0.942
"123",0.9345
"124",0.9395
"125",0.943
"126",0.942
"127",0.9485
"128",0.9385
"129",0.945
"130",0.9455
"131",0.939
"132",0.9545
"133",0.946
"134",0.926
"135",0.943
"136",0.952
"137",0.933
"138",0.956
"139",0.9395
"140",0.9345
"141",0.928
"142",0.9335
"143",0.9465
"144",0.937
"145",0.944
"146",0.9475
"147",0.9415
"148",0.952
"149",0.95
"150",0.947
"151",0.951
"152",0.927
"153",0.924
"154",0.933
"155",0.935
"156",0.942
"157",0.9555
"158",0.9495
"159",0.935
"160",0.947
"161",0.945
"162",0.941
"163",0.9515
"164",0.93
"165",0.9475
"166",0.946
"167",0.942
"168",0.937
"169",0.958
"170",0.9395
"171",0.953
"172",0.9465
"173",0.921
"174",0.9415
"175",0.9425
"176",0.948
"177",0.944
"178",0.9415
"179",0.9475
"180",0.9465
"181",0.9335
"182",0.9415
"183",0.9495
"184",0.954
"185",0.946
"186",0.944
"187",0.9405
"188",0.933
"189",0.943
"190",0.95
"191",0.9355
"192",0.942
"193",0.929
"194",0.9395
"195",0.9465
"196",0.9445
"197",0.927
"198",0.942
"199",0.936
"200",0.9365
"201",0.951
"202",0.948
"203",0.9385
"204",0.9445
"205",0.9325
"206",0.9395
"207",0.947
"208",0.9445
"209",0.916
"210",0.945
"211",0.949
"212",0.943
"213",0.9445
"214",0.938
"215",0.939
"216",0.9545
"217",0.9385
"218",0.9395
"219",0.9345
"220",0.958
"221",0.932
"222",0.941
"223",0.942
"224",0.9465
"225",0.943
"226",0.9445
"227",0.9445
"228",0.9515
"229",0.9275
"230",0.9275
"231",0.9495
"232",0.9335
"233",0.9405
"234",0.9455
"235",0.944
"236",0.949
"237",0.945
"238",0.935
"239",0.932
"240",0.953
"241",0.9325
"242",0.9355
"243",0.9575
"244",0.9375
"245",0.94
"246",0.9385
"247",0.948
"248",0.942
"249",0.9355
"250",0.9505
