"","x"
"1",2104.34973439313
"2",2051.92073428129
"3",2155.29461953684
"4",2059.9276331602
"5",2116.24356669369
"6",2064.95634632968
"7",2175.16268653631
"8",2171.81598463834
"9",2099.37678078881
"10",2133.9181921979
"11",2100.56379104368
"12",2149.57715938807
"13",2022.61838641727
"14",2068.43432308876
"15",2064.13375414278
"16",2019.32168776675
"17",1966.11477498723
"18",2100.19851390017
"19",2008.46773407206
"20",2052.09671060942
"21",2093.78825342393
"22",2115.24253448481
"23",2102.26411097307
"24",2138.89956070451
"25",2090.93044477625
"26",2172.34668106001
"27",1964.58414941683
"28",2023.5431141376
"29",2162.7717714984
"30",2019.18027969076
"31",2169.83693255172
"32",2074.6760135143
"33",2100.74480100776
"34",2184.08603490233
"35",2141.50598019569
"36",2121.86220872926
"37",2087.84370232172
"38",2121.76956798135
"39",1986.73249569501
"40",2156.87525776638
"41",2127.90571256178
"42",2005.5823903339
"43",2042.92381906566
"44",2047.08066781304
"45",2000.55351083941
"46",2105.86678312398
"47",2153.22659093743
"48",2203.84835707529
"49",2125.22233704456
"50",2104.07592790812
"51",2170.97287793936
"52",2108.25164367174
"53",2107.75593216521
"54",2090.39814351075
"55",2004.14168772895
"56",2005.47831642877
"57",2083.49640990446
"58",2097.58825054266
"59",2058.49270306696
"60",2093.40829930674
"61",2147.55834095292
"62",2185.92684361269
"63",2092.57051444618
"64",2099.66882158887
"65",1999.5479598179
"66",2080.35461673182
"67",2058.52155433462
"68",2052.29794848423
"69",2048.58552575916
"70",2104.07325696788
"71",2126.41477521601
"72",2139.53877755293
"73",2179.7406567486
"74",2129.25791462422
"75",1977.79237965347
"76",2005.80485356832
"77",2116.30449110196
"78",2020.03627241615
"79",2095.47504386748
"80",2083.90145399827
"81",2084.29064672364
"82",2113.9556755922
"83",2116.05011240137
"84",2159.53024155137
"85",2113.21252263032
"86",2145.38930037353
"87",2070.04452023361
"88",1996.07396834102
"89",2129.91156107875
"90",2169.84810946216
"91",2108.5886734833
"92",2132.56756196929
"93",2054.00620669048
"94",2143.16217626997
"95",2058.67022806923
"96",2114.0269614671
"97",2062.37876987395
"98",2085.51148474535
"99",2084.19130837784
"100",2092.56955713334
"101",2084.53470805146
"102",2119.84357411321
"103",2141.1358671951
"104",2017.16728574232
"105",2031.90868750441
"106",2110.00853324651
"107",2122.20983153474
"108",2108.94462268983
"109",2155.45615865758
"110",2076.01745495962
"111",2105.85524382536
"112",2041.52538388041
"113",2026.67320050174
"114",2036.15590310219
"115",2135.04236815062
"116",2112.12034882862
"117",2022.16203258559
"118",2079.75361303264
"119",2137.10148052678
"120",2131.99801067838
"121",2036.6350842914
"122",2080.60538133543
"123",2103.9057717156
"124",2056.23462216457
"125",2071.90904289783
"126",2172.98838004294
"127",2130.91936784109
"128",2075.62096482128
"129",2001.5053803146
"130",2119.76232212309
"131",2062.75942102093
"132",2091.93972273532
"133",2099.30391590166
"134",2152.5820194539
"135",2111.72222219841
"136",2111.95386955429
"137",2076.26524583025
"138",2070.47314433559
"139",2156.85674094609
"140",2048.72860798602
"141",2048.85853904354
"142",2036.96373937322
"143",2201.63264886888
"144",2090.50318283381
"145",2080.75754890409
"146",2106.7360389003
"147",2115.3059270634
"148",2043.35765196673
"149",2176.01255681634
"150",2048.99707548663
"151",2048.88316273179
"152",2142.96158103769
"153",1990.65259167034
"154",2077.91457966058
"155",2153.02327582051
"156",2179.12088693421
"157",2105.78665809535
"158",2081.58880720534
"159",2103.91715030867
"160",2074.60821742062
"161",2076.95958376996
"162",2081.77829022116
"163",2104.53141769647
"164",2078.24764659707
"165",2144.4765889409
"166",2104.47015575204
"167",2061.35371557237
"168",2092.6319421995
"169",2100.01868022568
"170",2040.51502737154
"171",2126.68663289164
"172",2070.86396389766
"173",2043.63935718676
"174",2099.96644997236
"175",2179.94487884854
"176",2053.37772571274
"177",2109.36919316565
"178",2093.80075699093
"179",2096.35832151899
"180",2053.41271579583
"181",2171.09945443283
"182",2120.05844645242
"183",2020.15795197889
"184",2036.60456232437
"185",2114.20152631593
"186",2125.74230379524
"187",2120.1627808983
"188",2066.64884318991
"189",2010.88589350715
"190",2141.06888381665
"191",2060.71636734465
"192",2083.18049981333
"193",2123.98689295254
"194",2117.69770233875
"195",2038.39895183972
"196",2098.99823917765
"197",2076.89550381922
"198",2107.18182219479
"199",2140.67959620753
"200",2128.41014613531
"201",2046.17996391143
"202",2107.93867144434
"203",2083.1986809314
"204",2069.41086959728
"205",2014.75323768952
"206",2040.24003341716
"207",2095.20795551295
"208",2091.71394106854
"209",2096.6692757734
"210",2071.56965368367
"211",2036.07090914434
"212",2131.59112512708
"213",2100.09018044691
"214",2095.02336308696
"215",2170.40019435019
"216",1991.94677575939
"217",2060.84313506219
"218",2037.31661473093
"219",2030.76567769214
"220",2184.23188482552
"221",2135.74256831075
"222",2110.94031112316
"223",2084.43669677104
"224",2142.23990677981
"225",2098.37339766712
"226",2038.5133413383
"227",2025.21833237993
"228",2119.18872748144
"229",2142.68601928101
"230",2055.89150887147
"231",2177.4532748161
"232",1950.69943731504
"233",2168.30760526072
"234",2071.28937058654
"235",2055.39211378119
"236",2103.50805484431
"237",2048.40805844893
"238",2013.78130646865
"239",2139.65936455864
"240",2096.40171283129
"241",2092.01022446488
"242",2213.96812121663
"243",2170.59579068737
"244",2067.0395241089
"245",2087.02715079392
"246",2064.36407300427
"247",2090.45018020153
"248",2059.58343715587
"249",2157.29103763758
"250",2060.2030344194
