"","V1","V2","V3","V4"
"1",0.32,0.319,0.326,0.589
"2",0.292,0.426,0.251,0.462
"3",0.319,0.594,0.41,0.387
"4",0.48,0.563,0.315,0.35
"5",0.382,0.483,0.239,0.636
"6",0.354,0.549,0.378,0.413
"7",0.389,0.33,0.392,0.582
"8",0.475,0.335,0.398,0.378
"9",0.273,0.484,0.185,0.588
"10",0.172,0.387,0.288,0.417
"11",0.587,0.316,0.305,0.33
"12",0.302,0.357,0.331,0.499
"13",0.406,0.51,0.317,0.525
"14",0.524,0.345,0.287,0.549
"15",0.266,0.528,0.226,0.499
"16",0.006,0.437,0.396,0.53
"17",0.395,0.556,0.47,0.463
"18",0.578,0.54,0.41,0.327
"19",0.45,0.543,0.459,0.315
"20",0.394,0.594,0.286,0.363
"21",0.376,0.228,0.5,0.411
"22",0.362,0.465,0.454,0.478
"23",0.331,0.478,0.335,0.456
"24",0.281,0.284,0.452,0.213
"25",0.406,0.458,0.246,0.5
"26",0.567,0.391,0.327,0.33
"27",0.485,0.506,0.311,0.459
"28",0.424,0.5,0.434,0.565
"29",0.192,0.624,0.257,0.329
"30",0.277,0.581,0.319,0.433
"31",0.149,0.574,0.362,0.431
"32",0.288,0.448,0.278,0.579
"33",0.288,0.499,0.271,0.496
"34",0.556,0.712,0.19,0.298
"35",0.428,0.633,0.357,0.632
"36",0.479,0.578,0.441,0.502
"37",0.514,0.462,0.502,0.244
"38",0.384,0.493,0.443,0.575
"39",0.345,0.494,0.363,0.447
"40",0.423,0.531,0.499,0.342
"41",0.485,0.497,0.301,0.495
"42",0.406,0.491,0.209,0.554
"43",0.216,0.479,0.425,0.529
"44",0.237,0.505,0.512,0.489
"45",0.279,0.361,0.429,0.59
"46",0.515,0.603,0.153,0.469
"47",0.431,0.564,0.279,0.213
"48",0.409,0.546,0.434,0.597
"49",0.433,0.572,0.49,0.437
"50",0.471,0.444,0.359,0.579
"51",0.36,0.57,0.439,0.495
"52",0.267,0.478,0.347,0.416
"53",0.444,0.467,0.443,0.526
"54",0.369,0.406,0.262,0.45
"55",0,0.491,0.22,0.503
"56",0.429,0.391,0.333,0.493
"57",0.528,0.485,0.514,0.418
"58",0.185,0.432,0.503,0.542
"59",0.419,0.487,0.449,0.447
"60",1,0.548,0.422,0.537
"61",0.572,0.531,0.574,0.368
"62",0.304,0.42,0.356,0.43
"63",0.297,0.61,0.366,0.506
"64",0.331,0.423,0.387,0.495
"65",0.318,0.452,0.389,0.31
"66",0.365,0.477,0.441,0.447
"67",0.432,0.492,0.277,0.459
"68",0.451,0.512,0.403,0.252
"69",0.465,0.547,0.437,0.339
"70",0.396,0.424,0.321,0.487
"71",0.366,0.582,0.077,0.5
"72",0.553,0.446,0.26,0.412
"73",0.413,0.61,0.096,0.553
"74",0.244,0.546,0.275,0.563
"75",0.221,0.459,0.314,0.531
"76",0.304,0.648,0.401,0.511
"77",0.465,0.349,0.265,0.714
"78",0.282,0.466,0,0.265
"79",0.368,0.445,0.317,0.547
"80",0.499,0.296,0.504,0.195
"81",0.453,0.393,0.135,0.538
"82",0.333,0.411,0.142,0.529
"83",0.297,0.468,0.068,0.526
"84",0.481,0.426,0.274,0.462
"85",0.21,0.358,0.257,0.459
"86",0.211,0.497,0.402,0.487
"87",0.469,0.343,0.488,0.396
"88",0.307,0.521,0.223,0.374
"89",0.443,0.394,0.001,0.627
"90",0.461,0.648,0.385,0.363
"91",0.43,0.509,0.458,0.686
"92",0.33,0.44,0.362,0.565
"93",0.247,0.51,0.098,0.486
"94",0.486,0.598,0.24,0.64
"95",0.318,0.798,0.148,0.638
"96",0.291,0.578,0.453,0.529
"97",0.456,0.466,0.295,0.469
"98",0.301,0.499,0.469,0.653
"99",0.585,0.393,0.494,0.238
"100",0.575,0.567,0.507,0.539
"101",0.483,0.496,0.245,0.48
"102",0.215,0.418,0.338,0.485
"103",0.556,0.805,0.259,0.28
"104",0.456,0.34,0.394,0.324
"105",0.473,0.374,0.308,0.462
"106",0.513,0.451,0.47,0.487
"107",0.12,0.726,0.73,0.29
"108",0.253,0.711,0.428,0.389
"109",0.255,0.507,0.264,0.47
"110",0.241,0.378,0.416,0.358
"111",0.281,0.439,0.447,0.59
"112",0.385,0.533,0.441,0.421
"113",0.384,0.438,0.279,0.439
"114",0.385,0.454,0.319,0.486
"115",0,0.508,0.397,0.48
"116",0.367,0.528,0.499,0.452
"117",0.388,0.419,0.323,0.622
"118",0.233,0.559,0.355,0.596
"119",0.581,0.316,0.495,0.207
"120",0.498,0.231,0.417,0.3
"121",0.259,0.423,0.343,0.616
"122",0.357,0.353,0.222,0.542
"123",0.37,0.484,0.383,0.657
"124",0.455,0.425,0.364,0.344
"125",0.469,0.6,0.212,0.418
"126",0.415,0.397,0.389,0.459
"127",0.29,0.538,0.386,0.449
"128",0.205,0.413,0.417,0.557
"129",0.533,0.501,0.337,0.569
"130",0.49,0.609,0.37,0.278
"131",0.442,0.433,0.399,0.532
"132",0.37,0.471,0.221,0.363
"133",0.35,0.409,0.523,0.587
"134",0.412,0.363,0.435,0.428
"135",0.33,0.48,0.392,0.489
"136",0.596,0.436,0.375,0.223
"137",0.571,0.076,0.315,0.309
"138",0.293,0.472,0.413,0.466
"139",0.32,0.373,0.49,0.319
"140",0.419,0.31,0.404,0.505
"141",0.543,0.36,0.441,0.261
"142",0.434,0.559,0.351,0.497
"143",0.138,0.65,0.002,0.497
"144",0.398,0.408,0.405,0.303
"145",0.2,0.477,0.381,0.413
"146",0.304,0.338,0.359,0.384
"147",0.307,0.588,0.394,0.479
"148",0.326,0.39,0.431,0.496
"149",0.446,0.384,0.335,0.407
"150",0.273,0.287,0.291,0.633
"151",0.398,0.447,0.511,0.584
"152",0.375,0.476,0.369,0.515
"153",0.239,0.578,0.334,0.5
"154",0.517,0.522,0.262,0.234
"155",0.283,0.649,0.33,0.59
"156",0.34,0.419,0.391,0.48
"157",0.347,0.485,0.445,0.46
"158",0.377,0.369,0.232,0.54
"159",0.418,0.254,0.377,0.532
"160",0.306,0.533,0.457,0.472
"161",0.434,0.566,0.306,0.49
"162",0.425,0.571,0.205,0.625
"163",0.264,0.522,0.491,0.329
"164",0.569,0.345,0.273,0.371
"165",0.316,0.437,0.382,0.48
"166",0.352,0.426,0.351,0.461
"167",0.385,0.369,0.362,0.671
"168",0.404,0.409,0.184,0.541
"169",0.359,0.735,0.498,0.462
"170",0.587,0.28,0.265,0.351
"171",0.276,0.496,0.35,0.599
"172",0.385,0.453,0.261,0.507
"173",0.5,0.361,0.424,0.665
"174",0.404,0.501,0.183,0.398
"175",0.31,0.54,0.376,0.552
"176",0.309,0.417,0.441,0.455
"177",0.412,0.476,0.185,0.519
"178",0.366,0.475,0.376,0.504
"179",0.249,0.402,0.5,0.658
"180",0.343,0.479,0.431,0.435
"181",0.306,0.465,0.316,0.362
"182",0.444,0.349,0.012,0.582
"183",0.425,0.501,0.312,0.638
"184",0.408,0.492,0.41,0.405
"185",0.466,0.491,0.219,0.578
"186",0.405,0.492,0.348,0.562
"187",0.543,0.458,0.087,0.551
"188",0.381,0.506,0.199,0.397
"189",0.566,0.38,0.539,0.277
"190",0.302,0.486,0.377,0.456
"191",0.276,0.579,0.403,0.49
"192",0.488,0.517,0.16,0.476
"193",0.371,0.361,0.494,0.489
"194",0.547,0.475,0.371,0.486
"195",0.536,0.544,0.581,0.443
"196",0.352,0.376,0.328,0.526
"197",0.406,0.558,0.383,0.427
"198",0.462,0.314,0.426,0.23
"199",0.279,0.653,0.214,0.607
"200",0.305,0.324,0.292,0.49
"201",0.661,0.604,0.31,0.541
"202",0.346,0.27,0.479,0.468
"203",0.44,0.241,0.471,0.246
"204",0.378,0.398,0.313,0.456
"205",0.403,0.518,0.438,0.497
"206",0.396,0.435,0.319,0.522
"207",0.374,0.38,0.157,0.456
"208",0.301,0.322,0.479,0.573
"209",0.31,0.478,0.483,0.464
"210",0.44,0.487,0.365,0.561
"211",0.331,0.467,0.406,0.431
"212",0.303,0.488,0.387,0.437
"213",0.401,0.485,0.315,0.666
"214",0.5,0.574,0.478,0.562
"215",0.333,0.436,0.44,0.255
"216",0.397,0.376,0.429,0.471
"217",0.218,0.3,0.484,0.446
"218",0.539,0.415,0.117,0.442
"219",0.389,0.436,0.467,0.371
"220",0.42,0.465,0.227,0.563
"221",0.54,0.328,0.33,0.475
"222",0.408,0.527,0.394,0.522
"223",0.199,0.388,0.424,0.636
"224",0.376,0.434,0.512,0.215
"225",0.117,0.507,0.456,0.566
"226",0.332,0.403,0.354,0.498
"227",0.297,0.445,0.501,0.31
"228",0.528,0.444,0.629,0.111
"229",0.495,0.634,0.41,0.544
"230",0,0.597,0.433,0.585
"231",0.267,0.519,0.369,0.379
"232",0.535,0.496,0.385,0.449
"233",0.443,0.595,0.424,0.521
"234",0.345,0.493,0.488,0.39
"235",0.399,0.543,0.363,0.429
"236",0.448,0.53,0.339,0.312
"237",0.355,0.577,0.288,0.419
"238",0.555,0.242,0.578,0.236
"239",0.341,0.417,0.479,0.428
"240",0.224,0.514,0.462,0.294
"241",0.315,0.571,0.172,0.43
"242",0.3,0.305,0.348,0.638
"243",0.46,0.31,0.459,0.099
"244",0.336,0.537,0.275,0.55
"245",0.316,0.369,0.394,0.326
"246",0.257,0.475,0.385,0.646
"247",0.599,0.457,0.438,0.29
"248",0.309,0.268,0.188,0.573
"249",0.494,0.534,0.343,0.462
"250",0.532,0.333,0.491,0.422
