"","V1","V2","V3","V4","V5","V6","V7","V8"
"1",19.5987624088075,33.1936034815877,4.04366173394699,7.91633369517307,-0.0684782113635743,0.211675983652093,1.77699794272151,2.47675871265592
"2",24.0205010375212,27.4147503108484,7.56348876172379,9.2816021621968,-0.542649774179109,0.535562598895238,4.06880495604094,3.13268232261188
"3",20.8169942541117,39.9029472514339,6.14394387971106,8.75598604468268,0.299145779960357,-0.16567812692709,1.29527503225027,14.3230612665134
"4",21.6051664345241,38.7769973824392,5.9814446411278,9.39957374915804,-0.0273314562245405,0.202192079212191,1.99087251367334,10.999441392473
"5",20.2038091974681,38.2937935641171,5.45492702669703,11.7154680303371,-0.214101959118729,0.129400861712511,1.47437596825946,7.94376274899287
"6",19.9486070730732,39.8927536956317,4.99403291304904,5.84959135511304,-0.0772092094911195,-0.299892204657851,1.32410914990892,6.87666932434026
"7",34.9027305805489,20.5008811893909,7.011931800867,6.87497212543452,-0.0363107837330281,0.170543113433743,13.0627839849516,2.15696627492256
"8",16.9896508492105,28.3276081674246,3.59644178472558,5.90679863824885,-0.0884169039422488,0.399762135856805,1.87137869608446,2.20999093988358
"9",22.0421561294796,38.1465092140461,5.69183745600513,8.68630547582474,-0.0788311661541294,-0.166751943677014,2.22569966225169,7.4373456372958
"10",21.4963203647487,42.8910472954251,5.8283283539367,9.44936143602294,-0.0489984790539416,-0.160748380796768,1.92440541326415,10.3205072330012
"11",20.3306956085396,36.4718332757579,5.49363793283079,7.90832327022918,-0.0112604775523889,0.0821463331579081,1.43378866657028,7.02300553401767
"12",32.5025253560617,19.2095951846375,6.77912734297297,4.78782864230942,-0.248293373925108,0.0800109416762063,4.67657984640253,2.26909954988835
"13",22.842442147925,41.9678041604921,6.54462949307348,6.55676050775256,0.439846661648275,0.146304337349478,1.94573194535621,8.81549940498042
"14",20.8405411310532,40.2727543352029,5.92062524243023,8.67753770805334,-0.283474167644111,-0.229475598541765,1.60053375918907,8.87398159244522
"15",18.6364535639043,36.3827699602357,3.94234527643305,9.1118695961385,-0.0273879585658448,0.0223116997321657,1.28041056393802,2.41233315906722
"16",24.2431991886975,38.8874505396598,5.99162438773873,5.94718745961802,-0.0200243584690779,-0.160988673834097,2.27091167135779,8.1679912302617
"17",27.1043022111091,45.5347874713507,7.8558947127982,8.36521050276875,-0.105352740506975,0.183175865185367,4.15863833951217,11.2883631557443
"18",21.8340635623318,43.7238476113267,7.43477390304557,11.0844531835411,-0.403751130141177,-0.0435313326580346,1.91882166077706,8.26851667008767
"19",19.048918395835,36.6609474913389,4.51786470024571,8.31488033322029,0.0412322483396072,0.00549958186429694,1.39731272661474,7.64218274805063
"20",19.2493407344028,37.1283491982684,4.62254704630302,7.98732781918692,0.13936660936531,0.00258094308945003,1.47238537522175,3.20726957624813
"21",19.3200325229448,36.8106625299447,5.09459066695575,5.27271366939573,-0.2645501440983,-0.0191005736491054,1.93830035556114,8.73571498281076
"22",24.0735101165203,39.4422700814823,7.97994547130748,8.86453146526994,-0.074289088276949,-0.0573839217669561,1.73781042839605,11.8479801014881
"23",19.3790997315652,37.4815505717672,5.37327761367278,7.87937014951184,0.123780505598183,0.199446252560782,1.73514397412922,8.80969958915647
"24",21.9717006979546,39.3732033014886,5.3037171456214,8.07628098200276,0.0391272878117421,-0.066307059816512,1.53916885006352,7.89720375947431
"25",19.934483370102,32.298851183531,5.12513325447062,5.61098761304208,-0.336672625795365,0.141814239894281,2.33275358365347,4.74856287292669
"26",19.786648203364,37.7381217402074,5.40250832629917,7.25019123218843,0.0328121277591698,-0.124687252560563,1.30203870196761,8.0717631275178
"27",19.6777079938059,37.909876493838,5.65140256489163,7.03469393095446,-0.207483961252212,0.0367154873977615,3.06977237147805,8.75729113180525
"28",22.6778941042376,38.5107127542688,5.82226958426567,6.05780626415771,-0.152764878310907,0.0185543508006438,1.428493227666,7.23776435863348
"29",22.5688417214056,35.9766145465438,5.25216511231331,6.45280151572895,0.212007753166489,0.0653331790406725,1.78559667864428,10.2465012067421
"30",21.045443604786,41.0483040371838,6.38385170101617,9.26308280548923,-0.215960873418867,-0.111885971074376,1.44485297242044,6.42114168048198
"31",15.7412433263994,36.752637032768,3.23445245089635,8.73882063866022,-0.10891333735421,0.226041410804506,1.14870615790201,5.74781878742296
"32",20.4780513780735,40.3898190418527,5.29615612791,8.89017301498424,0.115744388429502,0.0641731253092036,1.79404956356159,3.497995929915
"33",25.3042652731511,44.7941608169241,7.66783061576839,10.09162134265,-0.207423895220291,-0.0957125501974013,1.35813347789881,12.4547815435654
"34",19.1426201106899,40.7926907719177,5.89487768917093,7.59706139745396,0.0134146662548956,-0.0846053533354779,1.82887177320935,19.1920100871578
"35",18.349200738587,35.7222851125798,4.16654695563032,7.29699953688745,0.0111718100255504,-0.0781270922194499,1.58113052954381,9.36557963890426
"36",40.0093628812586,32.5408768981001,6.29229745341966,15.8771192476548,-0.100015325190893,-0.0799661907454781,8.80640604605419,2.01048864317727
"37",20.114721757957,38.4225916070892,5.59235991821192,7.85779425146913,-0.107186049193682,0.00114430535483662,1.38227703587931,8.84411995186664
"38",23.9897399152469,42.2859670576773,6.00232425856645,8.45553373686115,0.655183017348329,0.0673978585914295,1.37054756954311,5.6159667731726
"39",27.1944115809229,40.7675122779765,7.53162441694037,6.93257954261405,-0.0440554081935025,0.215083693299476,2.45280383150501,14.2724892202628
"40",26.5857095512061,39.7402124993255,7.5837668383744,8.83309686841169,-0.319586049993812,0.226643444089806,3.58148751720963,10.3782165150339
"41",19.2549605616246,35.2069786320484,4.65499621607312,7.49489709225933,0.0315119517201554,-0.0822137294163883,2.16562348584017,7.0345657923518
"42",18.0502473694296,35.8693654372443,4.23518833661551,6.44911688624296,-0.176673148642283,-0.0961272326616338,1.25048513973776,4.3574499594635
"43",20.1713491359579,39.3455647476908,6.30238398194825,7.38083765562426,0.162007914517866,-0.0102979771584898,1.36579227230266,7.06970689455976
"44",26.5190810764343,41.4722490888696,6.16620764089705,8.14575497630297,-0.23318145546571,-0.0359634304143426,2.27119288599267,8.39407066006093
"45",19.9107110480853,25.2207172356778,5.99838034297704,9.74389737881276,-0.897485671037562,0.402641193408574,3.99423866084712,3.16348890579595
"46",19.5075479375253,35.6053863138017,5.27507454731631,6.36668287169428,-0.0992869059051798,0.0868817857675368,2.04930170908816,7.7079434059774
"47",17.7990411381169,36.4831288870731,2.70921010480329,6.63703263676946,0.0726027015396113,0.126517535552656,1.31112447328747,6.7516271448834
"48",19.4471974453303,43.2347880779551,4.49077127372803,11.3276384802868,-0.193949806938217,0.0120041466289861,1.88147374812261,7.63769462526708
"49",19.0908241334516,37.5784812589081,5.52108614531728,8.80494794929631,0.254902714315135,-0.0714017745851169,2.53191688252249,4.79907157331436
"50",22.1297466949399,40.7956595454397,6.11349826039849,8.14284962011882,-0.113243880445442,0.0952845615849089,2.28484220376741,8.63689610787526
"51",19.1384539403708,39.0437492006125,4.17053383712841,10.2948230163711,0.0298291266077734,-0.111801839403768,1.31219523045804,4.49634386130208
"52",19.3237998661946,33.8733935306127,5.33130132151558,5.73049171287639,0.222467411943834,0.0637153889149042,1.55377710667171,8.74108215361549
"53",20.2506875023487,38.1203095486421,5.49648113758622,9.89440117615586,0.410507373582395,0.0210509939415263,1.90259600496289,3.55966181620332
"54",19.3571710262932,36.3565118920034,5.76302255814718,6.73408278561339,-0.343027947824168,0.0730138863629235,1.07924540707577,5.90344992716234
"55",18.7835776233715,38.3943937048644,5.46532852941934,5.59137385717027,-0.0410151936125653,-0.0505176260296697,1.7563941238989,11.3989530482874
"56",21.2309610753759,39.2203687126882,6.61480143761243,7.08634543564502,0.209816752433364,-0.0352664670735348,1.36686196442052,4.43112879650793
"57",20.6042404870638,40.2954521133387,5.20091339888575,9.68363370584692,0.00931291478882717,-0.163908720931021,1.2452056217946,7.66404086757789
"58",20.3536189051232,33.273713021453,5.16649110035781,8.82157052316239,-0.387825965106548,0.299824797194325,3.62920862684869,3.10838950494755
"59",20.4406010862143,38.7371350549804,5.29099561292062,8.19671006467093,-0.265083481686546,0.055098173162308,1.15575583284052,9.16350417085748
"60",19.3850718832146,27.3055868131525,2.16157500627079,10.5164255508394,-0.475717410668373,0.150894454466521,1.93127580245762,2.03450459069413
"61",19.6503752523397,36.570964309028,3.63800455410621,7.26384743730307,0.371263844735387,-0.0714373216667362,1.68197094388845,6.00455608500219
"62",17.5218922945199,37.1475789372105,4.99696253439655,9.47372890457055,0.255085061605931,-0.0953852241298669,1.37648534494462,4.50899073798505
"63",21.5595284986353,41.3999330226572,5.63916109203616,7.32341877762969,-0.166924275068496,0.0264329897593259,1.67495933078056,9.51964686586163
"64",21.4583998021998,38.4260920554689,5.90187860587096,7.25924975044908,0.369243279866742,0.122372126363312,2.16356714529732,13.7956658976008
"65",20.5471719561162,46.2811373731173,5.96649838495821,8.33918496078405,-0.299786552094368,0.0324151735642883,2.18649579215918,5.9915646059958
"66",21.2652123062673,38.0693739380579,5.11260356528769,7.62190310537048,-0.781305163504663,-0.0521881078759072,1.11078887851536,8.89940647169352
"67",19.5563427427974,25.7805836505076,7.40699530839127,10.4919886710153,-0.561082383673149,0.502233901048208,2.32485045774444,4.19254134730129
"68",20.4071403921933,35.2500471045808,6.05557286425341,8.95766938136498,0.0761006796564813,-0.0446122855961849,1.74207370259399,8.32452121129077
"69",20.476112576472,37.1345988529783,6.77310020783881,6.10475315780778,0.111632581315012,0.303037475279607,1.5165567839825,11.9551416900438
"70",19.1983669030065,38.123549199848,5.02141241268647,7.59633591699517,0.138033483162999,0.162745523863038,1.77435056844536,7.55937290007185
"71",21.7331894670744,37.3507992711817,4.55261003978015,7.03916605768561,-0.148550683857548,0.080731722373992,2.64481325712572,3.14269296375121
"72",20.4631550779428,29.6633122715034,5.1097350447704,12.145656778093,-0.525726406659328,0.226743814061558,2.2030865752753,1.65637418162205
"73",18.907848095748,29.4951330693707,2.68447303062555,10.5461522446339,-0.539545900540246,0.150440514833808,3.05633029810555,2.23244297432833
"74",20.2270896438344,34.9753845183088,6.6275236819071,7.38857486616138,-0.477029317558305,0.0363981158167449,1.82216727954981,12.1750570769243
"75",19.6670729953778,38.3947185325392,4.87317084037827,7.63685365212208,-0.0189337587764102,-0.0435570037595818,1.59243531116132,4.64129504451655
"76",20.9279415033315,40.0518208763654,5.99696055035033,7.82997312573374,0.237477620746126,-0.132027289548053,1.81878080913874,7.35262670378807
"77",24.5650359646507,39.8431671334653,6.84154426550281,8.1416093571959,-0.319742940510652,0.250109064717266,1.80230351512363,14.3947351705684
"78",18.0407616316741,35.8340615891913,5.28142935411425,5.22718000024527,0.488397404531028,0.154738897313935,1.89193805578247,3.56421769496952
"79",24.1086055436736,48.5786962191969,7.16541510685051,10.017879651733,-0.0530345223167436,0.106795236039577,1.70733405621953,11.571228315256
"80",18.4139890955263,33.0241177798784,1.57366838572903,14.7734524120594,-0.599614827196658,0.0711436666616655,18.1105909922395,3.36340892185833
"81",19.6403331092441,35.9169878270604,3.80444713781405,5.47263560811117,-0.100976413460805,-0.0135922951116513,2.00404957384764,5.65949437302814
"82",20.3070699580086,36.7938752071913,5.12742234730124,5.07353131828525,-0.152569072697038,0.127943439117365,2.01031481533713,9.0471463259436
"83",25.2161478518807,37.5824037720358,7.15294637728497,7.23607957763511,0.504600234087675,0.0252989970423464,1.16525811049958,9.19634332992167
"84",19.8419124878614,39.1448361092205,4.72110076404899,7.37237167204393,0.354939024502534,-0.0698302617717868,2.33470852697866,7.07343564930615
"85",20.4473722700938,40.6502829836502,4.99524672179333,8.8630495552808,-0.200475486806736,-0.0217561462664963,1.77113047949482,5.76915270700276
"86",21.2444802225179,34.6933680841527,5.28503056356041,6.26363464869103,-0.118569995140203,0.108660417389625,1.84245575301054,12.031537363592
"87",25.35837526211,43.0739044552356,9.43336722866009,8.10283586156145,-0.466829190207272,0.113986360580327,2.03755426898089,5.78866314487952
"88",22.2811898084542,36.6249048180384,5.78984114885792,6.04675023777957,0.00335308479048635,-0.0722255018947162,1.59207491302248,9.59520219736854
"89",17.3139309327278,36.6091512740016,3.79962219922945,8.99304285281827,-0.208175410832878,-0.0137661982376476,1.87187836248514,5.57207337747311
"90",26.9327915903491,38.6498722911645,9.61658396053837,8.47141647148952,-0.109278764858076,0.181474846772398,1.84109542106693,10.2608644616608
"91",24.741148534528,36.2213568265247,6.62530544972617,6.50736495230874,0.351299085386295,-0.0521960183922801,2.14992707942588,8.16108188733875
"92",21.1994843311373,39.0919083439765,5.56253805016662,8.22624303269895,0.0580054278873559,-0.0192198194462827,2.63707051972974,12.5647536450546
"93",16.6660937701711,32.7766217784176,3.50431725635392,8.11130446016008,0.0974600884617546,0.0971891065970476,2.34197470947135,2.63361006157188
"94",18.4251050913233,35.5140429007267,3.81184849480567,8.76702044364021,0.134059026186214,-0.160433735177838,1.17976209303586,5.19920117201108
"95",21.7701039147257,36.7112786511813,6.42094359785698,6.16788821895825,-0.126044248869012,-0.0111717427992751,1.26132931789315,9.70209796994391
"96",20.7485777403169,36.8669123028708,5.10697762701852,7.95489026928361,-0.017716760224986,-0.170269045959946,1.67113254014581,10.7294586828049
"97",19.766489273247,36.5625505137155,4.26266994135865,9.01087344921047,-0.438006341562741,0.15853384338195,2.00606451571783,5.12201939982256
"98",20.071761378327,32.6903657597353,4.34152878749516,7.35109499807277,-0.591968292051971,0.0257941617061979,1.6855515937062,7.85113541379594
"99",23.1805522218075,37.5093451027942,6.97106462912729,10.1892042373013,-0.461005740552795,0.235056922272858,6.5126492598787,4.47798492175549
"100",21.9256202451321,40.0148716902261,6.02703592643113,10.075609134837,-0.219978252814483,0.0611024351068794,2.39491972411426,6.83921832242233
"101",21.3222751187751,36.124326716821,4.81248042532062,6.37456644428826,0.155524133968075,0.16392754738027,1.54652414944176,3.49901936337729
"102",22.7211899280061,35.3561052817097,8.1561321050609,7.3704163404739,-0.465753502549076,-0.0326403850798401,2.51290356342503,17.7039045581228
"103",23.4145298264835,37.379040061642,5.82255100776191,6.67024586429776,0.717062388685672,0.0316569219268193,1.93747832111154,7.11960120412918
"104",19.8422235068462,40.3326427692029,4.30193789258647,7.88775482490326,-0.135313316888154,0.00619094392036121,2.17130909799867,6.94007799588582
"105",22.1289483752731,39.2051602007532,7.25070114259935,8.27119319378836,0.207348654530872,-0.0754070369864145,1.76821645901593,11.3377960650907
"106",17.3566841041243,34.1335542305887,1.25811374711853,12.2988091783907,0.339056785383247,0.0903324116912503,50.7970905548546,3.11105576334318
"107",21.4055534624044,34.1660819616126,7.95990203978666,9.55188516127046,-0.51389787383854,-0.0679858848839689,1.32928258422406,9.37026959727925
"108",22.3278289187836,41.5966531384628,7.94118449519614,9.48922403463042,0.289719647216918,-0.0182880744926751,1.52020075632038,12.2997479824554
"109",20.009526539344,36.6567085426166,5.01092564296466,7.28855054228205,-0.230229457407744,0.0287780125696,1.46399139008783,7.88017710181719
"110",45.130799323608,22.9524576814718,8.02689512922619,7.74784004790291,-0.167041467699922,0.13012750120619,7.39498920875923,2.90345877502368
"111",20.4045608611952,36.864161757316,5.96065245661288,6.4822200203923,-0.00138329954854737,-0.0539903747222475,1.82246185904439,8.34406799077831
"112",20.4645698655864,41.0283630837736,6.42951318045917,7.4689817089188,-0.248430904789727,0.00531430798927482,2.06448904505826,9.78890538998609
"113",20.2094040971794,41.1250660745183,5.06449743746637,5.97779258085779,-0.265161679501018,-0.241549628439337,1.38481541040955,14.6265436178135
"114",22.8508741213747,38.5373828161481,6.56522484158659,7.82899320590254,0.350831029471883,0.0628874894482418,2.24823956380697,11.8919642950294
"115",23.3111276747115,43.7510978220334,5.64865408001855,10.1969594626052,-0.0197349973943368,0.187911781557481,1.8744006310157,6.78559384785138
"116",20.9294296579375,36.7234650995259,5.39481061325102,6.82994732299837,-0.161289725253224,-0.140611993592739,2.10805040517682,5.72935823439538
"117",22.5431646023543,38.4798366974374,6.40326222314088,6.9759382077915,-0.248127631078848,0.0100322192721632,1.69599205700868,10.2234121224275
"118",18.6594205736547,35.1278094526265,4.78018853612824,7.89752509112394,0.353516852833562,-0.0815164477154176,2.65999992740873,4.14734771213785
"119",21.9775905547365,43.0905401550778,7.08157731447328,7.05390161192295,0.150284305900517,-0.177041145447894,1.85207721279261,4.98675375611209
"120",20.9174652392569,38.9537869600823,6.28043866820774,7.58366361917698,-0.0960755537474603,-0.018915470166209,1.45488670897577,11.7624441380916
"121",24.2722250450381,18.8231154791835,8.57812260472871,5.14348736918335,-0.199621601074973,1.08797107890265,3.10520146380942,2.48845447903682
"122",21.2746585101446,38.230767609888,5.52944745366951,7.54999054620969,-0.00796976931333307,0.0625519281483405,2.1665521087463,5.16367740789659
"123",23.285323848185,38.4374219320548,5.18538798656653,6.68698576650458,0.00156456280751014,0.0841430670009216,1.80627274557828,5.3353796874501
"124",18.7230333887506,36.613611340712,3.86989490354986,7.62147963206797,0.374146982295108,0.0357809888305017,1.96859282411153,5.41191872879003
"125",22.8298038989366,42.706881627893,5.83512546353795,7.01512323999934,0.321243254595733,0.135095301262299,1.6695714233604,7.46429701018817
"126",18.5212791429193,34.261083162931,4.17779215625984,7.25819275263314,0.0339801739703832,0.0247409930097622,1.9787807526736,10.0016099105042
"127",20.5320123233437,35.3903580755688,5.97556836713181,6.26206243875271,0.629889903823259,-0.0342761484859482,0.996435166231625,5.94777655359383
"128",22.1255839874842,43.8769904168659,6.45562672922728,7.38321400014201,0.0544441007622466,0.0588837908270149,1.40435695131212,8.07423547600322
"129",20.4852932884148,40.0530265329096,6.23168904424203,10.4525498283674,0.0111717416327895,0.140785983691686,1.42102835473815,7.53754676793513
"130",25.030700394788,27.5622880468807,8.29693086536265,12.463053896535,-0.8378402048137,0.442500449760557,3.84016793033263,3.12230737753353
"131",18.8890388395326,39.5301661491784,4.13759259725011,8.88894410581993,-0.336549968473643,-0.178275549743579,1.17610631967345,5.86416813813266
"132",20.7544025146585,38.3237230508097,5.01115156000088,7.01291751989415,-0.301626509657236,0.157314168468719,2.59836562830004,4.6846495685355
"133",21.4950767061481,43.3971013852843,7.66684366173838,7.96103917451923,0.334223182817885,0.123601040808534,1.91294941655808,8.5994984837007
"134",20.8306725511435,40.7323164721692,5.37692372681691,6.6421173899744,0.34723662252248,-0.113563327915963,1.84575129496582,5.58213350239373
"135",19.2313392665174,40.2659378026062,4.61915412428225,7.60138506351143,-0.189452445436019,0.118584863008343,1.48269917952713,8.26888012199847
"136",18.6501397749258,38.5003476288805,4.29891763701181,7.93397582368013,0.226430735223842,0.0616549470918661,2.22520556188099,8.73704579722487
"137",22.6391291147054,42.4994208894577,6.24536654886576,8.53541368799165,0.130921714508757,0.0322915573985318,1.73598645240351,5.39894546089565
"138",19.351521828864,28.9296129720442,6.19764692533416,10.1592132966587,-1.13911134971494,0.237227756866402,13.4420285329409,3.03762260526894
"139",21.6342989389986,39.1789498045177,6.46311264835634,8.62589994919302,0.176313411791226,-0.0041668775426608,1.6836852751232,5.61831088059488
"140",24.750563994475,41.0250506990485,6.79466784236007,6.41232455491291,-0.0234199395266794,-0.0721539730964685,2.11154549417009,9.0846552247731
"141",26.7550206163955,40.781576617951,6.72119366526151,7.39515078985702,-0.0635904300331637,-0.119392402144437,1.92511994784687,7.03972236028267
"142",21.0826803611974,40.1429712615321,4.9430366137092,8.16379115858287,-0.0404986071405595,-0.129787839458093,1.3461809521866,7.72493614317054
"143",18.6765334400653,37.6218459114218,4.34381742783921,7.59412346010489,-0.236530323107924,-0.0302994211941894,2.34601129587018,6.04812308593578
"144",22.6397815669931,38.1750690634412,4.18281595007102,7.16577811964732,0.22181246288503,-0.0178272120208093,2.24699095373777,11.0865727867459
"145",22.2470322910801,39.7016978523887,5.96721667094578,8.35587331637882,0.0684532203429637,0.0029768137706192,2.18097707237977,6.3461851304763
"146",21.273599252729,41.9704463302763,5.47363186956458,10.8049713617567,0.121865117170651,0.047295184118923,1.65234366297339,14.5877136886555
"147",17.5187310924061,32.8589209142926,6.10857017061368,8.83708808985301,-0.875195632362302,-0.00459438157518288,2.34160375820074,3.40331451391088
"148",21.6409999262437,35.1721738125836,5.31421803132392,5.9234775988036,-0.161249764062782,-0.0675670090393984,1.61750525587855,3.90968864936008
"149",21.1489476548859,39.0332724208314,6.1654396463659,8.3738931833364,-0.0569174333837927,-0.207531841790788,1.07758169067863,6.79160781995757
"150",14.3233800873889,37.6916038717184,1.43766179164017,8.80210208782488,0.0643476576240689,0.0294424487607361,2.86769419777842,6.59562681432611
"151",18.5780148589138,31.9572892071128,1.97817684318806,12.0723726271007,0.0360021511239825,0.117606027806267,39.7300802321888,3.53066733730822
"152",18.4126456955575,36.0838395404156,4.32017171585455,6.93893417532062,-0.0829799606267227,-0.0688106747628416,1.73912860423248,6.41763307559256
"153",19.8044330463759,35.700778566602,5.32098857526606,7.45667730310062,-0.369919808376237,-0.174913346933488,1.90664530043402,4.48736764346027
"154",21.1782015593642,36.2484181540378,5.41991763965149,5.41899463392511,-0.561555088075853,-0.0046170295519532,2.49707567601913,6.05524535550756
"155",19.2239846286055,37.9607463826636,4.914469690409,6.47292771604745,-0.0623691592726854,-0.0934568004232067,1.53017573522028,9.43358260149439
"156",29.9996984053886,26.7998145311214,10.8205234953912,11.5259598410226,-0.338442892141284,0.855582639762897,3.10886231961334,2.53283141963129
"157",20.4830831380153,38.9668795493322,6.05901531483227,7.82357345325411,0.0663165371393616,-0.00197654487073966,1.48851828056228,9.09092493274901
"158",19.6547046227838,42.7373951700148,5.6054507981444,7.76655013278003,0.0356413709359226,0.00506393216657466,1.63739777796111,6.19612544320852
"159",23.5996905834766,39.7041833349962,6.65343188849459,6.41861908412436,-0.337481986142561,0.250723534497419,2.17448520983785,8.76470279595486
"160",17.1068559405389,38.9564973081409,4.08465436411886,12.0017664102093,0.430242646562587,-0.0402993829042749,2.56057090288723,4.41645702564895
"161",19.9729417409275,43.1532884297337,5.22654872845635,7.94094179383649,-0.359172499449924,-0.0108879707157705,1.32783651944996,7.74543892768681
"162",20.2237629724224,36.6259821637953,5.03780694968682,6.34724627986009,-0.354983337761116,0.0187818726667432,1.08411226497253,5.16749414095022
"163",19.9600791232759,44.2604359199698,5.99484366547401,8.21715340839025,-0.305644806752638,0.0316272500352081,1.62030844402421,10.0419188684908
"164",23.7539534731808,40.4725159316288,6.73395614587302,6.44050313793054,0.390071117300306,-0.0824052352044353,1.49272414952842,15.5128685307289
"165",23.629377599101,40.4862811771779,6.9889457471683,9.82472009857788,-0.215326330614451,0.26194399735809,2.77247080496991,12.3580833637198
"166",19.2196420154851,34.6376852365255,4.94282654110024,4.59836449371185,0.202895415530053,0.0893043824213443,1.78719807651257,5.17023129716592
"167",22.2271682145663,39.8346539244912,6.16604962324369,7.16656016984354,-0.358818850786381,0.0620736294909346,2.48703815828916,8.27668291464531
"168",21.909725873444,39.3935289405215,7.18662606817047,7.34137334972491,-0.196828504783312,0.226224949949709,2.2909156107414,10.4645923434611
"169",22.7195604410879,37.7089712205941,5.93184348014107,6.99095683533263,0.042983411223611,0.0355151222711113,1.97017630698412,5.99131807717257
"170",20.1452085781102,37.932131405843,6.03933665357689,4.97717802830576,-0.017118725863234,-0.0442932337232869,2.06649062482477,8.30360950596548
"171",19.8840154976527,35.8630122083069,5.05841412986295,8.15123202467277,0.270629387961315,-0.0024387746002747,1.6821299688684,7.61278841151584
"172",21.4045221629475,37.268362731374,4.86203084958382,8.23707977523701,0.27242566238941,0.0198547849873709,2.12108700467798,7.05555255226806
"173",20.2040820537953,37.1134422989747,5.52346214610656,7.56637266729561,-0.328916291412379,0.0443277854017395,1.35475861928106,9.73053549751356
"174",30.2707900944453,31.9600807768423,12.6909476430146,10.2978147646943,-0.444038190129443,0.378651852237532,6.41434880708112,3.74129984205679
"175",19.0530907945548,35.6615852072159,3.96003538764249,6.89332070441505,-0.655673832482071,-0.0171939596457611,1.90024873013274,4.87849696229495
"176",26.5943502316351,38.0402005029778,8.22806367476723,6.67707003922737,-0.337306940533002,0.163983585659627,3.0613636474179,7.49730635971621
"177",20.0568463353194,43.4688150056167,6.48357274104004,7.53782751888505,0.130646973244243,-0.1402006705298,1.39291825367926,16.5214659752477
"178",19.5012512846144,38.4834547727287,4.92868370999518,8.58158654537329,-0.398970437425479,0.116556292006439,2.22177706635646,3.46510084084664
"179",23.6235655167885,42.8532639023949,6.7020500583504,8.52139561713213,0.0516836590427569,0.0482366960475052,2.06007729341222,5.41655906028459
"180",21.995297837648,39.8620475348626,6.18758176307253,8.07767636273648,0.0692166506758809,-0.0971391424038543,2.20934408505232,22.3272252969736
"181",20.9640814724902,38.9260195334042,5.7926386261095,7.78116753601147,0.111056632908833,-0.156160359764373,1.68032264846517,3.72190677228564
"182",24.6777773635978,39.048917212292,8.61425735786852,5.84850878775682,0.191965711859418,-0.0423499977979298,1.50379141532139,14.3199016307274
"183",21.8397073970571,38.3497452365258,6.51022401811322,9.6643144067772,-0.209984544995893,0.13114085323803,1.84757735976153,7.08824458419843
"184",18.833334924316,41.0675156567947,5.0688872949168,7.4665986660771,0.192782712596444,0.0891506866435697,1.74193811456776,5.4065812637953
"185",20.7067452019654,38.2733810174825,4.57650250952825,7.06435448161545,-0.159139212061244,0.11042787494325,1.71993128041218,8.67821783621212
"186",21.9280564511381,37.7800401089914,5.59291748412836,6.56421874157459,-0.486697381742238,-0.0622699804823573,1.80647663530793,6.06360383854289
"187",21.567551750987,39.4250884956629,5.73660988406496,8.17017354906798,-0.378860723512556,-0.118803108962179,1.27314984308266,4.19171649028206
"188",19.8048105561632,40.593520643503,6.60453503503701,10.3850769468335,0.192518370905699,0.168935041433924,1.43323222444157,5.16565002653323
"189",21.0256478367486,38.1764463770822,6.44788217018988,5.92089945197307,-0.0353572480078034,-0.553294897043728,1.14685281520847,17.5096902298736
"190",20.9265747369179,37.4829260222722,6.41593004500594,8.20705183876175,0.102219330536323,0.128132366814955,1.08893480948828,2.97793753449239
"191",20.2682455321888,33.3383506625944,5.02479243460015,6.88041081503011,0.191872986211376,-0.0642839960662632,1.30657040186683,4.65835791015216
"192",25.8931268784924,42.3804795773197,6.560115028502,8.13944879601099,-0.057645376047784,-0.0896508370748125,1.78339342323181,6.06360905507993
"193",20.3776480876641,39.8099997502382,4.83437043147445,7.77942144940695,-0.496072039158339,0.0751015801785125,2.3938168930829,4.45419868666855
"194",22.4465935008865,40.2097342322658,6.31120476968805,9.32646169708188,-0.451361776711278,-0.221752761162453,1.49480276734313,4.9706321053312
"195",22.9777067712912,40.0995482555334,5.76237743515942,5.72516971384876,0.0677902482718706,-0.234125480608233,1.77993229695516,7.58608461865972
"196",19.7948973863146,39.2784099907442,4.54748389254001,7.59762412202295,-0.187987239700128,-0.0123052698500285,2.19387878438598,8.90460311892848
"197",22.2135302336932,35.8097097069942,6.32858716002365,7.83791956886873,-0.0587068296535604,-0.0239458156458779,1.35636895107063,11.0364131122107
"198",22.038016266601,38.4809476689468,4.95497165877137,6.1905790660846,0.140117346192968,0.0469199089047114,1.66803398731852,8.18622402447875
"199",16.6499361888221,33.2388677827031,1.71837602575508,11.6427393083153,-0.331134670076077,-0.0394303584897695,6.70391117347253,1.80588296781775
"200",25.5095937051847,36.8870665724732,6.59840632104057,7.34422768681021,-0.43245785218549,-0.0162680510475346,2.53151018363344,5.38332253911288
"201",21.8859448084067,39.9723042657146,5.74280231253333,7.85125349535353,0.256944509372878,0.123506944408924,2.37788733264599,8.89710765668139
"202",20.3641523089465,38.9768130290235,5.43742763055772,7.54710034840487,0.47033920124918,0.0997748491894491,1.49912834681673,3.79779805856103
"203",21.2688963268394,41.3659425973183,6.07188756014161,9.71827254989425,0.214148279478255,0.0725199722561037,2.39287954341328,15.1213666620776
"204",21.2550252331444,38.7589587615276,6.36695633082264,5.78538051632453,-0.0946435463286632,0.00916615616208473,2.29684778239298,10.6898089573187
"205",22.3691676969961,40.3936352405625,7.3478419610863,6.76031341897541,0.0363905960552643,0.0778248304905791,2.08054320383838,9.67922629409289
"206",20.6768271976955,40.0267485312339,5.65641521140623,6.36164036691169,-0.0482893851745219,-0.0830526463879117,1.95652604048284,7.38543784455968
"207",21.3176092697208,41.571421690872,6.22051328028067,8.30189146122747,0.25483132226204,-0.0907431949138296,2.02154638765853,4.11577247437432
"208",18.4500732013005,37.0753836630512,5.08963071537766,8.46696252272231,-0.185504196980356,-0.0301992156388731,2.0269671881658,7.81292244847368
"209",20.2402525793081,40.3892072371616,6.1024413565353,9.37485866976614,-0.0456308554000772,-0.1667852136506,1.35353645955156,12.3460985559198
"210",19.2238080613727,39.1334603985348,4.92926701584477,7.48493068428066,0.094683729212708,-0.192237319822823,1.70127997928143,8.18114020579658
"211",23.2509292189235,42.2913384991007,6.396228990582,7.03497720779843,0.053846287709177,-0.04823294999572,2.45326844491499,12.0702568698427
"212",22.9339550776142,35.0996267496086,6.16688203390894,6.11933858123329,0.0894586495847412,0.0705223763377375,1.73712949175078,15.9870221149363
"213",21.0080628176461,36.5111238759745,5.55204418663851,3.92303290853464,0.178726275076178,0.0905508982333694,1.36094778093271,17.1985527743033
"214",21.252267344733,43.0254338205767,5.28567700618387,7.29548718518002,-0.4608776517058,0.0806622995732357,2.62955995017043,7.69864438020026
"215",18.6398771480041,35.4786532855854,6.52814452981568,6.9693031619068,0.195667943937235,0.020084991183315,2.78768745955956,2.9706718682908
"216",22.0099782407756,45.2348007238584,6.0621968637137,8.59489384537202,0.110650106582879,-0.0966944367585627,1.86047687986,4.50443606769787
"217",22.9640616226681,40.3083484279958,7.75099610432484,8.29593959396346,-0.575055006437675,0.238314847586487,2.5673034674715,8.08787378838795
"218",42.1826264528087,27.3009850991153,6.55279678229805,7.89021103593981,-0.0222068510830574,0.301748738830062,17.2303125987036,3.37799545875939
"219",19.404587003988,39.37912309144,5.03154587474321,9.14882680235827,0.242430903627591,0.0618450794464285,2.12600262368737,10.2975180953391
"220",20.3261737797972,37.9126585768986,5.21594024448377,7.38308003431738,0.204078274956252,-0.33288645415303,1.51028291640831,5.18394208578259
"221",22.7169708871431,43.199611621538,5.95582819692836,7.71577814705578,-0.148436115174513,-0.193557307478854,2.21905469307959,8.80739405768605
"222",17.5207748998715,31.9664909568893,4.40325347270298,8.71287090602041,0.0276252017264763,0.00386853895921003,1.59791764168723,2.96108044763922
"223",20.1398506103088,37.0355443737288,4.71933360689004,6.38179109213425,0.139990833097867,-0.0525002742006432,1.38653947587455,8.02970637370833
"224",23.2109466933083,38.4014440742298,5.82486752558224,6.01027848096155,0.00520757239220135,0.0765119601353556,2.84373005753652,6.87192819423756
"225",22.4942399404485,39.8900774493969,5.17025704004445,7.62832714592779,0.102202789000171,-0.0158009842102509,2.38293212083895,10.5757886205365
"226",21.8712952610286,36.3623090981683,7.16227474090632,6.8202932421845,-0.242004177643116,0.102895714293507,1.12019279170395,9.6250250411681
"227",23.9819280987783,40.718666717031,7.78873494905716,7.85219958140815,-0.218867813134567,-0.00462005368359739,2.0107247113223,9.92567438246288
"228",21.3307743683425,39.3518847177236,6.1191250764071,5.710421786455,-0.339861109656631,0.140271536183798,1.04623647371061,8.24113902402205
"229",22.1394579135746,35.2938432328054,5.7583156598719,6.66366871052194,0.45946745523612,0.139000329921094,1.73970912305805,8.27177990804095
"230",21.3556637889774,37.5738765555799,4.4886821321347,7.76891250315427,-0.177750001300072,-0.0784132192777013,2.30823213093955,3.49985702985586
"231",19.7447873156207,38.0570711737693,5.63840300817323,7.45994750062843,-0.0703259112638947,0.0629186517052927,1.08420309815459,6.25057851534543
"232",20.7629984057942,40.0137229812163,5.17929831941017,10.1501782648581,-0.343319116099393,-0.0766552389869769,1.71776506389188,10.6247852002518
"233",19.6480372602057,30.3300299987131,6.28042219917741,12.7095641723832,-0.669332096925931,0.224078421409899,3.99852493621596,2.43758610126507
"234",21.3900930352835,40.6420748156863,6.05552700748517,9.41239992278931,0.445094235565862,-0.0704013971168266,1.17504922165735,5.99050504176272
"235",20.745256307079,38.5695627224163,4.46759933926191,5.59001776921353,-0.00767974329985287,-0.172881915124809,2.3074136421722,5.6862863824419
"236",20.4129989477303,31.1062294791035,3.94268278095216,11.2753344062964,-1.18290723549196,0.308654946316595,2.02295417184469,1.90166646767969
"237",21.4052441121568,39.1881653287507,5.55450769798235,7.28810676433199,0.23579849217861,-0.0677838442669448,1.36503965218976,8.58407678000977
"238",18.1909532587069,36.5775076769848,6.0257567386007,7.32734562020669,-0.0367709269719629,0.0658787691910371,1.64885599206871,7.41161197708224
"239",19.4775742066546,35.5367965507768,5.04076667953591,8.10119904118768,-0.0565854239328496,0.261653281187241,1.39805630218371,4.32176381629694
"240",20.3233321146133,38.1281144631243,5.37117766030243,7.46907035969777,0.0916010899227031,0.0706137033649886,1.54668528699889,10.9554058391645
"241",22.2691205790747,40.1262957200863,6.21595363650477,7.57686533899925,0.266273850559595,-0.00184959762311353,1.81062320766373,10.962370349339
"242",20.0233357360759,42.776934928965,4.95950076894474,7.4170593226793,0.00968195644761933,0.0333906574055676,1.47845454525299,8.26302441965077
"243",22.803416407629,37.6173047709111,6.29456778271685,7.72641646129739,-0.145270982864295,0.0244829865498957,1.03655688714613,6.85345676163603
"244",20.3340843367024,41.6596913299398,4.63432245060486,8.80775592354661,0.324637097286591,-0.0433722511517652,1.08278308022289,7.48134466218511
"245",23.4916388103894,40.2868640307959,6.09997134786354,6.92530839335111,0.215141057767527,0.130104155904691,1.6347742214924,8.8376174315078
"246",20.1349833045088,37.7846125357057,5.31658107624717,8.39795201770982,0.0800335188391335,0.0938247128399812,1.17543437228294,9.42003636146146
"247",17.0787261084076,30.3510246582237,3.71176522487628,6.40699779769674,0.123552016472638,-0.277459765985702,2.53592751213205,0.945606118913662
"248",21.9344655121669,37.7287552492716,5.90368985293059,7.66642619769954,0.0760815238215943,0.000401183140860687,1.53356664397435,7.58117952770515
"249",20.8881905990486,43.4139595066073,5.83086911723355,6.77447453660419,-0.22616416596264,-0.144944849183719,2.27619146581016,12.6514246222985
"250",24.3713841438562,40.3692843515111,5.5939868159086,6.67518376673261,0.102907789502264,-0.21265638774452,2.0057804284608,9.98113064396805
