"","x"
"1",0.948
"2",0.924
"3",0.936
"4",0.936
"5",0.916
"6",0.942
"7",0.902
"8",0.928
"9",0.946
"10",0.938
"11",0.934
"12",0.954
"13",0.566
"14",0.076
"15",0.92
"16",0.948
"17",0.956
"18",0.938
"19",0.904
"20",0.912
"21",0.94
"22",0.94
"23",0.94
"24",0.934
"25",0.934
"26",0.958
"27",0.946
"28",0.908
"29",0.932
"30",0.932
"31",0.938
"32",0.94
"33",0.926
"34",0.944
"35",0.97
"36",0.952
"37",0.936
"38",0.934
"39",0.936
"40",0.95
"41",0.946
"42",0.924
"43",0.94
"44",0.928
"45",0.96
"46",0.928
"47",0.928
"48",0.92
"49",0.904
"50",0.944
"51",0.94
"52",0.956
"53",0.958
"54",0.962
"55",0.932
"56",0.93
"57",0.938
"58",0.94
"59",0.956
"60",0.962
"61",0.958
"62",0.938
"63",0.934
"64",0.966
"65",0.93
"66",0.936
"67",0.912
"68",0.958
"69",0.938
"70",0.926
"71",0.944
"72",0.94
"73",0.93
"74",0.898
"75",0.916
"76",0.928
"77",0.92
"78",0.924
"79",0.906
"80",0.92
"81",0.918
"82",0.918
"83",0.956
"84",0.91
"85",0.926
"86",0.932
"87",0.948
"88",0.938
"89",0.968
"90",0.942
"91",0.942
"92",0.932
"93",0.906
"94",0.914
"95",0.928
"96",0.956
"97",0.914
"98",0.942
"99",0.948
"100",0.948
"101",0.954
"102",0.936
"103",0.942
"104",0.95
"105",0.954
"106",0.958
"107",0.966
"108",0.94
"109",0.952
"110",0.952
"111",0.972
"112",0.956
"113",0.928
"114",0.936
"115",0.942
"116",0.95
"117",0.922
"118",0.952
"119",0.954
"120",0.92
"121",0.934
"122",0.948
"123",0.446
"124",0.932
"125",0.92
"126",0.92
"127",0.946
"128",0.948
"129",0.928
"130",0.942
"131",0.912
"132",0.928
"133",0.946
"134",0.95
"135",0.932
"136",0.932
"137",0.944
"138",0.968
"139",0.922
"140",0.95
"141",0.95
"142",0.946
"143",0.93
"144",0.918
"145",0.952
"146",0.902
"147",0.946
"148",0.926
"149",0.95
"150",0.926
"151",0.944
"152",0.95
"153",0.938
"154",0.958
"155",0.93
"156",0.964
"157",0.954
"158",0.928
"159",0.928
"160",0.918
"161",0.958
"162",0.902
"163",0.946
"164",0.954
"165",0.956
"166",0.948
"167",0.928
"168",0.93
"169",0.932
"170",0.948
"171",0.952
"172",0.934
"173",0.956
"174",0.906
"175",0.954
"176",0.956
"177",0.914
"178",0.944
"179",0.918
"180",0.95
"181",0.938
"182",0.944
"183",0.942
"184",0.96
"185",0.916
"186",0.946
"187",0.948
"188",0.922
"189",0.942
"190",0.942
"191",0.918
"192",0.942
"193",0.956
"194",0.95
"195",0.944
"196",0.952
"197",0.976
"198",0.938
"199",0.954
"200",0.94
"201",0.946
"202",0.952
"203",0.926
"204",0.932
"205",0.928
"206",0.944
"207",0.88
"208",0.946
"209",0.898
"210",0.932
"211",0.92
"212",0.912
"213",0.958
"214",0.928
"215",0.912
"216",0.93
"217",0.93
"218",0.946
"219",0.966
"220",0.932
"221",0.94
"222",0.948
"223",0.942
"224",0.932
"225",0.938
"226",0.928
"227",0.956
"228",0.956
"229",0.938
"230",0.946
"231",0.942
"232",0.922
"233",0.958
"234",0.924
"235",0.95
"236",0.956
"237",0.95
"238",0.95
"239",0.958
"240",0.912
"241",0.944
"242",0.942
"243",0.924
"244",0.948
"245",0.948
"246",0.938
"247",0.966
"248",0.962
"249",0.93
"250",0.9
