"mllk_optim","2725.30495542277"
"Gamma1","0.71242731133475"
"Gamma2","0.106880033818623"
"Gamma3","0.28757268866525"
"Gamma4","0.893119966181377"
"delta1","0.270957779542244"
"delta2","0.729042220457756"
"params.mu1","460.70119911707"
"params.mu2","939.563680890367"
"params.sigma1","173.986522693646"
"params.sigma2","80.7264531942272"
"params.mu1","-0.00873582558479067"
"params.mu2","0.189840223137565"
"params.kappa1","2.36808741777632"
"params.kappa2","16.7983811697512"
"autocorrelation1","0.012"
"autocorrelation2","0"
"autocorrelation3","0.114"
"autocorrelation4","0.052"
"autocorrelation5","0.002"
"autocorrelation6","0.001"
"autocorrelation7","0"
"autocorrelation8","0"
"autocorrelation9","0"
"autocorrelation10","0.406"
"autocorrelation11","0.055"
"autocorrelation12","0"
"autocorrelation13","0.039"
"autocorrelation14","0"
"autocorrelation15","0"
"autocorrelation16","0.046"
"autocorrelation17","0.067"
"autocorrelation18","0"
"autocorrelation19","0"
"autocorrelation20","0.491"
"autocorrelation21","0.125"
"autocorrelation22","0"
"autocorrelation23","0"
"autocorrelation24","0"
"autocorrelation25","0"
"autocorrelation26","0"
"autocorrelation27","0.047"
"autocorrelation28","0.033"
"autocorrelation29","0"
"autocorrelation30","0.334"
"autocorrelation31","0.025"
"autocorrelation32","0"
"autocorrelation33","0"
"autocorrelation34","0"
"autocorrelation35","0.029"
"autocorrelation36","0.027"
"autocorrelation37","0"
"autocorrelation38","0"
"autocorrelation39","0"
"autocorrelation40","0.764"
"AIC","5550.60991084555"
"BIC","5761.63941935053"
"effective_df","50"
