"","V1","V2","V3","V4","V5","V6","V7","V8"
"1",0.001,0.001,0.145,0,0.008,0.158,0.044,0.16
"2",0,0.001,0,0.001,0.006,0.058,0,0
"3",0.053,0.057,0,0,0.082,0.052,0.01,0
"4",0.001,0.001,0,0.001,0,0.096,0,0.005
"5",0,0,0.003,0,0.003,0.147,0.001,0.052
"6",0,0.039,0.034,0.049,0.002,0.078,0.001,0.04
"7",0,0.001,0.001,0.026,0.011,0.033,0,0.057
"8",0,0,0,0,0.1,0,0,0
"9",0,0,0,0.002,0,0.002,0.004,0.103
"10",0,0.001,0.002,0.084,0.098,0.056,0.065,0.036
"11",0.04,0.001,0,0.014,0.052,0.126,0.109,0.079
"12",0.001,0.049,0.001,0.002,0.004,0.023,0.036,0.002
"13",0,0.06,0.076,0.003,0.001,0.078,0,0.003
"14",0,0,0.015,0.047,0,0.093,0.012,0.001
"15",0,0.071,0.053,0,0.001,0,0.014,0.003
"16",0.002,0,0.185,0.5,0.474,0.056,0.006,0
"17",0.114,0.001,0.079,0.516,0.285,0,0.011,0
"18",0,0,0,0,0.001,0,0.046,0.035
"19",0,0.001,0,0,0,0,0,0.081
"20",0.001,0.026,0.001,0.003,0.059,0.199,0.038,0.035
"21",0,0,0,0,0.025,0.135,0.103,0
"22",0.005,0,0,0,0.003,0.035,0,0
"23",0.027,0.047,0.001,0.127,0,0.119,0.065,0.032
"24",0.001,0.04,0.001,0.075,0.002,0.001,0.051,0.136
"25",0.001,0.056,0.002,0.087,0.004,0.076,0.003,0
"26",0,0.029,0,0.079,0.005,0.052,0.002,0
"27",0,0,0.007,0.005,0.001,0.107,0.001,0.024
"28",0.059,0,0,0.15,0.042,0.001,0,0.003
"29",0,0,0.002,0,0.17,0,0,0
"30",0.044,0.005,0.001,0,0.015,0,0,0.217
"31",0.052,0.001,0,0.056,0,0.1,0.082,0.041
"32",0.001,0.173,0.052,0,0.005,0.059,0.105,0
"33",0.043,0.03,0,0.002,0.235,0,0.066,0
"34",0,0,0.001,0.039,0.005,0.118,0,0
"35",0,0,0,0,0.003,0.001,0.078,0.001
"36",0,0,0,0.001,0.075,0,0.05,0.072
"37",0.036,0,0.076,0,0.001,0,0.093,0.101
"38",0,0.103,0.058,0,0.248,0.059,0,0
"39",0,0,0.035,0.138,0.011,0.001,0.19,0
"40",0.046,0,0.082,0,0.003,0.049,0.001,0.071
"41",0,0,0,0.001,0.001,0.15,0,0.095
"42",0,0.021,0,0,0,0.018,0,0.071
"43",0,0.009,0,0,0.114,0.001,0.002,0.113
"44",0,0.001,0,0.094,0.001,0.041,0.001,0
"45",0,0,0,0,0.136,0,0,0.053
"46",0,0.057,0,0.112,0.124,0.103,0,0
"47",0,0,0,0.001,0.067,0,0,0
"48",0.004,0.066,0.003,0.001,0.01,0.001,0.151,0.006
"49",0.001,0.085,0.093,0,0.113,0.203,0.012,0.004
"50",0.099,0,0.022,0,0.001,0,0.039,0.002
"51",0,0,0,0,0,0.001,0.047,0.071
"52",0,0,0.001,0.123,0.004,0,0.104,0
"53",0,0.001,0.053,0.043,0.001,0.215,0,0
"54",0.017,0.052,0,0,0.001,0.001,0.072,0.001
"55",0.001,0,0,0.093,0.003,0.063,0.083,0.003
"56",0.001,0.002,0.001,0,0.093,0.051,0.037,0.044
"57",0.002,0,0,0,0.217,0,0,0
"58",0.048,0.001,0.121,0.001,0.001,0,0.045,0.026
"59",0,0.001,0,0.063,0.001,0.004,0,0
"60",0.001,0.103,0.014,0.111,0.082,0.135,0,0.001
"61",0,0,0.007,0.001,0.005,0.007,0,0.029
"62",0,0.085,0.002,0.001,0,0,0,0
"63",0,0.085,0,0,0.128,0,0.055,0.005
"64",0,0,0.088,0.002,0.013,0,0.001,0.001
"65",0,0,0,0,0.021,0.064,0,0.001
"66",0.784,0.246,0.191,0.546,0.047,0,0,0
"67",0,0,0.134,0.047,0,0.003,0,0
"68",0.036,0,0,0,0,0,0.011,0
"69",0,0.077,0,0,0,0.001,0,0.002
"70",0.091,0.047,0.047,0.001,0.003,0.003,0.339,0.001
"71",0,0,0,0.223,0,0.066,0.001,0.04
"72",0.02,0,0.03,0,0,0,0,0.001
"73",0,0.037,0.038,0.001,0.001,0.07,0.001,0.003
"74",0.001,0.024,0,0.003,0.234,0,0,0
"75",0,0,0.001,0.048,0.093,0.085,0.001,0.064
"76",0,0.019,0.08,0.001,0.046,0.033,0.001,0
"77",0,0.137,0.091,0.078,0.06,0.001,0.003,0.109
"78",0,0.092,0.001,0.058,0,0.001,0.016,0
"79",0,0.001,0,0.062,0.049,0.097,0,0.028
"80",0,0,0,0.026,0.212,0,0,0
"81",0.019,0.013,0.001,0.001,0.007,0,0.139,0.047
"82",0.078,0.002,0.001,0.047,0.082,0.004,0.001,0.126
"83",0,0,0,0,0.061,0.145,0,0
"84",0,0.104,0,0,0,0.013,0,0
"85",0.001,0.001,0.001,0,0.001,0.001,0.106,0
"86",0,0,0,0.092,0,0.004,0,0
"87",0,0.002,0,0.036,0.056,0,0.022,0
"88",0.001,0.001,0,0.001,0.001,0.003,0.013,0.061
"89",0.075,0.042,0.022,0,0,0.176,0.001,0.059
"90",0,0.001,0.022,0.001,0.218,0.002,0,0
"91",0,0.015,0.002,0,0.109,0,0.002,0
"92",0,0.015,0.03,0,0.056,0.001,0,0.089
"93",0,0.005,0.164,0,0.073,0.003,0,0.001
"94",0.031,0.004,0.053,0.004,0.066,0.01,0.05,0.002
"95",0,0,0,0.112,0.011,0.023,0,0.136
"96",0.001,0.034,0.002,0.059,0.001,0.002,0.001,0.002
"97",0.059,0.036,0,0,0.001,0.307,0,0.007
"98",0.127,0.074,0,0.095,0,0,0.002,0.002
"99",0,0.096,0,0,0.084,0.047,0.066,0
"100",0,0,0.121,0.048,0.078,0.011,0.145,0
"101",0.034,0.005,0.068,0.007,0.044,0.003,0,0.018
"102",0.014,0.049,0.081,0.001,0.089,0.191,0.172,0
"103",0,0,0,0,0.086,0.001,0.001,0
"104",0.043,0,0.001,0,0.002,0,0.002,0
"105",0,0,0.001,0,0.081,0.125,0,0.035
"106",0.052,0.201,0,0.001,0,0.062,0,0.102
"107",0.014,0.041,0,0.012,0.003,0.028,0.001,0.076
"108",0,0.028,0,0.032,0.002,0.001,0.062,0.005
"109",0,0.086,0.01,0,0,0,0,0.175
"110",0.049,0,0.056,0.002,0.001,0.032,0,0
"111",0.097,0,0,0,0.011,0.051,0.015,0
"112",0.023,0.028,0,0.034,0,0,0,0.113
"113",0,0,0,0.026,0,0.003,0.001,0
"114",0.037,0.034,0.003,0.108,0.125,0.02,0.001,0.077
"115",0.001,0.012,0.067,0,0.184,0.049,0.156,0.034
"116",0.042,0.01,0.002,0.011,0.087,0.143,0.101,0.113
"117",0.017,0,0.208,0.115,0.076,0.011,0,0.048
"118",0.002,0.014,0,0.021,0.033,0.101,0,0
"119",0,0.002,0,0,0.432,0.004,0,0.137
"120",0.001,0,0,0.082,0,0.003,0.098,0
"121",0.074,0.067,0.174,0,0.003,0.069,0.024,0.18
"122",0.03,0.01,0,0.001,0,0.024,0.033,0.018
"123",0,0.098,0,0.001,0.005,0.001,0,0.098
"124",0.054,0.07,0.041,0,0.038,0,0,0
"125",0,0.046,0.016,0,0.002,0,0,0.001
"126",0,0.041,0.004,0.001,0.245,0.076,0.086,0.002
"127",0,0,0,0,0.005,0,0,0.086
"128",0.001,0.045,0.001,0.143,0.158,0,0,0
"129",0.045,0.019,0.002,0.019,0.001,0.002,0.075,0.014
"130",0,0.001,0,0,0.112,0.001,0,0.044
"131",0.012,0,0.025,0,0.27,0.001,0.014,0
"132",0,0.032,0.059,0.015,0,0.001,0.067,0
"133",0.078,0,0.073,0.048,0.001,0.002,0,0.003
"134",0.06,0.028,0,0,0.002,0.001,0,0
"135",0.037,0.005,0.038,0.081,0.001,0.207,0.003,0.118
"136",0,0.05,0.082,0,0,0.036,0.053,0.08
"137",0.022,0.01,0.005,0,0.081,0.002,0.001,0.039
"138",0,0,0.003,0.024,0,0.039,0,0.089
"139",0,0.037,0,0,0,0.11,0.073,0
"140",0,0.005,0.001,0.003,0.044,0,0.001,0.009
"141",0.095,0,0,0.039,0.039,0.128,0.037,0.083
"142",0,0,0,0,0,0.001,0.134,0
"143",0.026,0.069,0.307,0.422,0.014,0.004,0.053,0.001
"144",0,0,0,0,0,0,0,0.038
"145",0.113,0,0,0.095,0.003,0.202,0,0.038
"146",0.082,0.008,0,0,0,0.076,0,0.068
"147",0,0,0,0,0.005,0,0.195,0
"148",0,0,0,0,0.001,0,0.001,0
"149",0,0,0.157,0.504,0.139,0.149,0.05,0
"150",0.004,0.049,0.078,0.003,0.187,0.054,0.134,0.06
"151",0.039,0.002,0.028,0.072,0,0,0,0.002
"152",0,0,0,0,0,0,0.277,0
"153",0,0.001,0,0.001,0.179,0.055,0,0.128
"154",0.059,0,0,0,0.001,0.007,0,0.003
"155",0.056,0.001,0,0.001,0.018,0.004,0,0.114
"156",0,0.026,0.028,0,0.009,0.002,0.069,0.001
"157",0.013,0,0.115,0,0.145,0.002,0.051,0
"158",0,0.019,0,0.045,0.001,0.008,0,0.018
"159",0.05,0,0.206,0.452,0.506,0.005,0.164,0
"160",0.013,0,0.058,0.001,0.001,0.124,0,0
"161",0,0,0.001,0.101,0.153,0.001,0,0.039
"162",0,0,0,0,0.174,0,0,0.167
"163",0.016,0.021,0.062,0.03,0.072,0,0.034,0
"164",0.025,0.001,0.094,0.001,0.004,0.002,0,0.05
"165",0.066,0.027,0,0.024,0,0,0.084,0.088
"166",0,0.045,0,0.055,0,0.001,0,0
"167",0.07,0.05,0,0.001,0.044,0.026,0.1,0.092
"168",0.044,0,0.002,0.011,0.139,0.003,0.001,0.005
"169",0.064,0,0.053,0,0.034,0,0,0.001
"170",0,0.066,0,0.026,0,0.128,0.041,0.014
"171",0.003,0,0.103,0,0.113,0,0.032,0.057
"172",0.056,0,0,0.056,0.086,0.148,0,0
"173",0.001,0.002,0,0,0.005,0.001,0.047,0.034
"174",0,0.001,0.052,0.002,0.248,0.063,0.056,0
"175",0.052,0.004,0,0,0.208,0,0,0
"176",0.059,0,0,0,0,0,0.052,0
"177",0.002,0,0,0.028,0.135,0.131,0.107,0
"178",0.067,0,0.129,0,0.045,0.074,0.06,0
"179",0.051,0.028,0.068,0.038,0.037,0,0,0.017
"180",0,0,0,0.017,0,0.026,0,0
"181",0.059,0,0.048,0.12,0.001,0,0.001,0.001
"182",0.049,0,0.003,0.091,0.051,0.002,0,0.092
"183",0.026,0.041,0,0,0,0,0,0.123
"184",0,0.001,0,0,0,0.154,0.086,0
"185",0,0,0.056,0,0,0,0.032,0
"186",0,0,0,0.124,0,0.007,0,0
"187",0.002,0.025,0,0,0.036,0.012,0,0
"188",0,0,0.069,0,0.001,0,0.034,0
"189",0,0,0.043,0.002,0.159,0.001,0.006,0.104
"190",0,0.004,0.035,0.079,0,0.202,0,0.005
"191",0.018,0.001,0.002,0.002,0.004,0.229,0.034,0.085
"192",0,0.076,0,0,0.24,0,0.002,0.001
"193",0.007,0,0.139,0,0,0,0,0.034
"194",0.001,0.001,0,0,0.002,0.067,0.001,0.104
"195",0,0.086,0.001,0.03,0.001,0.149,0,0.003
"196",0.028,0,0.003,0.004,0,0.123,0,0.002
"197",0.03,0.001,0,0.002,0,0.002,0.024,0
"198",0,0,0.001,0,0,0.011,0,0.063
"199",0.03,0.023,0,0,0,0,0,0.038
"200",0,0,0,0.001,0,0.004,0,0.002
"201",0,0,0,0,0,0.001,0,0
"202",0.65,0.305,0.228,0.499,0.156,0.085,0.203,0.026
"203",0.008,0.049,0,0.003,0.002,0.01,0,0.121
"204",0,0,0,0.025,0,0.192,0.064,0.073
"205",0.021,0.126,0,0.025,0.001,0,0,0.132
"206",0.028,0.005,0.002,0.039,0.022,0.125,0,0.022
"207",0,0.034,0,0,0.001,0.088,0.001,0.095
"208",0.018,0,0.022,0.065,0.174,0.251,0,0.007
"209",0,0.023,0.055,0,0.002,0.001,0.001,0.056
"210",0.062,0,0.001,0.001,0.001,0.001,0.006,0
"211",0.001,0.025,0,0.014,0,0,0.07,0.077
"212",0.083,0.001,0.033,0.001,0.061,0.182,0,0.037
"213",0,0.046,0.062,0,0.188,0,0.069,0.001
"214",0.054,0.033,0.09,0,0.331,0,0.017,0.108
"215",0,0,0,0,0,0,0.043,0
"216",0.063,0.001,0.006,0.001,0.174,0.07,0.093,0.028
"217",0,0.065,0,0.079,0,0.011,0,0.073
"218",0,0,0,0.146,0,0,0.007,0.026
"219",0,0.033,0,0,0,0,0,0.048
"220",0,0.001,0.078,0,0.131,0,0,0
"221",0.001,0.032,0,0,0.194,0.089,0,0.072
"222",0.001,0.002,0.021,0.146,0.202,0,0,0.082
"223",0.041,0,0.023,0.102,0,0,0,0
"224",0.065,0.056,0.031,0.115,0,0.049,0,0.093
"225",0.03,0.01,0.003,0.021,0.015,0.001,0,0.094
"226",0.062,0.086,0.011,0,0,0,0,0
"227",0.053,0.086,0.265,0.413,0.068,0.069,0,0
"228",0.091,0,0,0.052,0.001,0.001,0,0
"229",0,0.001,0.001,0,0.076,0.134,0.004,0.012
"230",0,0,0.053,0,0.022,0.147,0.011,0
"231",0.024,0.019,0.014,0.026,0,0,0.123,0
"232",0.03,0.003,0,0.001,0.001,0,0.005,0.003
"233",0.147,0.278,0.174,0.723,0,0.087,0.007,0
"234",0.016,0.008,0,0,0.093,0,0.068,0.003
"235",0,0,0.001,0.007,0.15,0.081,0,0.142
"236",0,0,0,0,0.042,0,0,0
"237",0,0.174,0,0,0.002,0.13,0.063,0.043
"238",0,0.065,0,0,0,0.055,0.076,0
"239",0.002,0.053,0,0.001,0.002,0.176,0,0.061
"240",0.002,0.001,0.033,0,0.062,0.001,0,0.083
"241",0,0,0.046,0,0,0,0,0
"242",0.021,0,0.02,0,0.001,0.005,0.001,0.091
"243",0.036,0,0,0.006,0,0.001,0,0
"244",0,0.006,0.108,0.001,0.065,0.048,0.001,0
"245",0.001,0.133,0.17,0.459,0.001,0.673,0.002,0.019
"246",0.08,0,0.042,0.032,0.001,0,0,0.039
"247",0,0.001,0.004,0.038,0.132,0.226,0.003,0
"248",0.062,0.008,0,0,0,0,0,0
"249",0,0.002,0,0.001,0.001,0.02,0.04,0.093
"250",0,0.07,0.089,0.021,0.193,0,0.096,0.001
