"","x"
"1",812.070339465578
"2",864.639103287469
"3",826.942822542455
"4",836.903922869016
"5",877.905269348462
"6",851.113575588255
"7",835.66648277175
"8",861.19067312091
"9",832.028602272504
"10",781.020476510489
"11",880.583930682968
"12",818.95899940767
"13",851.773880825574
"14",790.088031093105
"15",883.265268473195
"16",872.507349792109
"17",810.505214927407
"18",824.348754815651
"19",844.09591398953
"20",837.431809830191
"21",835.431365801281
"22",840.941570836765
"23",834.361484291218
"24",883.735046728038
"25",828.574875548978
"26",763.882569997351
"27",851.757792351682
"28",844.77188954652
"29",804.634610826766
"30",831.240344879237
"31",808.37629288505
"32",862.4777373033
"33",836.077242037732
"34",789.206680778274
"35",828.116204272774
"36",794.681558613235
"37",827.184350682756
"38",812.889573019957
"39",833.314914776624
"40",811.273134639078
"41",813.655961591438
"42",812.944774269346
"43",838.632842445116
"44",815.446307324349
"45",850.274324309092
"46",771.270525237518
"47",805.403555437906
"48",869.330682958695
"49",847.460738913161
"50",793.730411852152
"51",881.521860682808
"52",814.2615136997
"53",885.707329385989
"54",788.273104742755
"55",889.483370380229
"56",842.51604116412
"57",798.998717464177
"58",866.972885440617
"59",840.782105885379
"60",859.558198197578
"61",751.898311945193
"62",795.379109879146
"63",816.163061188996
"64",864.219063794824
"65",775.106650801583
"66",827.394626227567
"67",864.656407974548
"68",811.209501839438
"69",824.436924707945
"70",820.965289913755
"71",833.985226987814
"72",812.266122376942
"73",782.675636232272
"74",807.981506016561
"75",872.781914713554
"76",831.261613443753
"77",851.566198245003
"78",842.138860074642
"79",828.479232587977
"80",801.543426064725
"81",865.203013545527
"82",762.942535829845
"83",842.648001965746
"84",845.902716348647
"85",853.039616069812
"86",870.698797567973
"87",833.269708793463
"88",847.691321248707
"89",798.71915385975
"90",861.053421390721
"91",792.436830316286
"92",798.669184957509
"93",769.022740995187
"94",844.567089114223
"95",920.574847676599
"96",875.216344162194
"97",794.549994322159
"98",859.123557901676
"99",816.364643620214
"100",868.220334308823
"101",807.019913582378
"102",813.654991158
"103",794.318870812144
"104",814.621093954756
"105",789.277084505044
"106",860.239485221936
"107",897.709192595045
"108",789.510754833285
"109",806.37254213648
"110",824.475095023252
"111",846.46900664541
"112",825.855128173215
"113",830.957524150453
"114",847.812165907376
"115",820.948064865781
"116",814.148089781871
"117",789.31958765113
"118",855.053259040001
"119",805.857484021298
"120",827.010021630611
"121",766.498666973613
"122",798.391834302252
"123",876.173445138525
"124",825.881348670932
"125",815.820170451958
"126",854.027570579362
"127",770.868145804946
"128",840.951921354236
"129",852.455414653403
"130",786.986955573195
"131",856.778318867469
"132",865.789614637755
"133",783.932877619903
"134",792.88207982714
"135",802.502296115802
"136",823.642962045546
"137",821.833393221355
"138",835.299409884769
"139",818.148734360838
"140",866.948545852829
"141",780.107065542009
"142",755.357014265761
"143",857.826390341477
"144",852.180428055271
"145",852.558550080044
"146",842.781625189585
"147",808.768045280361
"148",869.728504380093
"149",804.316430551127
"150",868.563826938263
"151",823.591454997933
"152",848.10245369661
"153",848.638848352674
"154",839.410469950792
"155",866.862908241774
"156",830.289930475164
"157",842.086267791492
"158",855.253197436897
"159",821.084266061708
"160",806.622459269016
"161",821.802888639884
"162",820.358157620233
"163",788.831911102832
"164",847.835449876654
"165",874.362299117478
"166",808.376514574044
"167",793.425003853378
"168",808.681316809592
"169",799.155866370539
"170",839.953234661814
"171",806.359053507812
"172",886.086634909554
"173",841.153642086623
"174",817.085294477847
"175",864.530951220686
"176",880.272023838265
"177",810.943214283702
"178",808.325618767687
"179",835.613762895959
"180",850.95286571869
"181",850.112846910125
"182",867.657365432096
"183",812.401945654174
"184",907.09543083458
"185",817.39724297324
"186",831.619809765782
"187",878.108259147104
"188",805.996377201693
"189",829.456207899993
"190",860.406395877971
"191",841.279068360762
"192",859.169748904315
"193",802.949089395759
"194",854.234630335603
"195",816.00713257986
"196",826.772286703927
"197",836.813715471209
"198",903.739529041411
"199",876.269899573631
"200",872.812302101927
"201",853.319831520611
"202",836.415564413172
"203",799.406739295575
"204",830.227817663635
"205",833.091925751137
"206",807.980407541777
"207",829.653582698947
"208",797.282655857792
"209",863.186807240284
"210",865.977831528595
"211",831.942327558026
"212",855.263049435987
"213",819.597790566454
"214",747.267667624342
"215",778.446225693937
"216",867.923403301859
"217",881.709762161932
"218",848.434691953103
"219",788.122424373446
"220",817.926300833143
"221",879.253021592741
"222",812.011802671363
"223",824.612552794605
"224",777.395922987157
"225",822.637138629366
"226",830.785673820139
"227",873.768226846992
"228",823.592016775646
"229",849.860955970858
"230",820.734883673103
"231",844.827252633213
"232",845.063392715286
"233",836.054393473562
"234",817.337735466908
"235",777.328274252964
"236",794.942285203643
"237",863.782703173544
"238",852.068022375059
"239",861.326290358908
"240",903.060962394505
"241",796.983023499201
"242",798.210882423813
"243",811.3630202645
"244",800.433389603228
"245",820.765020336405
"246",859.515262624964
"247",814.372330012803
"248",789.52965607727
"249",862.645894686646
"250",829.06511713887
