"","V1","V2","V3","V4","V5","V6","V7","V8"
"1",0.174,0.305,0.051,0.485,0,0.484,0,0.393
"2",0,0.196,0.231,0.585,0.002,0.517,0.07,0.475
"3",0.072,0.3,0.011,0.491,0.021,0.501,0.026,0.528
"4",0,0.204,0.039,0.638,0,0.665,0.006,0.481
"5",0.004,0.41,0.025,0.742,0.008,0.498,0.012,0.199
"6",0.015,0.239,0,0.346,0,0.432,0.001,0.569
"7",0,0.394,0.049,0.641,0,0.366,0,0.609
"8",0.003,0.427,0.001,0.295,0.002,0.498,0.022,0.411
"9",0,0.51,0,0.427,0,0.438,0.042,0.648
"10",0.301,0.399,0,0.609,0,0.879,0,0.568
"11",0,0.294,0.105,0.188,0,0.75,0.053,0.326
"12",0,0.254,0,0.258,0,0.512,0.08,0.507
"13",0,0.489,0,0.603,0,0.423,0,0.416
"14",0,0.547,0.072,0.619,0.001,0.172,0,0.654
"15",0,0.326,0,0.578,0.126,0.369,0.003,0.574
"16",0.145,0.323,0.41,0.1,0.002,0.5,0.199,0.637
"17",0.203,0.469,0,0.282,0,0.52,0,0.539
"18",0.008,0.533,0.052,0.245,0,0.46,0.001,0.547
"19",0.268,0.296,0.182,0,0,0.435,0,0.533
"20",0,0.392,0.066,0.572,0.005,0.502,0.056,0.147
"21",0,0.269,0.155,0.233,0.245,0.41,0.089,0.557
"22",0,0.458,0.001,0.583,0.195,0.055,0.016,0.598
"23",0,0.411,0.153,0.217,0,0.485,0,0.596
"24",0,0.308,0,0.517,0.32,0.151,0,0.522
"25",0,0.371,0.108,0.408,0.325,0.177,0,0.553
"26",0,0.571,0.389,0.525,0,0.785,0,0.001
"27",0.169,0.368,0,0.74,0.002,0.001,0.053,0.572
"28",0.064,0.042,0.105,0.65,0.043,0.002,0.492,0.009
"29",0.088,0.396,0.198,0.671,0.001,0.403,0.17,0.378
"30",0,0.496,0.202,0.39,0,0.52,0.106,0.416
"31",0.026,0.354,0.171,0.536,0,0.429,0,0.665
"32",0.112,0.296,0.003,0.671,0,0.591,0,0.378
"33",0.064,0.421,0.256,0.354,0,0.598,0.303,0.185
"34",0.036,0.26,0.079,0.652,0.112,0.648,0,0.535
"35",0.129,0.27,0.059,0.315,0.017,0.524,0.275,0.457
"36",0.06,0.433,0,0.341,0,0.646,0,0.587
"37",0.184,0.32,0.151,0.421,0,0.46,0.162,0.505
"38",0.114,0.382,0.08,0.545,0.002,0.497,0.001,0.646
"39",0,0.363,0,0.425,0.004,0.482,0.055,0.556
"40",0.355,0.039,0.06,0.563,0.167,0.101,0,0.666
"41",0.4,0.018,0.336,0.042,0.106,0.461,0.002,0.614
"42",0,0.36,0,0.68,0,0.508,0,0.573
"43",0,0.095,0,0.773,0.15,0,0,0.52
"44",0,0.444,0.121,0.496,0,0.426,0.104,0.513
"45",0.163,0.196,0,0.416,0.003,0.591,0.097,0.398
"46",0,0.592,0,0.446,0.077,0.575,0.002,0.533
"47",0,0.382,0,0.44,0.195,0.531,0.028,0.513
"48",0.322,0.298,0.006,0.331,0.188,0.446,0.003,0.521
"49",0,0.52,0,0.664,0,0.397,0.065,0.502
"50",0.025,0.311,0.001,0.705,0,0.253,0,0.517
"51",0,0.399,0,0.66,0.125,0.368,0.039,0.312
"52",0.127,0.305,0.001,0.588,0.001,0.353,0.016,0.596
"53",0,0.003,0,0.672,0.01,0.477,0,0.507
"54",0.001,0.452,0,0.245,0.018,0.288,0.07,0.599
"55",0,0.708,0.366,0.137,0,0.177,0.086,0.098
"56",0,0.591,0,0.437,0.001,0.509,0.001,0.607
"57",0.008,0.549,0.101,0.542,0,0.485,0.018,0.33
"58",0.001,0.351,0.045,0.443,0.281,0.352,0.019,0.586
"59",0,0.436,0,0.224,0,0.626,0.08,0.288
"60",0.037,0.29,0.003,0.801,0,0.459,0.078,0.573
"61",0.132,0.268,0,0.841,0.359,0.425,0,0.192
"62",0,0.676,0,0.566,0,0.381,0,0.001
"63",0,0.494,0,0.116,0.001,0.607,0,0.562
"64",0.005,0.643,0.007,0.732,0.225,0.277,0.055,0.379
"65",0.031,0.544,0,0.502,0.143,0.363,0.034,0.394
"66",0,0.575,0.031,0,0,0.518,0,0.506
"67",0.109,0.264,0,0.58,0,0.471,0,0.78
"68",0.067,0.552,0.241,0.218,0,0.61,0.161,0.479
"69",0,0.497,0.044,0.369,0,0.686,0.154,0.396
"70",0,0.384,0,0.393,0,0.519,0,0.573
"71",0.008,0.466,0,0.418,0.042,0.48,0,0.576
"72",0.16,0.208,0,0.435,0.026,0.406,0.024,0.496
"73",0.142,0.161,0,0.379,0.03,0.555,0,0.436
"74",0,0.458,0,0.38,0.07,0.165,0.108,0.498
"75",0.181,0.039,0.4,0.053,0.471,0.035,0.369,0.031
"76",0,0.177,0.046,0.715,0,0.477,0.111,0.508
"77",0,0.292,0,0.543,0,0.505,0.066,0.51
"78",0.116,0.264,0,0.507,0.001,0.3,0,0.454
"79",0.141,0.443,0.057,0.608,0.163,0.314,0.148,0.694
"80",0,0.512,0,0.334,0.104,0.47,0.12,0.492
"81",0.257,0.02,0.217,0.022,0.084,0.49,0.228,0.453
"82",0,0.086,0,0.264,0.001,0.449,0.041,0.626
"83",0,0.466,0,0.739,0,0.474,0,0.47
"84",0,0.519,0.415,0.306,0.083,0.517,0.161,0.542
"85",0,0.476,0,0.449,0,0.47,0.118,0.41
"86",0.059,0.547,0.001,0.614,0.329,0.338,0,0.627
"87",0,0.35,0.322,0.19,0,0.505,0,0.609
"88",0.001,0.338,0.001,0.468,0.004,0.496,0.003,0.547
"89",0.036,0.585,0.022,0.56,0.006,0.502,0.002,0.506
"90",0.175,0.121,0.077,0.481,0.051,0.457,0.014,0.469
"91",0,0.441,0.121,0.461,0,0.549,0,0.632
"92",0,0.34,0.458,0.26,0,0.501,0,0.539
"93",0.062,0.578,0,1,0.134,0.549,0,0.293
"94",0,0.496,0.001,0.842,0,0.382,0.208,0.616
"95",0.164,0.009,0.266,0.01,0.401,0.14,0.255,0.072
"96",0,0.723,0,0.492,0,0.287,0,0.447
"97",0.011,0.51,0.006,0.383,0.217,0.459,0.01,0.502
"98",0.034,0.248,0.143,0.418,0.269,0.451,0,0.516
"99",0.003,0.511,0.242,0.219,0.109,0.582,0.007,0.026
"100",0.032,0.32,0,0.62,0.044,0.403,0.025,0.748
"101",0,0.584,0,0.52,0,0.191,0,0.577
"102",0.001,0.479,0.005,0.246,0.067,0.494,0.16,0.195
"103",0,0.276,0.319,0.21,0.283,0.333,0.166,0.52
"104",0,0.674,0.003,0.463,0,0.366,0,0.547
"105",0.156,0.341,0.038,0.375,0,0.55,0,0.536
"106",0.12,0.084,0.059,0.591,0.02,0.493,0.197,0.434
"107",0.571,0,0,0.666,0,0.334,0.251,0.357
"108",0.075,0.194,0.086,0.647,0,0.514,0,0.617
"109",0,0.242,0.028,0.456,0,0.243,0,0.614
"110",0.209,0.099,0.137,0.412,0.282,0.412,0.107,0.548
"111",0,0.609,0,0.543,0,0.343,0.024,0.513
"112",0,0.597,0,0.681,0,0.482,0,0.633
"113",0,0.416,0.077,0.341,0.001,0.539,0,0.71
"114",0,0.268,0.049,0.524,0,0.561,0,0.577
"115",0.001,0.519,0.001,0.765,0.066,0.378,0,0.597
"116",0,0.633,0.066,0.339,0,0.475,0,0.477
"117",0.064,0.392,0,0.461,0.117,0.393,0.165,0.537
"118",0.002,0.454,0.106,0.512,0,0.394,0.001,0.61
"119",0,0.434,0,0.422,0,0.368,0,0.606
"120",0,0.721,0.329,0.042,0,0.458,0,0.658
"121",0,0.292,0,0.423,0,0.498,0.016,0.38
"122",0.021,0.24,0.024,0.551,0.53,0.297,0.204,0.4
"123",0.219,0.002,0.174,0.002,0.008,0.494,0.001,0.573
"124",0.446,0.294,0,0.704,0.197,0.169,0,0.435
"125",0.114,0.004,0,0.752,0.169,0,0,0.412
"126",0.167,0.475,0.213,0.189,0.001,0.586,0,0.726
"127",0,0.115,0,0.612,0.001,0.534,0.237,0.41
"128",0.012,0.079,0.016,0.762,0.079,0.035,0.228,0.459
"129",0.074,0.008,0.592,0.015,0.088,0.47,0.106,0.506
"130",0,0.66,0.076,0.516,0,0.596,0.034,0.523
"131",0.075,0.612,0,0.255,0,0.528,0,0
"132",0.276,0.005,0.08,0.005,0.009,0.5,0.015,0.659
"133",0,0.599,0,0.378,0,0.447,0,0.642
"134",0.001,0.557,0.086,0.239,0,0.394,0,0.597
"135",0.097,0.125,0.033,0.373,0,0.511,0,0.541
"136",0.045,0.727,0.001,0.234,0,0.635,0.062,0.413
"137",0.136,0,0,0.817,0.383,0.294,0.018,0.592
"138",0,0.725,0.001,0.258,0,0.077,0.133,0.375
"139",0.05,0.331,0,0.236,0.213,0.384,0,0.455
"140",0.001,0.177,0.032,0.555,0.097,0.499,0.005,0.497
"141",0,0.796,0,0.785,0,0.483,0,0.185
"142",0,0.589,0,0.62,1,0.676,0,0.548
"143",0.001,0.087,0.032,0.717,0.093,0.499,0.034,0.522
"144",0.206,0.156,0.186,0.057,0.129,0.415,0.017,0.552
"145",0,0.471,0,0.428,0,0.24,0.01,0.598
"146",0.586,0,0,0.756,0.001,0,0,0.559
"147",0.042,0.182,0,0.525,0,0.018,0,0.549
"148",0.014,0.048,0.009,0.608,0.039,0.482,0.097,0.527
"149",0.055,0.23,0,0.585,0.004,0.49,0.001,0.431
"150",0.062,0.217,0.1,0.382,0.092,0.549,0.119,0.335
"151",0.037,0.429,0,0.391,0.135,0.288,0.224,0.346
"152",0.083,0.255,0.187,0.452,0,0.448,0,0.531
"153",0.001,0.177,0.001,0.466,0,0.166,0,0.522
"154",0.001,0.2,0.004,0.673,0.001,0.429,0,0.632
"155",0,0.522,0.001,0.55,0.073,0.448,0.001,0.664
"156",0.02,0.254,0.011,0.398,0.009,0.498,0.031,0.654
"157",0,0.597,0.14,0.233,0.217,0.367,0,0.711
"158",0,0.665,0,0.607,0,0.52,0,0.823
"159",0,0.502,0,0.273,0.03,0.498,0.064,0.333
"160",0.137,0.53,0.068,0.29,0.048,0.574,0.506,0.003
"161",0.178,0.388,0.008,0.702,0,0.326,0,0.39
"162",0,0.693,0.076,0.405,0,0.415,0,0.416
"163",0.215,0.405,0,0.519,0,0.281,0,0.704
"164",0.223,0.203,0.023,0.586,0.157,0.352,0.102,0.582
"165",0.299,1,0.001,0.789,0,0.322,0,0.639
"166",0.222,0,0,0.542,0.027,0.335,0.079,0.639
"167",0,0.507,0.027,0.591,0,0.081,0,0.506
"168",0.059,0.485,0,0.422,0.002,0.539,0.001,0.534
"169",0,0.354,0.171,0.621,0.001,0.391,0,0.576
"170",0,0.436,0,0.315,0.276,0.422,0.236,0.225
"171",0.016,0.393,0.001,0.589,0.005,0.255,0.085,0.669
"172",0,0.619,0.001,0.885,0,0.438,0,0.417
"173",0,0.481,0,0.271,0.093,0.405,0.428,0.175
"174",0.009,0.088,0.065,0.551,0.01,0.497,0.007,0.566
"175",0.097,0.001,0.438,0.001,0.462,0.045,0.558,0.041
"176",0,0.511,0,0.281,0.099,0.496,0.007,0.009
"177",0.182,0.361,0,0.344,0,0.379,0.003,0.716
"178",0,0.503,0.069,0.272,0,0.627,0.004,0.455
"179",0.065,0.225,0.003,0.554,0,0.396,0.209,0.475
"180",0.027,0.61,0.338,0.398,0.146,0.192,0.45,0.311
"181",0,0.568,0,0.361,0,0.515,0.002,0.598
"182",0.003,0.61,0.048,0.366,0.001,0.531,0,0.503
"183",0.161,0.205,0,0.279,0,0.495,0,0.562
"184",0.176,0.01,0.51,0.014,0.075,0.405,0.02,0.489
"185",0.1,0.217,0,0.549,0.996,0.516,0.001,0.488
"186",0,0.546,0,0.407,0,0.545,0,0.581
"187",0.004,0.05,0.002,0.363,0.104,0.495,0.114,0.684
"188",0.005,0.123,0,0.598,0.174,0.464,0,0.516
"189",0,0.506,0,0.273,0.133,0.544,0,0.394
"190",0.257,0.028,0.218,0.067,0.052,0.462,0.017,0.613
"191",0.256,0,0,0.553,0.219,0,0,0.43
"192",0,0.487,0.001,0.445,0,0.583,0,0.515
"193",0.118,0.128,0,0.627,0.001,0.486,0,0.423
"194",0.222,0.427,0.001,0.253,0,0.648,0.138,0.468
"195",0.535,0.038,0,0.743,0.426,0.014,0.114,0.464
"196",0.001,0.37,0,0.533,0,0.483,0.061,0.529
"197",0.172,0.348,0.088,0.546,0,0.435,0,0.611
"198",0.432,0.069,0.136,0.665,0.287,0.001,0,0.438
"199",0.966,0.882,0.152,0.559,0,0.002,0.096,0.489
"200",0.184,0.022,0.332,0.021,0.067,0.491,0.301,0.242
"201",0.465,0.16,0,0.836,0.757,0.003,0,0.49
"202",0.062,0.546,0.004,0.823,0.125,0.344,0.167,0.459
"203",0.091,0.173,0.001,0.295,0.029,0.465,0,0.487
"204",0.03,0.197,0.075,0.547,0.012,0.551,0,0.621
"205",0,0.481,0.093,0.442,0.163,0.444,0,0.56
"206",0,0.668,0.042,0.454,0,0.645,0.086,0.319
"207",0,0.402,0.033,0.617,0,0.607,0.01,0.628
"208",0,0.248,0,0.834,0,0.198,0.151,0.393
"209",0.009,0.311,0.165,0.297,0.184,0.386,0.153,0.488
"210",0.062,0.389,0.103,0.301,0.142,0.425,0,0.659
"211",0.044,0.412,0.149,0.208,0,0.461,0.044,0.547
"212",0.156,0.212,0.001,0.541,0.058,0.404,0,0.577
"213",0.105,0.402,0,0.389,0,0.492,0,0.531
"214",0.311,0.089,0.069,0.442,0,0.508,0,0.444
"215",0,0.39,0.001,0.4,0.101,0.39,0,0.639
"216",0.102,0.49,0.001,0.66,0,0.511,0.064,0.493
"217",0.012,0.515,0.034,0.7,0.016,0.495,0.085,0.645
"218",0.154,0.142,0.001,0.517,0.068,0.456,0,0.544
"219",0,0.313,0.003,0.705,0,0.523,0.193,0.333
"220",0.014,0.279,0.001,0.627,0.198,0.482,0.008,0.578
"221",0,0.276,0,1,0.001,0.262,0,0.54
"222",0.068,0.432,0.001,0.423,0.001,0.322,0.022,0.634
"223",0,0.559,0,0.414,0,0.495,0,0.072
"224",0.05,0.515,0.144,0.528,0.162,0.469,0.109,0.319
"225",0.326,0.413,0,0.491,0.076,0.543,0,0.344
"226",0.089,0.146,0,0.605,0.346,0.27,0,0.482
"227",0,0.342,0.002,0.46,0,0.445,0,0.543
"228",0.171,0.12,0.031,0.602,0.01,0.499,0.077,0.563
"229",0.002,0.561,0.118,0.433,0.001,0.609,0,0.354
"230",0,0.412,0,0.536,0.001,0.516,0,0.549
"231",0.001,0.475,0.001,0.613,0.481,0.038,0,0.495
"232",0,0.4,0,0.509,0,0.518,0,0.631
"233",0,0.565,0,0.61,0,0.592,0,0.54
"234",0.12,0.229,0,0.309,0.001,0.408,0.049,0.575
"235",0.061,0.491,0.102,0.609,0,0.511,0.092,0.405
"236",0.067,0.314,0,0.463,0,0,0.022,0.376
"237",0.113,0.243,0.015,0.685,0,0.356,0,0.599
"238",0,0.53,0,0.697,0.006,0.212,0.185,0.488
"239",0.082,0.659,0.621,0.028,0,0.616,0.005,0.001
"240",0.149,0.306,0.292,0.651,0.038,0.466,0.234,0.39
"241",0.097,0.517,0.001,0.219,0,0.513,0,0.517
"242",0,0.719,0,0.317,0,0.56,0.092,0.416
"243",0,0.381,0,0.448,0,0.704,0,0.412
"244",0.083,0.548,0,0.576,0.034,0.574,0,0.449
"245",0,0.292,0,0.439,0,0.384,0,0.617
"246",0.015,0.458,0.03,0.409,0.481,0.027,0.027,0.525
"247",0.262,0.355,0,0.665,0,0,0.161,0.534
"248",0.112,0.026,0.036,0.327,0.078,0.382,0,0.499
"249",0,0.026,0,0.737,0,0.15,0,0.516
"250",0,0.094,0,0.331,0,0.574,0.031,0.609
