"","x"
"1",0.1
"2",0.69
"3",0.87
"4",0.96
"5",0.95
"6",0.94
"7",0.96
"8",0.91
"9",0.96
"10",0.93
"11",0.95
"12",0.49
"13",0.85
"14",0.9
"15",0.93
"16",0.57
"17",0.95
"18",0.88
"19",0.92
"20",0.14
"21",0.89
"22",0.92
"23",0.95
"24",0.64
"25",0.87
"26",0.99
"27",0.92
"28",0.67
"29",0.92
"30",0.91
"31",0.38
"32",0.98
"33",0.95
"34",0.93
"35",0.72
"36",0.47
"37",0.89
"38",0.93
"39",0.9
"40",0.83
"41",0.84
"42",0.88
"43",0.92
"44",0.91
"45",0.54
"46",0.68
"47",0.84
"48",0.98
"49",0.93
"50",0.51
"51",0.88
"52",0.89
"53",0.9
"54",0.07
"55",0.97
"56",0.97
"57",0.93
"58",0.43
"59",0.27
"60",0.71
"61",0.95
"62",0.91
"63",0.91
"64",0.99
"65",0.89
"66",0.92
"67",0.94
"68",0.96
"69",0.41
"70",0.92
"71",0.97
"72",0.9
"73",1
"74",0.82
"75",0.93
"76",0.98
"77",0.97
"78",0.9
"79",0.94
"80",0.99
"81",0.39
"82",0.95
"83",0.94
"84",0.98
"85",0.94
"86",0.91
"87",0.93
"88",0.9
"89",0.95
"90",0.93
"91",0.93
"92",0.24
"93",0.91
"94",0.92
"95",0.97
"96",0.76
"97",0.94
"98",0.94
"99",0.84
"100",0.9
"101",0.97
"102",0.9
"103",0.96
"104",0.54
"105",0.88
"106",0.82
"107",0.89
"108",0.67
"109",0.69
"110",0.97
"111",0.96
"112",0.12
"113",0.88
"114",0.94
"115",0.95
"116",0.48
"117",0.33
"118",0.93
"119",0.73
"120",0.94
"121",0.14
"122",0.75
"123",0.88
"124",0.96
"125",0.87
"126",0.91
"127",0.85
"128",0.94
"129",0.87
"130",0.52
"131",0.95
"132",0.96
"133",0.93
"134",0.91
"135",0.9
"136",0.9
"137",0.92
"138",0.89
"139",0.92
"140",0.89
"141",0.5
"142",0.93
"143",0.95
"144",0.91
"145",0.42
"146",0.92
"147",0.98
"148",0.94
"149",0.96
"150",0.95
"151",0.76
"152",0.92
"153",0.92
"154",0.48
"155",0.46
"156",0.78
"157",0.93
"158",0.83
"159",0.95
"160",0.94
"161",0.94
"162",0.84
"163",0.96
"164",0.93
"165",0.81
"166",0.39
"167",0.43
"168",0.94
"169",0.95
"170",0.2
"171",0.9
"172",0.96
"173",0.95
"174",0.95
"175",0.88
"176",0.82
"177",0.98
"178",0.82
"179",0.89
"180",0.87
"181",0.9
"182",0.77
"183",0.94
"184",0.92
"185",0.7
"186",0.88
"187",0.91
"188",0.88
"189",0.66
"190",0.83
"191",0.95
"192",0.97
"193",0.96
"194",0.92
"195",0.89
"196",0.48
"197",0.54
"198",0.94
"199",0.94
"200",0.95
"201",0.06
"202",0.8
"203",0.96
"204",0.98
"205",0.96
"206",0.94
"207",0.91
"208",0.8
"209",0.69
"210",0.98
"211",0.99
"212",0.92
"213",0.94
"214",0.92
"215",0.92
"216",0.92
"217",0.98
"218",0.91
"219",0.97
"220",0.96
"221",0.48
"222",0.91
"223",0.54
"224",0.46
"225",0.69
"226",0.92
"227",0.8
"228",0.16
"229",0.35
"230",0.94
"231",0.47
"232",0.22
"233",0.97
"234",0.93
"235",0.91
"236",0.94
"237",0.94
"238",0.95
"239",0.84
"240",0.92
"241",0.92
"242",0.96
"243",0.79
"244",0.55
"245",0.31
"246",0.36
"247",0.99
"248",0.49
"249",0.9
"250",0.81
