"","V1","V2","V3","V4"
"1",0.39,0.527,0.353,0.581
"2",0.378,0.515,0.268,0.515
"3",0.45,0.498,0.312,0.482
"4",0.413,0.39,0.379,0.539
"5",0.389,0.557,0.378,0.464
"6",0.422,0.513,0.362,0.469
"7",0.291,0.537,0.407,0.491
"8",0.418,0.471,0.337,0.492
"9",0.416,0.478,0.437,0.5
"10",0.428,0.457,0.317,0.529
"11",0.375,0.583,0.352,0.584
"12",0.411,0.508,0.369,0.57
"13",0.48,0.563,0.393,0.53
"14",0.389,0.53,0.328,0.494
"15",0.331,0.47,0.369,0.5
"16",0.467,0.512,0.313,0.472
"17",0.338,0.424,0.308,0.464
"18",0.371,0.39,0.316,0.486
"19",0.403,0.502,0.322,0.478
"20",0.284,0.454,0.359,0.562
"21",0.4,0.493,0.421,0.533
"22",0.38,0.481,0.344,0.533
"23",0.387,0.485,0.314,0.449
"24",0.371,0.496,0.386,0.523
"25",0.417,0.543,0.372,0.442
"26",0.305,0.529,0.418,0.598
"27",0.398,0.533,0.345,0.511
"28",0.445,0.509,0.332,0.575
"29",0.375,0.514,0.301,0.541
"30",0.306,0.524,0.326,0.476
"31",0.478,0.457,0.447,0.525
"32",0.353,0.485,0.35,0.482
"33",0.409,0.53,0.346,0.534
"34",0.398,0.445,0.359,0.515
"35",0.438,0.475,0.391,0.472
"36",0.357,0.444,0.355,0.464
"37",0.406,0.486,0.396,0.52
"38",0.44,0.463,0.35,0.592
"39",0.366,0.47,0.359,0.454
"40",0.384,0.46,0.385,0.527
"41",0.397,0.533,0.282,0.5
"42",0.475,0.468,0.387,0.529
"43",0.347,0.517,0.321,0.62
"44",0.46,0.48,0.421,0.45
"45",0.284,0.497,0.195,0.58
"46",0.363,0.492,0.267,0.57
"47",0.366,0.53,0.329,0.482
"48",0.404,0.498,0.296,0.596
"49",0.359,0.554,0.352,0.494
"50",0.361,0.426,0.355,0.551
"51",0.469,0.445,0.417,0.481
"52",0.432,0.486,0.35,0.527
"53",0.39,0.571,0.332,0.422
"54",0.445,0.501,0.336,0.509
"55",0.392,0.46,0.402,0.49
"56",0.432,0.542,0.391,0.468
"57",0.381,0.439,0.331,0.565
"58",0.406,0.461,0.315,0.482
"59",0.365,0.455,0.354,0.478
"60",0.366,0.458,0.421,0.488
"61",0.45,0.538,0.257,0.46
"62",0.367,0.463,0.397,0.402
"63",0.401,0.484,0.242,0.46
"64",0.354,0.474,0.384,0.499
"65",0.453,0.428,0.339,0.55
"66",0.436,0.56,0.313,0.535
"67",0.411,0.5,0.374,0.486
"68",0.378,0.52,0.313,0.565
"69",0.365,0.435,0.366,0.545
"70",0.345,0.479,0.326,0.496
"71",0.433,0.462,0.34,0.52
"72",0.369,0.502,0.36,0.499
"73",0.5,0.504,0.329,0.487
"74",0.399,0.546,0.328,0.5
"75",0.322,0.449,0.38,0.502
"76",0.397,0.535,0.332,0.563
"77",0.373,0.433,0.405,0.454
"78",0.398,0.507,0.365,0.567
"79",0.372,0.482,0.368,0.419
"80",0.395,0.49,0.291,0.517
"81",0.39,0.524,0.357,0.489
"82",0.359,0.489,0.36,0.487
"83",0.406,0.472,0.345,0.551
"84",0.362,0.429,0.32,0.55
"85",0.377,0.409,0.368,0.498
"86",0.402,0.552,0.401,0.497
"87",0.376,0.555,0.329,0.514
"88",0.346,0.499,0.395,0.542
"89",0.417,0.531,0.377,0.491
"90",0.372,0.453,0.228,0.508
"91",0.395,0.508,0.378,0.448
"92",0.313,0.518,0.339,0.605
"93",0.311,0.501,0.284,0.57
"94",0.47,0.513,0.385,0.516
"95",0.325,0.475,0.285,0.513
"96",0.406,0.587,0.385,0.484
"97",0.368,0.44,0.311,0.512
"98",0.448,0.541,0.433,0.483
"99",0.321,0.529,0.343,0.542
"100",0.462,0.436,0.408,0.54
"101",0.32,0.457,0.413,0.511
"102",0.408,0.485,0.31,0.482
"103",0.397,0.596,0.372,0.518
"104",0.431,0.504,0.367,0.563
"105",0.421,0.537,0.316,0.533
"106",0.407,0.481,0.379,0.534
"107",0.36,0.477,0.354,0.484
"108",0.481,0.447,0.328,0.554
"109",0.329,0.497,0.407,0.584
"110",0.281,0.452,0.343,0.49
"111",0.316,0.47,0.368,0.489
"112",0.386,0.429,0.406,0.51
"113",0.322,0.468,0.286,0.563
"114",0.367,0.555,0.319,0.535
"115",0.37,0.498,0.283,0.47
"116",0.401,0.508,0.377,0.498
"117",0.284,0.462,0.336,0.576
"118",0.4,0.477,0.346,0.51
"119",0.421,0.499,0.35,0.515
"120",0.331,0.489,0.363,0.557
"121",0.426,0.5,0.288,0.471
"122",0.399,0.501,0.355,0.442
"123",0.375,0.422,0.417,0.476
"124",0.453,0.538,0.312,0.58
"125",0.477,0.499,0.367,0.582
"126",0.315,0.463,0.363,0.496
"127",0.453,0.483,0.265,0.537
"128",0.407,0.457,0.326,0.579
"129",0.448,0.54,0.246,0.49
"130",0.453,0.486,0.348,0.542
"131",0.331,0.53,0.368,0.479
"132",0.424,0.506,0.388,0.405
"133",0.39,0.489,0.32,0.436
"134",0.382,0.443,0.326,0.557
"135",0.402,0.441,0.4,0.552
"136",0.353,0.501,0.366,0.471
"137",0.442,0.413,0.367,0.458
"138",0.329,0.504,0.387,0.451
"139",0.46,0.538,0.338,0.48
"140",0.322,0.41,0.31,0.522
"141",0.377,0.476,0.419,0.588
"142",0.379,0.544,0.272,0.523
"143",0.41,0.485,0.276,0.479
"144",0.298,0.466,0.327,0.512
"145",0.483,0.521,0.303,0.507
"146",0.503,0.537,0.256,0.494
"147",0.406,0.437,0.425,0.516
"148",0.419,0.467,0.349,0.516
"149",0.346,0.51,0.298,0.482
"150",0.313,0.499,0.339,0.451
"151",0.327,0.536,0.414,0.458
"152",0.437,0.501,0.294,0.512
"153",0.439,0.465,0.369,0.538
"154",0.356,0.467,0.448,0.571
"155",0.313,0.45,0.378,0.499
"156",0.465,0.498,0.31,0.58
"157",0.394,0.489,0.366,0.578
"158",0.37,0.399,0.334,0.519
"159",0.44,0.468,0.387,0.561
"160",0.374,0.484,0.37,0.496
"161",0.457,0.523,0.345,0.572
"162",0.411,0.513,0.322,0.538
"163",0.372,0.438,0.386,0.466
"164",0.409,0.397,0.384,0.448
"165",0.379,0.503,0.339,0.534
"166",0.344,0.46,0.378,0.576
"167",0.425,0.503,0.273,0.559
"168",0.394,0.521,0.351,0.564
"169",0.329,0.476,0.388,0.555
"170",0.344,0.54,0.296,0.497
"171",0.449,0.473,0.323,0.485
"172",0.423,0.459,0.338,0.506
"173",0.419,0.434,0.34,0.535
"174",0.362,0.497,0.347,0.525
"175",0.485,0.505,0.383,0.535
"176",0.383,0.526,0.355,0.481
"177",0.354,0.474,0.38,0.546
"178",0.32,0.502,0.338,0.491
"179",0.471,0.553,0.362,0.543
"180",0.48,0.42,0.311,0.486
"181",0.397,0.57,0.348,0.491
"182",0.434,0.482,0.361,0.478
"183",0.379,0.535,0.456,0.471
"184",0.517,0.497,0.424,0.6
"185",0.377,0.469,0.466,0.519
"186",0.482,0.524,0.352,0.582
"187",0.385,0.397,0.319,0.512
"188",0.415,0.489,0.354,0.468
"189",0.444,0.526,0.276,0.565
"190",0.37,0.528,0.334,0.477
"191",0.412,0.542,0.381,0.47
"192",0.386,0.465,0.419,0.524
"193",0.433,0.511,0.338,0.558
"194",0.386,0.449,0.301,0.497
"195",0.391,0.541,0.312,0.546
"196",0.378,0.47,0.401,0.541
"197",0.346,0.558,0.337,0.568
"198",0.391,0.566,0.336,0.445
"199",0.36,0.493,0.328,0.564
"200",0.344,0.523,0.387,0.395
"201",0.385,0.492,0.346,0.525
"202",0.245,0.412,0.242,0.462
"203",0.3,0.488,0.371,0.554
"204",0.514,0.471,0.33,0.488
"205",0.462,0.45,0.309,0.495
"206",0.406,0.491,0.363,0.475
"207",0.443,0.542,0.33,0.505
"208",0.476,0.488,0.35,0.54
"209",0.439,0.479,0.401,0.478
"210",0.327,0.514,0.383,0.413
"211",0.302,0.538,0.327,0.481
"212",0.437,0.488,0.405,0.488
"213",0.422,0.502,0.361,0.563
"214",0.321,0.457,0.392,0.472
"215",0.394,0.478,0.438,0.593
"216",0.343,0.552,0.442,0.516
"217",0.305,0.485,0.319,0.541
"218",0.383,0.483,0.379,0.581
"219",0.405,0.455,0.291,0.522
"220",0.352,0.525,0.392,0.486
"221",0.408,0.54,0.376,0.511
"222",0.357,0.547,0.426,0.538
"223",0.386,0.472,0.468,0.549
"224",0.443,0.497,0.364,0.467
"225",0.359,0.493,0.359,0.52
"226",0.357,0.458,0.431,0.514
"227",0.399,0.433,0.398,0.521
"228",0.392,0.481,0.353,0.573
"229",0.398,0.475,0.377,0.552
"230",0.403,0.514,0.337,0.451
"231",0.4,0.52,0.435,0.489
"232",0.403,0.466,0.33,0.591
"233",0.323,0.457,0.313,0.458
"234",0.348,0.537,0.396,0.536
"235",0.442,0.487,0.313,0.46
"236",0.42,0.492,0.36,0.468
"237",0.444,0.479,0.327,0.506
"238",0.365,0.524,0.347,0.512
"239",0.344,0.527,0.371,0.592
"240",0.386,0.459,0.37,0.554
"241",0.391,0.512,0.339,0.497
"242",0.434,0.454,0.348,0.516
"243",0.394,0.533,0.359,0.536
"244",0.348,0.517,0.36,0.496
"245",0.388,0.487,0.294,0.498
"246",0.405,0.528,0.375,0.53
"247",0.338,0.477,0.287,0.576
"248",0.472,0.469,0.419,0.501
"249",0.376,0.5,0.387,0.513
"250",0.356,0.503,0.337,0.572
