"","x"
"1",16170.178311455
"2",16325.4006429142
"3",16179.4834804267
"4",16555.7651753356
"5",16334.7068342651
"6",16284.4503542155
"7",16467.8555010214
"8",16737.1549017434
"9",16230.7751229262
"10",16152.6736615678
"11",16253.0453980328
"12",16512.30917896
"13",16424.6025215511
"14",16285.4916601044
"15",16416.7371030962
"16",16306.3673076672
"17",16225.953694623
"18",16109.3867108891
"19",16659.3742578185
"20",16191.2053621199
"21",16768.4484558896
"22",16376.3408667828
"23",16383.5207068476
"24",16348.2911741691
"25",16166.5166860036
"26",16434.5506343234
"27",16477.8007292961
"28",16432.4700822343
"29",16199.8300794834
"30",17159.1024279261
"31",16477.494457383
"32",16478.9381165156
"33",16425.9700209328
"34",16324.7250694619
"35",16140.8880567314
"36",16169.0347977419
"37",16134.5618321709
"38",16682.5959012568
"39",16316.1780083947
"40",16063.5333543934
"41",16351.1108673686
"42",16725.1897205863
"43",16445.2049062911
"44",15996.5565378857
"45",16330.5429973285
"46",16111.6379215977
"47",16091.2757131326
"48",16302.1177446172
"49",16148.3699939788
"50",16823.879359744
"51",16282.277576541
"52",16231.0121408668
"53",16513.9380349524
"54",16150.1951041026
"55",16321.526295529
"56",16803.6939891039
"57",16353.5306065044
"58",16198.9612991412
"59",16647.6778531367
"60",16320.1475192769
"61",16256.889555838
"62",16761.5440985589
"63",16304.1854342403
"64",16206.1106422443
"65",16100.6322547166
"66",16159.7599589693
"67",16109.6974421245
"68",16237.0954696059
"69",16102.2551639385
"70",16265.2804650104
"71",16118.3769869064
"72",16633.4558972991
"73",16331.388453173
"74",16250.4619475823
"75",16932.7166472939
"76",16037.8102015828
"77",15979.26590485
"78",15976.5569755098
"79",16367.2172197141
"80",16360.4469151283
"81",16220.5409564524
"82",16024.8958722248
"83",16770.6359215869
"84",16603.3999790375
"85",16379.9654843337
"86",16282.1910626562
"87",16308.5155324329
"88",16253.0104388048
"89",16234.8294632934
"90",16310.0189035039
"91",16146.9517050294
"92",16258.5074031665
"93",16352.9183181713
"94",16090.1851785521
"95",16184.3089068765
"96",16416.724952705
"97",16194.3583736604
"98",16442.0466607781
"99",16117.7055282711
"100",16865.6255340584
"101",16129.2159809173
"102",16468.2451356129
"103",16287.4307005801
"104",16209.5507756009
"105",16418.19625048
"106",16627.0709099534
"107",16231.7914887897
"108",16349.1767200665
"109",16273.5091488086
"110",16167.7346581105
"111",16095.1238263708
"112",16455.2003406492
"113",16875.2186861788
"114",16261.4028464745
"115",15986.8841921113
"116",16425.6241445252
"117",16168.9503398137
"118",16059.0717215146
"119",16147.4414259202
"120",16284.0601950653
"121",16484.9311343883
"122",16286.1477013527
"123",16420.2221445144
"124",16466.5471688143
"125",16314.0154663096
"126",16231.355325145
"127",16189.2515781148
"128",16298.2951660859
"129",16616.2738108915
"130",16336.4523233434
"131",16044.7521571211
"132",15986.7159630523
"133",16608.3764678662
"134",16358.9787082204
"135",16141.4152591573
"136",16343.0974597978
"137",16383.9017495703
"138",16173.5162577403
"139",16150.2189775835
"140",16223.7942208579
"141",16317.866099023
"142",16198.207509486
"143",16576.2112128469
"144",16435.9151117458
"145",16042.9777195802
"146",16254.731507439
"147",16312.1856069798
"148",16172.8659089904
"149",16158.2859397766
"150",16210.9571092825
"151",16282.92536808
"152",16092.1262023845
"153",16376.5111406574
"154",16224.5749647455
"155",16483.5829428676
"156",16038.4049794323
"157",16577.3998776738
"158",16151.8106261264
"159",16603.1524668501
"160",16374.5280534508
"161",16237.6921356452
"162",16251.5918231664
"163",16458.6404936465
"164",16006.3962805653
"165",16920.9637163775
"166",16086.9324625983
"167",16550.8014467248
"168",16233.161195793
"169",16287.7661155574
"170",16260.8002895796
"171",16256.0184926901
"172",16250.1675163926
"173",16754.558600301
"174",16220.8177309888
"175",16301.8441163875
"176",16610.1691237191
"177",16504.3065805704
"178",16123.7600315614
"179",16216.7011381646
"180",16338.1289399561
"181",16315.8622870733
"182",16683.6265768662
"183",16110.7107294276
"184",16227.9424170797
"185",16410.2541581493
"186",16267.0293199353
"187",15954.186717873
"188",16456.4330873412
"189",16252.6074110891
"190",16247.0517830803
"191",16050.4318293064
"192",16098.8682968166
"193",16346.6591805651
"194",16325.603687404
"195",16157.9321223536
"196",16106.5069568098
"197",16333.3875089336
"198",16104.2628029228
"199",16182.4288221026
"200",16047.4465479927
"201",16442.2122202404
"202",16434.3077170721
"203",16289.6727439062
"204",16517.6924390035
"205",16250.398030197
"206",16494.9911051926
"207",16209.561408539
"208",16500.6700689014
"209",15941.6334273564
"210",16214.020178322
"211",16379.6451606988
"212",16303.1821429345
"213",16017.2154298849
"214",16128.106417652
"215",16255.1569362755
"216",16164.1820324287
"217",16215.7858040801
"218",16230.1203565744
"219",16466.5090088342
"220",16529.0170781169
"221",16378.170449985
"222",16252.4189980958
"223",16177.719606132
"224",16744.9036973711
"225",16176.7623407691
"226",16337.7949830855
"227",16267.5042634251
"228",16399.3202476097
"229",16322.6627954046
"230",16302.8667863876
"231",16723.0783568968
"232",16046.4057446228
"233",16191.5126330579
"234",16171.8164586528
"235",16352.9981362418
"236",16312.260892868
"237",16355.5244137467
"238",16311.1741203732
"239",16276.1447777685
"240",16409.366805745
"241",16151.9692801446
"242",16167.8130722183
"243",16190.7686988036
"244",15972.7451628634
"245",16054.1037455375
"246",16218.2005398459
"247",16199.215221825
"248",16259.9718283346
"249",16469.5989997024
"250",16220.4276850937
