"","x"
"1",-8016.68103359165
"2",-8094.2921993212
"3",-8021.33361807747
"4",-8209.47446553191
"5",-8098.9452949967
"6",-8073.81705497186
"7",-8165.51962837484
"8",-8300.16932873582
"9",-8046.97943932721
"10",-8007.92870864803
"11",-8058.11457688051
"12",-8187.7464673441
"13",-8143.89313863965
"14",-8074.33770791631
"15",-8139.96042941221
"16",-8084.77553169771
"17",-8044.56872517563
"18",-7986.28523330869
"19",-8261.27900677339
"20",-8027.1945589241
"21",-8315.8161058089
"22",-8119.76231125553
"23",-8123.35223128791
"24",-8105.73746494869
"25",-8014.85022086591
"26",-8148.8671950258
"27",-8170.49224251216
"28",-8147.82691898127
"29",-8031.5069176058
"30",-8511.14309182716
"31",-8170.33910655563
"32",-8171.06093612193
"33",-8144.5768883305
"34",-8093.95441259507
"35",-8002.03590622981
"36",-8016.10927673506
"37",-7998.87279394955
"38",-8272.8898284925
"39",-8089.68088206146
"40",-7963.3585550608
"41",-8107.14731154844
"42",-8294.18673815725
"43",-8154.19433100965
"44",-7929.87014680696
"45",-8096.86337652837
"46",-7987.41083866297
"47",-7977.22973443042
"48",-8082.65075017273
"49",-8005.77687485352
"50",-8343.53155773614
"51",-8072.73066613461
"52",-8047.09794829752
"53",-8188.56089534033
"54",-8006.68942991544
"55",-8092.35502562863
"56",-8333.4388724161
"57",-8108.35718111631
"58",-8031.07252743475
"59",-8255.43080443248
"60",-8091.66563750259
"61",-8060.03665578313
"62",-8312.36392714357
"63",-8083.68459498427
"64",-8034.64719898627
"65",-7981.9080052224
"66",-8011.47185734877
"67",-7986.44059892639
"68",-8050.13961266705
"69",-7982.71945983336
"70",-8064.23211036931
"71",-7990.78037131734
"72",-8248.31982651367
"73",-8097.28610445064
"74",-8056.82285165529
"75",-8397.95020151107
"76",-7950.49697865554
"77",-7921.2248302891
"78",-7919.87036561904
"79",-8115.20048772118
"80",-8111.81533542829
"81",-8041.86235609032
"82",-7944.03981397651
"83",-8316.90983865756
"84",-8233.29186738285
"85",-8121.57462003099
"86",-8072.68740919224
"87",-8085.84964408055
"88",-8058.09709726653
"89",-8049.00660951084
"90",-8086.6013296161
"91",-8005.06773037883
"92",-8060.84557944738
"93",-8108.05103694977
"94",-7976.68446714018
"95",-8023.74633130236
"96",-8139.95435421662
"97",-8028.77106469431
"98",-8152.6152082532
"99",-7990.44464199969
"100",-8364.40464489333
"101",-7996.19986832275
"102",-8165.71444567057
"103",-8075.30722815416
"104",-8036.36726566457
"105",-8140.69000310411
"106",-8245.12733284081
"107",-8047.487622259
"108",-8106.18023789737
"109",-8068.34645226843
"110",-8015.45920691938
"111",-7979.15379104952
"112",-8159.19204818872
"113",-8369.20122095351
"114",-8062.29330110137
"115",-7925.03397391977
"116",-8144.4039501267
"117",-8016.06704777095
"118",-7961.1277386214
"119",-8005.3125908242
"120",-8073.62197539679
"121",-8174.05744505827
"122",-8074.66572854048
"123",-8141.70295012134
"124",-8164.86546227126
"125",-8088.59961101893
"126",-8047.26954043662
"127",-8026.21766692154
"128",-8080.73946090706
"129",-8239.72878330987
"130",-8099.81803953584
"131",-7953.96795642468
"132",-7924.94985939028
"133",-8235.78011179723
"134",-8111.08123197432
"135",-8002.29950744279
"136",-8103.14060776303
"137",-8123.54275264928
"138",-8018.35000673428
"139",-8006.70136665589
"140",-8043.48898829307
"141",-8090.52492737564
"142",-8030.69563260711
"143",-8219.69748428757
"144",-8149.549433737
"145",-7953.08073765424
"146",-8058.95763158363
"147",-8087.68468135402
"148",-8018.02483235933
"149",-8010.73484775244
"150",-8037.07043250537
"151",-8073.05456190415
"152",-7977.65497905637
"153",-8119.8474481928
"154",-8043.87936023685
"155",-8173.38334929792
"156",-7950.79436758028
"157",-8220.291816701
"158",-8007.4971909273
"159",-8233.1681112892
"160",-8118.85590458954
"161",-8050.43794568673
"162",-8057.38778944734
"163",-8160.91212468736
"164",-7934.79001814678
"165",-8392.07373605288
"166",-7975.05810916328
"167",-8206.9926012265
"168",-8048.17247576063
"169",-8075.47493564282
"170",-8061.9920226539
"171",-8059.60112420916
"172",-8056.67563606042
"173",-8308.87117801463
"174",-8042.00074335852
"175",-8082.51393605788
"176",-8236.67643972368
"177",-8183.74516814934
"178",-7993.47189364484
"179",-8039.94244694644
"180",-8100.65634784215
"181",-8089.52302140075
"182",-8273.40516629721
"183",-7986.9472425779
"184",-8045.56308640399
"185",-8136.71895693877
"186",-8065.10653783175
"187",-7908.68523680063
"188",-8159.80842153472
"189",-8057.89558340869
"190",-8055.11776940426
"191",-7956.80779251733
"192",-7981.0260262724
"193",-8104.92146814668
"194",-8094.39372156612
"195",-8010.55793904091
"196",-7984.84535626901
"197",-8098.28563233091
"198",-7983.72327932554
"199",-8022.80628891544
"200",-7955.31515186046
"201",-8152.69798798435
"202",-8148.74573640019
"203",-8076.42824981724
"204",-8190.43809736589
"205",-8056.79089296263
"206",-8179.08743046042
"207",-8036.37258213364
"208",-8181.92691231484
"209",-7902.40859154231
"210",-8038.6019670251
"211",-8121.41445821354
"212",-8083.18294933135
"213",-7940.19959280657
"214",-7995.6450866901
"215",-8059.17034600187
"216",-8013.68289407846
"217",-8039.48477990416
"218",-8046.65205615133
"219",-8164.84638228122
"220",-8196.10041692259
"221",-8120.67710285664
"222",-8057.80137691201
"223",-8020.45168093013
"224",-8304.04372654967
"225",-8019.97304824866
"226",-8100.48936940686
"227",-8065.34400957667
"228",-8131.25200166898
"229",-8092.92327556642
"230",-8083.0252710579
"231",-8293.13105631252
"232",-7954.79475017551
"233",-8027.34819439308
"234",-8017.5001071905
"235",-8108.09094598503
"236",-8087.7223242981
"237",-8109.35408473745
"238",-8087.17893805074
"239",-8069.66426674839
"240",-8136.27528073662
"241",-8007.57651793641
"242",-8015.49841397326
"243",-8026.97622726594
"244",-7917.96445929585
"245",-7958.64375063287
"246",-8040.69214778707
"247",-8031.19948877662
"248",-8061.57779203144
"249",-8166.3913777153
"250",-8041.80572041097
