"","V1","V2","V3","V4","V5","V6","V7","V8","V9","V10","V11","V12"
"1",0.029,0.017,0.41,0.001,0.014,0.537,0,0.022,0.475,0,0,0.615
"2",0.014,0.154,0.029,0.024,0.307,0.037,0.05,0.005,0.493,0.027,0.005,0.577
"3",0.008,0.023,0.452,0.006,0.016,0.529,0.014,0.033,0.49,0,0,0.584
"4",0.001,0.002,0.464,0.002,0.001,0.59,0.001,0.001,0.522,0.026,0.007,0.585
"5",0.002,0,0.482,0.001,0,0.581,0,0.001,0.502,0,0,0.582
"6",0.003,0.004,0.43,0.015,0.004,0.525,0.026,0.002,0.499,0.047,0.002,0.558
"7",0.015,0.001,0.458,0.013,0.001,0.547,0.015,0.001,0.5,0.011,0.006,0.573
"8",0.003,0.025,0.473,0.001,0.068,0.557,0.02,0.029,0.498,0.017,0.035,0.574
"9",0.051,0.003,0.583,0.001,0,0.486,0.021,0,0.616,0.028,0,0.483
"10",0.061,0.008,0.432,0.001,0.001,0.553,0.001,0.005,0.476,0.001,0.004,0.588
"11",0.006,0.053,0.37,0.034,0.094,0.498,0.023,0.015,0.489,0.025,0.033,0.56
"12",0.005,0.008,0.442,0.013,0.019,0.598,0,0.01,0.5,0.003,0.008,0.5
"13",0.027,0.015,0.415,0.026,0.013,0.539,0.015,0.002,0.493,0.009,0.002,0.606
"14",0.002,0.001,0.484,0,0.001,0.502,0.001,0,0.5,0,0.028,0.58
"15",0.005,0.001,0.403,0.06,0.002,0.524,0.018,0.001,0.487,0,0.029,0.58
"16",0.004,0.027,0.455,0.007,0.035,0.462,0.047,0.025,0.498,0.032,0.034,0.558
"17",0.001,0.007,0.466,0.002,0.005,0.515,0.004,0.018,0.501,0.017,0.001,0.591
"18",0.004,0,0.543,0,0.047,0.399,0,0.001,0.629,0.003,0.012,0.481
"19",0,0,0.452,0.011,0,0.501,0.035,0.013,0.5,0.021,0.014,0.576
"20",0,0.001,0.435,0.002,0,0.491,0.035,0.003,0.501,0.003,0.001,0.632
"21",0,0,0.483,0.003,0,0.522,0.006,0.001,0.5,0.036,0.016,0.581
"22",0.013,0.008,0.462,0.01,0.01,0.613,0.045,0.029,0.47,0.012,0.008,0.581
"23",0,0.058,0.409,0.002,0.057,0.536,0.048,0.003,0.489,0.074,0.003,0.502
"24",0,0,0.415,0,0,0.55,0,0.013,0.5,0.024,0.022,0.552
"25",0,0,0.421,0.029,0,0.534,0.009,0.033,0.496,0.049,0.005,0.545
"26",0,0,0.541,0.001,0,0.461,0.001,0.002,0.603,0.002,0.026,0.493
"27",0.012,0.016,0.394,0.023,0.021,0.525,0.02,0.022,0.49,0.007,0.01,0.524
"28",0.001,0.057,0.543,0.001,0.002,0.456,0.002,0.024,0.614,0.015,0.001,0.499
"29",0.001,0.002,0.434,0.002,0.002,0.53,0.002,0.002,0.5,0.001,0.001,0.579
"30",0.026,0.012,0.407,0.013,0.027,0.498,0.023,0.009,0.485,0.012,0.012,0.582
"31",0.023,0.054,0.385,0.026,0.045,0.522,0.028,0.022,0.49,0.029,0.033,0.524
"32",0.007,0.013,0.397,0.012,0.029,0.55,0.019,0.043,0.458,0.011,0.009,0.564
"33",0.006,0.025,0.379,0.001,0,0.549,0.028,0.007,0.498,0,0.001,0.601
"34",0.015,0.016,0.473,0.002,0.046,0.442,0.001,0,0.526,0.044,0,0.551
"35",0.032,0.027,0.388,0.038,0.027,0.495,0.097,0.021,0.488,0.014,0.026,0.582
"36",0,0,0.45,0.025,0.001,0.557,0,0.021,0.499,0,0,0.576
"37",0.003,0.012,0.424,0.003,0.016,0.557,0.007,0.001,0.501,0.005,0.001,0.591
"38",0.003,0.04,0.391,0.01,0.045,0.468,0.037,0.051,0.5,0.022,0.025,0.5
"39",0.003,0.002,0.407,0.001,0.003,0.585,0.005,0.001,0.498,0.003,0.001,0.58
"40",0.003,0.029,0.447,0.051,0.076,0.941,0.018,0.013,0.482,0.013,0.016,0.569
"41",0.005,0.014,0.428,0.009,0.021,0.512,0.047,0.004,0.486,0.006,0.007,0.614
"42",0.03,0.028,0.408,0.024,0.044,0.51,0.05,0.035,0.459,0.019,0.031,0.574
"43",0.01,0,0.007,0.035,0,0.008,0.019,0.005,0.498,0.01,0.005,0.552
"44",0.001,0.014,0.485,0.002,0.048,0.5,0.002,0.003,0.497,0.01,0.006,0.57
"45",0.012,0.006,0.396,0.006,0.005,0.541,0.003,0.045,0.499,0.003,0.012,0.595
"46",0.007,0.001,0.437,0.005,0.005,0.554,0,0.03,0.499,0.001,0.005,0.6
"47",0.032,0.001,0.404,0,0.008,0.539,0,0,0.523,0,0.04,0.548
"48",0,0,0.461,0.001,0,0.541,0.001,0.04,0.501,0,0.001,0.603
"49",0.005,0.019,0.456,0.03,0.025,0.516,0.01,0.008,0.499,0.008,0.031,0.572
"50",0.008,0.016,0.534,0.003,0.017,0.399,0.006,0.002,0.579,0.006,0.002,0.498
"51",0,0.008,0.451,0.002,0.047,0.513,0,0.026,0.508,0,0.001,0.572
"52",0,0.011,0.46,0.001,0.009,0.56,0.01,0.026,0.5,0.004,0.012,0.582
"53",0.014,0.015,0.43,0.021,0.017,0.515,0.02,0.004,0.497,0.01,0.013,0.597
"54",0.014,0.052,0.395,0.009,0.014,0.584,0.017,0.006,0.516,0.037,0.01,0.491
"55",0.004,0.002,0.433,0.011,0.027,0.518,0.005,0.001,0.497,0.006,0.001,0.584
"56",0.024,0.047,0.44,0.008,0.029,0.526,0.002,0.008,0.496,0.005,0.003,0.618
"57",0.002,0.002,0.44,0.011,0.027,0.516,0.001,0,0.494,0.001,0.001,0.594
"58",0,0,0.444,0,0,0.593,0.025,0.016,0.479,0.046,0,0.579
"59",0.001,0.005,0.415,0.013,0.025,0.573,0.026,0.02,0.48,0.01,0.016,0.576
"60",0,0,0.508,0,0.001,0.533,0,0,0.507,0,0,0.579
"61",0,0,0.45,0,0.005,0.58,0.019,0,0.505,0.022,0,0.584
"62",0.003,0.004,0.36,0.013,0.004,0.527,0.001,0.028,0.5,0.001,0.009,0.601
"63",0,0.001,0.465,0,0,0.529,0.001,0.031,0.492,0.003,0.001,0.597
"64",0,0,0.487,0.003,0,0.587,0,0,0.505,0,0,0.569
"65",0.001,0.001,0.476,0.002,0.017,0.595,0.001,0.001,0.494,0.001,0.019,0.599
"66",0.04,0.002,0.511,0,0,0.435,0,0,0.612,0,0,0.543
"67",0,0,0.488,0,0.002,0.426,0,0.001,0.615,0.039,0,0.494
"68",0.061,0.006,0.536,0.001,0,0.523,0,0.002,0.572,0.002,0.001,0.487
"69",0.004,0,0.434,0,0.018,0.543,0.002,0,0.498,0,0.037,0.617
"70",0,0.001,0.542,0,0,0.394,0,0,0.633,0.001,0.058,0.474
"71",0,0.057,0.351,0.002,0.001,0.558,0,0.005,0.499,0,0.019,0.593
"72",0,0,0.463,0,0,0.555,0.004,0.001,0.493,0.002,0.063,0.54
"73",0.042,0.001,0.489,0.002,0,0.547,0,0.015,0.484,0.001,0.017,0.592
"74",0.003,0.001,0.455,0.007,0.001,0.475,0.047,0.007,0.492,0.025,0.008,0.561
"75",0.001,0,0.514,0.006,0.035,0.527,0,0.038,0.499,0,0,0.58
"76",0,0,0.447,0.001,0.005,0.507,0.001,0.039,0.496,0,0.033,0.567
"77",0.001,0,0.43,0.002,0.035,0.511,0.056,0.001,0.478,0,0,0.646
"78",0.013,0.03,0.405,0.061,0.02,0.524,0.022,0,0.478,0.001,0.001,0.592
"79",0.001,0,0.447,0,0,0.537,0.051,0.001,0.48,0.024,0,0.582
"80",0.013,0.001,0.422,0.016,0.001,0.504,0.027,0.004,0.497,0.026,0.005,0.596
"81",0.002,0,0.442,0.025,0,0.58,0,0,0.512,0,0.002,0.61
"82",0,0.01,0.431,0.002,0.011,0.563,0,0,0.506,0,0.002,0.612
"83",0.001,0.002,0.445,0.001,0,0.546,0.039,0.026,0.467,0,0,0.568
"84",0.016,0.019,0.416,0.017,0.023,0.487,0,0.031,0.485,0.01,0.019,0.575
"85",0.001,0.073,0.454,0.003,0.015,0.497,0,0,0.592,0,0.001,0.49
"86",0,0,0.467,0.029,0,0.47,0.027,0,0.479,0,0,0.619
"87",0.011,0,0.405,0.001,0,0.566,0.001,0.03,0.455,0.018,0,0.575
"88",0.012,0.026,0.442,0.036,0.044,0.519,0.05,0.001,0.482,0.026,0.001,0.611
"89",0.006,0.01,0.48,0.004,0.009,0.579,0.001,0.004,0.5,0,0.004,0.603
"90",0.031,0.02,0.404,0.001,0.001,0.54,0.008,0.064,0.499,0.014,0.001,0.565
"91",0,0.02,0.442,0.039,0.006,0.507,0,0.005,0.498,0.002,0,0.627
"92",0.002,0.039,0.435,0.002,0.021,0.521,0.022,0.007,0.491,0.034,0.011,0.58
"93",0.001,0.054,0.433,0.006,0.052,0.523,0.028,0.003,0.498,0.056,0.003,0.57
"94",0.001,0.011,0.436,0.007,0.017,0.545,0.035,0.002,0.5,0.015,0.002,0.609
"95",0.001,0.002,0.463,0.017,0.002,0.505,0.024,0.029,0.481,0,0.001,0.584
"96",0.017,0.003,0.434,0.001,0.042,0.527,0.091,0,0.498,0.051,0,0.511
"97",0.001,0.005,0.392,0.005,0.005,0.604,0.029,0.01,0.499,0.025,0.015,0.543
"98",0.009,0.015,0.394,0.008,0.012,0.531,0.011,0.014,0.497,0.008,0.018,0.59
"99",0.002,0,0.474,0.006,0.034,0.571,0,0,0.456,0.029,0,0.579
"100",0.006,0.014,0.422,0.076,0.016,0.526,0.006,0.002,0.5,0.019,0.002,0.57
"101",0.001,0.031,0.423,0.018,0.001,0.543,0.001,0.001,0.49,0.03,0,0.562
"102",0.004,0.009,0.484,0.005,0.014,0.519,0.013,0.003,0.491,0.041,0.004,0.586
"103",0.037,0.013,0.41,0.004,0.006,0.529,0.012,0.011,0.499,0.007,0.015,0.567
"104",0.007,0.014,0.003,0.106,0.02,0.004,0.041,0.003,0.49,0.006,0.004,0.569
"105",0,0.003,0.43,0,0.019,0.508,0,0,0.506,0,0,0.586
"106",0,0,0.572,0,0.001,0.434,0,0,0.593,0.031,0,0.459
"107",0.016,0.023,0.395,0.01,0.016,0.52,0.029,0.004,0.5,0.021,0.005,0.499
"108",0.024,0.002,0.461,0.001,0.03,0.555,0.008,0.001,0.49,0.025,0.001,0.611
"109",0.004,0,0.424,0.008,0,0.534,0.033,0,0.5,0.002,0,0.582
"110",0.008,0.047,0.45,0.019,0.025,0.571,0.011,0.003,0.497,0.002,0.003,0.595
"111",0,0,0.443,0,0.015,0.544,0.021,0,0.499,0,0,0.594
"112",0.004,0.01,0.426,0.004,0.023,0.506,0.01,0.014,0.494,0.01,0.02,0.592
"113",0.016,0.017,0.47,0.046,0.026,0.507,0.006,0.001,0.496,0.001,0.001,0.589
"114",0.026,0.003,0.445,0.001,0,0.571,0.005,0,0.474,0,0,0.574
"115",0,0,0.564,0,0,0.415,0.019,0.046,0.552,0.003,0,0.501
"116",0.001,0.011,0.471,0.014,0.013,0.544,0.023,0.012,0.491,0.013,0.011,0.565
"117",0.013,0.004,0.46,0.021,0.004,0.554,0.015,0.007,0.492,0.013,0.007,0.602
"118",0.001,0.007,0.556,0.027,0.007,0.433,0.02,0,0.593,0.023,0.011,0.502
"119",0.001,0,0.447,0.002,0.001,0.605,0.001,0.036,0.5,0.019,0.002,0.589
"120",0.021,0.004,0.469,0.016,0.003,0.51,0.027,0.017,0.499,0.01,0.015,0.592
"121",0.02,0.025,0.458,0.014,0.027,0.543,0.042,0.002,0.5,0.01,0.003,0.601
"122",0,0.021,0.414,0,0,0.543,0.001,0,0.491,0,0,0.608
"123",0.069,0.001,0.382,0.002,0.035,0.537,0,0.002,0.5,0.018,0.004,0.613
"124",0,0,0.454,0,0,0.54,0,0.001,0.482,0,0,0.616
"125",0.018,0,0.562,0,0,0.463,0.007,0.001,0.568,0.02,0.001,0.5
"126",0.004,0.003,0.458,0.009,0.007,0.581,0.083,0.005,0.494,0,0.002,0.634
"127",0.009,0.002,0.428,0.018,0.002,0.622,0.005,0.011,0.491,0.008,0.011,0.597
"128",0.027,0.029,0.427,0.003,0.019,0.524,0.006,0.006,0.5,0.001,0.007,0.601
"129",0.039,0.001,0.454,0.001,0.004,0.536,0.001,0.006,0.51,0.003,0.001,0.583
"130",0,0,0.448,0,0,0.56,0,0,0.504,0,0.002,0.57
"131",0.026,0.008,0.495,0.007,0.008,0.56,0.006,0.011,0.489,0.002,0.008,0.61
"132",0.022,0.011,0.359,0.007,0.006,0.521,0.045,0.021,0.483,0.011,0.011,0.611
"133",0.026,0.004,0.49,0.013,0.004,0.578,0.014,0.011,0.497,0.006,0.001,0.609
"134",0.001,0.001,0.433,0.013,0.016,0.542,0.001,0.001,0.494,0.021,0.007,0.573
"135",0.001,0,0.478,0.013,0.001,0.567,0,0,0.5,0,0,0.62
"136",0,0.007,0.43,0.005,0,0.543,0,0,0.497,0,0.027,0.594
"137",0.008,0.001,0.427,0.003,0.001,0.53,0.003,0,0.503,0.005,0.001,0.595
"138",0.053,0.019,0.426,0,0.004,0.5,0,0.02,0.577,0,0.027,0.499
"139",0.003,0.005,0.4,0.001,0,0.483,0.001,0,0.494,0,0,0.613
"140",0.02,0.011,0.401,0.023,0.008,0.525,0.028,0.006,0.494,0.004,0.017,0.592
"141",0,0.054,0.393,0.009,0.062,0.502,0.035,0.022,0.497,0.04,0.021,0.577
"142",0.013,0.022,0.453,0.022,0.022,0.487,0.036,0.004,0.498,0.007,0.004,0.574
"143",0.017,0.014,0.417,0.008,0.016,0.587,0.017,0.134,0.485,0.014,0.079,0.486
"144",0.03,0.019,0.376,0.041,0,0.582,0.011,0.042,0.471,0,0,0.59
"145",0.012,0.279,0.005,0.023,0.288,0.006,0.1,0.017,0.494,0.053,0.027,0.547
"146",0,0,0.469,0,0,0.553,0,0,0.509,0,0,0.579
"147",0.01,0.016,0.47,0.018,0.014,0.53,0.012,0.006,0.496,0.002,0.001,0.594
"148",0,0.031,0.551,0.001,0.019,0.405,0,0,0.619,0,0,0.48
"149",0,0,0.472,0,0,0.562,0,0.002,0.5,0,0.036,0.56
"150",0.006,0.015,0.421,0.003,0.003,0.527,0.019,0.003,0.499,0.004,0.003,0.606
"151",0,0.024,0.435,0.029,0.001,0.554,0.003,0.008,0.513,0.011,0.016,0.584
"152",0,0,0.497,0.013,0,0.561,0,0,0.505,0.044,0.001,0.535
"153",0.044,0.001,0.412,0,0,0.527,0.055,0.002,0.478,0,0,0.613
"154",0.003,0.005,0.417,0.036,0,0.524,0.027,0.009,0.482,0.001,0.001,0.588
"155",0.028,0.001,0.455,0,0,0.512,0,0,0.496,0.001,0.001,0.589
"156",0.003,0,0.438,0.002,0,0.487,0.002,0.032,0.484,0,0.002,0.609
"157",0.005,0.004,0.439,0.026,0.005,0.542,0.016,0.014,0.5,0.021,0.021,0.591
"158",0,0.001,0.489,0,0,0.555,0.001,0,0.484,0.001,0.001,0.617
"159",0.029,0.022,0,0.077,0.042,0,0.055,0.023,0.492,0.033,0.042,0.544
"160",0.005,0.013,0.411,0.014,0.01,0.505,0.028,0.044,0.498,0.012,0.012,0.579
"161",0.002,0.016,0.44,0.003,0.05,0.501,0.002,0.002,0.485,0.005,0.03,0.568
"162",0.006,0.003,0.43,0,0,0.558,0.015,0,0.505,0,0,0.61
"163",0.034,0.001,0.431,0.02,0.027,0.5,0.008,0,0.499,0,0,0.608
"164",0.009,0.004,0.409,0.034,0.005,0.508,0.002,0.039,0.498,0.002,0.021,0.537
"165",0.009,0.025,0.403,0.024,0.052,0.537,0.03,0.022,0.5,0.027,0.019,0.537
"166",0.057,0.013,0.402,0.014,0.037,0.538,0.018,0.044,0.481,0.001,0.004,0.552
"167",0.045,0,0.391,0,0,0.509,0.016,0.021,0.492,0,0.023,0.579
"168",0.006,0.021,0.444,0.011,0.029,0.516,0.022,0.009,0.482,0.019,0.018,0.58
"169",0.004,0.038,0.451,0.024,0.053,0.526,0.077,0.01,0.484,0.042,0.011,0.567
"170",0.002,0.003,0.489,0,0.003,0.565,0.018,0.004,0.498,0.004,0.004,0.619
"171",0.053,0.001,0.451,0.015,0.003,0.509,0.015,0.009,0.498,0.001,0.001,0.581
"172",0,0,0.446,0.008,0,0.554,0,0.001,0.5,0.002,0.006,0.591
"173",0.001,0.004,0.45,0.002,0.002,0.544,0.008,0.001,0.497,0.002,0.006,0.592
"174",0,0.001,0.456,0,0.053,0.514,0.017,0.014,0.515,0.016,0.001,0.574
"175",0.001,0.01,0.474,0.001,0.001,0.574,0,0,0.484,0,0,0.587
"176",0.001,0.003,0.398,0.005,0.075,0.506,0.001,0,0.497,0.001,0,0.593
"177",0.004,0.012,0.409,0.01,0.034,0.524,0.021,0.092,0.452,0.018,0.084,0.49
"178",0,0,0.421,0.065,0.001,0.571,0.045,0.021,0.491,0,0,0.609
"179",0.001,0.019,0.424,0,0.002,0.523,0.001,0.043,0.486,0.001,0.001,0.582
"180",0.014,0.174,0.009,0.047,0.298,0.005,0.012,0.016,0.49,0.016,0.116,0.503
"181",0.001,0.023,0.468,0.001,0.067,0.461,0.002,0.074,0.485,0,0.043,0.574
"182",0.028,0.015,0.467,0.077,0.017,0.554,0.024,0.022,0.499,0.034,0.027,0.542
"183",0.026,0.006,0,0.078,0.007,0,0.136,0.04,0.487,0.045,0.04,0.563
"184",0.014,0.006,0.436,0.006,0.002,0.511,0.005,0.005,0.499,0.033,0.007,0.572
"185",0,0,0.438,0,0,0.54,0.001,0,0.492,0,0.001,0.613
"186",0.011,0.003,0.406,0.007,0.003,0.569,0.017,0.023,0.499,0.004,0.002,0.594
"187",0.023,0.008,0.427,0.032,0.008,0.548,0.038,0.005,0.486,0.009,0.005,0.576
"188",0.033,0.037,0.457,0.001,0.001,0.54,0.005,0,0.494,0.016,0.001,0.55
"189",0.001,0,0.438,0,0.005,0.579,0.007,0,0.509,0.001,0,0.564
"190",0,0.015,0.448,0.001,0.001,0.541,0,0.009,0.503,0,0.074,0.525
"191",0.009,0.027,0.399,0.008,0.032,0.564,0.016,0.019,0.497,0.014,0.014,0.541
"192",0.001,0.06,0.336,0.001,0.001,0.598,0.071,0.002,0.476,0.003,0.003,0.618
"193",0.001,0.03,0.379,0.001,0.005,0.538,0.045,0.001,0.464,0.023,0.001,0.546
"194",0,0.001,0.453,0.002,0,0.521,0.001,0.001,0.487,0,0,0.599
"195",0.041,0,0.42,0.001,0.028,0.547,0,0,0.496,0.001,0,0.622
"196",0.007,0.01,0.537,0.009,0.007,0.446,0.012,0.003,0.631,0.025,0.07,0.5
"197",0,0,0.46,0,0,0.507,0.001,0,0.503,0.007,0,0.578
"198",0,0,0.416,0,0.047,0.528,0.012,0.003,0.509,0,0.001,0.568
"199",0.002,0.1,0.47,0.017,0.107,0.514,0.07,0.016,0.483,0.021,0.018,0.56
"200",0.001,0.041,0.377,0.001,0,0.56,0,0,0.494,0.002,0.035,0.561
"201",0.035,0,0.504,0.001,0.004,0.48,0,0.016,0.483,0,0.001,0.613
"202",0.001,0.001,0.522,0.032,0.002,0.511,0,0.015,0.497,0.009,0.062,0.54
"203",0.004,0.005,0.425,0.007,0.005,0.534,0.026,0.017,0.493,0.013,0.003,0.58
"204",0,0,0.489,0,0,0.614,0.002,0.007,0.494,0.02,0.001,0.596
"205",0.004,0.034,0.405,0.009,0.022,0.51,0.016,0.001,0.493,0.01,0.001,0.605
"206",0.022,0.002,0.51,0,0.002,0.543,0.001,0.001,0.502,0.001,0.001,0.618
"207",0.008,0.02,0.467,0.02,0.034,0.479,0.037,0.055,0.465,0.034,0.026,0.549
"208",0.001,0.027,0.439,0.001,0.023,0.523,0.007,0.004,0.499,0.002,0.001,0.584
"209",0.008,0.016,0.393,0.017,0.015,0.573,0.039,0.023,0.488,0.001,0.002,0.574
"210",0.006,0.005,0.471,0.007,0.005,0.571,0.046,0.02,0.468,0.058,0.028,0.551
"211",0.006,0.002,0.449,0.009,0.001,0.553,0.001,0.001,0.499,0.007,0,0.569
"212",0.001,0.054,0.435,0.002,0.041,0.505,0.02,0.002,0.5,0.013,0.002,0.598
"213",0,0.021,0.459,0.001,0.018,0.528,0.014,0.013,0.499,0.018,0.019,0.565
"214",0.039,0.001,0.397,0,0.001,0.553,0.002,0.011,0.493,0.045,0,0.57
"215",0.001,0,0.503,0.025,0.017,0.514,0,0,0.504,0,0.001,0.605
"216",0.001,0.026,0.402,0.028,0.057,0.477,0.046,0.053,0.463,0.027,0.025,0.568
"217",0.002,0,0.44,0,0.001,0.518,0,0.001,0.501,0,0,0.575
"218",0.059,0.024,0.502,0.004,0.009,0.44,0.002,0.011,0.555,0.055,0.001,0.46
"219",0.008,0.042,0.383,0.015,0.058,0.505,0.022,0.008,0.499,0.017,0.008,0.602
"220",0.018,0.001,0.421,0.008,0,0.588,0.001,0.034,0.454,0.001,0.002,0.617
"221",0.004,0.199,0.008,0.007,0.229,0.006,0.027,0.035,0.482,0.015,0.015,0.555
"222",0.017,0,0.548,0.009,0.026,0.347,0,0,0.623,0.001,0,0.488
"223",0.057,0.028,0.371,0.014,0.009,0.581,0.008,0.083,0.484,0.007,0.004,0.571
"224",0.015,0.051,0.416,0.004,0.004,0.6,0.008,0.005,0.498,0.005,0.006,0.608
"225",0.001,0.036,0.368,0.017,0.062,0.466,0.101,0.01,0.499,0.046,0.011,0.558
"226",0.007,0.002,0.441,0.015,0.004,0.59,0.001,0.013,0.5,0,0.019,0.615
"227",0.005,0.007,0.476,0.013,0.011,0.549,0.018,0.009,0.497,0.006,0.007,0.576
"228",0.022,0.013,0.43,0.057,0.014,0.512,0.029,0.04,0.498,0.008,0.013,0.597
"229",0.033,0.002,0.488,0,0,0.551,0.001,0.043,0.47,0.001,0,0.578
"230",0.012,0.013,0.453,0.003,0.012,0.525,0.013,0.013,0.487,0.023,0.018,0.587
"231",0,0.001,0.451,0,0,0.61,0.028,0.004,0.49,0,0,0.559
"232",0,0.001,0.469,0.001,0.002,0.518,0,0,0.496,0.01,0,0.563
"233",0,0.019,0.397,0,0,0.547,0.001,0.049,0.477,0.036,0.025,0.525
"234",0.007,0.006,0.423,0.001,0.005,0.514,0.012,0.007,0.497,0.018,0.005,0.587
"235",0.001,0,0.546,0,0,0.416,0.001,0.005,0.518,0.018,0.011,0.552
"236",0.001,0.014,0.465,0.005,0.008,0.598,0.044,0.01,0.491,0.012,0.01,0.603
"237",0,0.015,0.472,0.001,0,0.575,0.001,0.006,0.495,0.001,0.025,0.561
"238",0.002,0.15,0,0.002,0.272,0,0.005,0.067,0.48,0.004,0.098,0.443
"239",0,0.001,0.456,0.034,0.006,0.528,0.001,0.001,0.483,0.002,0.001,0.599
"240",0,0.001,0.457,0.002,0.005,0.577,0.001,0.003,0.5,0.001,0.032,0.636
"241",0.001,0.036,0.426,0.001,0,0.572,0.032,0.001,0.495,0.029,0.001,0.55
"242",0.011,0.026,0.419,0,0.026,0.522,0,0.001,0.502,0.001,0.001,0.595
"243",0.011,0.001,0.44,0.018,0.009,0.52,0.001,0.001,0.504,0.014,0.002,0.589
"244",0.034,0.028,0.414,0.014,0.028,0.473,0.016,0.01,0.481,0.005,0.008,0.588
"245",0.012,0.041,0.372,0.001,0,0.558,0.035,0.004,0.51,0.001,0.022,0.576
"246",0.003,0.029,0.39,0.023,0.041,0.523,0.065,0.057,0.486,0.04,0.042,0.523
"247",0.001,0.033,0.441,0.013,0.084,0.498,0.006,0.007,0.5,0.006,0.009,0.611
"248",0,0.001,0.468,0.003,0.001,0.551,0.004,0.005,0.496,0.003,0.004,0.6
"249",0,0.001,0.517,0.018,0.001,0.567,0.005,0.045,0.49,0.02,0.001,0.61
"250",0,0.008,0.422,0.005,0.081,0.479,0.001,0.004,0.509,0.001,0,0.598
