"","x"
"1",16790.5764465626
"2",16529.6430820587
"3",16695.7449158469
"4",16929.1592991927
"5",16776.4759308316
"6",16623.1727852329
"7",16411.0615717733
"8",16486.9955574315
"9",16688.9726047846
"10",16630.9953290241
"11",16615.3446108401
"12",16644.6559598839
"13",16844.4985982381
"14",16460.2056439133
"15",16713.5766357331
"16",16369.671769813
"17",16594.0276718616
"18",16471.0469346789
"19",16762.8650322134
"20",16621.3332721801
"21",16424.4156800529
"22",16789.8255739929
"23",16803.9673603888
"24",16457.3042380154
"25",16466.8980797747
"26",16797.0153110885
"27",16685.1491054358
"28",16355.094456927
"29",16839.5352502347
"30",16767.401360187
"31",16653.0818776423
"32",16666.4256299595
"33",16703.0634223696
"34",16629.3272098347
"35",16643.7810106812
"36",16711.703472403
"37",16548.9073642653
"38",16406.9734406131
"39",16146.7623315271
"40",16808.8292560103
"41",16664.3628772927
"42",16908.3895909745
"43",16307.8073278748
"44",16705.2378172661
"45",16374.267212002
"46",16529.61443097
"47",16432.5061507639
"48",16519.6148978546
"49",16510.380641144
"50",16432.9525673738
"51",16662.9275580115
"52",16650.6511298547
"53",16695.95017457
"54",16589.7150501801
"55",16592.7321579761
"56",16841.6771157681
"57",16773.3951595726
"58",16569.3912135918
"59",16691.6920426526
"60",16432.9463253955
"61",16690.2857678522
"62",16616.0739506073
"63",16587.2605233658
"64",16733.0017264191
"65",16585.549714033
"66",16558.8328945689
"67",16596.5016037811
"68",16422.404304177
"69",16844.0382757512
"70",16529.1109634647
"71",16525.1887910682
"72",16451.845353295
"73",16688.2064601053
"74",16676.3729340827
"75",16455.6109696919
"76",16532.201913127
"77",16698.4575444083
"78",16649.7977604505
"79",16654.6511252245
"80",16846.1111163103
"81",16732.6797562796
"82",16678.6596025982
"83",16646.1078399033
"84",16492.2487895876
"85",16794.3323540493
"86",16798.6802307954
"87",16367.4948138319
"88",16611.4987234921
"89",17013.2967417106
"90",16581.9650688251
"91",16613.5322442221
"92",16646.0083627837
"93",16833.1633644746
"94",16561.6628473465
"95",16975.1629981144
"96",16607.8229519084
"97",16702.738246388
"98",16712.0789906883
"99",16443.463542899
"100",16785.9609553159
"101",16912.0645288101
"102",16644.8000533881
"103",16628.1620616625
"104",16422.1529496232
"105",16721.8995344043
"106",16677.731229844
"107",16790.4328083678
"108",16534.2867030639
"109",16577.8671505031
"110",16634.4508127865
"111",16739.2333245274
"112",16778.6161577941
"113",16517.2924736497
"114",16818.8870235738
"115",16836.0464407577
"116",16698.8474578494
"117",16663.2371389336
"118",16476.1685185394
"119",16408.7642160464
"120",16569.8264427353
"121",16658.1790683634
"122",16629.1672671706
"123",16650.6803634786
"124",16652.7850521684
"125",16589.7166934011
"126",16704.459124399
"127",16496.4447678811
"128",16721.3685253131
"129",16537.8930918701
"130",16917.0751698424
"131",16836.8850303478
"132",16534.1810842613
"133",16646.0979745044
"134",16568.5762619355
"135",16891.6523820966
"136",16570.7526142463
"137",16495.8364814828
"138",16808.59799789
"139",16815.8146917612
"140",16594.0782593887
"141",16640.4900612956
"142",16753.2833771164
"143",16693.1495364257
"144",16765.412509454
"145",16720.1655549824
"146",16848.0409188019
"147",16670.1165520634
"148",16505.1941884078
"149",16668.3617007138
"150",16667.03447446
"151",16676.5132920515
"152",16676.278200374
"153",16680.0185397018
"154",16678.5912136396
"155",16486.1127867391
"156",16499.6270379984
"157",16616.1015200561
"158",16560.9052216218
"159",16581.2805005022
"160",16610.498232804
"161",16501.8164954543
"162",16663.1626165602
"163",16697.356234804
"164",16709.9135211057
"165",16747.7470664678
"166",16593.3811945258
"167",16619.7428824847
"168",16351.5659285612
"169",16695.606977535
"170",16599.5524495587
"171",16577.8795120577
"172",16526.4223525651
"173",16816.2543027361
"174",16562.7595771664
"175",16524.6711063965
"176",16662.4871903404
"177",16850.75602079
"178",16631.1279995908
"179",16652.6641633561
"180",16719.9338679932
"181",16558.6001919727
"182",16541.9192623059
"183",16572.7693470539
"184",16494.8078406896
"185",16767.9949284655
"186",16900.6409611869
"187",16616.5399705006
"188",16642.822555827
"189",16587.4481411146
"190",16652.6578416015
"191",16761.616013122
"192",16442.3532339889
"193",16647.0755582938
"194",16653.9197149708
"195",16523.2302952631
"196",16507.5520470149
"197",16635.1789827233
"198",16572.107095548
"199",16557.0422096208
"200",16402.3976307424
"201",16844.7978647434
"202",16391.0897466432
"203",16403.1553203577
"204",16836.0165669777
"205",16730.3664375341
"206",16508.0280904897
"207",16618.6672594991
"208",16676.1403108706
"209",16703.9829255621
"210",16732.7782849079
"211",16620.8934579994
"212",16372.4959158727
"213",16350.8682056969
"214",16710.8589439395
"215",16451.2602104663
"216",16740.6547522722
"217",16595.2207404536
"218",16899.2898704394
"219",16757.4320675817
"220",16602.5118954014
"221",16820.8220422597
"222",16495.2309433041
"223",16706.41363462
"224",16713.8223467784
"225",16592.3020556292
"226",16671.1852873786
"227",16673.2362596366
"228",16567.7168223799
"229",16887.1858036708
"230",16513.3825746389
"231",16510.2451177282
"232",17034.8407465113
"233",16631.6577096656
"234",16652.1091597342
"235",16471.8414808685
"236",16902.4608029853
"237",16873.7251870814
"238",16861.8586571634
"239",16617.0019987803
"240",16593.7265534912
"241",16573.7964071082
"242",16509.320815714
"243",16514.8353112875
"244",16498.0401865869
"245",16676.1778067049
"246",16823.6295594292
"247",16518.0088278874
"248",16673.4223066819
"249",16700.9228197595
"250",16566.5312665475
