"","V1","V2","V3","V4"
"1",0.464,0.553,0.503,0.568
"2",0.343,0.579,0.502,0.606
"3",0.364,0.499,0.516,0.634
"4",0.477,0.64,0.476,0.577
"5",0.431,0.555,0.481,0.597
"6",0.42,0.555,0.46,0.558
"7",0.473,0.566,0.503,0.617
"8",0.536,0.506,0.509,0.668
"9",0.378,0.566,0.47,0.583
"10",0.536,0.462,0.499,0.605
"11",0.43,0.494,0.512,0.583
"12",0.451,0.564,0.473,0.626
"13",0.415,0.447,0.503,0.65
"14",0.437,0.536,0.502,0.621
"15",0.431,0.521,0.504,0.585
"16",0.491,0.551,0.5,0.624
"17",0.669,0.484,0.569,0.476
"18",0.474,0.51,0.5,0.652
"19",0.6,0.442,0.595,0.53
"20",0.405,0.514,0.513,0.599
"21",0.419,0.613,0.44,0.577
"22",0.55,0.535,0.477,0.588
"23",0.428,0.577,0.543,0.594
"24",0.546,0.449,0.5,0.542
"25",0.388,0.589,0.498,0.611
"26",0.426,0.594,0.483,0.576
"27",0.469,0.51,0.467,0.642
"28",0.341,0.532,0.5,0.548
"29",0.441,0.516,0.494,0.597
"30",0.491,0.545,0.493,0.614
"31",0.454,0.523,0.501,0.609
"32",0.409,0.577,0.488,0.532
"33",0.405,0.541,0.578,0.6
"34",0.434,0.482,0.52,0.555
"35",0.453,0.598,0.495,0.639
"36",0.446,0.542,0.5,0.625
"37",0.32,0.494,0.497,0.631
"38",0.347,0.653,0.563,0.468
"39",0.44,0.542,0.455,0.603
"40",0.403,0.508,0.5,0.537
"41",0.45,0.564,0.501,0.559
"42",0.485,0.552,0.5,0.614
"43",0.458,0.582,0.52,0.57
"44",0.482,0.569,0.478,0.584
"45",0.394,0.556,0.377,0.641
"46",0.431,0.458,0.501,0.627
"47",0.386,0.473,0.534,0.605
"48",0.401,0.484,0.525,0.563
"49",0.508,0.514,0.52,0.55
"50",0.462,0.475,0.541,0.577
"51",0.404,0.466,0.509,0.615
"52",0.4,0.543,0.462,0.653
"53",0.526,0.441,0.486,0.563
"54",0.45,0.604,0.536,0.669
"55",0.447,0.533,0.495,0.588
"56",0.548,0.614,0.501,0.627
"57",0.461,0.54,0.5,0.652
"58",0.414,0.574,0.572,0.553
"59",0.546,0.381,0.622,0.411
"60",0.416,0.495,0.526,0.643
"61",0.438,0.525,0.501,0.574
"62",0.426,0.524,0.495,0.577
"63",0.521,0.469,0.611,0.471
"64",0.551,0.563,0.5,0.608
"65",0.448,0.437,0.546,0.584
"66",0.395,0.591,0.488,0.659
"67",0.42,0.545,0.502,0.552
"68",0.5,0.479,0.579,0.502
"69",0.431,0.591,0.532,0.607
"70",0.477,0.53,0.425,0.609
"71",0.473,0.54,0.527,0.622
"72",0.402,0.462,0.487,0.585
"73",0.442,0.563,0.511,0.538
"74",0.462,0.614,0.49,0.625
"75",0.434,0.481,0.472,0.552
"76",0.388,0.575,0.5,0.61
"77",0.477,0.565,0.518,0.643
"78",0.478,0.569,0.52,0.645
"79",0.314,0.539,0.5,0.604
"80",0.42,0.5,0.508,0.618
"81",0.506,0.575,0.531,0.61
"82",0.247,0.606,0.5,0.581
"83",0.5,0.538,0.516,0.604
"84",0.426,0.555,0.52,0.529
"85",0.457,0.61,0.482,0.636
"86",0.353,0.567,0.54,0.615
"87",0.449,0.57,0.494,0.588
"88",0.395,0.465,0.503,0.615
"89",0.452,0.656,0.499,0.694
"90",0.435,0.555,0.502,0.551
"91",0.322,0.476,0.495,0.562
"92",0.55,0.334,0.573,0.524
"93",0.392,0.592,0.529,0.625
"94",0.461,0.479,0.5,0.556
"95",0.356,0.503,0.5,0.549
"96",0.513,0.49,0.49,0.598
"97",0.44,0.56,0.499,0.622
"98",0.368,0.531,0.522,0.583
"99",0.415,0.487,0.5,0.646
"100",0.411,0.577,0.498,0.58
"101",0.466,0.569,0.53,0.573
"102",0.494,0.552,0.501,0.65
"103",0.455,0.578,0.501,0.596
"104",0.414,0.539,0.503,0.554
"105",0.416,0.557,0.443,0.614
"106",0.421,0.586,0.477,0.556
"107",0.396,0.59,0.551,0.501
"108",0.351,0.56,0.505,0.603
"109",0.366,0.526,0.588,0.619
"110",0.467,0.488,0.567,0.574
"111",0.612,0.432,0.544,0.548
"112",0.54,0.508,0.5,0.551
"113",0.51,0.557,0.502,0.584
"114",0.434,0.612,0.5,0.49
"115",0.473,0.371,0.5,0.659
"116",0.424,0.522,0.5,0.583
"117",0.452,0.579,0.5,0.547
"118",0.496,0.659,0.491,0.573
"119",0.508,0.587,0.505,0.561
"120",0.388,0.527,0.483,0.564
"121",0.461,0.527,0.509,0.657
"122",0.489,0.522,0.543,0.631
"123",0.36,0.482,0.513,0.557
"124",0.467,0.605,0.495,0.577
"125",0.378,0.511,0.51,0.605
"126",0.347,0.61,0.473,0.59
"127",0.52,0.564,0.515,0.622
"128",0.472,0.448,0.479,0.505
"129",0.551,0.449,0.576,0.467
"130",0.457,0.541,0.446,0.613
"131",0.408,0.423,0.454,0.586
"132",0.328,0.592,0.481,0.607
"133",0.437,0.447,0.499,0.636
"134",0.421,0.527,0.511,0.578
"135",0.503,0.573,0.503,0.678
"136",0.425,0.574,0.502,0.585
"137",0.498,0.503,0.5,0.612
"138",0.282,0.445,0.5,0.463
"139",0.374,0.524,0.501,0.617
"140",0.486,0.467,0.552,0.494
"141",0.397,0.094,0.5,0.584
"142",0.47,0.572,0.499,0.644
"143",0.49,0.494,0.491,0.549
"144",0.425,0.59,0.51,0.552
"145",0.527,0.54,0.539,0.621
"146",0.516,0.567,0.528,0.613
"147",0.447,0.462,0.527,0.561
"148",0.447,0.531,0.49,0.613
"149",0.385,0.629,0.485,0.539
"150",0.516,0.575,0.5,0.517
"151",0.452,0.607,0.492,0.609
"152",0.485,0.555,0.466,0.515
"153",0.334,0.499,0.5,0.639
"154",0.474,0.526,0.471,0.624
"155",0.387,0.491,0.5,0.644
"156",0.438,0.584,0.537,0.612
"157",0.468,0.546,0.488,0.572
"158",0.424,0.591,0.475,0.561
"159",0.456,0.476,0.567,0.643
"160",0.423,0.548,0.491,0.653
"161",0.6,0.516,0.483,0.574
"162",0.515,0.539,0.531,0.619
"163",0.47,0.537,0.5,0.515
"164",0.441,0.626,0.514,0.597
"165",0.375,0.535,0.501,0.516
"166",0.444,0.564,0.5,0.651
"167",0.389,0.552,0.504,0.62
"168",0.453,0.533,0.477,0.627
"169",0.449,0.621,0.5,0.596
"170",0.538,0.608,0.484,0.612
"171",0.552,0.42,0.57,0.475
"172",0.448,0.49,0.514,0.534
"173",0.474,0.557,0.5,0.62
"174",0.432,0.515,0.502,0.652
"175",0.507,0.583,0.5,0.582
"176",0.493,0.546,0.468,0.614
"177",0.379,0.566,0.487,0.561
"178",0.37,0.577,0.496,0.577
"179",0.481,0.554,0.496,0.599
"180",0.404,0.548,0.515,0.564
"181",0.609,0.562,0.534,0.584
"182",0.434,0.54,0.5,0.585
"183",0.406,0.48,0.502,0.648
"184",0.489,0.515,0.53,0.589
"185",0.413,0.579,0.434,0.678
"186",0.387,0.665,0.5,0.565
"187",0.495,0.552,0.497,0.637
"188",0.365,0.488,0.549,0.596
"189",0.465,0.592,0.462,0.552
"190",0.356,0.538,0.5,0.5
"191",0.414,0.502,0.439,0.625
"192",0.415,0.482,0.517,0.597
"193",0.405,0.599,0.49,0.494
"194",0.348,0.562,0.504,0.59
"195",0.422,0.536,0.498,0.569
"196",0.408,0.521,0.481,0.615
"197",0.47,0.556,0.509,0.604
"198",0.368,0.428,0.522,0.597
"199",0.38,0.542,0.52,0.612
"200",0.508,0.591,0.491,0.578
"201",0.408,0.526,0.502,0.541
"202",0.578,0.552,0.5,0.611
"203",0.39,0.545,0.456,0.56
"204",0.445,0.532,0.517,0.588
"205",0.311,0.588,0.515,0.587
"206",0.44,0.567,0.496,0.499
"207",0.47,0.422,0.503,0.657
"208",0.497,0.532,0.529,0.652
"209",0.401,0.583,0.491,0.592
"210",0.339,0.626,0.467,0.608
"211",0.398,0.55,0.519,0.575
"212",0.42,0.53,0.495,0.615
"213",0.498,0.504,0.5,0.61
"214",0.331,0.529,0.531,0.569
"215",0.352,0.503,0.581,0.586
"216",0.367,0.502,0.52,0.598
"217",0.398,0.504,0.402,0.642
"218",0.285,0.548,0.5,0.58
"219",0.463,0.574,0.493,0.645
"220",0.383,0.492,0.512,0.663
"221",0.42,0.573,0.536,0.592
"222",0.506,0.533,0.53,0.646
"223",0.527,0.516,0.517,0.598
"224",0.452,0.504,0.5,0.607
"225",0.503,0.603,0.423,0.646
"226",0.548,0.591,0.556,0.589
"227",0.592,0.398,0.539,0.5
"228",0.473,0.595,0.482,0.615
"229",0.395,0.513,0.505,0.629
"230",0.404,0.609,0.478,0.582
"231",0.415,0.603,0.406,0.572
"232",0.388,0.516,0.5,0.556
"233",0.46,0.551,0.385,0.607
"234",0.386,0.546,0.514,0.576
"235",0.409,0.471,0.48,0.614
"236",0.539,0.609,0.479,0.545
"237",0.471,0.476,0.447,0.604
"238",0.326,0.502,0.537,0.571
"239",0.445,0.586,0.516,0.498
"240",0.456,0.459,0.499,0.602
"241",0.451,0.535,0.409,0.655
"242",0.436,0.654,0.489,0.541
"243",0.401,0.615,0.507,0.565
"244",0.44,0.6,0.545,0.608
"245",0.446,0.614,0.499,0.556
"246",0.437,0.567,0.499,0.618
"247",0.444,0.58,0.527,0.576
"248",0.523,0.493,0.521,0.59
"249",0.285,0.443,0.376,0.61
"250",0.504,0.507,0.469,0.572
