"","V1","V2","V3","V4","V5","V6","V7","V8"
"1",19.9194037126218,40.5597167742521,5.29763216178892,7.73589704968816,-0.052067966703111,-0.000715129013027415,1.96398378489268,14.2764399274057
"2",20.0166996513793,40.5942723812432,5.18364512124122,7.33252602565437,-0.0583761345170476,-0.0757602658584999,1.86800519159672,11.723763206584
"3",20.0314432824403,38.4907398954948,5.12308798448007,6.64418745419791,0.0694808839470395,0.0652979460990793,2.0949746242836,10.8227908457979
"4",20.2625090388275,40.4121278367022,5.09181890001491,7.24127719162655,0.00316621395273945,-0.0161640511084621,2.35362270392992,13.6479029545208
"5",19.5367069319773,40.0658607283774,4.70547563346951,6.8182583261966,0.0741986321096072,-0.103582872682642,1.87063564762662,12.4691579421065
"6",19.3242619231916,38.8478580857345,4.90618036028808,7.11941522032457,-0.238987822639711,-0.0173643781871704,2.14414159839736,12.6998066600823
"7",19.2962636830644,41.2852933683402,4.81929773826645,6.80731735938977,0.0459945893218054,0.0745891376258898,2.07915671701886,13.0655873459921
"8",20.7835510527083,38.6996274829314,5.51956149716675,6.17188438326604,0.126898182359571,-0.0346929900898204,2.33587004767619,12.1997410977664
"9",20.1833513751026,36.6331377179563,4.98424192525502,6.7464901542053,-0.0674487434851133,-0.00389110850642051,1.93920634217964,11.7576075211712
"10",20.5295851980328,39.9562179484508,5.27905172615774,7.2059734821227,0.204616359273591,0.141908648367259,2.51840696674987,15.1250669993937
"11",19.9443995732914,39.8240342799906,5.17045854443869,7.2551249269637,-0.0139105517026167,-0.0150025367700828,1.8713317628485,14.3764642126642
"12",19.5930325671604,40.0505030396175,5.01812273686862,7.35060912392116,0.126194771346508,-0.0267291600054687,2.1039196728275,13.7751814048991
"13",19.752891639421,36.8148528774531,5.03672392100905,6.10193545301576,0.0445691656012452,-0.0572474317022634,2.13377565942354,11.470845337808
"14",19.9450639005999,40.017805524352,4.90788000040013,5.55976008353615,-0.0366934499356365,-0.0330473373412707,2.09537648422862,11.3990842443352
"15",21.3012729714061,40.9882982572595,5.33157883306206,7.08106897921404,-0.00526028650036226,-0.0117460284904536,1.84831224675144,11.5593818187361
"16",18.9234207769978,39.4603572156326,4.89719523783471,6.83358604345058,0.0396804831591716,-0.0470138714401994,2.41536975104104,6.96126685894868
"17",20.4381701111309,42.3336903106815,5.44967055772764,7.49831016123981,0.190913006863849,-0.00976998701723074,2.04466906867855,13.2261290291387
"18",20.3983091731531,41.0953631276362,5.765971894527,6.92237947294802,0.0757887522693712,-0.1375358488758,1.93602733679322,12.5862898614767
"19",20.1337256204073,39.6227979012253,4.82259953449067,7.31675675784566,0.0131826602332093,-0.102878306725379,1.90469117668188,12.7685204842903
"20",19.574551318122,40.246408991384,5.04076282196029,6.49458831558531,0.088687141594651,-0.019221109907978,2.2205999778941,11.5394689803309
"21",19.1683640920175,41.2638997367231,4.76833044980832,7.26951237009629,-0.00319545809799555,0.0036063360529619,2.03694164532676,13.4006593436357
"22",19.5903039045219,40.2132906093029,4.70389122241465,7.29740045490873,0.0845330260584633,-0.120466310233852,1.87550602691136,10.9712906003932
"23",20.7723459566995,41.6214211655559,4.82534632268306,7.26852445660311,0.17896790809585,-0.027760992751226,2.01262289092573,9.90267304304683
"24",19.476357509666,38.482212928699,4.89130256046854,6.79212376534981,-0.109734908719216,-0.0208169549685608,1.75502216856425,9.74186460917417
"25",21.2618995862795,40.5480708287814,5.3269096460078,6.85091074638312,-0.00414032615078783,0.0506941911791961,2.10660069447577,10.8327810378145
"26",20.4111715397633,43.1237309700537,5.04158421470413,6.93763064778955,-0.152574531946261,0.0179495473962805,2.25136386773849,11.7478559635543
"27",19.2636495413422,40.0777805168248,4.22530307722728,6.69774012087239,-0.0291782572861828,-0.0776680191369826,1.99147969247053,12.0942909533479
"28",20.7326027409474,40.1198690798964,4.96484140318245,7.23650192513575,0.0625587739946748,0.0913494139043913,1.77937045654407,11.2990040558086
"29",20.4124090786721,40.1898022109922,4.99440656566538,7.35166183833795,0.026215984808939,-0.0583051815412867,1.95678722867675,10.4409243658103
"30",19.850590992387,39.5355071192102,4.8383352420103,6.56396093671427,0.0424058257511382,-0.0904505150290286,2.06393477083985,14.8166566599834
"31",21.7179323587147,38.8642440900993,5.21737329076353,7.39581212549986,0.118735425539078,-0.0560745532048508,1.82419605807109,9.53382079183424
"32",20.5012335506959,39.244155581528,5.13232565501881,6.47519578838986,0.239878861051701,0.0341743734275126,1.97874863252821,11.6205885616694
"33",19.3126369472508,39.0223690158131,4.44964969498137,5.96850141101505,0.124267957876197,-0.00355687968286494,2.2312291952099,12.0542682716348
"34",20.4300271029467,38.6622161777028,5.38671343675345,7.01672133175987,-0.00739641000540884,0.116393403922407,2.19272411167696,15.0739874999128
"35",19.3314754645925,41.0793094287414,4.48131629376071,6.36054238954008,0.0463881304858129,-0.00299170292174506,1.99902766546895,12.0031251365647
"36",19.8362974915144,39.4116977408805,4.98104525489238,6.5851424127586,-0.123511104102085,-0.035230275597961,2.10285209246891,11.1574983762909
"37",20.3590925267897,38.4718827375232,4.76173997692811,6.60962583112142,-0.0670450755327639,-0.00737133491835957,1.9755751518961,10.9809254521595
"38",19.5366170013455,40.0368598418063,4.45328375307157,7.72101532157557,-0.136747151736357,0.0413445515934729,1.78145829454619,10.7810447358395
"39",19.2428686747543,40.2142695022232,4.37960500042162,7.2356820656829,-0.0378441425042464,0.159201829729407,1.92295907355229,11.3992955813325
"40",18.1805617740116,38.9580185665322,4.14006831189966,6.47441727727573,-0.140309324723959,0.113190907948966,1.92370999290598,7.7865726284294
"41",19.5754186847856,42.2144187502154,4.66441954230986,7.34215910886953,-0.00111628330194487,-0.0567616756439703,2.11170605930226,12.9298746240849
"42",19.5036412468871,41.8071875031453,4.29704392173434,7.25449759331601,0.0175398258532716,-0.0436284640139256,2.05601950709898,11.9589945769698
"43",18.5030439119628,40.8980993061736,4.23502109933107,7.28944251907165,0.121688875681121,-0.069429496306438,1.76285796130747,13.0704723016268
"44",19.0590791659253,41.1451818368301,4.28196595794717,6.31266432231293,0.0486635535974198,-0.0697420044121717,1.90975096669353,11.562987515873
"45",20.2606868045977,40.8872231590904,5.06015589936843,7.6037592996554,-0.02130731743511,0.101147719154775,1.95415442976848,11.320176766984
"46",20.0106660739086,37.930117337032,5.12711300933129,6.54611412384924,-0.0498433758337435,0.084694606365546,1.89739683332994,10.6768276346236
"47",19.9449974938466,39.0341756175758,4.65100364520584,6.57421913594787,-0.372474558694066,0.0197873064479904,2.01680899917219,11.3786992502708
"48",19.9229773699951,38.1832054299611,5.01858613320862,7.3778588315478,0.112686329643699,-0.0911724135163301,2.06328948630737,10.7330258716452
"49",20.3427838322892,39.949641139732,5.1207403588524,6.63533489792704,-0.0126672890190479,0.111482378788755,2.44443667021716,13.9478028137065
"50",20.3233939958139,38.6636966718503,4.64615510531487,6.56087923236716,-0.140218465445606,0.00178890909243329,2.23754595327406,13.7455202120024
"51",20.3370103949861,39.6206125183574,5.09146983645802,6.48732091971972,-0.0493701016038812,-0.0422635606934543,1.8279317801864,13.7849123537347
"52",20.0974593142551,38.3820321783022,4.90468685291948,6.8175132569507,0.103892679759622,-0.0504865307425519,2.09621677391551,11.6058742210015
"53",19.7406262327655,40.3536707784614,5.14869999863104,7.07690073456035,0.0274888530043482,-0.0310745768424554,2.26306913768059,13.387273177247
"54",20.5133790108137,40.8920105936441,5.22106796377224,6.5543031883886,-0.0342810290222228,-0.133708297574188,2.18916134138087,14.0635158413584
"55",19.1988760356271,40.1250957861205,4.71840367053936,6.69674505865434,0.0877168539240201,0.0373389308488437,2.17316636820338,10.9517796523834
"56",20.3607792822085,40.6833609372539,5.66538117563605,6.62410390075582,0.0267547543639459,0.00342624045660255,1.87745668997857,12.187623525736
"57",19.8151182611104,41.7334055240831,4.5577158393887,7.05344560664727,0.137239371944994,0.197601667931124,2.13388191640792,5.47377285356842
"58",19.4492200372856,40.2317290932462,4.28841358589612,7.24831544384607,0.166057165848444,0.0135376113768809,2.12836688427307,13.0521166115722
"59",20.22053020686,40.0011864715872,4.99684228122909,6.94899481793369,0.136396531333358,-0.0827071429626681,2.12209793580747,10.3031820030776
"60",20.1250345797343,42.0769122555994,4.8178036097284,7.0933329237376,0.0938199683771749,0.0580778978596659,1.90085339690011,12.5947761165293
"61",19.2300205212575,40.1534517497835,4.82472707692669,6.62560484833456,0.111368943092489,0.00668600125175231,1.93294007930554,12.6118980367506
"62",19.2438442745156,38.4794004027273,4.47224832061294,6.92632468106687,0.0208616595680212,0.0800230132097288,1.83051335608951,11.804888159129
"63",20.7831520470549,39.685090394774,5.05061572406428,6.96623236713529,0.0716447688635986,-0.029263242407925,2.04362624565241,13.1460319867477
"64",21.1327413944674,38.852228173926,5.22348894308626,6.98605296695237,-2.4650286342159e-06,-0.0285182773113424,1.8819321370772,12.3815762769301
"65",19.9007130194483,38.7288643008307,4.94692867260798,6.50156958426025,-0.0597853955875656,0.0911433757314802,1.70899738645014,12.9707274037634
"66",20.8015536484664,42.6454180475542,5.08329494356478,6.57378320017521,-0.0139655706113343,-0.0574703578857403,2.18227089615688,14.6079160065907
"67",19.6831038145787,39.8203705451995,4.68779748979026,7.37462168007516,-0.0708759771145687,-0.0119843934834503,1.64761625100698,13.3149997191247
"68",20.4973596172573,38.6220104230155,5.24892964100973,7.16717507641234,-0.0197404905953793,-0.0506955279810873,2.2835140501019,13.8729557985158
"69",19.5054517064441,38.7931091417999,4.52181713526012,7.21451582869952,-0.191072376688131,0.0163676124160881,1.84459389524252,11.4293132477051
"70",20.4081516802358,39.340804506106,5.23656157998522,7.5312497306548,0.0508641194020505,0.0372582793595195,2.0510521846013,10.5267752525428
"71",20.1022681462626,39.7639047725709,4.96451046639689,6.76897345981276,0.0558558087429945,-0.0710381997065608,2.20305902263677,11.5284264482238
"72",19.7278105771054,38.083439652972,4.85562545764348,7.17123598378526,0.0113499685473378,-0.00165438883298889,2.10783249701349,11.3664567289793
"73",20.9774582481689,40.9722105538352,5.32472035792558,6.89402964090609,-0.000942299459747598,-0.012945279515282,1.95176512751389,12.4717674219767
"74",19.9701633074927,40.5911611937732,4.95294077922832,6.61629853519845,0.006562760207083,0.0492119686996871,2.07895590570349,12.7614029294747
"75",21.2724220666701,40.3899292019577,4.98202887658708,6.91107938020684,-0.0554053358173737,0.0359772531332131,2.01035379283534,15.557047859495
"76",19.2793282277573,39.7547051444382,4.49028395859095,7.24991997558714,-0.0174178529763243,0.01688431431822,2.0729094475762,10.9642710947117
"77",20.5880007773337,39.8508042922346,5.51877446426826,7.0605337704181,0.199533260992727,-0.0244212698442663,2.57434744471392,14.1494082456745
"78",21.142005060881,39.8643686632012,5.41389175430717,6.34792624030377,-0.106552638557346,-0.0527722995757352,1.98128017842577,10.1238884994835
"79",20.4882731888281,39.5665178583002,4.87008409216149,6.83809653823447,0.00666158668300026,-0.0223176543569488,1.65358189352756,10.4936300399385
"80",19.2207695496506,39.9646977628578,4.71300342862991,6.98300150128297,0.0514035484157303,0.0191387477009638,2.18555207729727,12.0564677842065
"81",20.6650898652974,39.3712707695268,5.96460838832011,7.03599335847801,-0.062098945257369,0.0172284823817784,1.79871426148085,10.8779894600417
"82",19.5243317369142,38.8591903275289,4.67513919895476,7.11175636913547,-0.030025984177395,-0.0503145454767388,1.8997519748865,11.001528731563
"83",21.706181219174,41.4313146458013,5.69130869001845,7.28555061690759,-0.158342565394874,0.0303077434823815,2.18551351982182,13.5542009396755
"84",19.5063580586919,39.8383717303399,4.64006517541465,6.94097434264796,0.0273405925601371,-0.0111035124484524,1.77228383992281,11.521501865828
"85",20.2869110160943,40.3380307498271,5.16500028018597,6.77540726031624,-0.0131463497714404,0.0141084673939177,1.7069568855912,11.7278298668439
"86",19.6138947777576,38.7951035664824,4.71407861918326,6.21527596199495,-0.0135326522819411,-0.0575368134194977,1.83689208933773,11.4792266687747
"87",19.1647256685529,40.1419056564014,4.62866389670724,6.93067089527603,-0.065090036849074,-0.065922240908373,2.02852457957798,12.114299213131
"88",19.3562185903837,41.0666399008641,5.09498328597859,7.24815897488819,-0.063385415375921,-0.0305798453539973,2.06610935225205,13.3053404886306
"89",19.5031873294048,41.4815544786289,4.85739709305117,6.9655108494453,-0.025075457882712,0.00985986772711877,2.10306382567075,11.5119068229239
"90",20.5171663848147,41.0216039739874,4.86771453547061,7.57286033776567,0.109062251904245,0.0751966543784831,1.93756082870362,13.9330388929882
"91",19.5530455672891,39.6014715838145,5.13619990095403,6.67045018963264,-0.0224413649179125,0.0438276518978553,1.97270410312696,11.8407886034961
"92",19.7747796349047,41.3603404836413,4.83658830349895,7.25572871477118,-0.0873263831187385,-0.113637432307356,2.23323130571147,12.6499178063592
"93",20.0824244428132,41.1129601897964,4.99465299720755,6.57613182548233,0.0129759551210713,-0.0210616492443837,2.16545877919042,11.0879638856466
"94",19.5287636976337,39.9514665259355,4.33931705753798,6.81832717389339,-0.117516415181578,-0.105162618025501,1.85635950690239,11.3878580935684
"95",18.5081215582276,39.0666214914979,4.72499740704192,6.6926678700963,-0.0742396790693793,-0.0443474204922768,1.99066694937326,9.3578522689914
"96",19.6086269608215,40.5672706427557,5.00901689806948,7.02740307446507,-0.0701681170522024,-0.0799706677033824,1.95720320727651,12.0487721308111
"97",20.3540091851712,42.504501998175,4.92290993796882,7.25244987008464,0.0612200126612738,-0.0304909677061862,2.25864386060274,9.89031297908191
"98",19.8838959295496,39.2994141308715,4.83291612467285,7.05579901023429,0.126754116275446,0.0810521463938632,1.89017127438886,12.3448513779671
"99",20.1415782280643,38.9157035813424,5.24129039390051,6.80905881600545,0.0637701755960342,0.249849090538128,2.28677436280115,6.08949976620982
"100",20.4153218240421,40.348383128359,4.91629239324319,7.46216790523108,0.00941765158926487,-0.090957330252598,1.66437548793536,10.5621641586294
"101",20.6505624443523,41.8342272716273,5.35781076979759,8.18280765935224,-0.117871245836369,-0.025786767483124,2.11185819467287,11.723483870875
"102",20.6393093592688,40.6842213769441,5.19213073620755,8.01250227061281,0.0706400145582203,-0.103975418398111,2.08168614655722,10.6679745325832
"103",20.1648247114918,41.5977649301669,4.9453475929268,7.37176476213379,-0.0322031906197181,-0.0738471828487622,1.8030150930063,11.6186836413655
"104",19.2122562075675,40.6344294533701,4.33015752661795,6.77202243793488,0.163687951239246,-0.0905501561504599,2.14120517265002,11.8048061154711
"105",18.0082771723464,40.2614573791731,4.98635914565691,6.94423572617361,-0.164827889805702,0.0616668587231178,1.89530880589793,10.8332060674794
"106",20.7701176250499,39.6593454375794,5.40924507009632,6.71608843914691,-0.0617965256237635,-0.0609264653622429,2.25526186427696,10.7218396054516
"107",19.8360605120495,40.0438934377771,4.75366649877922,7.10454503848487,0.250351780040822,-0.0486772420699167,1.8395396092719,11.4924039606953
"108",20.0904139147829,40.7293799748589,4.67198426509423,7.21170795582967,-0.151431854246335,-0.0378319910898207,1.99732162699501,10.4483796170395
"109",20.4269943074591,38.9344443119923,4.98541483114397,6.57218624030333,0.155281884327205,-0.00670668739353732,2.11613562230774,13.0892611495904
"110",20.8235796196225,40.3492263163282,5.53684735681501,6.2712039172543,0.0744267984935198,-0.0453104202898019,1.91648541737298,12.2986760405749
"111",20.5224468570778,40.4423577606963,4.93102541982335,6.74540918879131,0.115738533165957,-0.0851320435550527,2.36384062062834,13.2111501872471
"112",19.3875985749108,40.9004230775291,4.34559453622143,6.91240258581582,-0.0383937346706497,-0.0715401285094235,1.99388678384807,9.97369984222099
"113",19.1395395409127,38.2227368220003,4.79621099680501,6.50744486640971,-0.18189702177465,0.0890577137315126,2.0355705947741,12.5539022992274
"114",20.2221133085323,40.900061680051,5.09448971907213,6.92853732394783,0.131051776747877,-0.0696271460311128,2.04066406909882,12.3225708369088
"115",20.4806812148811,36.9654165254537,4.43534311348323,6.95012299178973,0.0847605618936348,0.0104863151392943,2.01734378629649,11.2537157903415
"116",20.8504936259767,40.9101579996568,5.14113326031098,7.08766786610134,-0.0553342399282796,0.0138837203214899,1.76230516310693,12.5451495827613
"117",19.8150232421007,40.4136416404655,4.83964271087388,7.37605575954806,-0.088738717863664,-0.00472943873861177,2.2270796844407,13.042995760407
"118",20.2177117637317,42.2443402304666,4.84265871084075,7.15940547849,-0.229397909531352,-0.0751028385468144,1.87705407665483,13.5342925039956
"119",19.8278883832484,41.1334226701083,5.10531003923622,6.29295559353184,-0.0158061371209406,-0.0749404934862158,2.28979157767245,13.2404468656039
"120",19.4521043751701,40.1091125400125,4.65604266314568,6.5323072235003,0.0831093682118736,-0.0279214277108181,1.78859425360965,11.5472687136137
"121",20.2907476818862,38.6071385183134,4.35201364150949,7.01687778883354,-0.113658312349635,-0.0188420010962999,1.83656677813489,12.1011260866693
"122",19.4953465519985,41.3176924572434,4.66420550358331,7.15915137348735,-0.0755384320737524,-0.0136943083517075,1.94211991733103,11.8268328401057
"123",19.1213936308472,38.9378512551388,4.52097846493311,7.02812566240623,-0.0585656880369192,0.011848854912932,1.93101723526293,10.0921354083209
"124",19.4708388400326,41.3602736512945,4.93683735820519,6.81124019797831,-0.0699444367521127,-0.0362132939369856,2.04922688871436,11.2644870009766
"125",20.3764711515441,38.4351767599294,4.94263554800039,6.99705335687205,-0.234236112319137,0.0634826745674446,2.22349055438993,12.9817973866403
"126",19.5629337857667,39.686273643731,5.01618989564674,7.12739259295249,-0.135053404960396,0.0356500093451098,2.14189570529309,13.8221899600598
"127",21.5842130911323,38.5525219725359,5.686368285308,6.94581385610311,-0.0510448321269288,0.0785134660629813,1.83776537315242,11.3418778796782
"128",20.4485420475481,39.2314369090713,4.67595651681057,6.47368428069922,-0.153984941716147,-0.0395272552405029,1.85218266972601,12.4150933892513
"129",19.2933322087344,40.0865498779729,4.7146991275562,6.78355441839888,0.119217099700556,0.0199745747349771,2.31561030705381,14.5497861684582
"130",19.2647473545305,39.416318734403,4.4839042225821,7.41300676740625,-0.0154146849336363,-0.00997150608649148,2.34983459833236,14.6589992570604
"131",20.4503009680251,38.0850536249385,4.9531239203262,6.28773769971114,0.123969837912455,0.087558101122699,1.91057159114185,10.3211186893201
"132",19.3041424004224,40.2047227022462,5.14110025155588,7.12835890742634,-0.201356009528529,-0.0237464832392848,2.10492508083925,11.6519305937387
"133",21.351093136863,38.7703012514963,5.51557178660737,7.17224535147741,0.0156145481188193,-0.0532874155896898,1.85599707993231,10.5732580460331
"134",19.7679711064265,41.1771209936995,4.7488047066463,7.4540936764277,-0.0497896036678014,0.0370508371500371,2.09639274795645,11.1122481719715
"135",19.9132467876268,42.296943243816,4.80572836648056,6.9062385900587,-0.0261028029576233,-0.0288448558688966,2.01805901694745,13.6830117663917
"136",20.5975192783132,40.6575599456796,4.8986025507055,7.13133282052038,-0.0317170992681337,-0.0344618603216432,2.23401816382981,12.5844318571743
"137",18.9687013894327,38.9558920852238,4.63863241574032,6.06986501610737,-0.000638268837540336,-0.0659922023229661,1.84775646249947,12.3428767589155
"138",19.6621771968043,38.7606815363519,4.50292029120258,6.43833847018611,-0.0129922069927188,0.00358743672404651,2.0464201595479,11.2168108634082
"139",19.3402071617519,38.7438224390448,4.57803906889968,6.70457952256386,-0.00162946777972452,-0.0816138885345164,1.81982753252354,12.3227473714402
"140",20.350999002464,37.9861380167012,5.01967949829369,6.52365199842461,0.16964907437677,-0.0885643818748816,2.06041312723921,12.2971427702256
"141",20.344381165503,37.1906357286986,4.95705622809041,5.82754148622372,0.274278592828887,0.03414608898155,1.94833201602111,8.26747271059516
"142",20.2336816943204,40.0101296891944,5.45382048155431,7.23675723401649,-0.0300785852238971,0.0418295036842092,2.11437204339867,13.0270962068315
"143",19.8999339796509,41.2858206646904,5.3676142511835,7.16526456280091,-0.0492891764657241,0.0313835971558524,2.23332368416184,12.0695171862203
"144",20.2291676231455,40.5258237125925,5.78371149936468,7.20412127307641,0.0765168484043365,-0.0988734008709225,1.95317786993506,12.1707482731158
"145",20.7582586833815,40.6007082360881,5.87096649114183,6.79067864195731,0.0214908565614096,-0.0631268985547505,2.06767774864909,15.2356176696234
"146",20.280108172244,41.8811874425289,4.73677387647856,6.99346910043201,0.00818650401030813,0.024917031099427,1.86730636257515,12.5811788877503
"147",19.968913938011,37.0060999574273,4.46036398064939,6.57066404901434,-0.0149753263202605,-0.0216412726443042,2.13762170142828,12.2517125040298
"148",19.7744071259547,39.9909565511656,4.49412279641953,7.62205800444726,-0.0317411492623053,0.061983347736125,2.00104070577039,10.1773918019252
"149",20.0656330489594,41.4263115788881,5.05697609505553,7.74481446693658,-0.114564266360996,-0.000133721133397314,1.98594825468906,13.0579539659153
"150",21.4211966076265,40.8364167306348,5.26332497340593,6.63611911914744,0.192758837629591,-0.031379983104666,2.29857286835257,11.8014572903991
"151",19.9979851509503,41.606167750868,4.77538870769163,6.92479781574115,-0.084232431484211,-0.0360975974289726,2.46333798618324,11.3599963798297
"152",20.7889248090505,40.842738204513,5.14138413282393,6.69330935824983,0.110189970897546,-0.0923369792213583,1.89020001179623,13.5868794626668
"153",19.944933809673,40.3165957013472,5.06840340080384,6.78866334090903,-0.0225969793021446,0.059769853245321,2.17643443470855,11.2318969760552
"154",19.5550455756157,40.6725996197677,5.29203949440455,7.359074054926,0.101818722380696,-0.0528947990133764,2.30712561631097,11.8976216537674
"155",19.8491167958507,40.6588969963914,5.34135285145324,7.49642550108714,0.00077808657815319,-0.0533663265201408,2.13019332838631,8.57473648015559
"156",20.023304223769,40.1238789668643,4.91513939057286,6.36665949810264,-0.0227615628115237,0.0586073468810565,1.96921036095479,13.6045577406629
"157",20.7162544132405,40.7888682894923,4.88693826913391,7.33330575490791,0.0358728711102501,0.0423734221101726,2.02086865974901,12.9901485984627
"158",19.5655930424602,38.8124628401668,5.19403126635493,7.0214602954074,0.0110731054586982,0.066636543709075,1.98625241782565,10.9822525285604
"159",20.5943276421816,39.8034488690703,4.76338103156506,5.95731672842874,0.13958803956446,0.0179264339489783,2.33835744828827,13.1556502256348
"160",20.5906464195476,39.9770971394353,4.77279043409622,6.96865020393678,0.0843886746603909,-0.103399722409829,2.09801268458471,13.022916951352
"161",20.8293868171709,38.8726839929957,5.28682542349845,7.01923302184263,-0.00715553313683517,0.0281814339415826,2.57107353050244,13.9612287151509
"162",19.6898035450088,40.7472132706865,5.35150643116565,7.151532496895,0.0670691666170335,-0.100254806652072,2.18490295684787,12.768015456493
"163",18.6726630480493,40.3278256876061,4.63143643002515,7.04463934743388,0.220682151491833,0.0180460697039234,1.9811345653878,11.4773342261534
"164",19.8603578884224,43.3261040485244,4.82902287920761,7.51463364146044,-0.0583403075318986,-0.0039803013626243,2.07705413018157,11.839096131529
"165",20.0453526761428,37.9028949582075,4.98937731941755,7.51605253310775,0.0182191143647428,-0.0256026891982178,2.0126992895639,12.0064270772528
"166",20.5424166202443,40.2671723609805,5.49918419826998,7.28454039397922,-0.027983838312715,-0.0448058733796473,2.10870150349705,9.65280361268816
"167",19.7362510348121,41.9937472900674,4.97258076687923,6.77237194901819,-0.057523917833552,0.0061905944272623,2.16994865107599,10.8295271839263
"168",19.1268202925269,39.0269956807715,4.97115008228021,7.58939269092657,-0.046664475099702,-0.0398378574786938,1.84134041390218,11.5846401026935
"169",19.6643267259184,41.3579882405455,4.5171332674397,7.52144372270996,0.026111237453578,-0.092308376405933,1.98559652569359,9.33855273231917
"170",20.8538551619643,41.8674405079172,4.74949715089156,7.28858443591055,-0.171263940137928,0.0796701077210484,2.07960981300002,11.4563491286107
"171",20.2520291143513,39.0448988533587,5.51628426775174,7.36012455338289,0.0590698946933307,-0.0294143455963739,2.02425597806858,13.5479896697699
"172",20.4020341374292,38.5839389227529,5.3275751567257,6.19115285215693,0.0414760697033526,0.000820808575250185,2.11089438863456,10.7410510223147
"173",21.3668801018794,39.0457365467562,5.32587729268288,6.19055707210062,-0.00970471099028799,-0.00353603837590633,1.92287078507629,15.1302645784351
"174",20.0297147244905,40.6086353979718,5.06306554738867,7.1938094254414,0.00606262161762051,-0.0378748669077737,1.75018727451211,12.095820525287
"175",19.8851128723048,39.6172689732732,4.57820893940562,6.83946229637984,-0.112699122292635,-0.043304689815459,2.22147623835132,10.2349797048062
"176",19.120807283964,40.1889192843043,5.03318492823131,6.7213556969282,0.0980984765029287,-0.0590074079366133,2.19167109222664,13.304673058467
"177",19.2612582355356,40.8807950321339,4.554093172485,7.50765964944918,-0.055631872797953,0.0210778148554855,2.04935918223268,11.8875903481943
"178",20.2616485225859,38.5331368537986,5.18041072972241,6.31575763230625,-0.035868150371034,0.0213467095726954,2.08553240168917,12.8465686754059
"179",19.2521916636622,40.3680280303792,4.75761471968535,7.07165795140347,-0.150357023450588,-0.0543026751667886,2.00393420396351,14.8127125259673
"180",20.6862514158644,40.4687592529723,4.9519019538741,7.30649663636151,-0.179879045386019,-0.0100156562410914,2.02571138825265,13.9692977175739
"181",21.2917758558389,41.0230780980858,5.11734493501267,7.11854400888522,-0.0327059412648232,0.0161546409279218,2.2245465087475,13.4705248923913
"182",20.4395217513615,36.618650034646,5.27421049265769,6.64148927603086,-0.20265299631935,0.0122000961953926,1.56514170084037,7.021850426626
"183",20.4414727722375,40.3391131825885,5.27441510608921,6.80834394790825,0.0648424065642022,-0.00232284768266645,1.91897870568046,13.0585606589587
"184",20.2186089788095,40.3910199955824,5.27200026451184,7.16097316477293,0.0975313815343388,-0.120112326413095,1.97776988981194,10.4775807607378
"185",19.5327187126206,41.342146918386,4.65785332456054,7.00152250051392,-0.0198802531884537,0.0647086410133129,2.10813335150326,9.8640558112793
"186",19.6283679684565,42.8712160708537,4.92192528145475,7.29477967986659,0.0204010820797596,-0.0302921714406028,2.20967685459141,12.3463951143932
"187",20.5868862492253,40.5576803186516,5.37075759088764,7.07976673223376,0.0115469383495632,-0.0559475731040907,2.19949448305016,11.6498281149324
"188",20.6414630591129,39.5314225674207,5.07714829144014,6.52977573902024,0.191545752452394,-0.028030236788482,1.97680257369171,12.2467479286801
"189",19.8700067242626,40.6022491024211,4.84353256774685,7.17473633829771,-0.0492188125478805,-0.00178145291827382,2.1342159774397,12.7901741851783
"190",18.8194911182344,37.7572070093714,4.6023683722947,6.39654796022062,-0.0172834765570439,-0.0133016141308417,1.82835342960074,9.26870164159665
"191",20.2836574735407,39.9056227239593,4.9401672526331,6.93460429305873,-0.117620548933685,0.0377284160515566,2.27138011263038,11.4351904560884
"192",21.0345185108121,39.3328962184576,5.5310779024003,6.7762343729562,-0.0552342206318791,0.0919687005649669,2.44167119673978,11.4760370783978
"193",19.6523899081732,40.7410600457941,4.61349627180903,6.94885410813726,0.102049599089381,-0.00717651495582368,2.06881930895833,12.9623717444257
"194",20.0775596806187,39.5485004422931,4.73472713650507,6.50784390218377,0.0699839423037732,0.0135814970970274,1.89192246231608,11.2220195942872
"195",19.5190977104108,38.3471793268736,4.87359028340069,7.05142097230812,0.0603256391373733,0.03423176949386,1.72621595495737,10.8264700300986
"196",20.5933575974525,38.5432090924804,4.67688305627651,6.83670145723156,0.0767368327527661,0.0649084917313719,1.95385474056526,11.9245212741348
"197",19.526202116524,39.2134180975965,5.00619415937885,6.6207995503643,-0.140648433073709,-0.0253611300937186,2.045703544189,11.8663717744449
"198",20.7953218195493,41.1795254918624,4.73212621945024,6.66643074113757,0.0517136744477859,-0.076608906255709,2.03584372250679,11.5518708814345
"199",21.0896333702879,40.6667486347462,5.09344834855897,6.31191184554611,-0.068570774411245,0.01021627312944,1.83759569764252,11.9207723258687
"200",19.5006956333621,42.8372451351097,4.71891850397316,7.29684173004894,-0.077509783290097,-0.0330651775090591,1.99328392098943,13.8431863396905
"201",19.8671874100931,40.0757351280505,4.56337877116194,6.1364646380325,0.0971777325788606,0.00688421401319588,2.00881184571556,11.8849201328682
"202",21.1677221546125,42.9208119712074,5.10050728550743,7.48230500628795,-0.13738538695498,-0.0928752411660745,1.9880166259577,11.3147431184222
"203",19.613397550725,40.4574005196302,4.64709295491651,6.89992121307253,-0.0207580969560832,-0.0637441797863382,2.43648046798837,10.2504388782816
"204",20.286907475988,40.3496903889254,4.85278117116335,6.4511382064673,-0.00713118592527638,-0.0416345491990691,1.92940305213756,12.7362498852683
"205",19.8953316815564,40.4645037245634,4.83198770698944,7.04609646782313,0.0652308505101384,-0.006766005644021,1.67891660420708,11.348890665002
"206",19.4152845946331,39.981958922593,4.66901666880572,7.07041690254095,-0.00244295147260403,0.0110066246919298,2.46826780511415,8.36382312334265
"207",20.1616672853667,38.575966044611,4.78301615503756,6.64453051873765,-0.0195665586187624,0.0180472464677497,1.9959862648527,12.8234585826526
"208",20.1779050111149,40.9655917938131,5.1159127661306,7.10617497578332,-0.0509042456340112,0.00597299311023425,1.97404745006495,11.0407682529988
"209",19.4306995591505,39.8650647087089,4.83191389271997,6.9066588568526,-0.0737567413848277,0.0188915644041561,1.77887178516455,10.5471127585015
"210",19.3247565832097,39.2396258394173,4.9555246578369,6.95778193852794,-0.0425160062928679,-0.0105302618902414,1.63154063524938,10.2481559477962
"211",20.3066187086651,40.5277857955733,4.96173802998877,5.99801293608197,-0.0305115397046696,-0.0538239040734384,2.14585036240645,10.3276620413491
"212",19.7065144244515,39.920333592894,4.88741829939992,6.66706006683673,-0.0938293986985386,0.00392887424114124,2.18040482985871,12.2321221303565
"213",20.0772313021695,38.67462684833,5.19352354652197,6.47300077707822,-0.143899161208387,-0.00649159863155096,2.035942111088,11.4883094651847
"214",19.4861351915105,39.5915910685388,4.28302013832017,6.64879361868244,-0.0159304482309685,-0.000102487159913211,1.8462787117035,11.63480501515
"215",20.6414679520479,39.351481393915,4.9082255612389,7.30196998307619,-0.0675462078038395,0.0483820942072568,1.77365236362571,10.2632235791194
"216",19.2480568956336,37.0521492118475,4.9641991145129,6.51942537253787,-0.179938639745268,-0.014971631209621,1.96163689118098,12.2688779419609
"217",19.8946065380727,39.7206307986843,5.25348858103243,7.28927284707774,-0.0245396693274484,0.0146366945269832,1.80130947508408,12.9191004718165
"218",19.9110524817925,39.3656405169501,4.82903149905731,7.39047249443181,0.0436755121365564,0.0198929014428114,2.1837827088492,10.1003484654563
"219",20.1480126560058,38.8275313913301,5.10329201802094,6.08816561256679,-0.112909972717771,0.0524816814618912,2.11944762214098,13.3917840458397
"220",19.0993927405928,38.9552140852787,4.54340242050973,6.56928794014039,-0.0456353789990282,-0.0426845154057612,1.95045468231946,11.5555872337148
"221",19.8852607444549,38.9320963063757,4.43026073715815,7.45052173301661,-0.00834965624892887,0.00017267637215505,1.95770931934903,10.5878519659123
"222",22.0708858470267,40.2158070951939,5.80383400256633,6.70350851381217,-0.0488341840893425,-0.0259654483994448,2.12251045508425,13.0441856924061
"223",19.9801162109044,39.9566139573183,5.09550172649012,6.75727446599012,0.0802032056659059,-0.027197800923964,2.33104557860043,12.6566244483202
"224",19.8596106572343,38.9490107476797,5.22563117514973,7.88712925481066,-0.0444004651482336,-0.0303342182363706,1.81653806406068,9.3594893863227
"225",19.8769897523697,39.5854542910569,4.74784165719812,7.43085433007162,-0.168165829888124,0.00269789472610624,2.05663107555231,13.0891719409844
"226",19.201023906105,41.1918893224724,4.55996530484558,7.19962524577814,0.164012571840796,-0.0718089057765373,2.11006572699235,13.1110043689748
"227",18.8830742344011,39.3778432601449,4.85151645775473,6.70334857576142,0.17295491064439,-0.0100161247924243,1.99239244226325,12.2118108771595
"228",19.7387907421181,40.4877396584375,4.85685813795849,7.04508680261034,0.0947691625355379,0.00835318180483131,1.98546844432172,14.1924445408534
"229",19.7867265586875,38.6401842914792,5.23169222665094,6.80228951690114,0.00942944262729774,0.0296943397834693,2.06434307244654,14.3023822545772
"230",19.5832826767516,39.9925152916878,4.92953354732255,6.80213002022778,-0.0518265465256114,-0.018753761421672,2.1262814832179,12.1881005955237
"231",19.6779408561027,40.2493634191356,5.03387556325886,6.72192419394908,0.0735467010777262,0.007039389179083,2.09048576068465,11.1863939093239
"232",20.0249152250364,40.2241667221687,4.78197399412054,7.21049507162356,-0.0799482573733276,-0.035540498835607,1.87171722732001,11.093044507066
"233",19.4434334661604,39.5399185280663,4.99545695333313,7.50583659189092,0.193292399244429,-0.0453159459647209,1.8965398563078,11.1863384824159
"234",20.2655924421467,38.6716753011398,4.79029309527383,6.92385024352061,-0.104480090137618,0.063529328877963,1.84095984040688,11.7250761404533
"235",19.6584083612755,40.3021720655447,5.15468157394378,6.73264389904984,0.0315224072415508,0.00900159478688727,2.04187645656695,10.8935317908284
"236",20.4815865425909,40.8720569236053,5.1958350068229,6.95156372452465,0.03879978557006,0.0154199315596542,2.20058679266564,13.2975275968966
"237",21.0019616391536,40.1887806711699,5.20271685349172,7.79048419444037,-0.0218574695854618,0.105467793200844,2.11497127876349,11.8398556641939
"238",20.1665949564632,39.2015069943097,4.99540651760318,7.28658582901343,0.0225237679080203,-0.0115900633825826,1.86336725528488,9.91702602210793
"239",20.6037687905091,40.1483369795598,4.96394131485791,7.00882530461177,-0.0942072119717088,0.0638251128987635,2.09687250591583,11.0629347028261
"240",18.7541222464818,38.196763114873,4.71917128439269,6.48975364260118,0.0450034416768627,0.0452696601587439,2.02837832891393,11.9259771144345
"241",18.9003243139427,40.1424406333763,4.67297328298901,6.83446538084374,0.0885810840325277,0.11304706461425,2.32553808011284,11.2604364067791
"242",19.6212037771252,39.9434812761947,4.7650710684409,7.48010044397198,0.0985278945023834,-0.00433616610889868,2.00150095946729,11.836316190554
"243",19.7767831936998,40.5041098632389,4.90861739370583,7.09195824444426,0.253760628453309,-0.0757441289479015,1.94549359544718,11.4850677779621
"244",19.7079206081031,42.241893199707,4.55687500865665,7.3073286725926,-0.0644291714989363,-0.00332469155377756,1.99521902135036,13.7326140185351
"245",19.4668611692981,40.1353546707753,5.1426903935478,7.19087370904476,-0.0560890962864535,-0.00738250338190051,1.98834116553942,11.3391105986656
"246",18.7964826152207,40.7668567707611,4.70812632929158,7.01677454031772,-0.085362814695579,-0.0187760428699333,1.87341241157389,12.704318517045
"247",19.3765520447104,39.3605258422008,4.55719890379894,6.81507649463247,0.262105937410908,0.0178580361989221,1.8397123565289,13.468578097822
"248",19.7536479308924,39.4751663061744,4.84301815105578,7.18063808274317,0.189732784995238,-0.0877461766034865,1.98778546185612,12.5485048186623
"249",20.3541789842664,38.4891101889498,4.72738018675671,6.91238885555831,0.074846952740546,-0.0288929191401138,1.79429411803315,11.0588798843094
"250",21.7754427685421,40.6416311936579,5.38903156042152,7.04383535562332,-0.0786797774945654,-0.0059327838809125,2.3545611268822,14.3354711350355
