"","x"
"1",-1042.3005569015
"2",-1110.41613272311
"3",-1012.32146481065
"4",-1082.55343770373
"5",-1061.61968533165
"6",-1029.35504436659
"7",-1041.96158225612
"8",-1019.20671409836
"9",-998.79485932576
"10",-1032.19838345744
"11",-1063.2020289629
"12",-1014.83794172279
"13",-1002.3932483019
"14",-1013.1745349824
"15",-1010.57123043274
"16",-1063.46205887528
"17",-1035.56512272448
"18",-1043.51093917209
"19",-1059.15114391692
"20",-1052.14860074955
"21",-985.54710498197
"22",-1059.24753032099
"23",-1010.3617951166
"24",-1091.37828796757
"25",-1031.08888810927
"26",-1019.23068474924
"27",-1027.79737501174
"28",-1020.38477593371
"29",-1028.19131402884
"30",-1032.48082822365
"31",-1047.19777683321
"32",-995.554713070604
"33",-1048.42483148567
"34",-1038.86399339263
"35",-1037.88358265211
"36",-1036.69500434442
"37",-1019.08468858536
"38",-1033.34814066691
"39",-1054.05475696382
"40",-1064.22555019052
"41",-1012.20944824111
"42",-942.420470739297
"43",-1012.67677851001
"44",-1018.82108030682
"45",-1047.98628590601
"46",-1061.46946127203
"47",-1040.81693056372
"48",-1054.8185733868
"49",-1026.74213328143
"50",-1047.38831714569
"51",-1063.3773327533
"52",-1032.33616786467
"53",-1015.71807880575
"54",-1056.24685771258
"55",-1082.03724146726
"56",-1066.55764703209
"57",-1047.2668333812
"58",-1024.08628550011
"59",-1057.29688021579
"60",-1017.05719560608
"61",-1013.73749907399
"62",-1046.45349771026
"63",-1050.52406350225
"64",-1012.08701900815
"65",-1041.38706446798
"66",-1020.30493536159
"67",-1028.56791296622
"68",-1009.16046103622
"69",-1065.04143896378
"70",-1019.62023943883
"71",-1039.939909314
"72",-1075.07104364281
"73",-1021.90660900702
"74",-1009.49242726648
"75",-1008.03949724708
"76",-1011.64330391164
"77",-1001.0669115757
"78",-1097.96611269926
"79",-1029.9106048916
"80",-1023.86042861907
"81",-1035.90439221696
"82",-1046.3524264864
"83",-1054.60613825883
"84",-1020.69464951124
"85",-1011.87727736106
"86",-1053.308299756
"87",-996.358810723432
"88",-1028.44682450508
"89",-1041.28108377775
"90",-1039.91541001056
"91",-1045.55660626844
"92",-1049.14659639746
"93",-1030.85620728723
"94",-1047.8115109729
"95",-980.366935831935
"96",-1032.31897493387
"97",-1041.9949112305
"98",-1013.25718088149
"99",-1021.44166320223
"100",-1044.02244418191
"101",-1017.93337530303
"102",-1051.27614795415
"103",-1038.24691539105
"104",-1038.44831473285
"105",-991.192038274463
"106",-1026.76497699248
"107",-1055.71040753308
"108",-1044.7366578322
"109",-1035.04495318457
"110",-1063.9920504629
"111",-992.122858934298
"112",-1031.85272279874
"113",-1010.04489832584
"114",-1044.67888684216
"115",-1065.41911793385
"116",-1045.04520831588
"117",-1044.02300763368
"118",-1034.72516945849
"119",-1009.82646048918
"120",-1001.86434349089
"121",-1015.448006323
"122",-1032.20598023113
"123",-1056.00798597144
"124",-983.94015151667
"125",-1033.9187276723
"126",-1006.77259951425
"127",-1027.23509702922
"128",-1060.15999442303
"129",-1028.59774687325
"130",-1049.27015438876
"131",-1103.93302592578
"132",-1096.38095061518
"133",-1004.24260796378
"134",-1006.73401222607
"135",-1023.00306962986
"136",-1020.35453803341
"137",-1017.05080023496
"138",-1067.05111643337
"139",-1024.85531600285
"140",-1104.41636238839
"141",-1045.66597626243
"142",-1032.27274229953
"143",-1033.68472981727
"144",-1075.96107951801
"145",-1061.91461046874
"146",-1038.06051743651
"147",-1083.30022056375
"148",-1008.09381798624
"149",-1067.93502223676
"150",-1011.06253628076
"151",-998.861053347384
"152",-1046.37875062762
"153",-1053.31677320068
"154",-1052.37517274335
"155",-1074.95386875195
"156",-1051.70800209698
"157",-1051.53604877179
"158",-1031.38941744946
"159",-1002.90267493199
"160",-1008.31029622116
"161",-1114.73054545789
"162",-1034.18212657005
"163",-1030.33775840104
"164",-1039.4279923263
"165",-1007.11740292063
"166",-1032.49747985703
"167",-999.762295230181
"168",-1011.05666035538
"169",-1042.03711151136
"170",-1024.3207157797
"171",-1072.95324548916
"172",-1066.50882165189
"173",-1025.84507432029
"174",-1033.70362196213
"175",-1037.74313347218
"176",-1041.69632644781
"177",-1071.79406370627
"178",-1033.60603691932
"179",-1064.50478185556
"180",-980.498495605956
"181",-1003.83049824772
"182",-1024.87599243646
"183",-1025.62770925741
"184",-1032.77832517766
"185",-1035.10206923549
"186",-1028.42076378304
"187",-1017.2788962368
"188",-1071.40718159534
"189",-1021.05079254959
"190",-1052.92538435864
"191",-1025.46831923218
"192",-1015.23092456225
"193",-1057.74016138767
"194",-1026.21314322965
"195",-1029.20091402481
"196",-991.408697101356
"197",-1011.93555600614
"198",-1052.74715545007
"199",-1050.01084306063
"200",-1037.33102139241
"201",-1008.22293383124
"202",-987.538682826858
"203",-1007.0648991711
"204",-1058.89552932171
"205",-1021.21368602366
"206",-1050.59251836232
"207",-1040.10383766555
"208",-1078.10743819571
"209",-1042.29490099489
"210",-1016.81499611467
"211",-1020.78065969082
"212",-1023.0899419266
"213",-1045.96559663822
"214",-1104.18810835933
"215",-1028.8302014465
"216",-1062.79074282982
"217",-1063.04909290264
"218",-1035.8449202444
"219",-1013.00137485751
"220",-1034.91430819683
"221",-1039.68576266764
"222",-1058.56339237731
"223",-1028.32067524449
"224",-1054.74178429438
"225",-1037.36136338018
"226",-1021.52000151776
"227",-971.639498747653
"228",-1022.97252252166
"229",-1052.1009861172
"230",-1031.50923230295
"231",-1045.63056927015
"232",-1030.14195753953
"233",-1046.50853616651
"234",-1008.75398553798
"235",-1005.77823667234
"236",-1056.64432291851
"237",-1064.17638240642
"238",-1017.9498361997
"239",-1050.41849163019
"240",-1041.35840391593
"241",-1015.80004113903
"242",-1106.32693118324
"243",-1041.63102965998
"244",-1108.3720045583
"245",-1017.01927994622
"246",-1050.18020140239
"247",-997.497534141073
"248",-1017.949842477
"249",-1003.17948481979
"250",-1047.68264160743
