"","x"
"1",852.951886287638
"2",882.093186650081
"3",917.729673254971
"4",922.061623122657
"5",807.778533701141
"6",861.799289072261
"7",921.429462499348
"8",872.48946295547
"9",841.929148095273
"10",884.356238254395
"11",844.379375949335
"12",923.655383876387
"13",845.26374268915
"14",846.558330039006
"15",910.802470892547
"16",882.969498319972
"17",815.312870586355
"18",923.920266894984
"19",904.555889296815
"20",866.688545331008
"21",871.026111498083
"22",848.743975026052
"23",883.018669936628
"24",837.55084507152
"25",865.027971276577
"26",847.015537909813
"27",863.786566985277
"28",881.378899831658
"29",853.019992729285
"30",904.932599608898
"31",930.304981457246
"32",858.955338823776
"33",916.593392760199
"34",852.897319802138
"35",911.115169552201
"36",854.693101726509
"37",853.578094723822
"38",890.983013418664
"39",821.057366322873
"40",861.751478184317
"41",792.171878965755
"42",901.398867780313
"43",875.671136139243
"44",897.927626262757
"45",863.76013456664
"46",888.726008344657
"47",809.039813395616
"48",892.579719902192
"49",911.227608947002
"50",870.789676290513
"51",875.370905653963
"52",866.585760217074
"53",892.254801517168
"54",830.704064000216
"55",857.246683842063
"56",904.145814675117
"57",877.612550753003
"58",921.802472978888
"59",864.300783875541
"60",847.945113056262
"61",828.116897623289
"62",837.900324646186
"63",841.044803199048
"64",856.670984757709
"65",846.132719146327
"66",853.690499631184
"67",828.787903173005
"68",896.546712244381
"69",918.634825970297
"70",910.107003626522
"71",833.997473395913
"72",891.911955288762
"73",854.847991995116
"74",898.488918103359
"75",836.259252216464
"76",842.218179994594
"77",891.63378592358
"78",843.929539787128
"79",896.071832374941
"80",910.547888945303
"81",895.96756311434
"82",867.460704750203
"83",870.654341942621
"84",911.776366067805
"85",915.148826793233
"86",938.46700053935
"87",893.913282836192
"88",846.723534214302
"89",924.423957309609
"90",863.025731652505
"91",852.961084442498
"92",848.231536216866
"93",906.846011099466
"94",896.319877881064
"95",885.819928440943
"96",858.988378328224
"97",871.137643917524
"98",830.902817608297
"99",895.325755743011
"100",889.962209423167
"101",826.023494967661
"102",905.929740280671
"103",879.911913547417
"104",887.118850359413
"105",879.895866379706
"106",899.3899495784
"107",843.772051236719
"108",841.637363970382
"109",902.3321353285
"110",837.47490791021
"111",869.831888619446
"112",850.808466996794
"113",846.324594924513
"114",889.231752530171
"115",828.509712725425
"116",868.376175801999
"117",860.69012224374
"118",814.10123762919
"119",854.938588088542
"120",874.825064822077
"121",864.43925278833
"122",883.903725221184
"123",827.08085253592
"124",898.177380470671
"125",877.452100591882
"126",784.668529313809
"127",857.126480328985
"128",881.993391489758
"129",877.816780653402
"130",897.215375843367
"131",881.480572968069
"132",900.729817517185
"133",841.468539848496
"134",871.537560649022
"135",902.149617711016
"136",889.54942638966
"137",836.146690275206
"138",881.15794766697
"139",869.465731803046
"140",822.965622729984
"141",855.243980925116
"142",875.425370975594
"143",953.755434403462
"144",930.955794899268
"145",862.020436366447
"146",792.167972889368
"147",845.438280030579
"148",862.480989039212
"149",865.581837334786
"150",872.279074799757
"151",895.869299927342
"152",860.548378991114
"153",850.995412212458
"154",825.503860066971
"155",892.002623315847
"156",879.227555794106
"157",802.058859262209
"158",852.147214219369
"159",881.385786114641
"160",919.416059670839
"161",829.847725950234
"162",897.508764752366
"163",923.109691977426
"164",855.166283634627
"165",833.102906457825
"166",898.847461819858
"167",867.068725813796
"168",871.046361882007
"169",918.48583103218
"170",883.012023272313
"171",924.319752724237
"172",947.4665507555
"173",854.054598807044
"174",912.643100350915
"175",902.081960759876
"176",806.357442734131
"177",859.415373266557
"178",867.568360989336
"179",888.039532981359
"180",886.91716692424
"181",881.628036347667
"182",952.059748383887
"183",872.140475725155
"184",916.356688919142
"185",841.443344636659
"186",861.173072195022
"187",846.411097706629
"188",815.72733315217
"189",911.421192851051
"190",837.612696999689
"191",829.530697934664
"192",890.653207669318
"193",821.442457463571
"194",873.736812494392
"195",831.558559004737
"196",890.314720194174
"197",928.836325540264
"198",846.849983269016
"199",870.347269617289
"200",838.852768333779
"201",927.512860509981
"202",873.183766740117
"203",829.399917084996
"204",801.314530860754
"205",864.945820455612
"206",851.747412063596
"207",903.410725670234
"208",924.093753681034
"209",860.45656805559
"210",899.029963663536
"211",920.523743090325
"212",836.148251854365
"213",901.608470780928
"214",888.538322864258
"215",851.504547834755
"216",875.301160753577
"217",845.167611310005
"218",845.725731921882
"219",897.593513918324
"220",869.017427086315
"221",884.097433389023
"222",889.020162888719
"223",910.316646251594
"224",833.861575974703
"225",853.989937986769
"226",828.738447635849
"227",879.43548114121
"228",859.128550725285
"229",914.828161913556
"230",871.816296083738
"231",896.33122982393
"232",853.125742886407
"233",837.624287683864
"234",920.748738379533
"235",865.491361127193
"236",835.59279446844
"237",882.165008439682
"238",836.262764839803
"239",848.300958499073
"240",893.523760381414
"241",837.480227777958
"242",860.087032997015
"243",931.067892184673
"244",891.114954474035
"245",860.084777802031
"246",896.491817731546
"247",867.136102271084
"248",863.905999965345
"249",863.0293493898
"250",923.524760562336
