"","V1","V2","V3","V4","V5","V6","V7","V8","V9","V10","V11","V12"
"1",0.129,0.066,0.225,0.119,0.092,0.355,0.041,0.069,0.345,0.15,0.044,0.443
"2",0.079,0.082,0.255,0.113,0.057,0.415,0.052,0.107,0.264,0.077,0.111,0.418
"3",0.109,0.109,0.31,0.099,0.114,0.343,0.086,0.166,0.228,0.083,0.118,0.371
"4",0.106,0.087,0.262,0.123,0.12,0.322,0.104,0.091,0.293,0.086,0.122,0.44
"5",0.1,0.087,0.259,0.099,0.073,0.355,0.073,0.173,0.27,0.028,0.111,0.406
"6",0.133,0.075,0.295,0.15,0.034,0.293,0.118,0.107,0.331,0.105,0.122,0.392
"7",0.104,0.107,0.355,0.131,0.085,0.227,0.096,0.081,0.453,0.087,0.089,0.259
"8",0.105,0.077,0.224,0.087,0.139,0.334,0.029,0.15,0.268,0.128,0.07,0.36
"9",0.111,0.091,0.277,0.102,0.118,0.282,0.175,0.172,0.226,0.108,0.079,0.449
"10",0.123,0.076,0.208,0.085,0.095,0.351,0.092,0.135,0.274,0.098,0.063,0.425
"11",0.124,0.025,0.304,0.119,0.115,0.307,0.114,0.087,0.276,0.13,0.096,0.366
"12",0.101,0.11,0.208,0.132,0.083,0.318,0.11,0.114,0.266,0.115,0.143,0.407
"13",0.141,0.11,0.269,0.093,0.148,0.3,0.081,0.097,0.357,0.153,0.127,0.374
"14",0.106,0.079,0.245,0.111,0.073,0.233,0.098,0.037,0.359,0.105,0.118,0.353
"15",0.026,0.095,0.311,0.162,0.056,0.392,0.089,0.089,0.304,0.116,0.126,0.378
"16",0.079,0.115,0.235,0.076,0.117,0.351,0.102,0.084,0.35,0.073,0.167,0.376
"17",0.087,0.075,0.232,0.108,0.088,0.358,0.163,0.159,0.24,0.08,0.145,0.391
"18",0.129,0.124,0.233,0.096,0.106,0.34,0.091,0.121,0.31,0.046,0.11,0.406
"19",0.106,0.129,0.22,0.107,0.067,0.315,0.104,0.078,0.241,0.097,0.055,0.429
"20",0.118,0.083,0.33,0.145,0.117,0.36,0.162,0.113,0.232,0.099,0.096,0.396
"21",0.138,0.113,0.349,0.128,0.094,0.183,0.063,0.119,0.393,0.126,0.08,0.326
"22",0.049,0.09,0.242,0.022,0.193,0.406,0.042,0.128,0.332,0.104,0.079,0.435
"23",0.113,0.106,0.237,0.091,0.106,0.393,0.007,0.132,0.304,0.148,0.083,0.375
"24",0.11,0.036,0.359,0.128,0.082,0.24,0.108,0.117,0.384,0.122,0.127,0.261
"25",0.116,0.077,0.242,0.061,0.11,0.335,0.122,0.106,0.34,0.1,0.154,0.347
"26",0.089,0.08,0.291,0.053,0.138,0.338,0.135,0.017,0.346,0.119,0.106,0.399
"27",0.059,0.104,0.289,0.164,0.183,0.279,0.072,0.079,0.314,0.085,0.064,0.438
"28",0.033,0.147,0.193,0.104,0.18,0.37,0.05,0.143,0.284,0.127,0.078,0.415
"29",0.077,0.074,0.301,0.02,0.133,0.37,0.089,0.116,0.262,0.094,0.11,0.391
"30",0.114,0.097,0.354,0.114,0.11,0.252,0.1,0.122,0.376,0.089,0.109,0.306
"31",0.054,0.042,0.415,0.095,0.117,0.264,0.072,0.115,0.413,0.166,0.052,0.297
"32",0.159,0.083,0.244,0.077,0.085,0.311,0.139,0.071,0.283,0.064,0.126,0.402
"33",0.099,0.049,0.263,0.119,0.058,0.344,0.083,0.098,0.29,0.096,0.09,0.42
"34",0.12,0,0.271,0.119,0.108,0.36,0.082,0.128,0.254,0.056,0.156,0.406
"35",0.137,0.091,0.275,0.067,0.105,0.34,0.081,0.087,0.331,0.066,0.134,0.425
"36",0.147,0.082,0.272,0.092,0.089,0.359,0.142,0.066,0.305,0.091,0.162,0.368
"37",0.051,0.096,0.287,0.06,0.119,0.346,0.101,0.132,0.287,0.067,0.125,0.4
"38",0.121,0.054,0.269,0.125,0.107,0.305,0.164,0.118,0.303,0.107,0.155,0.351
"39",0.125,0.047,0.231,0.064,0.099,0.327,0.034,0.079,0.312,0.105,0.095,0.385
"40",0.107,0.121,0.225,0.107,0.062,0.444,0.125,0.105,0.29,0.148,0.045,0.403
"41",0.117,0.131,0.203,0.109,0.114,0.292,0.091,0.135,0.263,0.107,0.057,0.381
"42",0.084,0.099,0.26,0.046,0.091,0.357,0.13,0.027,0.305,0.098,0.105,0.386
"43",0.102,0.049,0.311,0.011,0.169,0.353,0.12,0.114,0.33,0.075,0.104,0.406
"44",0.109,0.045,0.229,0.1,0.102,0.442,0.122,0.104,0.305,0.118,0.02,0.427
"45",0.045,0.131,0.254,0.153,0.122,0.324,0.108,0.075,0.3,0.121,0.124,0.38
"46",0.12,0.094,0.245,0.155,0.076,0.355,0.09,0.131,0.215,0.085,0.094,0.458
"47",0.083,0.096,0.263,0.05,0.126,0.403,0.114,0.17,0.286,0.082,0.093,0.4
"48",0.113,0.103,0.237,0.127,0.112,0.391,0.042,0.132,0.274,0.069,0.105,0.416
"49",0.115,0.105,0.231,0.052,0.132,0.358,0.083,0.091,0.287,0.055,0.09,0.428
"50",0.17,0.02,0.423,0.063,0.099,0.307,0.096,0.089,0.43,0.09,0.03,0.227
"51",0.068,0.145,0.279,0.113,0.156,0.317,0.066,0.13,0.255,0.129,0.05,0.405
"52",0.024,0.195,0.301,0.103,0.079,0.379,0.095,0.066,0.261,0.077,0.149,0.353
"53",0.084,0.076,0.328,0.122,0.096,0.345,0.073,0.161,0.353,0.107,0.077,0.402
"54",0.07,0.114,0.354,0.066,0.038,0.254,0.099,0.083,0.413,0.153,0.11,0.321
"55",0.084,0.092,0.238,0.099,0.093,0.332,0.079,0.111,0.298,0.096,0.09,0.398
"56",0.118,0.068,0.269,0.188,0.096,0.338,0.066,0.12,0.348,0.112,0.066,0.417
"57",0.108,0.083,0.261,0.146,0.078,0.374,0.077,0.132,0.317,0.096,0.118,0.356
"58",0.068,0.164,0.252,0.101,0.084,0.373,0.111,0.135,0.274,0.045,0.119,0.399
"59",0.134,0.138,0.226,0.076,0.137,0.352,0.093,0.124,0.205,0.06,0.126,0.435
"60",0.125,0.094,0.269,0.058,0.104,0.349,0.079,0.07,0.296,0.12,0.109,0.372
"61",0.063,0.175,0.204,0.122,0.058,0.32,0.113,0.115,0.29,0.1,0.141,0.384
"62",0.057,0.151,0.259,0.105,0.062,0.416,0.117,0.075,0.335,0.094,0.137,0.388
"63",0.059,0.061,0.382,0.082,0.112,0.257,0.065,0.124,0.424,0.036,0.08,0.356
"64",0.15,0.057,0.248,0.026,0.16,0.381,0.106,0.136,0.29,0.101,0.112,0.38
"65",0.075,0.101,0.286,0.168,0.079,0.302,0.041,0.127,0.279,0.081,0.096,0.439
"66",0.091,0.096,0.313,0.057,0.096,0.376,0.1,0.162,0.257,0.123,0.099,0.417
"67",0.093,0.145,0.246,0.066,0.123,0.326,0.127,0.115,0.222,0.096,0.084,0.462
"68",0.063,0.149,0.231,0.07,0.148,0.352,0.077,0.106,0.329,0.108,0.109,0.387
"69",0.106,0.139,0.238,0.169,0.076,0.373,0.075,0.097,0.326,0.116,0.1,0.361
"70",0.103,0.073,0.237,0.182,0.104,0.336,0.062,0.137,0.274,0.101,0.079,0.441
"71",0.055,0.114,0.288,0.066,0.126,0.312,0.096,0.053,0.342,0.109,0.098,0.389
"72",0.099,0.052,0.273,0.109,0.034,0.397,0.08,0.071,0.266,0.068,0.107,0.414
"73",0.109,0.133,0.274,0.151,0.055,0.334,0.106,0.127,0.257,0.065,0.117,0.404
"74",0.105,0.054,0.274,0.061,0.138,0.328,0.139,0.139,0.253,0.102,0.072,0.427
"75",0.114,0.179,0.218,0.082,0.093,0.374,0.061,0.087,0.33,0.114,0.119,0.342
"76",0.082,0.08,0.255,0.15,0.124,0.295,0.159,0.096,0.242,0.077,0.088,0.433
"77",0.074,0.13,0.201,0.074,0.104,0.343,0.098,0.103,0.268,0.127,0.135,0.421
"78",0.141,0.126,0.215,0.168,0.067,0.352,0.178,0.03,0.32,0.072,0.137,0.405
"79",0.086,0.114,0.261,0.144,0.072,0.361,0.014,0.091,0.368,0.136,0.057,0.378
"80",0.1,0.089,0.233,0.062,0.18,0.35,0.09,0.057,0.327,0.093,0.144,0.388
"81",0.167,0.13,0.149,0.106,0.076,0.349,0.101,0.147,0.281,0.104,0.125,0.382
"82",0.104,0.095,0.321,0.103,0.125,0.261,0.107,0.088,0.406,0.125,0.142,0.225
"83",0.095,0.077,0.243,0.097,0.085,0.322,0.005,0.132,0.348,0.118,0.086,0.363
"84",0.028,0.092,0.258,0.123,0.085,0.348,0.104,0.09,0.285,0.08,0.083,0.416
"85",0.118,0.093,0.251,0.074,0.097,0.386,0.13,0.042,0.316,0.058,0.148,0.392
"86",0.14,0.125,0.229,0.111,0.116,0.357,0.111,0.132,0.328,0.055,0.114,0.387
"87",0.051,0.154,0.323,0.16,0.092,0.222,0.127,0.045,0.422,0.053,0.087,0.304
"88",0.077,0.159,0.245,0.05,0.076,0.392,0.107,0.084,0.336,0.076,0.072,0.409
"89",0.069,0.098,0.389,0.085,0.065,0.19,0.137,0.109,0.367,0.061,0.109,0.3
"90",0.09,0.13,0.255,0.046,0.149,0.269,0.1,0.053,0.312,0.091,0.111,0.418
"91",0.092,0.076,0.284,0.156,0.106,0.271,0.083,0.111,0.292,0.075,0.06,0.435
"92",0.1,0.095,0.252,0.149,0.097,0.332,0.079,0.08,0.29,0.085,0.102,0.399
"93",0.165,0.085,0.249,0.132,0.106,0.297,0.097,0.113,0.29,0.136,0.087,0.407
"94",0.116,0.043,0.208,0.086,0.183,0.328,0.121,0.084,0.31,0.124,0.095,0.344
"95",0.046,0.102,0.291,0.14,0.116,0.32,0.072,0.092,0.286,0.112,0.101,0.366
"96",0.047,0.17,0.202,0.142,0.079,0.323,0.088,0.088,0.286,0.106,0.084,0.413
"97",0.134,0.093,0.179,0.104,0.07,0.341,0.174,0.018,0.337,0.083,0.107,0.422
"98",0.047,0.089,0.285,0.125,0.133,0.318,0.015,0.17,0.304,0.08,0.163,0.389
"99",0.095,0.055,0.264,0.089,0.217,0.321,0.127,0.098,0.266,0.124,0.111,0.363
"100",0.16,0.075,0.261,0.065,0.121,0.354,0.12,0.123,0.385,0.158,0.088,0.286
"101",0.082,0.126,0.249,0.106,0.141,0.328,0.137,0.041,0.327,0.121,0.105,0.403
"102",0.133,0.04,0.28,0.078,0.122,0.378,0.123,0.099,0.322,0.111,0.054,0.408
"103",0.085,0.079,0.247,0.089,0.142,0.322,0.079,0.07,0.355,0.113,0.131,0.385
"104",0.107,0.131,0.241,0.104,0.12,0.402,0.143,0.11,0.262,0.063,0.109,0.399
"105",0.069,0.215,0.191,0.056,0.043,0.412,0.12,0.131,0.264,0.079,0.081,0.438
"106",0.057,0.167,0.231,0.18,0.104,0.281,0.082,0.068,0.29,0.075,0.143,0.36
"107",0.058,0.057,0.314,0.09,0.11,0.376,0.08,0.119,0.325,0.121,0.101,0.367
"108",0.089,0.044,0.247,0.098,0.158,0.285,0.108,0.133,0.282,0.108,0.055,0.388
"109",0.092,0.136,0.207,0.104,0.032,0.413,0.114,0.136,0.231,0.141,0.075,0.436
"110",0.057,0.094,0.308,0.144,0.107,0.312,0.095,0.063,0.298,0.109,0.069,0.429
"111",0.041,0.124,0.196,0.053,0.095,0.387,0.099,0.118,0.317,0.119,0.038,0.392
"112",0.165,0.068,0.252,0.086,0.181,0.352,0.064,0.074,0.309,0.108,0.057,0.393
"113",0.094,0.067,0.247,0.09,0.143,0.326,0.075,0.081,0.303,0.032,0.138,0.382
"114",0.127,0.037,0.278,0.058,0.102,0.389,0.072,0.112,0.322,0.092,0.137,0.339
"115",0.086,0.109,0.248,0.08,0.074,0.386,0.069,0.1,0.305,0.095,0.168,0.388
"116",0.114,0.093,0.181,0.098,0.088,0.369,0.026,0.152,0.283,0.114,0.097,0.415
"117",0.143,0.072,0.202,0.116,0.119,0.35,0.124,0.101,0.304,0.11,0.125,0.378
"118",0.089,0.117,0.207,0.092,0.132,0.374,0.127,0.069,0.306,0.068,0.098,0.41
"119",0.089,0.095,0.189,0.073,0.152,0.308,0.046,0.123,0.407,0.088,0.122,0.363
"120",0.091,0.083,0.294,0.086,0.132,0.336,0.153,0.068,0.342,0.137,0.165,0.301
"121",0.134,0.08,0.294,0.062,0.101,0.275,0.11,0.127,0.381,0.177,0.016,0.266
"122",0.139,0.101,0.353,0.11,0.092,0.182,0.138,0.105,0.436,0.033,0.161,0.284
"123",0.124,0.091,0.235,0.083,0.047,0.298,0.127,0.13,0.255,0.113,0.076,0.432
"124",0.1,0.114,0.287,0.139,0.111,0.354,0.122,0.097,0.351,0.107,0.101,0.389
"125",0.085,0.156,0.218,0.109,0.055,0.331,0.092,0.073,0.307,0.081,0.139,0.402
"126",0.143,0.078,0.236,0.094,0.094,0.296,0.089,0.102,0.282,0.123,0.042,0.417
"127",0.066,0.108,0.329,0.06,0.088,0.228,0.111,0.104,0.352,0.126,0.126,0.264
"128",0.027,0.106,0.286,0.11,0.056,0.389,0.037,0.114,0.29,0.156,0.062,0.417
"129",0.079,0.106,0.247,0.148,0.032,0.397,0.106,0.116,0.258,0.116,0.103,0.406
"130",0.105,0.125,0.25,0.103,0.071,0.372,0.001,0.11,0.273,0.126,0.084,0.388
"131",0.089,0.109,0.28,0.129,0.043,0.285,0.126,0.073,0.34,0.078,0.094,0.446
"132",0.138,0.023,0.25,0.042,0.127,0.334,0.142,0.085,0.331,0.14,0.09,0.353
"133",0.164,0.047,0.258,0.062,0.152,0.333,0.103,0.075,0.3,0.13,0.086,0.366
"134",0.107,0.083,0.23,0.12,0.034,0.374,0.06,0.042,0.314,0.084,0.063,0.445
"135",0.066,0.139,0.155,0.132,0.106,0.378,0.108,0.078,0.328,0.078,0.152,0.369
"136",0.104,0.083,0.247,0.06,0.073,0.338,0.092,0.151,0.318,0.105,0.078,0.421
"137",0.096,0.094,0.196,0.118,0.062,0.368,0.14,0.114,0.25,0.145,0.047,0.439
"138",0.074,0.06,0.377,0.12,0.108,0.247,0.155,0.113,0.366,0.066,0.098,0.29
"139",0.075,0.105,0.28,0.134,0.106,0.278,0.08,0.042,0.369,0.107,0.067,0.449
"140",0.038,0.063,0.25,0.108,0.127,0.288,0.136,0.065,0.263,0.116,0.102,0.397
"141",0.102,0.095,0.265,0.094,0.072,0.321,0.025,0.111,0.324,0.121,0.097,0.407
"142",0.107,0.041,0.262,0.049,0.121,0.305,0.16,0.003,0.272,0.046,0.164,0.406
"143",0.173,0.074,0.221,0.097,0.072,0.352,0.048,0.134,0.325,0.099,0.115,0.356
"144",0.065,0.112,0.311,0.125,0.098,0.391,0.083,0.125,0.289,0.12,0.054,0.412
"145",0.092,0.051,0.271,0.035,0.132,0.342,0.069,0.023,0.337,0.157,0.093,0.391
"146",0.106,0.111,0.2,0.136,0.093,0.386,0.123,0.125,0.308,0.084,0.132,0.403
"147",0.118,0.108,0.242,0.138,0.059,0.333,0.144,0.1,0.328,0.107,0.074,0.407
"148",0.127,0.028,0.243,0.18,0.1,0.321,0.08,0.034,0.318,0.106,0.098,0.411
"149",0.047,0.133,0.416,0.066,0.112,0.253,0.096,0.126,0.406,0.164,0.028,0.317
"150",0.135,0.156,0.227,0.068,0.152,0.336,0.108,0.116,0.294,0.137,0.087,0.388
"151",0.111,0.08,0.228,0.119,0.113,0.302,0.053,0.075,0.326,0.147,0.054,0.382
"152",0.059,0.133,0.23,0.069,0.077,0.284,0.069,0.116,0.288,0.119,0.056,0.401
"153",0.095,0.126,0.236,0.196,0.008,0.392,0.05,0.071,0.304,0.124,0.061,0.417
"154",0.148,0.101,0.252,0.094,0.087,0.39,0.08,0.109,0.318,0.077,0.154,0.405
"155",0.098,0.087,0.248,0.071,0.101,0.336,0.101,0.07,0.315,0.121,0.075,0.397
"156",0.15,0.068,0.214,0.071,0.137,0.375,0.134,0.12,0.293,0.082,0.084,0.429
"157",0.09,0.082,0.249,0.121,0.083,0.322,0.122,0.062,0.27,0.115,0.043,0.426
"158",0.091,0.078,0.258,0.032,0.122,0.368,0.052,0.067,0.306,0.083,0.084,0.407
"159",0.125,0.06,0.22,0.105,0.11,0.323,0.125,0.1,0.294,0.113,0.05,0.446
"160",0.071,0.103,0.304,0.103,0.11,0.373,0.074,0.101,0.339,0.075,0.182,0.301
"161",0.092,0.064,0.199,0.049,0.099,0.322,0.09,0.102,0.313,0.086,0.076,0.38
"162",0.097,0.126,0.283,0.104,0.114,0.329,0.023,0.163,0.286,0.079,0.071,0.375
"163",0.123,0.09,0.214,0.132,0.063,0.413,0.061,0.093,0.373,0.092,0.087,0.384
"164",0.084,0.039,0.319,0.065,0.164,0.311,0.111,0.03,0.335,0.068,0.11,0.421
"165",0.088,0.14,0.223,0.082,0.14,0.332,0.084,0.05,0.32,0.054,0.167,0.356
"166",0.088,0.079,0.339,0.092,0.058,0.337,0.08,0.11,0.432,0.081,0.134,0.32
"167",0.186,0.085,0.277,0.084,0.176,0.332,0.117,0.063,0.337,0.063,0.092,0.427
"168",0.101,0.135,0.194,0.106,0.066,0.375,0.104,0.095,0.269,0.111,0.112,0.407
"169",0.085,0.108,0.21,0.129,0.092,0.39,0.084,0.121,0.33,0.104,0.086,0.382
"170",0.105,0.102,0.231,0.044,0.07,0.346,0.133,0.08,0.303,0.086,0.122,0.401
"171",0.121,0.077,0.255,0.063,0.122,0.342,0.1,0.129,0.272,0.123,0.093,0.364
"172",0.062,0.125,0.231,0.097,0.097,0.373,0.069,0.111,0.334,0.114,0.087,0.374
"173",0.149,0.064,0.205,0.069,0.114,0.311,0.104,0.128,0.272,0.095,0.066,0.403
"174",0.1,0.095,0.238,0.183,0.067,0.376,0.092,0.084,0.258,0.104,0.101,0.406
"175",0.112,0.062,0.228,0.08,0.142,0.341,0.039,0.058,0.307,0.077,0.086,0.369
"176",0.094,0.138,0.213,0.107,0.143,0.293,0.015,0.134,0.305,0.135,0.08,0.395
"177",0.086,0.067,0.285,0.088,0.125,0.327,0.044,0.188,0.333,0.091,0.074,0.392
"178",0.063,0.058,0.233,0.141,0.096,0.324,0.045,0.064,0.337,0.093,0.106,0.415
"179",0.098,0.093,0.29,0.065,0.113,0.323,0.106,0.146,0.328,0.089,0.118,0.374
"180",0.133,0.113,0.212,0.127,0.122,0.289,0.094,0.058,0.328,0.094,0.119,0.366
"181",0.117,0.111,0.247,0.139,0.072,0.316,0.13,0.075,0.32,0.078,0.125,0.397
"182",0.146,0.086,0.226,0.139,0.144,0.332,0.147,0.047,0.299,0.081,0.108,0.366
"183",0.11,0.122,0.218,0.104,0.105,0.333,0.171,0.065,0.3,0.105,0.095,0.437
"184",0.072,0.121,0.213,0.095,0.118,0.325,0.13,0.093,0.278,0.134,0.033,0.412
"185",0.086,0.101,0.263,0.118,0.048,0.364,0.141,0.072,0.314,0.107,0.098,0.398
"186",0.096,0.111,0.215,0.097,0.131,0.372,0.133,0.086,0.287,0.092,0.092,0.395
"187",0.086,0.098,0.264,0.086,0.084,0.355,0.073,0.057,0.352,0.094,0.134,0.332
"188",0.101,0.121,0.269,0.145,0.06,0.369,0.13,0.109,0.249,0.096,0.164,0.369
"189",0.058,0.191,0.235,0.152,0.055,0.339,0.141,0.111,0.323,0.074,0.098,0.413
"190",0.057,0.123,0.39,0.088,0.094,0.24,0.118,0.087,0.435,0.156,0.035,0.266
"191",0.14,0.065,0.268,0.081,0.087,0.385,0.158,0.065,0.236,0.081,0.103,0.435
"192",0.07,0.092,0.348,0.089,0.13,0.263,0.069,0.07,0.436,0.062,0.109,0.293
"193",0.17,0.049,0.271,0.022,0.191,0.349,0.183,0.078,0.294,0.05,0.092,0.414
"194",0.135,0.048,0.241,0.043,0.14,0.365,0.063,0.111,0.32,0.132,0.024,0.4
"195",0.066,0.1,0.244,0.077,0.131,0.296,0.165,0.051,0.303,0.112,0.095,0.444
"196",0.101,0.092,0.223,0.111,0.059,0.366,0.12,0.138,0.304,0.108,0.116,0.376
"197",0.13,0.111,0.274,0.097,0.118,0.353,0.084,0.115,0.311,0.098,0.086,0.425
"198",0.095,0.09,0.297,0.139,0.122,0.344,0.085,0.089,0.253,0.072,0.142,0.383
"199",0.08,0.094,0.205,0.078,0.134,0.296,0.053,0.232,0.253,0.099,0.05,0.404
"200",0.122,0.114,0.219,0.116,0.044,0.401,0.056,0.098,0.277,0.099,0.116,0.399
"201",0.134,0.108,0.22,0.12,0.019,0.352,0.067,0.163,0.244,0.115,0.08,0.405
"202",0.081,0.158,0.345,0.127,0.125,0.286,0.142,0.069,0.406,0.053,0.106,0.312
"203",0.127,0.07,0.253,0.069,0.098,0.364,0.122,0.098,0.316,0.085,0.093,0.397
"204",0.112,0.056,0.287,0.106,0.057,0.359,0.131,0.115,0.24,0.136,0.043,0.394
"205",0.085,0.097,0.293,0.101,0.106,0.341,0.023,0.102,0.304,0.105,0.076,0.431
"206",0.101,0.14,0.236,0.099,0.152,0.322,0.161,0.1,0.272,0.102,0.109,0.411
"207",0.076,0.142,0.273,0.062,0.061,0.429,0.064,0.069,0.344,0.108,0.099,0.417
"208",0.036,0.134,0.293,0.105,0.093,0.304,0.131,0.039,0.322,0.113,0.153,0.342
"209",0.096,0.144,0.238,0.116,0.119,0.347,0.083,0.09,0.34,0.137,0.034,0.391
"210",0.138,0.048,0.253,0.099,0.116,0.327,0.121,0.059,0.327,0.1,0.082,0.416
"211",0.06,0.122,0.301,0.153,0.069,0.386,0.084,0.111,0.33,0.094,0.122,0.404
"212",0.063,0.137,0.248,0.072,0.14,0.372,0.185,0.083,0.259,0.054,0.088,0.443
"213",0.098,0.127,0.228,0.141,0.129,0.328,0.115,0.06,0.322,0.113,0.072,0.442
"214",0.107,0.146,0.326,0.129,0.069,0.255,0.115,0.126,0.383,0.096,0.135,0.3
"215",0.13,0.122,0.323,0.133,0.058,0.264,0.087,0.114,0.414,0.186,0.074,0.218
"216",0.111,0.062,0.263,0.118,0.135,0.331,0.064,0.112,0.3,0.107,0.056,0.421
"217",0.099,0.084,0.184,0.048,0.153,0.337,0.144,0.089,0.299,0.119,0.1,0.418
"218",0.07,0.094,0.236,0.109,0.106,0.317,0.174,0.009,0.312,0.081,0.133,0.368
"219",0.144,0.072,0.257,0.182,0.098,0.333,0.078,0.048,0.318,0.117,0.092,0.374
"220",0.126,0.081,0.303,0.097,0.054,0.393,0.143,0.03,0.264,0.083,0.108,0.433
"221",0.093,0.106,0.245,0.023,0.118,0.357,0.119,0.072,0.274,0.11,0.131,0.364
"222",0.097,0.062,0.262,0.033,0.084,0.344,0.112,0.068,0.327,0.104,0.147,0.376
"223",0.05,0.129,0.266,0.091,0.102,0.335,0.065,0.15,0.299,0.1,0.086,0.412
"224",0.12,0.078,0.29,0.037,0.137,0.321,0.134,0.038,0.254,0.13,0.12,0.377
"225",0.12,0.141,0.337,0.106,0.054,0.221,0.024,0.126,0.434,0.106,0.141,0.292
"226",0.082,0.096,0.158,0.089,0.144,0.3,0.075,0.078,0.323,0.108,0.087,0.399
"227",0.085,0.099,0.296,0.109,0.135,0.337,0.11,0.051,0.288,0.129,0.106,0.398
"228",0.044,0.142,0.419,0.117,0.031,0.277,0.113,0.111,0.408,0.141,0.106,0.296
"229",0.106,0.149,0.21,0.12,0.071,0.384,0.001,0.129,0.308,0.088,0.037,0.5
"230",0.114,0.09,0.327,0.084,0.123,0.257,0.165,0.059,0.39,0.127,0.084,0.357
"231",0.094,0.109,0.253,0.127,0.137,0.307,0.045,0.138,0.268,0.079,0.132,0.413
"232",0.136,0.074,0.244,0.077,0.113,0.342,0.082,0.107,0.291,0.144,0.06,0.415
"233",0.115,0.149,0.188,0.041,0.104,0.377,0.147,0.067,0.294,0.091,0.112,0.375
"234",0.134,0.021,0.209,0.133,0.063,0.409,0.129,0.072,0.298,0.079,0.129,0.386
"235",0.08,0.16,0.236,0.119,0.057,0.425,0.159,0.146,0.227,0.062,0.116,0.419
"236",0.11,0.041,0.265,0.05,0.095,0.386,0.121,0.051,0.32,0.118,0.059,0.432
"237",0.09,0.05,0.411,0.056,0.128,0.244,0.13,0.104,0.417,0.102,0.105,0.258
"238",0.101,0.095,0.301,0.065,0.142,0.334,0.049,0.109,0.363,0.066,0.118,0.361
"239",0.058,0.147,0.303,0.114,0.055,0.36,0.161,0.072,0.248,0.054,0.102,0.375
"240",0.139,0.074,0.231,0.136,0.091,0.354,0.14,0.098,0.281,0.097,0.113,0.421
"241",0.142,0.118,0.272,0.052,0.092,0.384,0.08,0.121,0.317,0.091,0.077,0.445
"242",0.131,0.028,0.222,0.094,0.085,0.398,0.071,0.171,0.278,0.087,0.103,0.39
"243",0.088,0.058,0.192,0.096,0.08,0.331,0.128,0.11,0.284,0.092,0.099,0.406
"244",0.118,0.07,0.255,0.135,0.164,0.279,0.042,0.098,0.323,0.083,0.118,0.387
"245",0.128,0.113,0.258,0.152,0.095,0.343,0.122,0.076,0.291,0.073,0.088,0.416
"246",0.051,0.13,0.215,0.136,0.074,0.389,0.069,0.055,0.38,0.105,0.093,0.368
"247",0.031,0.068,0.318,0.081,0.163,0.335,0.065,0.123,0.249,0.125,0.044,0.409
"248",0.114,0.092,0.233,0.055,0.142,0.373,0.04,0.1,0.327,0.056,0.104,0.416
"249",0.126,0.102,0.215,0.153,0.054,0.364,0.033,0.107,0.31,0.109,0.159,0.385
"250",0.1,0.142,0.243,0.098,0.05,0.382,0.153,0.072,0.32,0.103,0.093,0.398
