"","x"
"1",0.94
"2",0.934
"3",0.937
"4",0.933
"5",0.931
"6",0.955
"7",0.934
"8",0.953
"9",0.936
"10",0.934
"11",0.923
"12",0.951
"13",0.94
"14",0.954
"15",0.951
"16",0.945
"17",0.951
"18",0.95
"19",0.915
"20",0.942
"21",0.937
"22",0.954
"23",0.946
"24",0.964
"25",0.932
"26",0.931
"27",0.933
"28",0.942
"29",0.947
"30",0.938
"31",0.938
"32",0.943
"33",0.96
"34",0.962
"35",0.949
"36",0.933
"37",0.937
"38",0.94
"39",0.944
"40",0.933
"41",0.947
"42",0.954
"43",0.948
"44",0.941
"45",0.948
"46",0.956
"47",0.948
"48",0.936
"49",0.933
"50",0.929
"51",0.94
"52",0.936
"53",0.942
"54",0.937
"55",0.943
"56",0.931
"57",0.933
"58",0.945
"59",0.937
"60",0.944
"61",0.942
"62",0.938
"63",0.954
"64",0.921
"65",0.945
"66",0.929
"67",0.956
"68",0.928
"69",0.947
"70",0.927
"71",0.946
"72",0.942
"73",0.939
"74",0.953
"75",0.941
"76",0.928
"77",0.936
"78",0.942
"79",0.93
"80",0.948
"81",0.949
"82",0.934
"83",0.932
"84",0.954
"85",0.957
"86",0.946
"87",0.938
"88",0.957
"89",0.932
"90",0.941
"91",0.939
"92",0.958
"93",0.949
"94",0.95
"95",0.943
"96",0.906
"97",0.933
"98",0.939
"99",0.935
"100",0.934
"101",0.944
"102",0.945
"103",0.943
"104",0.935
"105",0.954
"106",0.953
"107",0.952
"108",0.927
"109",0.93
"110",0.938
"111",0.944
"112",0.948
"113",0.952
"114",0.948
"115",0.948
"116",0.956
"117",0.958
"118",0.94
"119",0.93
"120",0.926
"121",0.938
"122",0.95
"123",0.927
"124",0.953
"125",0.949
"126",0.938
"127",0.912
"128",0.961
"129",0.943
"130",0.957
"131",0.927
"132",0.94
"133",0.926
"134",0.942
"135",0.948
"136",0.937
"137",0.944
"138",0.946
"139",0.956
"140",0.952
"141",0.957
"142",0.917
"143",0.936
"144",0.92
"145",0.924
"146",0.936
"147",0.939
"148",0.932
"149",0.945
"150",0.943
"151",0.933
"152",0.951
"153",0.953
"154",0.946
"155",0.942
"156",0.944
"157",0.957
"158",0.93
"159",0.949
"160",0.958
"161",0.945
"162",0.943
"163",0.947
"164",0.963
"165",0.944
"166",0.938
"167",0.948
"168",0.943
"169",0.931
"170",0.952
"171",0.948
"172",0.958
"173",0.937
"174",0.951
"175",0.939
"176",0.942
"177",0.909
"178",0.941
"179",0.939
"180",0.947
"181",0.958
"182",0.942
"183",0.936
"184",0.938
"185",0.952
"186",0.947
"187",0.945
"188",0.94
"189",0.935
"190",0.947
"191",0.953
"192",0.939
"193",0.922
"194",0.934
"195",0.929
"196",0.945
"197",0.94
"198",0.958
"199",0.947
"200",0.962
"201",0.947
"202",0.944
"203",0.947
"204",0.931
"205",0.947
"206",0.942
"207",0.951
"208",0.941
"209",0.948
"210",0.952
"211",0.935
"212",0.933
"213",0.93
"214",0.959
"215",0.942
"216",0.952
"217",0.952
"218",0.931
"219",0.95
"220",0.948
"221",0.933
"222",0.933
"223",0.943
"224",0.933
"225",0.942
"226",0.937
"227",0.947
"228",0.944
"229",0.926
"230",0.965
"231",0.944
"232",0.946
"233",0.933
"234",0.951
"235",0.91
"236",0.942
"237",0.937
"238",0.938
"239",0.938
"240",0.951
"241",0.933
"242",0.946
"243",0.954
"244",0.948
"245",0.948
"246",0.921
"247",0.939
"248",0.958
"249",0.943
"250",0.93
