"","x"
"1",0.908
"2",0.922
"3",0.922
"4",0.903
"5",0.916
"6",0.903
"7",0.917
"8",0.903
"9",0.916
"10",0.926
"11",0.901
"12",0.908
"13",0.914
"14",0.887
"15",0.879
"16",0.897
"17",0.9
"18",0.881
"19",0.919
"20",0.879
"21",0.876
"22",0.911
"23",0.896
"24",0.891
"25",0.924
"26",0.915
"27",0.918
"28",0.904
"29",0.864
"30",0.916
"31",0.914
"32",0.916
"33",0.903
"34",0.909
"35",0.897
"36",0.926
"37",0.913
"38",0.925
"39",0.898
"40",0.894
"41",0.9
"42",0.902
"43",0.891
"44",0.923
"45",0.895
"46",0.895
"47",0.919
"48",0.908
"49",0.918
"50",0.911
"51",0.897
"52",0.893
"53",0.888
"54",0.894
"55",0.891
"56",0.916
"57",0.913
"58",0.892
"59",0.913
"60",0.908
"61",0.916
"62",0.892
"63",0.889
"64",0.914
"65",0.918
"66",0.916
"67",0.921
"68",0.906
"69",0.904
"70",0.917
"71",0.912
"72",0.91
"73",0.917
"74",0.896
"75",0.899
"76",0.904
"77",0.914
"78",0.882
"79",0.926
"80",0.92
"81",0.91
"82",0.914
"83",0.877
"84",0.922
"85",0.92
"86",0.907
"87",0.89
"88",0.917
"89",0.886
"90",0.912
"91",0.898
"92",0.9
"93",0.916
"94",0.921
"95",0.914
"96",0.886
"97",0.898
"98",0.891
"99",0.887
"100",0.919
"101",0.897
"102",0.895
"103",0.907
"104",0.908
"105",0.914
"106",0.913
"107",0.877
"108",0.909
"109",0.921
"110",0.883
"111",0.915
"112",0.893
"113",0.921
"114",0.899
"115",0.921
"116",0.902
"117",0.917
"118",0.915
"119",0.927
"120",0.903
"121",0.901
"122",0.895
"123",0.873
"124",0.899
"125",0.92
"126",0.902
"127",0.896
"128",0.915
"129",0.916
"130",0.913
"131",0.898
"132",0.911
"133",0.91
"134",0.906
"135",0.919
"136",0.908
"137",0.93
"138",0.905
"139",0.922
"140",0.9
"141",0.905
"142",0.911
"143",0.891
"144",0.917
"145",0.901
"146",0.91
"147",0.899
"148",0.903
"149",0.897
"150",0.885
"151",0.89
"152",0.914
"153",0.897
"154",0.913
"155",0.942
"156",0.878
"157",0.924
"158",0.881
"159",0.916
"160",0.921
"161",0.896
"162",0.922
"163",0.917
"164",0.918
"165",0.906
"166",0.89
"167",0.914
"168",0.915
"169",0.911
"170",0.914
"171",0.935
"172",0.908
"173",0.916
"174",0.911
"175",0.901
"176",0.934
"177",0.899
"178",0.914
"179",0.894
"180",0.917
"181",0.902
"182",0.91
"183",0.926
"184",0.898
"185",0.902
"186",0.904
"187",0.912
"188",0.894
"189",0.891
"190",0.916
"191",0.925
"192",0.906
"193",0.899
"194",0.894
"195",0.891
"196",0.893
"197",0.917
"198",0.888
"199",0.916
"200",0.909
"201",0.9
"202",0.87
"203",0.924
"204",0.919
"205",0.886
"206",0.922
"207",0.899
"208",0.904
"209",0.864
"210",0.932
"211",0.92
"212",0.924
"213",0.903
"214",0.871
"215",0.925
"216",0.889
"217",0.916
"218",0.931
"219",0.906
"220",0.936
"221",0.92
"222",0.917
"223",0.887
"224",0.935
"225",0.915
"226",0.911
"227",0.916
"228",0.911
"229",0.889
"230",0.884
"231",0.894
"232",0.927
"233",0.907
"234",0.913
"235",0.928
"236",0.877
"237",0.885
"238",0.89
"239",0.909
"240",0.9
"241",0.922
"242",0.903
"243",0.894
"244",0.878
"245",0.894
"246",0.915
"247",0.891
"248",0.89
"249",0.909
"250",0.905
