"","x"
"1",-8615.93695585843
"2",-8624.70735512152
"3",-8426.51760770506
"4",-8699.71068420766
"5",-8821.44624668257
"6",-8715.22596734783
"7",-8831.97180293696
"8",-8707.07308063978
"9",-8892.58763200975
"10",-8739.59908483024
"11",-8818.57351498878
"12",-8739.85101650296
"13",-8624.3330219286
"14",-8745.26754257438
"15",-8781.24667716415
"16",-8775.05324749596
"17",-8796.35483028652
"18",-8784.79696008002
"19",-8813.07301663834
"20",-8699.35623308827
"21",-8801.63198931849
"22",-8842.2623011339
"23",-8641.73774449791
"24",-8641.72811672328
"25",-8673.80749900383
"26",-8632.54748999431
"27",-8694.98959065123
"28",-8738.95344444678
"29",-8788.79121978635
"30",-8776.87380273697
"31",-8749.73300639478
"32",-8855.6384510575
"33",-8718.37156843976
"34",-8699.54199918351
"35",-8682.74391837374
"36",-8754.1012520855
"37",-8758.01083404105
"38",-8838.5537920972
"39",-8804.43757088363
"40",-8821.29207543643
"41",-8777.52285934338
"42",-8774.28294078372
"43",-8629.75291708491
"44",-8744.09550442922
"45",-8679.96341215665
"46",-8697.04096916642
"47",-8756.76329367696
"48",-8720.69305564373
"49",-8716.32543381356
"50",-8827.62070477314
"51",-8620.88150137003
"52",-8796.15123347494
"53",-8745.13327734021
"54",-8703.78447338295
"55",-8818.63406077581
"56",-8631.81250770357
"57",-8650.03181786762
"58",-8815.99278222743
"59",-8725.70999826999
"60",-8735.12199441814
"61",-8624.26974648341
"62",-8748.4452655979
"63",-8815.28446483825
"64",-8653.33792119706
"65",-8649.83729563701
"66",-8576.35918300921
"67",-8686.44577278328
"68",-8660.1453944688
"69",-8625.04546472282
"70",-8642.36045819981
"71",-8834.16901139812
"72",-8646.630854741
"73",-8618.92532501056
"74",-8725.17255178431
"75",-8649.02081866542
"76",-8739.41096063778
"77",-8429.16932644359
"78",-8731.34942287178
"79",-8805.36677691236
"80",-8684.9168557599
"81",-8765.44108246263
"82",-8638.77238693719
"83",-8696.01672942323
"84",-8798.14667484602
"85",-8700.96051500386
"86",-8632.51796786229
"87",-8651.06412274617
"88",-8627.52242241986
"89",-8739.83271894494
"90",-8572.43996773455
"91",-8946.47037585512
"92",-8774.68785155402
"93",-8588.68409052398
"94",-8643.61459905199
"95",-8685.75394157524
"96",-8719.34612949841
"97",-8782.07819931509
"98",-8835.08801519659
"99",-8754.03481625984
"100",-8604.29993794596
"101",-8570.24630552396
"102",-8605.43933166751
"103",-8667.601414856
"104",-8648.19983862313
"105",-8944.28261189963
"106",-8796.12836164836
"107",-8787.03366264117
"108",-8903.07068783452
"109",-8767.3863454278
"110",-8786.39202624924
"111",-8745.31367184247
"112",-8746.84026651808
"113",-8633.20989798013
"114",-8678.13704782932
"115",-8790.55094438345
"116",-8778.68095467898
"117",-8586.82330934471
"118",-8767.35409016473
"119",-8720.4891868814
"120",-8754.73524740085
"121",-8704.44336616765
"122",-8721.50160500764
"123",-8770.60833350248
"124",-8768.88743162024
"125",-8900.59940280407
"126",-8717.77606805074
"127",-8754.10783659077
"128",-8748.9298336382
"129",-8654.87375479358
"130",-8783.54355931064
"131",-8701.56653177464
"132",-8849.82764184863
"133",-8823.93522564322
"134",-8800.36135352649
"135",-8897.10448575665
"136",-8766.18547831795
"137",-8750.87617703593
"138",-8779.65205749992
"139",-8654.71249416704
"140",-8727.10176954839
"141",-8703.78391018648
"142",-8693.59165206667
"143",-8762.01914898288
"144",-8807.98926048022
"145",-8691.93716899192
"146",-8726.54482760718
"147",-8753.65191919237
"148",-8808.23783226973
"149",-8703.38632381396
"150",-8759.94103275004
"151",-8837.59856643225
"152",-8763.0390433017
"153",-8728.31305599495
"154",-8771.20430181625
"155",-8786.65981758277
"156",-8714.5972829899
"157",-8695.60693628986
"158",-8836.80926289056
"159",-8672.18219411628
"160",-8820.406909027
"161",-8700.71099645511
"162",-8735.44288169375
"163",-8739.93323206246
"164",-8904.6458005876
"165",-8748.39540110509
"166",-8775.13071810022
"167",-8796.167961929
"168",-8767.43737344259
"169",-8774.34391547158
"170",-8729.0514204777
"171",-8616.94392944828
"172",-8650.15451874
"173",-8766.7809598466
"174",-8658.64034830553
"175",-8818.13518245664
"176",-8642.69926092084
"177",-8810.6916648122
"178",-8637.69390393499
"179",-8797.63711554716
"180",-8783.66881823643
"181",-8814.68029905437
"182",-8686.50025046892
"183",-8703.49603208737
"184",-8786.76033678614
"185",-8677.11941145746
"186",-8768.54628153131
"187",-8909.31931114046
"188",-8743.89536705856
"189",-8771.92805938505
"190",-8817.32307196171
"191",-8713.60640631108
"192",-8837.17509758428
"193",-8684.63677788361
"194",-8849.8028192147
"195",-8775.97263595547
"196",-8735.54781933631
"197",-8746.03780164523
"198",-8716.63935015422
"199",-8693.60332850075
"200",-8664.76521969724
"201",-8678.54738020292
"202",-8628.89291484702
"203",-8678.8406929703
"204",-8730.27184647684
"205",-8766.41007381802
"206",-8678.12034168889
"207",-8775.83307441039
"208",-8753.45694083399
"209",-8508.60281309045
"210",-8731.98256172247
"211",-8702.0442870655
"212",-8772.69078535756
"213",-8741.54684321677
"214",-8635.94971713735
"215",-8679.59835548781
"216",-8743.56022579076
"217",-8692.02539347082
"218",-8694.55442404621
"219",-8600.58775233969
"220",-8836.12873175478
"221",-8718.95981332871
"222",-8809.96871520208
"223",-8733.05767459706
"224",-8565.09587306202
"225",-8716.59081977797
"226",-8752.12534775101
"227",-8673.87509494982
"228",-8737.07568788951
"229",-8724.86514697728
"230",-8791.0476408914
"231",-8696.01287874079
"232",-8770.28951606664
"233",-8731.10573203165
"234",-8641.50425453899
"235",-8566.84456253948
"236",-8691.83805779026
"237",-8670.17935982133
"238",-8753.37359038506
"239",-8800.03933784619
"240",-8661.94514811108
"241",-8643.92365681184
"242",-8670.75676159461
"243",-8770.18507050803
"244",-8786.44813698237
"245",-8671.54158808982
"246",-8834.65914596796
"247",-8786.0527068181
"248",-8711.156766949
"249",-8825.06076626377
"250",-8567.80708977825
