"","x"
"1",16354.1217774866
"2",16097.5023157697
"3",16326.7205641867
"4",16243.6489725707
"5",16312.5684277806
"6",16254.2197112335
"7",16406.9928028672
"8",16518.9936877004
"9",16378.3941777617
"10",16334.0376172316
"11",16286.7798737717
"12",16350.6955161477
"13",16406.5417903566
"14",16464.3683194209
"15",16427.9042358772
"16",16532.2773602118
"17",16451.7733497115
"18",16334.8921719083
"19",16269.5690484303
"20",16256.0271505282
"21",16205.8860735557
"22",16272.1200748475
"23",16380.7491108186
"24",16445.1827380081
"25",16282.6953104136
"26",16435.7588616325
"27",16402.6660302305
"28",16406.060253819
"29",16260.4921465596
"30",16581.5020149443
"31",16253.3942367723
"32",16634.9138969345
"33",15930.7651391033
"34",16459.8231569714
"35",16335.5898900561
"36",16224.9113384176
"37",16146.8041865949
"38",16594.7967627193
"39",16335.4313381672
"40",16170.570194477
"41",16438.9182767858
"42",16417.7963223395
"43",16368.7536245397
"44",16310.9402664603
"45",16344.5333444341
"46",16148.0779993797
"47",16071.9404664064
"48",16347.2145665069
"49",16564.7935726367
"50",16169.9267305163
"51",16792.3691595623
"52",16111.6444545776
"53",16351.2950960413
"54",16424.3562555239
"55",16212.0526650518
"56",16384.9257376147
"57",16280.4352675554
"58",16332.859871085
"59",16255.2811344175
"60",16490.1762228674
"61",16235.7376541622
"62",16222.0744519776
"63",16365.2692511912
"64",16532.0908664833
"65",16401.0371112412
"66",16603.063432051
"67",16564.2909196202
"68",16287.8330362502
"69",16284.9401872945
"70",16218.3852023474
"71",16229.2388204342
"72",16523.7288675966
"73",16541.5340253829
"74",16110.1186010508
"75",16406.545634874
"76",16704.4051457463
"77",16497.9880227299
"78",16297.2667589193
"79",16151.6100625059
"80",16344.7369906459
"81",16376.4585007568
"82",16463.0589266978
"83",16251.0769922089
"84",16432.0280785838
"85",16180.5036226743
"86",16513.5701931829
"87",16505.5317186431
"88",16398.8398994232
"89",16590.8549150841
"90",16549.8329547413
"91",16421.3983782306
"92",16591.0747308529
"93",16361.7084236574
"94",16609.8444359425
"95",16138.638430492
"96",16516.5662207068
"97",16473.8649117606
"98",16426.4587286726
"99",16324.9997018581
"100",16416.0432322942
"101",16254.3477919027
"102",16131.8886618718
"103",16139.5047913191
"104",16221.1659276834
"105",16138.4992088497
"106",16210.8420991159
"107",16584.2675021332
"108",16149.8587270777
"109",16306.0173741637
"110",16561.1898217958
"111",16390.3504523471
"112",16309.6004829942
"113",16407.7559322957
"114",16467.8927945066
"115",16301.1737300995
"116",16284.5362792691
"117",16419.147026132
"118",16284.0825851552
"119",16166.973508602
"120",16248.8580751586
"121",16093.1246457409
"122",16522.390178664
"123",16646.2056495009
"124",16301.0067961227
"125",16129.6360348012
"126",16291.0632119862
"127",16139.9140457924
"128",16281.2305084509
"129",16268.6302307077
"130",16527.6195568854
"131",16676.7799256145
"132",16494.0443649478
"133",16281.3491649886
"134",16440.2474188116
"135",16269.3296530923
"136",16611.5859691834
"137",16562.6052030191
"138",16504.1393054278
"139",16329.5737887633
"140",16364.2990607351
"141",16401.6482716915
"142",16447.547013602
"143",16255.9269616423
"144",16385.4503074769
"145",16573.7789724967
"146",16634.8463587549
"147",16343.2051083203
"148",16246.9799027505
"149",16408.4376816136
"150",16362.5330590479
"151",16419.0897511111
"152",16655.4575573654
"153",16400.4603822326
"154",16479.6520175399
"155",16546.9207551459
"156",16480.4830112651
"157",16369.8211821192
"158",16331.8757731134
"159",16435.1430947063
"160",16290.8735867938
"161",16293.4752705262
"162",16454.1304675111
"163",16625.3345130377
"164",16219.0767147437
"165",15989.8685116501
"166",16415.2189671426
"167",16289.6827651124
"168",16246.968066179
"169",16410.5365376431
"170",16274.0577002297
"171",16551.1628885246
"172",16172.5194637685
"173",16426.9203145255
"174",16499.3081164446
"175",16473.6445491754
"176",16220.8333958236
"177",16159.546516785
"178",16343.9142640492
"179",16214.7858365273
"180",16331.3151765116
"181",16422.3236637933
"182",16213.4407966927
"183",16375.4679381197
"184",16403.379022627
"185",16341.3747068377
"186",16336.9854723161
"187",16566.866221567
"188",16370.7366716672
"189",16340.627988173
"190",16257.514895612
"191",16411.8085229356
"192",16601.7297647823
"193",16369.9810185967
"194",16494.6355350733
"195",16367.2021115907
"196",16358.5592249777
"197",16290.832746193
"198",16447.0253513526
"199",16406.5747043847
"200",16313.7808450116
"201",16248.9548320912
"202",16256.2911546699
"203",16296.0870823471
"204",16085.5552646009
"205",16089.3796205657
"206",16442.323694326
"207",16091.4706956112
"208",16369.2051061118
"209",16424.2263945122
"210",16593.5035505386
"211",16371.4336346216
"212",16303.3442032772
"213",16346.9754583419
"214",16213.9545312953
"215",16469.5698929667
"216",16291.4503490635
"217",16435.2694083523
"218",16345.7037993893
"219",16459.656247184
"220",16333.1074896208
"221",16473.6339613215
"222",16127.124371457
"223",16331.7282435488
"224",16489.3435163952
"225",16476.5658185852
"226",16258.7579263193
"227",16260.4266480315
"228",16039.4272348441
"229",16213.4213637155
"230",16314.5633207775
"231",16233.6824113711
"232",16425.9995340265
"233",16458.0691429626
"234",16497.9311669853
"235",16211.3110717284
"236",16322.5286203643
"237",16122.2075614678
"238",16586.8396522947
"239",16366.6934958919
"240",16202.8687383891
"241",16374.7102762225
"242",16365.0154285612
"243",16642.0919794163
"244",16460.0599875733
"245",16350.0403816735
"246",16292.6078434694
"247",16046.2979797497
"248",15963.900529156
"249",16322.5949515105
"250",16217.7547265602
