"","V1","V2","V3","V4","V5","V6","V7","V8"
"1",21.3769842230184,38.1258684365723,5.0856341045814,6.50039911166563,0.0375400508876109,-0.182759360961379,2.4382707669363,6.26699208241643
"2",23.8842939545203,40.6567385321516,6.91477641549689,6.97095698393984,0.0678074915621359,0.166780392765789,2.15111231963499,15.1417219511322
"3",19.1222651995161,42.4611791840358,5.6816825135925,9.3233149036727,0.193147029882671,-0.0976769841436536,2.01658338741743,9.98835612435158
"4",25.2701182364029,38.0967533016816,6.53122420001372,7.03524201866258,0.0582999806950435,0.111728491663225,2.06196199315992,9.50901066499617
"5",21.5730311213504,38.6620004962939,4.25874348377239,8.11883762235523,-0.241080264796678,-0.00815357626801955,2.43579468008769,8.08148560868743
"6",26.3700686220339,37.7643155320407,7.27724148480625,5.83017033477466,-0.429444970662673,0.0585016328208706,3.54829461656807,7.18868626605801
"7",25.3052827721283,39.5798714992721,8.29983551695213,7.00210678756307,-0.0844350595319703,0.216583434620657,2.03029275554579,12.3276584183711
"8",19.8162997644327,35.9134275993781,5.46415541894539,9.2127925804599,-0.268542039206962,0.216359429774475,2.13303680842318,2.27910323186076
"9",20.5296504237635,34.4890333375107,5.65399663588026,6.0424320865764,0.288241087369497,0.263113690583639,1.61225317273179,8.71846214392159
"10",22.7079214311629,35.5357506255284,7.16315259414869,7.10943331070593,0.125229024667069,-0.00285913516682972,2.27557489396222,11.9749083777691
"11",24.8803110389682,43.2850473434861,8.69247881431611,9.00349394246897,-0.260528396739551,0.052462109617601,3.0205888129867,21.2015623117403
"12",21.2272444522714,39.9208788893897,4.81452651713303,8.17979573194348,-0.0897014867006909,-0.0366420016129464,1.68414407323076,12.4668693111564
"13",21.726511331369,35.0615461411967,5.2800962348633,6.77426925707239,0.0311745999549048,0.139910312497167,2.62372998397191,16.4806781545321
"14",22.0784462626056,38.3803528111632,5.40358831326503,8.00379593064229,-0.302358434861059,-0.0179209116281559,2.69325395520607,4.3422414468056
"15",21.332347446359,30.4211489786117,5.11462244240637,12.0864741668184,-0.829901406830502,0.228464256893932,3.11581280250963,2.67298774782767
"16",21.7950196348812,40.2370717718841,5.43315485012295,7.14004197661159,-0.0899623652106907,0.0161924749275546,1.47624745325784,6.80291192985985
"17",20.4350374857878,33.1485070702012,4.01687026959682,5.66013593072375,-0.109150112124963,0.0516405034345712,2.33436103857039,4.61290686399938
"18",20.2903539288894,40.9929734011499,4.34822174068737,6.44959147351583,0.368541429120931,0.0528845764930985,2.86406180319309,6.50349819658767
"19",19.4189771221892,36.7036686182443,5.61323374881154,6.79531446031532,-0.156316829826871,0.174440571812462,2.07542842438541,8.22570271991607
"20",23.3566600577014,37.2590726439169,5.47011483447264,6.96319100438287,-0.0809781766653604,-0.0748145737330324,1.02077540662544,7.70568049135288
"21",19.33173244377,32.2701061938765,4.60416110172569,6.41267328348108,-0.0485860109900107,0.238095295792899,1.27249216053453,5.85504779610191
"22",22.9319119025824,42.4569673000598,7.68773830201155,8.74199090239898,-0.22869747791794,0.126096711332847,1.79473992934212,11.2928893048711
"23",20.2570410510021,38.8707302228936,4.28086456354702,7.86553017899181,-0.119012719574344,0.0587983598352201,1.72103247260154,8.80974302947375
"24",27.8406336991468,43.1715592898527,7.15263758514129,8.41991313480307,-0.121690375164907,-0.056627178864233,2.33525366470252,12.5853159873659
"25",24.0602632386438,41.7263088593305,7.86639746202978,8.75657585385598,-0.188866607002029,-0.00199825605504976,2.79857799944098,9.4043103673369
"26",21.9087497746692,37.5844411349612,5.96557941176261,8.3220815077149,0.332018741570759,0.144916480394227,2.00758216831834,9.54990414204738
"27",23.4069475159367,36.4048982593496,5.32008173238732,6.96024187159698,-0.345283750463218,0.00506328412541699,2.08560647604011,11.1598580625041
"28",20.3130004129488,40.9951135197786,4.5443501967694,10.5847273699695,-0.199674420242026,-0.0431329057210553,1.78195736064741,7.75464282333638
"29",19.8854275674559,36.7273916913927,4.2691956318403,8.53311441918717,-0.069486405861523,0.0974217103969669,2.03415799617171,7.38546779885693
"30",22.9084561963398,35.9478209483445,6.84054728920531,5.94977907301872,-0.137306293380215,0.178488704572915,2.285701056452,16.4718577554662
"31",23.5550947488511,38.0201191246295,6.87551500844469,7.00205492658954,0.035125939701828,-0.119566881626424,2.11576673404292,11.8479292861551
"32",21.984524088806,38.6678490884504,4.83796746136731,7.61282510978159,0.0696640023218068,0.0794607436392085,2.1997372132554,8.35133586776688
"33",20.9385820646127,33.2449367496025,5.24205701969865,9.99203582879737,-0.360086457718271,0.267513242799639,3.82379598179229,3.44198845626938
"34",20.6909535629772,35.0343504410125,5.69672905488417,5.21312427936781,-0.110628509334367,-0.103304160856488,1.95331897427893,14.8077692055094
"35",34.5806328452273,19.1752297190397,8.4356015022913,4.42981634159103,-0.0683906245328558,0.334781265335702,4.08828628821482,1.43810011884003
"36",21.1718681545638,37.4989296507682,5.92746386486763,6.77320445765554,-0.141225953294456,0.17331045221523,1.60641904928262,7.28266373050447
"37",21.5840705858685,35.49082514735,4.24665109862758,5.55094120080345,-0.30090529376434,-0.158570266056284,2.18293877713807,13.979135583151
"38",21.1404032812285,36.418083303998,7.06743673799398,8.28821198508433,-0.152768784126754,0.126443581428692,2.07662708684536,9.16850302372017
"39",21.0462028244462,36.8623475928303,3.7684681583726,6.01632122978875,-0.0256330321946243,0.0445104188473331,3.85333639258492,9.98051410954893
"40",20.8535232504285,37.0260191817429,4.23168287856267,8.35478773642922,-0.265935311867986,0.0446739940279866,1.66288039678027,8.10939315237895
"41",33.8214499796028,40.3692946771824,10.005014605799,9.8812849814983,-0.260382325092864,0.308629498250508,4.45155901919018,11.7686039998932
"42",20.4403788049327,39.6135670115255,5.05073547282005,7.8954346233124,0.103716046663911,-0.00149267167913108,1.98429065164488,10.986500987692
"43",22.3442261824575,38.8638376902391,6.13519576063215,8.27298754512563,0.117556805075236,-0.0134641621795052,2.24038052698989,6.17000030953771
"44",23.2702982338335,39.3770454519785,5.8130511798263,8.70605867614549,0.400310683158492,-0.00570483469456473,2.60122403502025,10.8386493383051
"45",34.9998073004397,20.144216467579,6.58351386700202,4.91971842349338,-0.0694440520776359,0.0694362406899439,7.45591728436296,1.71413066298529
"46",22.1060897284333,37.5943564722498,5.3220077742676,6.52968960441067,-0.0901768371739467,-0.114678607917892,1.76045950426327,9.29004194812861
"47",24.6208596389312,42.7561911141888,6.92566804670298,6.97423592672362,0.112533308786739,-0.0959256094824516,2.48252349280568,8.06938075857305
"48",24.4525849203535,39.7033902557506,5.45329410057523,7.75545457669692,-0.178019391537477,0.0866312257021887,2.35926616239302,7.44201269180935
"49",14.8060958686104,29.3361589096814,1.89030365926716,9.25158051294043,-0.381267776513239,0.161528985987011,34.641338123631,2.75481212584538
"50",20.3463975982786,37.496217080677,4.97972419833393,8.7751164262843,0.323031909762975,0.144206275511538,1.55500246061257,5.48552568628258
"51",24.2344893220752,37.7516891689377,7.44993442206533,7.42610503639317,-0.190066124156167,0.123351745558023,2.64830966732028,13.3279650462506
"52",22.0139482024936,37.5593580120595,5.24415284875951,7.06204028148207,-0.24376480740875,0.117571955180142,2.49452097543332,8.06562439249569
"53",17.8839800771268,25.4021049337586,4.84952145726703,7.70455807581173,-0.328236004641102,0.564196772530867,3.71635551252541,2.18154525951788
"54",21.3899131248037,37.1465706116971,5.63405268700374,7.57076135628955,-0.0371109656849437,-0.0288398578816661,1.33023270299177,10.466251978245
"55",130.436353346351,31.7897653410908,16.5676038455225,11.3636192965285,-0.193813396632859,0.0130307400072528,25.1421899170652,5.08995460076685
"56",19.8771676925154,37.4441506495982,5.04986516510343,7.03489028053062,-0.279823048406359,0.0534975675298219,2.7040950606922,6.49724358228602
"57",22.1028782803434,38.1866500600622,5.02252042497991,7.88670592930747,0.107206429978239,0.138198498716151,1.66045960119625,4.0827301447273
"58",20.7354542349681,38.6490563158442,4.24233847015715,8.71797228141358,0.0761970397839743,-0.0339791074653808,1.64418831754465,10.7540754455485
"59",23.0693526799404,36.3639721227682,6.75284404793604,6.09466548477077,-0.282398147961271,-0.27115661037549,2.17499704775905,8.4085017239454
"60",21.6515108872175,40.1294852795348,5.73080273631075,6.22006400942116,-0.0863098095486152,-0.0854277391945244,2.00645533156446,11.6047212616878
"61",18.6902535126358,39.2384021765802,5.60399251648141,7.70211787649402,0.00518982002997779,-0.110729150098104,2.23230345797037,10.614367372614
"62",21.3783762556379,37.4944453812666,6.20978751199319,7.67554046672199,-0.255000537453109,0.0649886333594977,2.14551269580392,4.29372971653862
"63",19.1483850063323,37.9233842812705,3.84092760516546,9.47586449463844,-0.186216315585778,-0.022824347187592,2.0492964596475,6.98004644147777
"64",22.4683727258072,40.6516616500192,5.73376221483392,8.20349954256496,0.0410222936149001,-0.0933774729970673,2.03240579555129,8.0522020189267
"65",20.32636731879,39.0234103500578,5.54705032836107,8.11102166097724,-0.139675594191721,-0.0964591443962214,2.09061013887944,5.45611030611316
"66",24.5455659104361,37.3509585310139,6.27796115938629,6.32894729759385,0.00573001548988166,0.0803429148216115,1.84757640685809,15.890009211797
"67",21.8025325032857,26.0145999160052,4.88877539208642,9.85656818420929,-0.703724573737208,0.288189387394548,4.04584874554994,3.0472297207109
"68",19.6132198756637,34.993491955081,5.39153195701024,6.16642639451354,0.290708663466328,-0.0324908668165049,1.48836376522517,5.9061521294689
"69",18.7331299206188,34.0283220439063,4.77751902672035,5.8413336202645,0.0703010312568617,-0.15098940947805,1.75066716300156,7.19519686249485
"70",22.188325254541,38.8145591761979,6.32591940661649,6.55421044844487,-0.023328472528823,-0.102699240430775,2.59418337278929,9.14189986459203
"71",18.0132545275677,40.9129033803156,4.43343977351875,8.37601480617097,0.244741936358605,-0.0391566119450488,1.68960797338086,19.0822980847171
"72",17.0179861807934,30.5471577002488,2.75442415792732,10.6757741749346,-0.42506331702884,-0.0140389395455162,7.45437393447224,3.62117915174747
"73",21.8639159409954,40.1063892235934,6.28809193913835,7.87043357224319,0.0312539654696394,-0.0936451021966668,2.02437238747291,12.9210799086859
"74",22.0416919006918,38.7423848643804,5.22133345142817,6.89690291137209,0.0280417779647994,-0.175193262519973,1.85775021687593,8.65965525908597
"75",20.8245528940669,23.7128232585904,5.34132892808173,6.77542452652586,-0.450989265737608,0.326216231832797,2.98525381323231,3.65800996630845
"76",29.416499976851,21.8549279673296,10.0312929536375,7.08647851784395,-0.190393659307349,0.690753031297616,3.07215320500237,2.63967035438229
"77",21.7832098449172,38.432273036385,6.26118353104106,6.88002469933376,-0.141945257278593,0.170582475900596,1.68552939201688,7.67733869052379
"78",21.373522010617,36.8755063816232,5.51252215156956,6.54366534994393,0.101021155659769,0.0601913590305193,1.99819449110237,8.50710423581292
"79",22.7773050610346,40.6676399322655,4.77562615337175,8.15396031680196,0.132511955533157,0.171932116626335,2.46618923985041,7.22271595380111
"80",22.1140061547422,35.9764875685169,5.32488939613652,6.66450702947817,-0.169160071730037,0.0998931383829286,3.57351307825729,8.76220186604401
"81",19.5209242345401,35.5112216759,5.06505671565955,8.96456954679377,0.05636835242988,0.152598555200684,2.06314350521826,12.8641756411291
"82",22.6805088832965,38.8435730997876,6.88334110535321,6.83266067790743,0.279097789027646,-0.0116655117341734,1.94691898199745,6.42138441620207
"83",19.1832542741467,40.206505568094,4.90245597695488,8.32201968502725,0.158935406123845,-0.0381409139684921,2.26886675041062,6.48632792303422
"84",15.9675863847747,28.7899945844312,1.85070147418809,7.48412878203171,-0.482616769755148,0.194051125454382,6.50442369443704,3.50334960182624
"85",22.4890952034875,43.8563331975766,6.84869729501276,7.84232882556217,0.0711469934694833,-0.0741329115600709,1.99350847954125,9.15112503037296
"86",19.8101840711114,34.5633190031977,5.51653528833357,5.87620559554253,-0.221607278363062,-0.0463765543410219,2.06973619190085,8.05941845565676
"87",19.5116827547239,35.2849399310636,4.09713635508309,6.80343654551851,-0.236152754678871,0.00790509671553224,1.82660943861417,5.94579671474907
"88",31.5441081395984,43.0793183669868,11.4484678344933,8.80367411513749,-0.251179563242861,0.419948655157443,3.90156324337972,15.8204143780935
"89",23.375780276698,29.7028759802879,3.81896802212536,10.4892491000198,-0.575545532500024,0.165374572255239,6.75200815352188,2.6693976621252
"90",19.8626739238639,32.3721258672026,5.5611470386227,13.7156774205848,-0.589760790057484,0.300966057071999,3.40504571342276,2.61988110822244
"91",22.0123378889571,38.195183166464,5.41621943665779,6.65118144283296,-0.18201086260649,-0.0862384956186454,2.10468156690534,7.20625111283499
"92",23.6441200772603,37.204604138668,5.10164117711516,6.55910157280552,0.0968586415096195,-0.0743419802484802,1.83629481360638,11.5094480433616
"93",21.2180510145081,40.4461110211186,5.50818252381261,6.33310749041619,-0.466192128706514,-0.0254112417781633,2.0148103859027,10.9679478455798
"94",22.4052013050574,40.3502080016793,6.9252470000992,5.59213148709707,0.0971814030057766,0.0044891073180079,2.59530682341858,10.5040432508258
"95",22.2004090034205,39.313974597608,5.613863492916,8.18623266317294,0.246475563337173,0.0714477109141926,1.74268321045482,6.16947386566078
"96",20.9496672965394,38.7175286261189,5.52339918026759,8.68868429778782,-0.281341758023625,0.168410604954258,1.4962036525477,5.17763521274263
"97",23.4755581854302,37.7027882428646,6.75805950905772,6.07337968738379,0.467480848469861,0.20830100130053,2.25243299330984,9.73470773215152
"98",37.3912139409125,33.1065364837308,5.33082728028741,10.2778761130507,-0.309892891124792,0.215922832464397,37.1299290520057,3.70565480893117
"99",20.3679665614467,40.8346462737112,5.1947713292653,7.76321006521764,0.0825784745916877,-0.156061975408675,1.88849189982627,13.5317674241504
"100",19.1706184082369,37.1313242188219,5.11845296140825,6.96828870652785,-0.048694123374422,0.0995253329385116,1.9352059013999,10.1723132022815
"101",19.6710189925549,36.8277284963499,5.31456773505609,3.8367211847526,0.0930833351313751,-0.103009442211465,1.82941285533447,5.04310957806215
"102",23.2742091247598,39.4565936394418,5.99876159266564,7.37046359601928,-0.301723589236894,-0.0833551037258698,1.60742427158882,13.9753638151813
"103",21.6321413238541,32.2870052409905,6.22398339414825,7.75243330903898,0.079015339636004,0.405973916518786,2.14791028757623,6.72329187375893
"104",19.9133707298212,38.6899534194502,5.27193594593409,7.29641749768636,0.00494157017523655,-0.0540019009098098,2.65058060111851,5.77920957764858
"105",24.6233360485837,38.8117247549803,6.27811868589465,7.37099847745702,0.142316457748879,-0.149607240924226,3.65896102273289,7.53993710156611
"106",21.1567411583173,40.0971202323995,6.50242299700612,8.5651222550872,-0.104711296125769,0.0763297791284504,1.60798276034496,9.53659027584534
"107",24.8137791377954,45.7302512515458,8.09091581437513,8.97662683615885,-0.326950617689302,0.00825109729770146,1.41266232174326,11.1284210658825
"108",20.8335000119229,39.0392868079249,4.99506006126463,9.50106786974077,0.0794737198347837,0.00582220041646431,1.96757979347009,14.2060835627798
"109",23.6143010504026,37.353800064419,6.51129202441861,6.39855574235986,0.217842888161211,0.057891937392816,1.8911908069319,8.12012154064825
"110",23.0713470136865,42.5638522041716,6.73617236433274,7.19130785499792,0.132716320055633,-0.106922735645847,1.51688606561656,9.20901255681552
"111",21.0435097061793,36.1592450457084,4.74491900462476,6.24723278557722,0.256876051152881,0.0628136284603384,2.20480538326292,4.75907339617018
"112",19.5598394284657,37.5897519794289,5.0127920499905,6.39302697270032,-0.00257542434279578,-0.0466343023847086,2.73558685945769,10.7959191956503
"113",18.0900794099648,37.994294182311,4.42499301546908,9.22150984734862,-0.0804792788156918,-0.0154826349750092,2.19369373186249,7.39901632449277
"114",22.8065125966324,41.7303059193499,6.08503523378505,5.61344540094459,-0.0791347875564062,0.0321789461835049,2.09888575262594,12.0771535247658
"115",23.6090594756247,39.2357287857219,6.03235338326253,7.01215947726995,0.0828786610097052,0.0562122372847925,1.95461602935566,11.0973307993454
"116",20.0586886092005,35.0884764280229,4.31891670064668,4.89877861384714,0.195010206823271,0.0671977118646953,1.46414796954521,7.58767366424424
"117",22.3217420745743,35.9873819349533,4.94316537294688,5.58420281044035,0.340960635307538,-0.0743537694693408,1.48051612245902,8.51677498703991
"118",20.5954345726116,39.5129677975714,4.50485813146177,6.93933895659996,0.182241182504432,0.0607262601141318,1.66583378909325,8.03714965274066
"119",19.9302846333596,37.3898608676776,5.944528423256,8.64184257160347,0.189545391580797,-0.0329631684883732,1.74185702118452,8.86857838018995
"120",21.3523877258845,30.4491397894965,5.29060051769672,7.51476863980312,0.00501144350064964,0.197230741546711,1.41992042633461,7.55573471927221
"121",19.9744655007906,37.5509831791092,4.98897402308841,6.84482156859243,-0.0240882605900085,0.183097994346015,1.98110779517413,4.95537785056461
"122",22.5255811706609,42.239788070852,6.58973366340427,6.80315079358325,0.0289197564761048,-0.09186531009401,1.7328611342653,8.56248424721915
"123",21.8257965090847,37.267228768564,4.81564860961781,6.86248617217621,-0.321123923773729,0.069611005270206,2.18589893031941,5.89535892517674
"124",17.9828307336324,35.8775790976694,4.45888365846502,7.71441550465223,0.258114204737606,-0.100441973341102,2.13915419186484,5.27591542967093
"125",33.3766850272872,18.8215291233505,9.82458814754768,4.59371541644719,0.0542937820489671,0.461524311128178,8.01035294925915,1.42854317176462
"126",21.9394922993719,34.7091181248813,6.59161624305372,5.34480663327471,-0.173629241698166,0.0440887893174613,2.30528937124357,15.5271907306614
"127",20.3969057180228,40.2018959294519,5.26752445582429,7.72537930832912,0.2034342608712,-0.0716723095893222,2.11107947968062,8.78606222862698
"128",44.6829326126172,28.8352043012632,7.06080701567383,7.76389723034495,-0.343348915895708,0.099486416033731,7.68185014912262,4.45842679710214
"129",16.4756160707188,37.1528516929169,3.560160441125,9.1340955248045,0.450098597988664,0.0562693157353398,3.26118901657024,9.26541659404325
"130",22.4735067703712,39.233924120692,6.11352725458416,5.93712957320771,0.207731695991709,-0.0306935578776646,2.49822297091587,10.1653090515375
"131",21.6785591703736,36.5081073414502,5.7868519684057,7.07330525710288,-0.136687980309971,-0.156622299952359,1.33391248142158,8.0846155788249
"132",19.7845942472843,38.7326488775636,5.00085335870029,5.45519552355149,0.132275975332211,0.157748285695477,1.55792069794914,15.9897806885691
"133",22.8014459508378,39.7638623698906,6.32834893274685,7.60151503543318,-0.217904849258561,0.170966268031243,2.3611243209573,8.8070753304932
"134",18.5382217948572,36.7871220456655,3.15636060048511,7.94691595515605,0.0855180207745792,-0.138072910676152,1.83926387766083,6.47877367824899
"135",23.1748911143457,40.5640570581407,5.23949504131759,6.224511790178,-0.0658068042053587,-0.0613029068875376,1.57711408063948,9.43400649135849
"136",20.7621141363665,36.5842726470493,5.47706628952322,8.09901293597841,-0.0838004161432197,0.100846820117057,3.92975683263973,4.00251003727613
"137",20.6267169459183,40.1033001347508,5.77453333140355,6.60051906184832,0.00830038338103267,0.046136195592184,2.07605494615196,4.38736960687457
"138",19.9962505812712,34.3379157707307,4.8094743973446,7.40388877026658,0.0678350650172162,-0.0205436643580558,2.49494895178344,9.4999650484316
"139",19.1723684284838,30.0156499846529,5.59675442062311,10.5294033731693,0.359244878503153,0.205006509517108,14.0313332167472,2.41285861303764
"140",22.7483947633183,40.62464336905,5.54046289690204,7.17286842554637,-0.185494390206656,0.140470789711063,2.61053942836115,9.95297373488234
"141",22.1023158868592,36.9560372932987,5.69648679550298,7.26974948981369,0.0707836380409445,-0.0436676664902931,1.85980615521812,7.11068953994368
"142",21.5192621331781,42.2474862959601,6.15137587077336,9.35272040490268,0.237295789226053,0.167681630943266,2.06444315905923,14.917947442877
"143",20.6337504258474,36.6062516890119,5.3286891542052,5.39422934540851,0.0734629172090305,0.192989034441612,2.01737235766051,5.92830964342924
"144",20.6613382817164,36.4004644502473,6.01653595379659,6.95117709529513,0.21146971656334,0.0604031605099971,1.76294910065019,11.6065054924796
"145",22.6994450464203,38.5887617579286,4.99267274391989,9.23320096069828,0.254721975520615,-0.0373396421116133,1.6107395276735,6.78682237295051
"146",19.2466584509841,35.0840482647831,4.80572995913289,5.57005586501929,-0.242755107920042,0.0827037003939476,1.67163812781529,4.74512650943778
"147",20.9796195897197,38.945268829122,5.85068112920852,8.48564102707332,-0.121362067960588,-0.0201001517919778,1.82565842847813,6.3320743461361
"148",21.6433011509529,37.1807940587899,5.14129972038321,7.50021530648841,0.150000432172677,-0.0570896464809216,1.33628615901301,6.26215251275005
"149",21.724806028612,39.5974703516781,6.5427469789269,7.19439498992687,0.176682660873755,0.129007813413217,2.095076805375,10.9530687056246
"150",19.300940454751,33.4701484984579,4.80203422873563,7.07429096804403,-0.300797570475322,-0.279696755226139,2.07153382323854,3.02131184663054
"151",19.3801774575774,37.0284241980611,4.78981702477304,6.74730687705719,0.0336980542088154,-0.134727068375663,1.64072898696965,7.79531220506879
"152",18.3012033363167,36.1798862874818,4.43023410368052,4.30418532474528,0.118035693504701,-0.0999831259500521,1.6079695085668,3.91069423104112
"153",17.7593431165824,37.3745159247465,4.18002274720945,10.3780182254258,-0.704212205778149,-0.198440484949643,23.7379164241499,6.12737653938861
"154",23.3719345255575,40.1987552001871,6.12391660500114,7.63325462295983,0.339613389889961,0.0820103727368808,1.83673111739723,4.662443518786
"155",22.4679799682359,38.2904764473343,6.44866871970782,6.85781581521383,0.00498327588533865,0.105674630652254,2.76053476000628,14.6602064755845
"156",23.2645868193228,39.638952671496,5.56249985541251,8.18217327580323,0.026140697654065,-0.167439792984135,2.10960173464238,9.05251509136672
"157",22.6749022480333,43.2043639145973,6.86546592012047,9.87786018197714,0.11682815743187,0.154289299956535,1.52662311058025,7.34171840497216
"158",17.9820714954576,32.1393945566124,3.99414388742058,7.85829285025398,-0.490850784193349,0.135412651994493,2.60031184976229,3.02925147669009
"159",22.224508431107,37.0253439704837,5.91182699684621,5.51490103679208,0.0797432275157547,0.0564877761090301,2.54618143766609,10.4339360494025
"160",21.4827503264537,40.6686111219163,6.18144427053126,5.30225000040778,-0.151486511549079,0.129650942127716,2.20734747313539,5.57525142189775
"161",23.371645230947,35.0509278708421,5.99540481878904,7.19418639150155,-0.140753408587955,0.126725072697711,1.87907011005672,9.70898781272924
"162",21.6568771925414,36.6263430008364,5.63165938733205,6.96566243123769,-0.0893879325825868,-0.0150692108488047,1.51339257031295,5.05047431528641
"163",18.6338007086117,34.2154547364654,4.82117300245032,5.63013771268704,-0.139285191571132,-0.178474115571041,1.44549895389928,7.26897145401954
"164",21.6970934583769,39.7367761278243,6.44076294452449,6.72881876050137,-0.0111316729602181,0.214490986162406,1.58627571157671,9.26431375596673
"165",19.3102827340195,41.152172132113,4.32361242809614,8.07365156828592,0.258948855728829,0.0165688508770164,2.38385495903299,9.13266975541862
"166",20.9284935509941,38.2374080222623,6.30047933340331,5.63891646693316,-0.349991687717513,-0.0707772195763171,1.79103194370932,6.93497668214335
"167",22.142589545636,39.5949496228051,5.87840603495818,4.81840579351347,0.170348873908329,-0.158440758445407,2.0833526015461,27.1204005125033
"168",22.8150830209939,40.1539260215396,6.64416582608315,6.411386867591,-0.00617135627522246,0.110550805502573,1.75529393289811,13.1100300961395
"169",18.7740387218152,34.605360816712,5.09257768851199,8.71473793527449,-0.334326695206155,-0.0639461099291169,1.63614824448964,5.61245973896901
"170",21.6630213070554,38.0090506810966,6.11465507944971,6.85399654771139,0.30337039263807,-0.0799742114282368,1.82509089064935,6.07333917196488
"171",17.7533366233626,33.4594784775853,2.26004109240565,7.68773353162675,-0.380192558111369,0.0290126161252987,2.42259124671549,4.074713842146
"172",22.0436466814587,44.2184625285486,6.74477389517974,9.18671038174199,0.121297040909247,0.229947538440401,2.41031837242854,8.01359304724763
"173",25.6660433571972,40.000793880974,5.22785451872385,7.4319051728835,-0.319981488097276,-0.0858559828358159,2.37958141180528,9.94150908729146
"174",19.2963114243456,37.6991942635949,5.32726579495765,8.27175707028906,-0.155746535581551,0.273217225372862,1.46111408383171,8.14413540119182
"175",20.9176248154639,37.2962997083764,4.30880958852408,6.8730708622196,-0.356145477933799,-0.156354035135108,2.53639085325897,4.88469978126699
"176",21.8105186960478,39.0671734150545,7.20871667119931,8.79825953927817,0.11213784852567,-0.121941322187817,1.79824491629435,9.35386348447969
"177",22.0454406560494,40.7422156693748,6.5301641972821,6.81956818065845,0.076245891428044,-0.0952458855130577,2.16759679387294,11.760017876579
"178",19.8121873089635,37.0654053903583,4.55129333947335,7.9441598982439,-0.0704405735297517,0.271104100531878,2.24233043250991,8.47343714377803
"179",21.7815399141507,39.8100012114717,6.17911919318011,8.59142346755574,0.189192693868675,0.0269140842923097,1.56931150263003,15.1344624495008
"180",21.1047822551646,36.4796550962279,5.11718849953053,6.13412676458419,-0.040621785808798,0.197610666190792,2.22146742920548,7.28672201207204
"181",20.8509166577613,38.3987726501462,4.1691366141059,7.99408197538165,-0.0742989449089825,0.199186595354914,1.73491390871982,11.5122969327654
"182",18.8444868581218,36.9171372711811,4.56132944697747,7.0606156231045,0.154552435365609,-0.172877619640594,1.97989317070527,2.87484618801249
"183",18.5827588217725,35.0987412651789,5.5491560336896,9.3197960594192,-0.0221400452332593,-0.326900595597051,1.77033551470697,7.59145114069195
"184",18.9631771284976,36.1144893650189,4.26886323354208,6.43781903015235,-0.0667572693952377,0.0967014881736207,1.83904292037332,7.53871054552511
"185",21.1754844113832,41.5641242436719,6.57771810923598,8.71363675273018,0.187415420758876,0.0195340848056763,2.59304999830537,5.50187280780523
"186",20.9458787619695,38.3375542758881,5.15571522270818,6.91078400795225,0.224602916682458,0.0985289027042109,1.60673391626527,8.08102094149703
"187",23.4483437817944,37.3706621917041,4.43565663902372,7.15129047496944,0.114382506465964,-0.072784023528964,2.39194461082008,10.5409528737849
"188",22.7687301435343,41.3249093185252,5.93794025278038,9.89770520735994,0.0159958303816973,-0.0503502647270702,2.1954375561654,16.5645986343272
"189",34.8157887358287,19.40242091849,7.28684128399856,5.069151772416,-0.0358314367510114,0.0357381557466803,4.99391402478323,2.25122401213609
"190",22.2220682597488,40.5720281209078,5.38408711376314,6.90712011446659,0.41967540366419,0.0887072738800304,2.31095689031313,8.95325373556766
"191",20.9098574642352,32.2345526448629,3.72409550699448,11.1676335201929,-1.24274401927111,0.0997578364802435,4.08549909197826,3.58802973538076
"192",21.075271696077,35.629668270222,6.34756946259538,6.50777569042317,0.27695755064367,0.0175852532969616,2.70056439417425,10.2940669930213
"193",21.9696830714172,35.1228156653323,6.06875119596701,7.89502644453017,0.211384944271674,-0.183813402629511,2.2279510424635,6.62091143649784
"194",29.1361190696789,19.3224052141861,5.88363129322336,5.04448052500726,-0.336597784170663,0.027077121712001,3.31286974149593,1.68489449909526
"195",20.7684445658218,37.8990637642716,5.40423786850523,7.83713510125657,0.231122540877902,0.114031076520105,2.23673046513563,8.57412013748237
"196",21.6924940162161,39.5612828813068,7.42817864082908,8.70370563221181,0.307257847936709,-0.0508860929959848,1.63429794188085,8.8264641060796
"197",22.3431157316133,35.3786466771642,5.5080546116114,4.89685853956501,0.0894010383749089,-0.0246783602108341,1.98398572232074,12.2817290910237
"198",23.5111251916634,37.6701842456847,6.0054354386486,7.61417539137161,0.125156308038534,-0.186159666295407,1.87292680874743,10.8119654028997
"199",22.923273131464,41.5175009744329,4.84073007732609,7.35354910163753,-0.0605590585146464,-0.0048824615554362,4.76665122473431,12.0532636064263
"200",21.7289050895233,34.1241859873877,5.04674478819291,6.4181712319994,0.0429546375159667,-0.043346766564677,2.02626125507286,9.78710459560198
"201",19.5648079629461,36.9890643325715,4.33741067667262,6.23908665010717,-0.180617899672902,0.309742998057481,2.30676124855634,5.20050070057725
"202",32.964238083924,21.8846461787725,7.88845297940387,6.39520396864955,-0.21767976355118,0.194623992818902,8.04451658119686,1.55541766211686
"203",20.8824299556891,38.9157747228818,6.22987265910271,7.85434371465422,0.201267691170416,0.152092952660633,1.84503937886545,5.87073295786669
"204",18.5179383603737,32.6829693635494,4.89985731460396,9.61770895177046,-0.0579183843461799,0.0106193532258092,1.76776196669647,6.73730163169564
"205",22.5150464442784,36.7092378483797,5.77369157386988,6.47255595861938,0.244068448753365,-0.0249410944280199,1.59887272176385,6.54922290722912
"206",19.0689452770924,34.1858522744083,4.52633234589586,6.06472240173692,0.0909723450649824,0.0796144248764595,1.8108700041021,6.9682545813938
"207",22.0814868517723,38.3296397884703,7.24032775810342,8.14483054552899,0.296375179314903,-0.0565173863900509,2.02717020223985,8.08352607559686
"208",21.5504327718966,40.6713122237569,5.77598670952727,9.25985362765231,0.0337515765996393,-0.0236618027882731,1.33556961784064,9.0961776826794
"209",24.2029531977827,46.6345393749064,5.19187124713215,9.44267235742218,-0.052855801117284,-0.0932227762350334,1.56838767909036,6.75145525093525
"210",22.2629832037127,43.6499410301638,6.31603694271568,7.05864580184552,-0.0965744671571007,0.223584995424503,1.83435863953517,10.0329140678531
"211",20.9528235397103,42.7569579419478,5.33515870864086,7.20312350243436,0.116727648201246,0.096805552278107,1.11185135811085,7.20072115864399
"212",22.5338296754086,38.4886812146991,4.30671500709808,6.63592266514861,0.0338547611250795,0.0895146600436987,1.93770106567696,4.16895938819223
"213",22.5075731403817,45.8267612242792,6.29966157214243,9.64718429859248,0.0345948049781097,0.00352447002750581,1.71567012062017,21.2312860549734
"214",23.3601038107992,42.6152660550608,7.79008356882951,9.69913568200934,-0.354537411969408,-0.012291207134875,1.97377850362322,7.30845043545669
"215",23.2762628948752,39.8600195702694,5.99653986277867,6.88316172322717,-0.0982511160765334,-0.0098478664377754,2.08356766494395,5.52654259335789
"216",21.7991297810845,42.2508790318373,6.73944660987067,7.01301784250955,0.22303852859723,-0.0564708877383112,1.29031778913379,9.75229571963532
"217",22.0654655647796,36.9386259878847,5.4872101673479,6.09526853070284,0.120255870245607,-0.0337215748455431,2.13983699750614,14.1045828743553
"218",21.189558860318,37.4606860756249,6.41161274057777,6.83811490653634,-0.00950971419450818,-0.0897062113822995,1.9994236566206,9.64384345046132
"219",20.2127710864494,32.9794202041988,4.20333131771343,6.36352463472836,-0.0417247405571679,0.473401561126457,1.83898879728432,3.05718626814443
"220",19.460741270929,37.0559702808188,5.32879130502722,6.69378741372345,-0.333602561198781,0.0478523374042434,1.71415525626625,7.15712853804322
"221",19.9970819769295,35.4503335627653,4.80449567185315,7.35043181025033,0.0888323866776617,-0.185825158388089,1.49735306294405,8.708145762051
"222",28.4086514608785,43.4723517675436,6.6662125145863,7.4038983812637,-0.134943959596354,0.0410635723991701,4.15107716878954,6.23478848836763
"223",21.2204827583287,39.0342614084701,4.65979987806728,7.31513995722608,-0.276921019617791,0.14808401955496,2.30096328975438,7.31495207410995
"224",18.7284279015295,37.3799784524741,4.3560318714926,7.41657582894224,-0.0111774076002131,0.0480376417734846,2.1762392040958,6.08445956608263
"225",22.4478062311655,44.0874440852644,5.83444320132445,6.77242354986774,0.0691352719688898,0.230748662049846,2.29353672118377,4.31795942251989
"226",18.8405583191855,30.1521035662614,4.40836016538645,5.82152071106034,0.136621403203847,0.0692592324264808,1.30288214160839,6.88335931198964
"227",22.9902237880806,37.6281290459823,6.98548975833474,7.35878782283294,-0.0487394368651323,-0.0653743107106128,1.53455470717215,11.7630296315011
"228",20.4523301550856,35.398199808575,4.69474023594301,8.32378884223406,0.151640724100388,0.0455871256011095,1.83152660306825,12.2682349401023
"229",21.3718753870945,36.6580057419736,5.44344168102105,6.20431591410931,-0.253193320133606,-0.106777773084423,1.36860778071159,7.59506307130781
"230",21.9707626531284,36.4125364668431,6.13310798782089,8.35751250409574,0.103408917634641,0.181026061001121,1.57593674244757,9.19812743169883
"231",22.5050247553829,45.4571691231776,5.88257979011553,9.02808135460795,-0.0522530419727795,-0.15531426672467,2.45682491466408,10.9983701127722
"232",30.8993993604707,43.2404842119887,8.13453899656313,6.20180893319041,-0.165941754854991,0.207098666988993,7.45738785617552,14.7659474206966
"233",19.0451326860187,41.9408246647868,5.75760982867112,7.30902192547238,0.126407311312362,-0.146997329610631,1.73763258640136,10.7954967395451
"234",18.108793249839,32.9602677068883,3.69847091064363,6.68987658258024,-0.0673197417624263,0.166167489498355,3.18212519126401,5.108763445359
"235",29.9734125792857,42.473091698983,10.8792647913317,11.3690119535409,-0.431833689535359,0.0723975723942977,16.1825094927347,5.42648693332026
"236",18.3955090371464,28.3098467236319,4.39502503824496,9.84020264299431,-0.870161775520343,0.218852727080093,2.41739552298545,3.20266971723058
"237",33.3289073238411,32.9879886668391,4.24074725159061,11.7962627045184,-0.351675788746711,0.182294549333509,35.7685258206126,2.7890173308121
"238",21.3843478159787,34.4650212267181,5.49583005540753,6.94973723013328,0.00985935177702312,0.0457941960799336,1.56227498375821,7.16854061226585
"239",23.4416908050459,39.3961182463855,5.39949477106982,6.66246451112307,0.171375532923262,-0.150761419012362,2.36272223866729,9.6644126080154
"240",21.4327971209601,38.86889281843,7.20406564155419,7.31845047876683,-0.405986586506916,0.224429854250586,1.86262685167746,14.5547109842922
"241",24.3821597393179,45.200175901817,7.88566035455907,6.09576444474193,-0.0106294511767332,0.335037091916041,3.05316978480437,9.48064114892003
"242",20.4826904592893,40.1620343059515,5.63430393459338,8.11009224218922,-0.0297387241761818,0.243427824867506,1.56765362118058,9.69246238650655
"243",22.7941251314013,38.8210769745475,7.11451996847077,6.92381659660585,0.083751048594796,0.170807209982445,1.44179574326496,11.0136766378709
"244",24.6491290819056,39.9049698331778,7.66864079745095,6.49150867754994,-0.0726938691846658,-0.016389343801025,1.575466707367,9.00839948445425
"245",25.9774093637577,40.1403704634866,10.2690758832047,6.77472353482339,-0.0726799869418014,0.0989534043741166,0.854827148821881,11.7150526499932
"246",17.9511203742637,33.5623322761293,5.26514617772174,6.1795766319783,0.176459637047715,0.0916031601228815,2.33612391964298,8.11495497969471
"247",34.0828062052577,39.7201775071313,10.5263545911799,8.68680625396444,-0.110403660019351,0.238308326900542,3.97804570623344,17.0488382950193
"248",23.5356231504228,39.1043181359557,6.17914522670445,8.12519115916695,0.242629699370149,-0.0575701637259435,1.80252819331996,11.6059880881016
"249",20.4796994796236,37.0733108955513,4.97181596239451,6.87089624745826,-0.172185841615372,-0.111907441005253,1.62601236711507,5.91231687769507
"250",19.8148050482169,39.8321771961439,5.46168724218438,7.22163007545172,0.2510614072507,-0.00181361910106504,2.32182748530964,7.22393293987867
