"","x"
"1",0.8585
"2",0.838
"3",0.8615
"4",0.865
"5",0.8455
"6",0.8705
"7",0.8495
"8",0.848
"9",0.871
"10",0.8795
"11",0.85
"12",0.872
"13",0.8545
"14",0.85
"15",0.838
"16",0.813
"17",0.8475
"18",0.8745
"19",0.867
"20",0.832
"21",0.8575
"22",0.8855
"23",0.8695
"24",0.8435
"25",0.858
"26",0.8575
"27",0.8575
"28",0.8905
"29",0.8445
"30",0.8445
"31",0.881
"32",0.8755
"33",0.871
"34",0.87
"35",0.88
"36",0.8655
"37",0.8435
"38",0.8745
"39",0.8645
"40",0.8495
"41",0.8835
"42",0.8565
"43",0.8565
"44",0.8515
"45",0.8505
"46",0.871
"47",0.87
"48",0.8465
"49",0.8485
"50",0.86
"51",0.865
"52",0.8305
"53",0.844
"54",0.883
"55",0.8375
"56",0.88
"57",0.83
"58",0.8505
"59",0.854
"60",0.872
"61",0.8715
"62",0.862
"63",0.863
"64",0.831
"65",0.847
"66",0.8565
"67",0.8415
"68",0.858
"69",0.853
"70",0.834
"71",0.8715
"72",0.8405
"73",0.876
"74",0.8345
"75",0.851
"76",0.865
"77",0.8645
"78",0.851
"79",0.8815
"80",0.8455
"81",0.8455
"82",0.856
"83",0.8395
"84",0.8655
"85",0.841
"86",0.879
"87",0.856
"88",0.8765
"89",0.8535
"90",0.859
"91",0.833
"92",0.8805
"93",0.889
"94",0.855
"95",0.863
"96",0.8655
"97",0.844
"98",0.867
"99",0.8425
"100",0.861
"101",0.89
"102",0.869
"103",0.878
"104",0.858
"105",0.87
"106",0.8445
"107",0.852
"108",0.854
"109",0.8475
"110",0.859
"111",0.86
"112",0.8685
"113",0.8445
"114",0.873
"115",0.8315
"116",0.869
"117",0.842
"118",0.8485
"119",0.8655
"120",0.8475
"121",0.8835
"122",0.8305
"123",0.8465
"124",0.868
"125",0.817
"126",0.8585
"127",0.866
"128",0.8445
"129",0.8365
"130",0.8645
"131",0.8585
"132",0.846
"133",0.87
"134",0.8435
"135",0.863
"136",0.8715
"137",0.867
"138",0.863
"139",0.8495
"140",0.8805
"141",0.853
"142",0.8285
"143",0.8585
"144",0.8705
"145",0.868
"146",0.863
"147",0.86
"148",0.858
"149",0.8715
"150",0.8735
"151",0.8475
"152",0.8465
"153",0.8585
"154",0.84
"155",0.859
"156",0.8745
"157",0.865
"158",0.8905
"159",0.863
"160",0.8485
"161",0.847
"162",0.854
"163",0.8465
"164",0.8555
"165",0.861
"166",0.832
"167",0.8505
"168",0.8705
"169",0.8575
"170",0.856
"171",0.8685
"172",0.844
"173",0.871
"174",0.885
"175",0.858
"176",0.8525
"177",0.8435
"178",0.8575
"179",0.8635
"180",0.8445
"181",0.837
"182",0.833
"183",0.8435
"184",0.8645
"185",0.8795
"186",0.8555
"187",0.849
"188",0.878
"189",0.875
"190",0.868
"191",0.8495
"192",0.8505
"193",0.8595
"194",0.8585
"195",0.8635
"196",0.858
"197",0.869
"198",0.876
"199",0.8315
"200",0.844
"201",0.8325
"202",0.867
"203",0.835
"204",0.855
"205",0.869
"206",0.8525
"207",0.8825
"208",0.8465
"209",0.869
"210",0.8885
"211",0.8745
"212",0.873
"213",0.8665
"214",0.8405
"215",0.8595
"216",0.8575
"217",0.836
"218",0.862
"219",0.8455
"220",0.8515
"221",0.847
"222",0.8675
"223",0.865
"224",0.8755
"225",0.8725
"226",0.861
"227",0.87
"228",0.869
"229",0.8535
"230",0.879
"231",0.8655
"232",0.862
"233",0.8555
"234",0.838
"235",0.8575
"236",0.8555
"237",0.8625
"238",0.847
"239",0.8725
"240",0.879
"241",0.848
"242",0.863
"243",0.876
"244",0.865
"245",0.877
"246",0.8635
"247",0.8755
"248",0.8735
"249",0.8565
"250",0.86
