"","V1","V2","V3","V4","V5","V6","V7","V8"
"1",0,0.053,0.027,0,0.012,0.001,0.034,0.008
"2",0.002,0,0.009,0.002,0.008,0.006,0.035,0.001
"3",0.006,0.001,0.029,0.064,0.034,0.057,0,0.001
"4",0,0.015,0.008,0,0.002,0,0,0
"5",0.001,0.001,0,0.001,0.078,0.001,0.039,0.038
"6",0.032,0.055,0.001,0.001,0.011,0.002,0.002,0.053
"7",0.008,0,0,0,0.005,0.019,0,0
"8",0,0,0.014,0,0.03,0.001,0.033,0.107
"9",0.012,0.069,0,0.027,0,0,0.008,0
"10",0,0,0,0,0.004,0.003,0.001,0.001
"11",0.002,0,0,0,0.067,0.001,0.018,0
"12",0,0.047,0,0,0.059,0,0,0.001
"13",0.041,0.052,0.002,0.032,0.113,0.001,0.054,0.001
"14",0,0,0,0,0.003,0,0.061,0
"15",0.001,0,0,0.045,0.037,0.001,0.002,0.001
"16",0,0.054,0.004,0,0.044,0.026,0.019,0
"17",0,0.022,0.004,0,0.01,0.023,0.001,0.1
"18",0.001,0.058,0.025,0.009,0.002,0,0,0.001
"19",0.036,0.006,0.053,0.008,0.069,0.052,0.076,0.002
"20",0.023,0.007,0.037,0.001,0.03,0.001,0.042,0.04
"21",0,0,0,0.078,0.034,0,0,0.048
"22",0,0,0,0.027,0.037,0.002,0,0
"23",0.027,0.002,0,0,0.001,0.007,0.001,0.007
"24",0.019,0.061,0,0.001,0,0.004,0.045,0.002
"25",0,0.001,0.002,0.029,0.001,0.013,0.001,0.036
"26",0,0.031,0.08,0,0.09,0.001,0.001,0.003
"27",0.024,0.002,0,0,0,0,0,0.002
"28",0,0,0.005,0,0,0.002,0,0.002
"29",0.001,0.001,0,0.001,0.096,0,0,0.029
"30",0.006,0.001,0.034,0.004,0.006,0.088,0,0.002
"31",0.001,0.002,0,0.002,0.084,0.007,0.008,0.017
"32",0,0,0,0,0,0,0,0
"33",0.001,0.019,0.046,0,0.056,0.09,0.009,0.102
"34",0.015,0.057,0.007,0.045,0.002,0.016,0.026,0.001
"35",0,0.001,0.001,0.007,0.046,0.006,0.055,0.003
"36",0,0,0,0,0.057,0,0,0
"37",0.021,0.01,0,0.029,0.07,0.142,0.001,0.039
"38",0.006,0,0,0,0.011,0.001,0.047,0.002
"39",0.001,0.002,0.035,0.024,0.004,0.004,0.005,0.002
"40",0,0.002,0.002,0,0.001,0.002,0.067,0.035
"41",0.001,0.048,0.002,0.002,0.005,0.073,0.013,0.004
"42",0.027,0.002,0,0.001,0.002,0.002,0.015,0.026
"43",0.01,0.015,0.001,0.071,0.002,0.002,0.079,0.012
"44",0.033,0.091,0,0,0,0,0,0.056
"45",0,0,0,0,0,0,0.013,0
"46",0.019,0.019,0.001,0,0,0.002,0.074,0
"47",0,0,0,0.057,0,0.057,0,0
"48",0.005,0.001,0.001,0.001,0.006,0.093,0,0
"49",0.002,0,0.027,0,0.014,0.093,0.042,0.033
"50",0.02,0.001,0.025,0,0,0.01,0.002,0.001
"51",0,0.039,0.01,0,0.046,0.001,0.003,0.001
"52",0,0,0.08,0.004,0.009,0.009,0.002,0.01
"53",0,0.035,0.028,0.002,0.008,0.002,0.001,0.06
"54",0,0,0,0,0,0,0.034,0
"55",0,0,0.001,0.018,0.001,0.036,0.001,0.004
"56",0,0,0,0.037,0,0,0,0
"57",0.001,0,0.007,0,0.001,0.05,0,0.006
"58",0.002,0.001,0.004,0.011,0.067,0.002,0.004,0.114
"59",0,0,0,0.075,0,0.025,0,0.029
"60",0,0,0.004,0.081,0.002,0.021,0,0.08
"61",0.063,0.013,0.025,0.028,0.003,0.128,0.001,0.002
"62",0.001,0.003,0,0,0,0,0.008,0.03
"63",0.002,0.037,0.044,0.035,0.016,0.004,0.031,0.055
"64",0.027,0,0.042,0,0.033,0.001,0.002,0.03
"65",0.001,0.002,0.077,0.001,0.111,0.001,0.002,0.029
"66",0.001,0.002,0.009,0.048,0.072,0.063,0.033,0.01
"67",0,0.024,0,0.023,0.015,0.001,0.051,0
"68",0,0.072,0,0.001,0.028,0.001,0.035,0.018
"69",0,0,0,0,0.023,0,0,0
"70",0.02,0.006,0.001,0.002,0.087,0.011,0.001,0.001
"71",0,0,0,0,0,0,0,0
"72",0,0.001,0.001,0.001,0.054,0.042,0.001,0.003
"73",0.001,0,0,0.002,0.157,0.104,0,0
"74",0.01,0.059,0.049,0.001,0.001,0.002,0.002,0.065
"75",0.001,0.005,0.036,0.028,0.002,0.126,0.018,0.005
"76",0.036,0.001,0,0.018,0.057,0.07,0.056,0
"77",0.001,0.002,0.02,0.059,0.001,0.031,0.028,0.033
"78",0.014,0.038,0.001,0.001,0.038,0.003,0.053,0.034
"79",0.029,0.065,0.001,0.024,0.005,0.059,0.02,0.058
"80",0.002,0.001,0.048,0,0.002,0.003,0.035,0.001
"81",0,0.026,0.03,0.065,0.043,0.056,0.001,0.007
"82",0,0,0,0,0.065,0.037,0.096,0
"83",0,0,0.008,0,0.002,0.001,0.008,0.001
"84",0.008,0.007,0.015,0.046,0.002,0.006,0.001,0
"85",0.017,0.025,0,0.016,0.002,0,0.001,0.081
"86",0.002,0.037,0.003,0.002,0.006,0.005,0.002,0.001
"87",0.015,0,0,0.028,0,0.108,0.001,0
"88",0.001,0.001,0.101,0.001,0.032,0.01,0.002,0.08
"89",0,0,0,0.035,0,0.001,0,0.007
"90",0,0.041,0.057,0,0.003,0.05,0,0.014
"91",0.006,0.025,0.042,0.002,0.001,0.097,0.05,0.003
"92",0,0.003,0.004,0.039,0.004,0.085,0,0.049
"93",0.001,0.002,0.001,0.004,0.005,0.002,0.092,0.007
"94",0.018,0.002,0.001,0,0.151,0.002,0.033,0.089
"95",0.062,0.01,0.001,0.063,0.03,0.004,0.003,0.001
"96",0.009,0.02,0.002,0.01,0.018,0.045,0.001,0.007
"97",0.001,0,0.003,0.001,0.001,0.001,0.02,0.001
"98",0,0.001,0,0.041,0.022,0.001,0,0.016
"99",0,0.01,0.039,0.033,0.003,0.007,0.028,0
"100",0,0.004,0.004,0.004,0.049,0.002,0.039,0.002
"101",0,0.001,0.001,0.002,0.04,0.144,0,0.002
"102",0.013,0,0.009,0.036,0.001,0.004,0.001,0.036
"103",0.001,0.032,0.001,0.029,0.035,0.082,0.001,0.001
"104",0.002,0.02,0.017,0.004,0.004,0.005,0.039,0.004
"105",0.001,0.029,0.029,0.003,0.026,0.039,0.001,0.002
"106",0.001,0.041,0.001,0.028,0.004,0.001,0.018,0.003
"107",0.001,0.028,0,0,0.002,0,0,0.058
"108",0.005,0,0.052,0.001,0.001,0.002,0.035,0.079
"109",0,0.002,0,0.048,0.004,0.124,0,0
"110",0.001,0.007,0,0.034,0.002,0.024,0,0
"111",0,0,0,0.001,0,0.04,0,0
"112",0.001,0,0.029,0.001,0.004,0.001,0.01,0.018
"113",0.003,0.005,0,0.02,0.053,0.007,0,0.002
"114",0,0.002,0.001,0.023,0.051,0.004,0.001,0.031
"115",0.002,0.047,0.001,0.067,0.002,0.003,0.001,0.002
"116",0,0,0.017,0.046,0,0,0.002,0
"117",0.022,0.011,0.004,0.019,0.075,0.004,0.001,0.015
"118",0.001,0.001,0.03,0.001,0.02,0.013,0.002,0.063
"119",0.003,0.001,0,0.002,0.04,0.012,0,0.007
"120",0.001,0,0.001,0.002,0.002,0,0,0
"121",0,0,0.023,0,0.066,0.002,0.006,0.015
"122",0.002,0.003,0,0.01,0.064,0.052,0.007,0.005
"123",0.001,0.034,0.001,0,0.002,0.008,0.004,0
"124",0,0.023,0.001,0.016,0.002,0.001,0.002,0.04
"125",0.005,0.018,0.033,0.004,0.068,0.003,0.001,0.004
"126",0.022,0.001,0.003,0.003,0.014,0.038,0.072,0.011
"127",0,0,0,0,0.001,0,0.001,0
"128",0.001,0.003,0.032,0.014,0.002,0.002,0.032,0.027
"129",0,0,0,0,0,0,0,0
"130",0.025,0.003,0.051,0,0.026,0.095,0.001,0.011
"131",0.009,0,0,0.001,0,0,0,0
"132",0,0.056,0.053,0.001,0.001,0.005,0.001,0.02
"133",0.027,0.002,0,0.001,0.006,0.011,0,0
"134",0,0,0,0.018,0.037,0.158,0,0
"135",0,0.035,0.027,0.005,0,0.137,0.001,0.013
"136",0.001,0.035,0,0,0,0,0.002,0.015
"137",0.002,0,0.02,0.016,0.069,0.002,0,0.001
"138",0.005,0,0,0,0.005,0.002,0.001,0.001
"139",0,0,0.001,0,0.04,0.003,0,0
"140",0.003,0.007,0,0.001,0.003,0.082,0.007,0.003
"141",0.003,0.008,0.028,0.051,0.002,0.003,0.071,0.052
"142",0,0.058,0.03,0.001,0.039,0.001,0,0.039
"143",0.002,0.006,0.001,0.002,0.003,0.008,0.005,0.089
"144",0,0,0,0.077,0,0.056,0,0.001
"145",0.033,0,0.011,0.02,0.001,0.057,0,0
"146",0,0.001,0,0.001,0.005,0.062,0,0.033
"147",0.001,0.001,0.005,0.026,0.017,0.087,0.058,0.042
"148",0.001,0.001,0.015,0,0.044,0.001,0.024,0.002
"149",0,0,0,0,0.013,0,0,0
"150",0.001,0.001,0.001,0.061,0.014,0.012,0.007,0.045
"151",0,0,0,0,0,0,0,0
"152",0.014,0.046,0.029,0.007,0.059,0.006,0.077,0.002
"153",0,0.041,0.003,0.007,0.001,0.016,0.001,0.022
"154",0.014,0.003,0.013,0.032,0.001,0.002,0,0
"155",0,0.001,0.001,0,0.001,0.047,0,0.001
"156",0.002,0.002,0.001,0.001,0.001,0.039,0.001,0.003
"157",0.045,0.004,0,0.032,0.016,0.016,0,0
"158",0,0.001,0.001,0.065,0.001,0.017,0.002,0.056
"159",0.001,0.002,0.001,0.013,0.001,0.002,0,0
"160",0.013,0.001,0.001,0.041,0.036,0.001,0,0.007
"161",0.073,0,0,0,0.053,0.023,0,0
"162",0.016,0,0.027,0.045,0.001,0.088,0.002,0.049
"163",0,0,0.017,0,0,0,0,0.038
"164",0.019,0.001,0,0.044,0.081,0.024,0.001,0.002
"165",0.012,0.001,0.005,0,0.005,0.06,0.085,0.038
"166",0.024,0.001,0.001,0.078,0.106,0.001,0.001,0.002
"167",0.036,0,0,0,0,0,0,0.024
"168",0.001,0,0.027,0.028,0,0.004,0,0.003
"169",0,0.027,0.018,0,0.001,0.089,0.026,0
"170",0.004,0.016,0,0.003,0.003,0.061,0,0
"171",0.004,0.001,0,0.024,0.039,0.001,0.036,0.002
"172",0.002,0.003,0.053,0.001,0.001,0.083,0,0.004
"173",0.021,0.001,0.005,0.001,0.004,0.088,0,0.054
"174",0,0.001,0.012,0.008,0.128,0,0.024,0
"175",0.025,0,0.016,0.058,0,0,0.053,0
"176",0.001,0.001,0.001,0,0.094,0.066,0.004,0.001
"177",0.006,0.003,0.054,0.002,0.123,0.003,0.001,0.005
"178",0.001,0.002,0.018,0.001,0.077,0.001,0.004,0.001
"179",0.001,0,0.005,0.069,0,0.001,0,0.016
"180",0.001,0.001,0.012,0.028,0.003,0.002,0.033,0.04
"181",0.001,0.001,0.022,0.035,0.001,0,0.001,0.033
"182",0.01,0.028,0.042,0.001,0.001,0.005,0.019,0.001
"183",0.019,0.002,0.003,0.001,0.189,0.001,0.047,0.003
"184",0.004,0.027,0.001,0.01,0.002,0.049,0.001,0.001
"185",0.002,0.013,0.004,0.001,0.035,0.066,0.025,0.007
"186",0.018,0.022,0.045,0.009,0.008,0.002,0,0.055
"187",0.008,0.001,0.003,0.031,0.1,0.005,0.004,0.005
"188",0,0.001,0,0.046,0,0,0,0
"189",0.008,0.002,0.001,0.001,0.008,0.003,0.002,0.106
"190",0.002,0,0.004,0.043,0.061,0.001,0,0.001
"191",0.001,0.001,0.001,0.036,0.002,0.052,0,0
"192",0.003,0.001,0.062,0.001,0.003,0.002,0.002,0.013
"193",0.022,0.002,0.057,0.008,0.005,0.011,0.04,0.002
"194",0,0.001,0.04,0.002,0.01,0.01,0.019,0.002
"195",0.001,0.001,0.001,0.001,0.092,0.065,0,0.023
"196",0.001,0,0.001,0.043,0.048,0.043,0,0
"197",0,0,0.001,0,0,0,0,0
"198",0.016,0.014,0,0,0.001,0.001,0.051,0
"199",0,0.005,0.009,0,0,0,0.028,0
"200",0,0.001,0.001,0.039,0.008,0.004,0,0
"201",0,0,0.002,0.022,0,0.001,0.046,0
"202",0,0,0.001,0,0,0,0,0
"203",0,0.019,0,0.021,0,0.001,0.075,0.001
"204",0.097,0.028,0.049,0.012,0.005,0.002,0.051,0.042
"205",0,0,0.037,0.03,0.085,0,0,0.005
"206",0.002,0,0,0,0,0,0,0
"207",0,0.031,0.015,0.03,0.085,0.001,0.018,0.021
"208",0,0,0,0,0.002,0.004,0.052,0
"209",0,0,0,0,0,0.002,0.033,0
"210",0.001,0.034,0,0,0.05,0.012,0,0.005
"211",0.004,0,0,0,0.005,0,0.015,0
"212",0,0,0,0.003,0,0,0,0.001
"213",0.042,0,0,0.001,0.077,0.001,0.007,0.007
"214",0.032,0.001,0.019,0.087,0.04,0.019,0.001,0.001
"215",0.003,0.026,0.029,0.059,0.004,0.012,0.064,0.005
"216",0,0.021,0,0.072,0.002,0.13,0.062,0.027
"217",0.003,0.011,0.032,0.009,0.012,0.005,0.002,0.005
"218",0.02,0.024,0.001,0.001,0.004,0.036,0.048,0.018
"219",0.004,0.002,0.019,0.001,0.098,0.044,0.009,0.046
"220",0,0,0,0,0.001,0.009,0,0
"221",0,0.036,0,0,0,0,0,0
"222",0,0.001,0.001,0.001,0.168,0.064,0.063,0.033
"223",0.002,0.006,0.016,0.021,0.004,0.005,0.018,0.002
"224",0,0.005,0,0,0.006,0.021,0,0
"225",0,0,0.002,0.068,0,0,0,0.004
"226",0.002,0,0.003,0,0,0,0,0
"227",0.002,0.023,0.022,0.002,0.177,0.001,0.033,0.002
"228",0,0,0,0.031,0.092,0,0.019,0
"229",0.011,0.003,0.007,0,0.049,0.058,0,0.001
"230",0.006,0.001,0.019,0,0,0.004,0,0
"231",0.001,0,0.051,0,0.001,0,0.023,0
"232",0.001,0.009,0.001,0.084,0.038,0.072,0.038,0.007
"233",0.003,0,0.041,0.04,0.129,0.002,0.047,0.011
"234",0,0.001,0.052,0,0.002,0,0.05,0
"235",0,0,0.001,0,0.009,0,0.039,0
"236",0.039,0.001,0.003,0.042,0.053,0.007,0.053,0.004
"237",0.001,0.005,0.026,0.002,0.004,0.004,0.037,0.005
"238",0.016,0.002,0.002,0.009,0.089,0.001,0.017,0
"239",0,0,0.019,0.002,0,0.005,0,0.003
"240",0.005,0.07,0.002,0.001,0.039,0.052,0.002,0.007
"241",0.006,0.001,0.039,0.002,0.066,0.003,0.001,0.002
"242",0.005,0.028,0,0,0,0.002,0.002,0.001
"243",0,0,0,0.04,0,0,0,0.056
"244",0.028,0,0.032,0.001,0.073,0.001,0.029,0
"245",0,0,0.002,0,0.126,0,0,0
"246",0,0.028,0.015,0.026,0.025,0.018,0,0
"247",0.044,0.007,0,0,0.001,0.004,0,0.001
"248",0.002,0,0,0.023,0,0,0,0.001
"249",0.046,0.018,0.011,0.003,0.023,0.086,0.004,0.035
"250",0.001,0.002,0.033,0.037,0,0,0.002,0.014
