"","x"
"1",16724.3841109607
"2",16671.7362469197
"3",16599.5931493293
"4",16578.5262259715
"5",16491.5739002599
"6",16569.7946230545
"7",16874.0378305185
"8",16710.9207567871
"9",16438.8999533407
"10",16482.1759369948
"11",16512.8790389631
"12",16556.2931429415
"13",16622.3361914407
"14",16532.1479717028
"15",16545.7204165593
"16",16574.3960390705
"17",16590.5771653532
"18",16381.0230011539
"19",16355.928316135
"20",16613.2795769658
"21",16418.2133164704
"22",16591.5424623639
"23",16804.9409804753
"24",16482.1944406194
"25",16598.8686701482
"26",16597.4417311845
"27",16791.4851414121
"28",16720.6096710925
"29",16443.4465644342
"30",16822.4103510364
"31",16598.9368511392
"32",16483.1332096667
"33",16449.2778158564
"34",16699.1767614807
"35",16895.0446698323
"36",16327.2814885529
"37",16580.2198333139
"38",16482.9857791755
"39",16724.6404319525
"40",16548.6093610253
"41",16594.9276528669
"42",16569.0492503352
"43",16850.408166683
"44",16577.7036378219
"45",16669.6652580577
"46",16907.8412201867
"47",16626.3704488931
"48",16786.6244409213
"49",16837.0213482967
"50",16488.8946150148
"51",16482.2170834998
"52",16725.7535796463
"53",16745.7031067187
"54",16665.9201461836
"55",16770.4167729049
"56",16633.3986154052
"57",16761.2498085947
"58",16474.0857571847
"59",16348.3591351932
"60",16585.4252541135
"61",16564.7422456707
"62",16502.8736294501
"63",16716.9459420113
"64",16706.5798418524
"65",16569.2701658764
"66",16927.1207984952
"67",16523.4873694892
"68",16406.7778788535
"69",16631.7210688724
"70",16679.3608084355
"71",16767.9204906333
"72",16674.0223359385
"73",16754.6917449937
"74",16674.5946323881
"75",16450.582594122
"76",16688.2216046066
"77",16655.291523368
"78",16634.3964326052
"79",17009.9944806323
"80",16652.2473011184
"81",16808.586856597
"82",16457.3714309557
"83",16781.1491035038
"84",16653.6015637064
"85",16636.8099240969
"86",16393.4777090255
"87",16490.867299938
"88",16677.8286979966
"89",16518.7506917718
"90",16866.9306564543
"91",16724.1569767618
"92",16757.1704832688
"93",16879.1912112232
"94",16755.5107696716
"95",16535.1373143512
"96",16575.7472189067
"97",16771.7574271559
"98",16770.8900977057
"99",16679.3801134039
"100",16624.8664035412
"101",16552.7465975816
"102",16690.7204293594
"103",16699.2319818789
"104",16491.505601804
"105",16581.3612831241
"106",16668.122916143
"107",16618.9965894054
"108",16535.380739133
"109",16401.3648132705
"110",16732.1642923083
"111",16419.54993022
"112",16445.2401880203
"113",16606.8670942324
"114",16504.2764326681
"115",16327.816002133
"116",16661.7253285544
"117",16802.2645352175
"118",16551.1128731932
"119",16882.9675674014
"120",16545.7048582456
"121",16454.1881549755
"122",16860.8421161452
"123",16600.25422466
"124",16493.4034790777
"125",16766.5089203153
"126",16523.5374370698
"127",16623.6059730279
"128",16664.4039197964
"129",16679.8555730918
"130",16425.2334738322
"131",16800.9296419239
"132",16677.4340629471
"133",16874.5396326708
"134",16619.1525957427
"135",16542.9373954435
"136",16716.6683522888
"137",16828.3163443082
"138",16584.9238094369
"139",16585.1359701908
"140",16667.7300042558
"141",16719.2063862427
"142",16595.5157925171
"143",16692.8136814751
"144",16576.0142717631
"145",16639.5361406143
"146",16804.4083541569
"147",16386.4516755271
"148",16646.4471673988
"149",16581.5175887571
"150",16229.3085981375
"151",16704.7114788877
"152",16320.3849357115
"153",16415.8270399274
"154",16747.9805737479
"155",16555.5919966256
"156",16657.9385948664
"157",16398.9568667868
"158",16427.2670613369
"159",16617.2238244574
"160",16616.6676512683
"161",16590.0446680359
"162",17104.2880202822
"163",16634.185632126
"164",16690.0000154699
"165",16477.5830741129
"166",16495.0392949059
"167",16518.6952141205
"168",16521.9676841721
"169",16570.4888820236
"170",16440.6667025342
"171",16724.9759355303
"172",16435.5808856147
"173",16539.3075002218
"174",16620.0860820821
"175",16194.071884124
"176",16559.1160523848
"177",16741.1485378662
"178",16620.3031245927
"179",16702.0036839584
"180",16353.8858617292
"181",16745.9225912939
"182",16491.0556377399
"183",16697.0753590969
"184",16692.2795786319
"185",16629.2630722189
"186",16649.4287200885
"187",16694.8772065415
"188",16623.9103192385
"189",16785.0282734721
"190",16661.035718002
"191",16633.2254469827
"192",16669.2960946819
"193",16716.168893212
"194",16519.0425335737
"195",16697.6350032025
"196",16749.8316382887
"197",16685.4745480281
"198",16292.4620470779
"199",16935.906385507
"200",16604.5016783004
"201",16456.70214557
"202",16440.2176254192
"203",16628.0757834137
"204",16674.010492966
"205",16714.5192919528
"206",16657.5932279781
"207",16652.0350923503
"208",16681.1161582712
"209",16600.3085434594
"210",16583.2288598537
"211",16641.1246605393
"212",16375.5954776818
"213",16718.3815660637
"214",16738.5442746509
"215",16387.4435423955
"216",16597.1804642758
"217",16729.3591210044
"218",16778.3412236203
"219",16422.2282433978
"220",16476.0686244214
"221",16787.7448790715
"222",16601.5975534316
"223",16630.0532504696
"224",16854.0742419394
"225",16629.6877075371
"226",16608.9578703529
"227",16551.2752345825
"228",16574.2568467366
"229",16569.1372497589
"230",16639.0551907731
"231",16424.91015514
"232",16539.9306147492
"233",16635.057288818
"234",16559.4982198578
"235",16699.6926166208
"236",16724.4038231179
"237",16487.8994373431
"238",16544.0491591721
"239",16626.6614504972
"240",16792.3471941387
"241",16666.5738738371
"242",16612.9748563898
"243",16798.5770636163
"244",16423.3296694262
"245",16690.1799071091
"246",16657.7947230483
"247",16705.0108441388
"248",16390.7864874255
"249",16598.3723695089
"250",16692.4903274163
