"","x"
"1",-8278.58212842537
"2",-8252.25819640487
"3",-8216.18664760968
"4",-8205.65318593078
"5",-8162.177023075
"6",-8201.28738447228
"7",-8353.40898820426
"8",-8271.85045133861
"9",-8135.84004961538
"10",-8157.47804144244
"11",-8172.82959242659
"12",-8194.53664441579
"13",-8227.55816866541
"14",-8182.46405879642
"15",-8189.2502812247
"16",-8203.58809248029
"17",-8211.67865562162
"18",-8106.90157352197
"19",-8094.35423101254
"20",-8223.02986142792
"21",-8125.49673118024
"22",-8212.16130412698
"23",-8318.86056318271
"24",-8157.48729325474
"25",-8215.82440801915
"26",-8215.11093853729
"27",-8312.13264365107
"28",-8276.69490849129
"29",-8138.11335516215
"30",-8327.59524846323
"31",-8215.85849851462
"32",-8157.9566777784
"33",-8141.02898087325
"34",-8265.97845368539
"35",-8363.91240786119
"36",-8080.0308172215
"37",-8206.49998960198
"38",-8157.88296253281
"39",-8278.71028892131
"40",-8190.69475345769
"41",-8213.85389937848
"42",-8200.91469811263
"43",-8341.59415628656
"44",-8205.24189185599
"45",-8251.2227019739
"46",-8370.31068303839
"47",-8229.57529739159
"48",-8309.70229340569
"49",-8334.90074709337
"50",-8160.83738045242
"51",-8157.49861469494
"52",-8279.26686276816
"53",-8289.24162630437
"54",-8249.35014603684
"55",-8301.59845939747
"56",-8233.08938064765
"57",-8297.01497724239
"58",-8153.43295153738
"59",-8090.56964054162
"60",-8209.10270000177
"61",-8198.76119578037
"62",-8167.8268876701
"63",-8274.8630439507
"64",-8269.67999387123
"65",-8201.02515588325
"66",-8379.95047219266
"67",-8178.13375768964
"68",-8119.77901237178
"69",-8232.25060738123
"70",-8256.07047716278
"71",-8300.35031826167
"72",-8253.40124091428
"73",-8293.73594544187
"74",-8253.68738913906
"75",-8141.68137000604
"76",-8260.50087524832
"77",-8244.03583462904
"78",-8233.58828924764
"79",-8421.38731326121
"80",-8242.51372350422
"81",-8320.68350124354
"82",-8145.0757884229
"83",-8306.96462469692
"84",-8243.19085479824
"85",-8234.79503499349
"86",-8113.12892745779
"87",-8161.82372291401
"88",-8255.30442194332
"89",-8175.76541883094
"90",-8349.85540117221
"91",-8278.46856132593
"92",-8294.97531457944
"93",-8355.98567855662
"94",-8294.14545778085
"95",-8183.95873012064
"96",-8204.26368239839
"97",-8302.268786523
"98",-8301.83512179789
"99",-8256.08012964699
"100",-8228.82327471565
"101",-8192.76337173584
"102",-8261.75028762471
"103",-8266.0060638845
"104",-8162.14287384705
"105",-8207.07071450709
"106",-8250.45153101656
"107",-8225.88836764773
"108",-8184.08044251155
"109",-8117.07247958029
"110",-8282.47221909918
"111",-8126.16503805501
"112",-8139.01016695517
"113",-8219.82362006126
"114",-8168.52828927909
"115",-8080.29807401152
"116",-8247.25273722224
"117",-8317.52234055381
"118",-8191.94650954164
"119",-8357.87385664572
"120",-8189.24250206781
"121",-8143.48415043281
"122",-8346.81113101764
"123",-8216.51718527505
"124",-8163.0918124839
"125",-8299.6445331027
"126",-8178.15879147991
"127",-8228.19305945897
"128",-8248.59203284324
"129",-8256.31785949092
"130",-8129.00680986114
"131",-8316.85489390698
"132",-8255.10710441856
"133",-8353.65988928043
"134",-8225.96637081637
"135",-8187.85877066678
"136",-8274.72424908945
"137",-8330.54824509915
"138",-8208.85197766348
"139",-8208.95805804043
"140",-8250.25507507294
"141",-8275.99326606636
"142",-8214.14796920357
"143",-8262.79691368259
"144",-8204.39720882658
"145",-8236.15814325217
"146",-8318.5942500235
"147",-8109.61591070859
"148",-8239.61365664441
"149",-8207.14886732361
"150",-8031.04437201381
"151",-8268.7458123889
"152",-8076.58254080077
"153",-8124.30359290872
"154",-8290.38035981899
"155",-8194.18607125785
"156",-8245.35937037822
"157",-8115.86850633844
"158",-8130.02360361351
"159",-8225.00198517373
"160",-8224.72389857919
"161",-8211.41240696299
"162",-8468.53408308612
"163",-8233.48288900806
"164",-8261.39008067998
"165",-8155.18161000148
"166",-8163.909720398
"167",-8175.73768000527
"168",-8177.37391503107
"169",-8201.63451395684
"170",-8136.72342421216
"171",-8278.87804071017
"172",-8134.18051575241
"173",-8186.04382305596
"174",-8226.43311398607
"175",-8013.42601500702
"176",-8195.94809913745
"177",-8286.96434187814
"178",-8226.54163524141
"179",-8267.39191492425
"180",-8093.33300380962
"181",-8289.35136859201
"182",-8161.91789181498
"183",-8264.92775249347
"184",-8262.52986226099
"185",-8231.02160905449
"186",-8241.10443298931
"187",-8263.8286762158
"188",-8228.34523256427
"189",-8308.9042096811
"190",-8246.90793194605
"191",-8233.00279643638
"192",-8251.038120286
"193",-8274.47451955102
"194",-8175.91133973187
"195",-8265.20757454627
"196",-8291.30589208938
"197",-8259.12734695909
"198",-8062.62109648397
"199",-8384.34326569852
"200",-8218.64091209525
"201",-8144.74114573004
"202",-8136.49888565465
"203",-8230.4279646519
"204",-8253.39531942803
"205",-8273.64971892143
"206",-8245.18668693409
"207",-8242.40761912019
"208",-8256.94815208065
"209",-8216.54434467476
"210",-8208.00450287188
"211",-8236.95240321467
"212",-8104.18781178595
"213",-8275.58085597687
"214",-8285.66221027049
"215",-8110.11184414276
"216",-8214.98030508291
"217",-8281.06963344723
"218",-8305.56068475518
"219",-8127.50419464396
"220",-8154.42438515572
"221",-8310.2625124808
"222",-8217.18884966085
"223",-8231.41669817982
"224",-8343.42719391472
"225",-8231.23392671361
"226",-8220.86900812151
"227",-8192.02769023628
"228",-8203.51849631332
"229",-8200.95869782449
"230",-8235.91766833161
"231",-8128.84515051501
"232",-8186.35538031965
"233",-8233.91871735403
"234",-8196.13918287395
"235",-8266.23638125543
"236",-8278.59198450401
"237",-8160.33979161657
"238",-8188.41465253106
"239",-8229.72079819363
"240",-8312.5636700144
"241",-8249.67700986358
"242",-8222.87750113996
"243",-8315.67860475316
"244",-8128.05490765815
"245",-8261.48002649961
"246",-8245.28743446921
"247",-8268.89549501442
"248",-8111.78331665778
"249",-8215.57625769949
"250",-8262.63523665319
