"","x"
"1",0.908
"2",0.908
"3",0.908
"4",0.932
"5",0.932
"6",0.912
"7",0.908
"8",0.928
"9",0.9
"10",0.932
"11",0.908
"12",0.9
"13",0.928
"14",0.916
"15",0.908
"16",0.936
"17",0.888
"18",0.9
"19",0.904
"20",0.872
"21",0.896
"22",0.892
"23",0.892
"24",0.896
"25",0.896
"26",0.896
"27",0.896
"28",0.916
"29",0.92
"30",0.916
"31",0.852
"32",0.908
"33",0.916
"34",0.868
"35",0.912
"36",0.916
"37",0.876
"38",0.904
"39",0.916
"40",0.896
"41",0.864
"42",0.952
"43",0.956
"44",0.912
"45",0.892
"46",0.88
"47",0.912
"48",0.948
"49",0.952
"50",0.888
"51",0.904
"52",0.896
"53",0.896
"54",0.904
"55",0.876
"56",0.888
"57",0.912
"58",0.876
"59",0.928
"60",0.908
"61",0.896
"62",0.904
"63",0.916
"64",0.92
"65",0.928
"66",0.892
"67",0.84
"68",0.916
"69",0.896
"70",0.916
"71",0.62
"72",0.948
"73",0.924
"74",0.852
"75",0.888
"76",0.86
"77",0.892
"78",0.888
"79",0.916
"80",0.916
"81",0.884
"82",0.888
"83",0.956
"84",0.94
"85",0.912
"86",0.952
"87",0.888
"88",0.9
"89",0.94
"90",0.912
"91",0.868
"92",0.924
"93",0.88
"94",0.896
"95",0.86
"96",0.932
"97",0.928
"98",0.916
"99",0.9
"100",0.948
"101",0.892
"102",0.848
"103",0.912
"104",0.9
"105",0.856
"106",0.932
"107",0.92
"108",0.904
"109",0.92
"110",0.88
"111",0.9
"112",0.936
"113",0.884
"114",0.84
"115",0.896
"116",0.912
"117",0.952
"118",0.936
"119",0.852
"120",0.892
"121",0.816
"122",0.932
"123",0.84
"124",0.912
"125",0.92
"126",0.896
"127",0.876
"128",0.924
"129",0.896
"130",0.896
"131",0.9
"132",0.912
"133",0.908
"134",0.904
"135",0.944
"136",0.892
"137",0.912
"138",0.868
"139",0.84
"140",0.9
"141",0.852
"142",0.936
"143",0.912
"144",0.924
"145",0.94
"146",0.904
"147",0.912
"148",0.868
"149",0.928
"150",0.928
"151",0.932
"152",0.876
"153",0.92
"154",0.916
"155",0.892
"156",0.892
"157",0.924
"158",0.944
"159",0.94
"160",0.92
"161",0.936
"162",0.928
"163",0.852
"164",0.928
"165",0.908
"166",0.936
"167",0.924
"168",0.932
"169",0.896
"170",0.912
"171",0.876
"172",0.864
"173",0.94
"174",0.844
"175",0.948
"176",0.94
"177",0.904
"178",0.932
"179",0.88
"180",0.888
"181",0.888
"182",0.916
"183",0.936
"184",0.936
"185",0.908
"186",0.92
"187",0.876
"188",0.896
"189",0.936
"190",0.912
"191",0.624
"192",0.932
"193",0.904
"194",0.924
"195",0.924
"196",0.856
"197",0.916
"198",0.916
"199",0.896
"200",0.912
"201",0.888
"202",0.92
"203",0.94
"204",0.888
"205",0.876
"206",0.916
"207",0.876
"208",0.944
"209",0.904
"210",0.896
"211",0.888
"212",0.952
"213",0.896
"214",0.864
"215",0.876
"216",0.904
"217",0.848
"218",0.936
"219",0.892
"220",0.976
"221",0.9
"222",0.924
"223",0.884
"224",0.948
"225",0.908
"226",0.92
"227",0.884
"228",0.884
"229",0.912
"230",0.94
"231",0.876
"232",0.868
"233",0.896
"234",0.936
"235",0.944
"236",0.92
"237",0.94
"238",0.912
"239",0.876
"240",0.94
"241",0.884
"242",0.916
"243",0.888
"244",0.92
"245",0.94
"246",0.892
"247",0.908
"248",0.888
"249",0.908
"250",0.892
