"","V1","V2","V3","V4","V5","V6","V7","V8"
"1",19.8264508555536,40.4060503673165,4.85943952778183,6.88663095202029,0.0111689367969056,-0.0274619428332581,1.96720089182915,11.2146609028275
"2",20.1354687624484,39.8217361497238,4.97544096868134,6.91932393826447,-0.0320663416687796,0.0598677058291609,1.97919224087133,12.57059060645
"3",20.1328072741396,39.6654624291367,4.97204137114311,7.01564764738507,-0.0467157621459074,-0.00581095105209662,1.94567989982664,12.1007129450435
"4",19.6404625730296,40.4550762515633,4.96772153202941,7.01198991259179,0.0235667259145061,-0.0178336735968452,2.0107559301449,12.7924722529312
"5",20.0637843219723,40.2430403865235,5.05726932471163,6.81760103411645,-0.0387934081910004,0.0116288181210904,1.95034761809059,11.4866710243989
"6",19.8266782586623,40.7281251650109,4.901068065053,7.02636808500739,0.0417341160144737,0.0258523698494748,2.12877834394422,12.8895098124604
"7",20.1595546706646,39.2182479778846,5.06480822943647,7.26801529600755,0.0765937004738106,0.0212922261221328,2.0034607009634,10.3366320963792
"8",20.3532375673254,40.1187431515015,5.09445006614156,6.81831588314242,-0.0109733047714889,-0.0131521020070047,1.97810573680808,12.785082692327
"9",19.9039651252577,40.6957076814913,5.03060146725247,6.75846469998979,-0.000430015564375793,-0.00399081953204654,2.03294601251085,12.6651428617288
"10",20.4294068007675,39.1998158541038,5.12346121158868,7.06694567248906,-0.0184801637784662,0.0627814291375524,2.15889845235897,11.9436554709097
"11",20.1918830094656,39.4335517392387,4.85814795158376,6.87305976489077,0.00160301944036609,0.0136119279082396,2.10735889443453,12.838260701531
"12",19.7967699774745,40.4876653339132,4.7282455505046,6.83701804154963,0.00698983546308023,-0.0552351385893824,1.91874831358205,12.9110351308528
"13",20.9678498356251,39.9397928737679,5.43409359344031,7.31826998689522,0.0375294633494112,-0.0190205811614838,2.00717974551674,13.0340790766535
"14",20.0357794348253,39.7881620353564,5.12596629268552,6.85850335972899,0.0286245048617356,0.0561515333628077,1.96987307597593,12.100876035057
"15",19.4561715762401,39.6442886718628,4.82119376978091,6.86517002692287,-0.00214289709961504,0.0100247981125628,2.09903855551308,11.1898008117321
"16",20.0814273721177,40.713585219567,4.73699900091515,7.33774951412065,0.0732184233263519,-0.0396548837489128,1.9129092322373,11.3105966216407
"17",19.5810521500764,41.0778394781755,4.7060483810751,7.37394445706564,0.0213650658149709,-0.0174221777517591,1.99420355911756,11.5507167392282
"18",19.2013290883095,40.0827756250112,4.84143581825138,7.05718461547686,-0.0110396415836915,-0.00345855703909732,2.03541869671516,11.7452079700789
"19",20.0521167723993,39.4081003825653,5.04454582816227,6.95503117384934,-0.0520553041064983,-0.0305786548402782,2.0076610914911,12.2421884880018
"20",20.2860077813998,40.0318354879316,5.13879618638612,7.04671048425997,0.0364537913072975,0.0249703664570525,1.93523772310588,9.91274198620196
"21",20.0581557719749,40.6554544232264,4.99458145506659,7.11349155663337,-0.00118891802723643,0.00636509826701253,1.91667343563162,13.0435821163203
"22",20.1419381429121,40.0671240800261,5.07490949346811,7.02455948103325,-0.0145227283849425,-0.0578213500538511,2.07540387455128,11.8917114919203
"23",19.5779405099277,38.9289369885485,4.87057053392134,6.6527954759458,-0.000591824623739458,-0.0120280913733825,2.07784986258597,11.3261114279407
"24",19.8495733884407,40.2945426779795,4.88667229237044,6.99788865330769,0.047576572433656,0.0140254323612434,2.12373919721724,10.5592280863648
"25",20.4631748298752,39.3727651369669,5.04223090172391,7.09288617604153,-0.0118205272899882,-0.0339260445905476,2.12922143316867,12.4215661846611
"26",19.6986995499484,38.9487439360508,4.90582998378151,6.62861607867896,0.0733175929849282,0.0100502355967751,2.22287009991665,11.6343447548665
"27",20.858608382823,39.3755501813266,5.16110161766532,7.2515173928982,0.06394942722381,0.0112760383708385,2.00022552732207,12.2528544370468
"28",20.2222479643911,39.358141399904,4.89710983202699,6.61481904392539,0.00998522017485669,0.0157063663209061,2.03687130778038,12.8451856448839
"29",19.9114341960396,39.9198599318636,5.03763005875128,6.77973629704439,-0.00396672543638586,-0.0476507399945318,1.99105219818545,12.5882732576254
"30",19.833972730325,40.012920259619,4.84832437496533,7.35098502081522,-0.123943151166527,0.0354000012067942,2.15046539333114,10.9491398785222
"31",19.7080940140297,40.5271105288401,5.16531038006817,7.06350741819803,0.00697375482491213,-0.0231368650301946,1.92577574703567,12.5077904418479
"32",19.9908931583601,40.7474200420998,5.09082941882655,7.17991984568207,-0.013746001941357,-0.0083397325676011,2.0389300716127,12.3437867885515
"33",19.7591751173393,38.9811928048739,4.84011681991193,6.86627903477932,-0.0361818301059143,-0.00417593439348179,2.04158113968338,12.8740507397036
"34",20.1112678352686,40.3543519940705,4.91474684703175,7.25782641552053,0.0469365148286607,-0.00132735535381594,2.0828427415949,10.8518678494914
"35",19.6942967177875,38.3519853098434,4.94831248393091,6.56123975037843,-0.0145967766131326,0.019847891593427,2.05548419022841,11.8349855910822
"36",19.3716744779046,40.2156531305426,4.64397407733711,6.91089570555291,0.0339510187688358,0.0211543072937947,2.07445898210731,12.4767123700897
"37",20.4291232134786,39.3977199541374,5.06149853013833,6.40396814395627,0.00364569618114221,-0.0046707788991525,2.03056819678351,10.959290749763
"38",19.4306925378172,39.2100467461752,4.75371300457186,7.1156771577101,-0.00194929117433367,0.0352651714557918,1.88617990392014,11.6444901483471
"39",20.3414587187273,39.5060158007345,4.97296759965536,6.89076719655267,0.0061748017779341,0.0270506690571284,1.9782955663256,12.1115009343101
"40",20.0441018568791,41.0299503454914,4.93319062247944,6.98349810068781,-0.0406923515494838,-0.031515153866561,2.05632315048722,12.0324672025731
"41",20.0234847863793,40.0914746342693,4.95581338683857,6.91331499141745,0.105172658144541,-0.0424893446216119,1.99651860096509,12.2434099183335
"42",19.9384083252885,39.1277202240839,4.79270415607395,7.1834256598418,-0.0107162747616279,0.00967984127472874,1.98513926090131,12.2237078345644
"43",19.8935230885324,40.594931548583,5.033236669502,7.05591390502365,0.0532311767982376,-0.0425551764090061,2.02029920269537,11.3722742520569
"44",19.2060590432721,39.3903031311879,4.60727194839584,6.83505703092797,-0.0217920792368617,-0.0317203118385868,1.90632463585053,11.0300722641967
"45",20.2642202852794,40.4963610078739,5.14465519026732,7.27637212642712,0.00373974998576947,0.00346052361418634,2.03578353215976,11.3330114710596
"46",19.6949514773047,40.8537251524929,4.83856797099754,7.16659511741743,0.0100556435589175,0.000220677923147965,2.05642871610727,11.7585274595525
"47",20.2438937649423,41.6558295414304,5.15664253772765,7.26627261638033,0.0417506861170913,-0.0169390728536513,2.03819594123885,12.2147632862657
"48",20.0580962528292,39.2890214876309,4.91465341293929,6.76612877249261,0.0636951089158741,0.001048008849268,1.9689607593824,12.2127628830983
"49",19.9222635459683,40.8125994777361,5.11498298913886,7.09995474806998,-0.0350754221194429,0.0140132887925784,2.13701531446284,11.5744759054382
"50",19.8857862715882,40.8441559161083,5.17296831501752,7.24168450175925,0.0515415577551819,0.00877329986808351,1.9130656876844,10.7199474045462
"51",19.9783318507454,40.414891080969,4.95265503958544,7.16634162990189,-0.00954701783603782,-0.0193694532483055,2.09345155890838,12.5351759833885
"52",19.9344153134415,40.1034271014845,4.89972285308055,7.39758006945875,0.00209650783758772,-0.0316340124204696,1.88378613166268,11.2579062790112
"53",19.4635026902385,39.3377569760446,4.65274773187085,6.74685094241004,-0.0648003911005797,0.0181855013291241,1.95563484426707,12.8669132766208
"54",20.087678418819,39.0094457343183,4.9218535394923,6.70335907030363,-0.0481269380235518,-0.0153729262357479,2.12671177055906,12.2739222845887
"55",19.5987190355422,39.4287140471795,4.76275823213353,7.00540241138884,0.0271269095900691,-0.0870874279752705,1.89230609522461,11.2540739031138
"56",19.668569346204,40.8275199793801,4.73066308759276,6.96225068078493,0.0229047779682888,0.0154697465818948,2.07004681074867,11.9544985442019
"57",19.9480162453266,39.8862262988543,4.97717095041706,6.8503428713377,-0.0132417309414493,0.0258059004842086,1.96854339646418,12.3028756302881
"58",19.5697846863862,39.6685389707611,4.87933887669293,7.20722374401162,0.0469445556076979,0.00625208327102281,1.94985190185907,12.7228590306947
"59",19.9763803287899,39.7432014558221,4.78825649462802,7.08541207140067,-0.0313300977918899,-0.0315886856804943,2.05566910196777,12.6283352529181
"60",20.345259862866,40.1353888229066,5.29780833437859,7.31811939752088,-0.0207854589843968,-0.0108255401850023,2.05592978059903,12.3444623069991
"61",20.1634802374502,40.652870386595,4.94592786597982,7.29132434307267,0.0552119564936621,0.00917775943948065,2.05476469992884,11.1135700736877
"62",19.2031871717041,39.9455377130959,4.67252653505167,6.83993568632377,-0.021878796509485,-0.0187508672033893,1.97573800192337,10.7693838762253
"63",19.8739163242801,39.9834677082347,4.77839665319487,6.95716845742302,0.0313653922145778,-0.0065814163577446,1.98050066952194,12.1595414145734
"64",19.7116704222012,41.2778121316988,4.9856304370862,7.15156184550268,0.0119566537471013,0.00278404137882828,1.93419833438627,10.7238733055719
"65",19.9333554284481,41.058641990579,4.96162967034204,7.00314190116708,-0.0456767316920044,0.0160055846212913,2.11978419723581,11.0932153136954
"66",19.260312446152,39.5144795699276,4.69630704197547,7.21233417658516,-0.00197013482435598,0.00111752738385061,1.85227922395871,11.8760224005649
"67",19.6117164434006,38.7132800229747,4.94264734841215,6.6325897221483,0.0229425564265401,-0.0576693587369918,1.87391940394236,11.6843352423468
"68",20.7454283458074,40.1392679767873,5.24953390686365,6.97047466994324,0.0142602328300585,-0.0030077698473446,1.99194299687224,12.9893097659188
"69",19.7740196058528,39.817719150866,4.78340856712046,6.81811126888548,-0.0133291320888131,-0.00623206009940769,2.11558234099157,13.24102045379
"70",19.9088655260927,40.4514564999449,4.97822465031665,6.99276954049985,-0.0480583909339483,-0.0398529284486436,1.95040111136403,12.28278997008
"71",19.9162147515144,39.8939452911603,4.77502081526394,6.91261853995192,0.0932628097494685,-0.0552015197089127,2.00454917379362,11.3527815790654
"72",20.3575771861766,40.301836369541,5.13726443242077,7.13278842084699,0.00965467653469845,0.0212670677940821,2.00860767954727,12.75011989526
"73",20.293608167496,39.2806313797197,5.00740186192276,6.97334952416211,-0.0274408478381072,-0.025774755256078,2.0425941371484,12.2110273821624
"74",20.1808828640204,40.464083243134,5.0968746352414,6.92036633897484,-0.0671888908386511,0.0064755733320648,1.97477207170422,13.1899844025641
"75",19.4036240339243,41.245507313132,4.93289114395086,7.32379252634275,0.022404611565993,-0.0134399850188834,2.04966310613711,11.6095804857747
"76",20.40055003441,40.0179988888486,5.19397224289578,7.22088070073155,-0.10471498242141,0.018549746173242,2.06971395613061,11.7157660623208
"77",19.9288315012051,40.0500270816204,4.96928008379483,6.98067399068621,0.0464566417429427,0.00140015851287074,2.07506481124194,11.9630021547531
"78",20.2446732235072,38.79526860302,5.07139656797461,6.86411793147896,-0.00530629447734141,-0.0593987476891284,2.14988930568499,10.2428965954966
"79",20.0469568760303,40.0034154183414,4.82427573799683,6.99709218211137,0.000959320139707779,-0.0287727311519026,2.03466998334564,11.6225531228845
"80",20.0130030682415,39.6165087159788,4.90651635708598,6.94923659615295,-0.00630490954378659,0.0245577936759408,1.87465180859448,12.1353450928042
"81",19.5789586887795,39.6922790267588,4.9050131599505,6.83037687982435,0.00576308953150818,0.0157838284270171,1.90351524403154,12.4997447020213
"82",19.9932848757828,40.6719516844604,5.12366436648392,7.33398021657822,0.0150051575691938,-0.00819424308828057,1.92004215282904,10.7579112728466
"83",19.8664873067874,39.3179849793462,4.99790249680003,7.06846277332894,-0.0461398809711262,0.0164884717095755,2.01719237131617,12.1790506797586
"84",19.9524353358238,40.0476505051808,4.77337387753257,6.80366597041857,-0.00406142022509114,0.0124935665950677,2.06585701148335,13.4106231497378
"85",19.6370694774265,40.3211156456771,4.74901452699876,6.99381120690858,0.0494554014446186,-0.0603175041776343,1.96450503602733,11.5284476944998
"86",20.3884032076826,40.0218018092045,5.04274172557229,6.84665920761298,-0.0326327988970943,-0.032670089382842,1.99449204967539,12.0645136617897
"87",19.6607588333808,39.4617152162418,5.03843684804375,6.78255460315383,-0.0776636419075986,-0.00681185378673562,1.98943104909401,12.9485751271244
"88",20.2576798269908,40.8968516548284,4.9954737680268,7.56254509105586,-0.0311267834364626,-0.00549735891062586,1.90984810071675,12.0225041424336
"89",20.3320854018016,39.8783832435387,5.34972222894491,6.98469018605056,0.0589414449265257,-0.0145001298283354,1.91088102934724,12.7429730721417
"90",19.7587023102737,40.4886144497887,5.01475494435263,7.28896179873289,0.0254143895983327,-0.0019103918132896,2.05001516093874,12.2509315548661
"91",19.7277089533444,40.0177347019207,5.01045804234014,6.93525279116678,-0.00851944988054423,0.0449159297467181,2.12033550445516,12.0552191306696
"92",19.7262720773278,40.4735352295508,4.93887110080672,7.40052925115026,0.0264094837668226,-0.0038524415128624,2.06710479093152,11.8318960316117
"93",20.3011314958888,39.5852676942049,5.1343565692372,7.08490654392919,0.0230663869217117,0.0301296748636348,1.9275506037506,11.9562832237129
"94",20.2016292527435,39.2226668768527,5.29616639348259,6.76012060187789,-0.0231083730303492,-0.0658877945628112,2.01307564909626,12.756110115558
"95",20.1462009917182,40.1710411158726,5.135783094133,7.13924525279879,0.00708844651424714,-0.0106318751988955,2.09092454321053,12.831623256543
"96",20.8893328556069,40.166390502734,5.2045205834413,7.12738713781129,-0.0474795291972117,-0.0388830020815806,2.03006451693898,12.5545996892177
"97",20.0918731342244,39.7108815890224,5.16063676535389,7.06995629439945,-0.0827410339058603,-0.0392371491763502,1.97707065187504,10.5739471051498
"98",20.2373157468236,39.5479752922688,5.08705808879639,6.83686700294298,-0.0177167071238598,0.0119809896751961,2.16447106193418,11.4023373787934
"99",19.871556010892,39.5569683765405,4.88812358237216,7.15970426909747,-0.0284581401472045,-0.0253252601019827,1.93367723797356,12.3743889560781
"100",20.1613207412213,40.0987868815712,5.14421188817687,6.89043638621795,0.000694177777826726,0.0280478969804408,2.04225804156086,11.4115897961323
"101",20.1688400423158,38.5680128760004,5.15851360148286,6.69360060518906,0.00631098866389308,-0.00444778150509829,2.00073734705208,12.0382506757781
"102",19.3877329156635,39.419537430908,4.85166068307152,7.01311529365531,0.00900957484109161,-0.0891073211324409,1.75300331043356,11.1056025633321
"103",20.1252835793888,38.9112690142736,4.90901240675355,6.49369616627564,0.0321203520537587,0.0137156473916527,1.89287422856308,12.2259289539992
"104",20.0874324631039,39.463815428073,4.90847396207146,6.8703973388879,-0.132455138168556,0.0419510721690602,1.94300071974626,11.8099813796888
"105",19.8209007615633,39.8243789149896,4.90257280412994,6.83264891903972,0.00657615359242163,-0.0310360145145947,1.97745340179563,11.4639192785416
"106",20.5620327174621,40.3957569098201,5.32461574832896,6.88000496771301,-0.00642216284948096,-0.0363104952379228,2.00163480322125,11.9823746346014
"107",19.504147922632,39.8265420189574,4.89334093902574,7.1170045188197,-0.0137678595823988,0.0172479964010072,2.02331572189972,11.5984257117569
"108",20.6226231475527,39.4642845132772,5.18611569218453,6.84863852419395,-0.0173222475499798,0.0402174836450849,2.00830219050518,12.8254170262571
"109",20.0577514294461,40.4570024261376,4.9381892704006,7.15454431553846,-0.0192845985834557,0.00177760349763571,1.97193507585631,12.8840248722768
"110",20.4173678578747,39.4927675649497,4.93507226054694,6.99498729457518,-0.0581457373707347,-0.000317358324346954,1.9946835303617,12.6143862329901
"111",20.0257561509159,39.8793578285872,4.80079343756208,7.22488949537672,-0.0527531827015619,-0.0441738021891257,1.88732075359724,10.5470223739717
"112",19.8281743235376,40.433664678063,4.7081678443671,7.23585914894463,0.0915799683330408,-0.00871125688468612,1.90817540052092,10.9609551355526
"113",19.8074006585119,40.0699583017418,4.92853381640323,7.01044643849252,0.0991325011150054,-0.00711941495699292,1.9327184337351,11.6818652185044
"114",20.2925200226541,40.1163301454203,5.00779805210707,7.0349949481094,0.0638409935261926,0.00958740776249914,2.05520548942604,12.4780944157529
"115",19.8406110377844,39.7768166095621,5.08486800027191,7.12647072933415,-0.0406947980421184,-0.00226267428780454,2.11872856117457,11.8783535471807
"116",19.6495915821058,38.6429904430433,4.88510941779663,6.62207315792578,0.0807839681450429,-0.049027718608105,2.00216039792048,8.88342300758542
"117",19.6606273407706,39.8349917573413,4.95613340170489,6.71502487559275,-0.00620075435004767,0.0204533371136521,1.99745374322572,11.5509284658642
"118",19.9205965149543,40.3341123482344,4.82204349945564,6.85748123405631,0.0596750413260189,-0.050876503920688,1.90013694922839,11.162614802453
"119",20.1586220418754,39.3279207308078,4.93989097824474,6.81931486766403,-0.0397904768687615,-0.024229170294359,2.08787007613523,10.3157224994637
"120",20.4187841038548,40.2573899321525,5.29223443991804,6.89305077769106,-0.00335003738784401,0.00150091517468536,2.07331368844689,12.4572321057743
"121",19.7349954229753,40.3649337206641,5.15697631579058,7.36469421383768,0.000290116668415566,0.020536407707134,1.97779046702237,10.6912640572376
"122",20.121586007014,40.7872392836723,5.048672674266,6.94006547277971,0.0615588342539347,0.0406614799058472,2.06186900548651,11.5899334789471
"123",20.3717220129192,40.0228918589944,5.06495127917888,6.84656480240995,-0.0245575824690423,0.0107768961247489,2.27105928110224,12.8686319833875
"124",19.408017008291,39.7662882451946,4.73020199563517,6.81848398892747,0.0252491404297708,-0.0123117939503233,2.02955837771346,12.4444794730712
"125",20.1077097203377,40.1408974849892,5.15306442192998,7.21052435167504,0.00795294115426979,-0.0508887311907037,2.0819305719498,13.1077544789101
"126",20.0386909888624,40.9972989518224,5.02459156063792,6.95242223169298,0.00317358769921308,-0.0462031028057641,1.83334629988655,12.8603038331741
"127",19.8233905311007,39.7563896870543,5.02907658803119,6.91787737168632,0.019880300446001,-0.0580107735948378,2.04300515890037,12.4337027467478
"128",19.8619928050994,40.1111375054256,4.7877441085182,6.93116994283899,-0.0273515250617714,0.0487412082918086,2.04634822544962,11.505234695244
"129",19.8873621810764,39.8573947923183,4.92867887288841,6.87173022986476,-0.0508374686582517,0.00485551741528057,2.15977509323142,12.0841647853721
"130",20.074867226494,38.9571612242701,5.05814009246239,6.73889174962479,-0.000387464308424375,-0.00765730228388634,1.84762280176801,12.2265622796798
"131",19.9884332871048,39.5442523256039,5.11147631231603,7.2744327848584,0.0105553971162225,-0.00201084309620724,1.88836003892441,11.8281277558392
"132",19.9590854561595,40.4100973636359,4.93567616132655,7.25852486072758,0.00132694840619145,0.0371396035023423,2.2455216916604,11.2206941189803
"133",20.1462997355078,40.2023603294461,5.09483061789065,7.06871696871592,-0.0210247340981227,-0.00307073451166245,2.06074449559663,11.9179000059519
"134",20.1859778143142,40.3212970544132,4.75240028266009,7.27925809635803,-0.139299202683516,0.0163498196251337,1.90922690268987,12.2651371614193
"135",19.7096325394696,40.3147734574864,5.11814365824503,6.90038648595068,-0.0636826602619407,-0.0143250707502185,2.04869210519904,10.6909001522778
"136",19.9171767894565,39.5530181595901,5.37966858071286,7.01330373051697,-0.00501777784448622,-0.034262127840979,2.02968775275553,12.483705849476
"137",19.8800085927615,39.9914471202808,5.0672213907085,6.9053562459737,-0.0051057825762511,-0.041116194909004,2.07195287400829,10.9809962957784
"138",19.6667063043014,39.6157419216192,5.17234782937204,6.78107095767808,0.0270934295395573,0.00982831628969319,2.00171454429978,12.4269361906583
"139",20.5567925647101,40.3890798498121,5.34443848815915,7.12044371244666,0.0801890470724368,0.0178623040218646,1.95961376200751,12.4582683913836
"140",19.4541726056142,39.5023089802049,4.90118265725011,7.1039127934374,-0.0397722181546434,0.00880058866273232,2.00961394416951,12.2704545889692
"141",20.0329558269798,40.02059804048,4.78277553494647,6.77025334164488,0.0241067637392646,-0.0504229430090035,2.01375411649971,11.4480871292907
"142",19.6719496729717,39.8355759657669,4.91314571300415,7.14904233335788,0.00252748281917972,-0.00207242809905963,1.9824404190569,12.6182223487822
"143",20.3464458136048,38.9707120218627,5.0189110467622,6.938704575254,-0.0169161344302233,0.018452124473449,2.09107298470059,11.8473995560804
"144",19.6260070321987,39.6115611262857,4.9030489686964,7.18249490964696,-0.000395546540286626,-0.00080264721139815,1.97912870264105,10.7646932784191
"145",19.7109169085106,39.8627122550164,4.69584565404337,7.01288420294308,-0.0400313614315573,-0.0440778720665598,1.91778817331167,10.20747105483
"146",19.7833660752186,38.9935809198517,4.87429264823474,6.77992564177495,0.0198189451210284,-0.0247940405441879,1.97860795272087,12.1570615411752
"147",19.8307703299144,39.9534937377789,5.18124634558204,7.08635455459664,0.0417135823995012,0.0376917550726312,2.05064306677965,11.473749330424
"148",20.377709030125,39.8320775503371,5.14525868503798,6.9121300442132,-0.029792033315814,-0.0134427023080766,1.87581644551577,11.5952506899379
"149",19.9935933767138,39.9723142860674,4.89314079120537,7.02421890074808,0.0159712602432936,0.0283584495436316,1.9187344835388,12.0153099424369
"150",20.0485769616288,40.0964190716977,5.03623079671449,7.22796684261866,0.0133897837586725,-0.00347064834590409,2.03716194052119,11.8969384214324
"151",19.8683974016836,40.6843268800563,5.13315799908097,7.01533851082471,0.0229809021328541,-0.0228074504538073,1.96693689191851,13.0576556505076
"152",20.691141300576,40.1240347646592,5.1715749749442,7.13585514874162,0.0186933444842531,-0.0670714771040571,2.00335182473097,12.480020250716
"153",19.5425114217716,39.4458589119613,4.85161945466973,6.70297107694167,0.0456683453561892,-0.00438534819585312,2.11133801869273,12.3117356709079
"154",19.6959760292543,39.170472853897,4.88458363207685,6.95543305021526,-0.0560535434231915,-0.00368098818730551,1.88625688209607,11.8858548101793
"155",19.8718919163299,39.6402533703795,4.92254889977966,6.67575067552558,0.0530309325726839,-0.00012916321735965,1.9107628817074,12.6308622081341
"156",20.229597334313,39.5036289660246,5.18377752386245,6.77065019188886,0.0108453087806947,0.0200785847225438,2.07772634685603,12.4682143229178
"157",19.7186369065318,40.0086524686083,4.78970448634183,7.15021256431317,-0.0296403114857369,0.0326393400995862,2.05784518857696,12.5752176062568
"158",19.0620183990799,39.1593587096451,4.63518740044523,6.70866103568485,-0.0564639293523041,-0.00191620885788174,2.11192667475492,11.6246803350366
"159",20.0116872136835,38.8138516043656,4.87575136030449,6.84204267402631,-0.0017543056296498,-0.0609916183798453,1.98605204513657,11.797020204216
"160",20.0274960922959,40.0541826658818,4.74865558350565,7.11415386248391,0.0617899659286619,0.0414971834853022,1.96519111073846,13.3159919691795
"161",19.4502592486616,40.9469388085641,4.92348536454169,7.04926209156867,0.00692319340030662,0.02882294943483,2.02554582503507,12.2096337480725
"162",20.0822474961423,39.9772689532012,4.94447920070954,6.94498607744559,0.0875983000421177,0.0184541520693665,1.94259098982953,11.4015113874792
"163",20.0112398569616,39.7267538005632,4.97451223654841,7.00382849649663,-0.000397976259663353,0.0179479837953228,1.93142540877481,11.6656333477699
"164",19.5546467627701,40.5131934521468,4.8760551103448,7.10491768042189,0.020082312059906,0.00472156043107817,2.12383641538363,11.9630443490251
"165",19.6688089350041,39.3923758484669,4.80703465049202,6.75426258546138,-0.0743497524891898,-8.38736473120361e-05,1.91786749317548,12.0312259704461
"166",20.6311436148373,40.4012373155123,5.20664949205819,7.04530106560032,0.00494752074864604,-0.0195559162694231,2.13737826060057,10.9940904347838
"167",19.7430617398651,41.1128834627163,4.96717347969667,6.93014071156777,0.00466333271627209,0.00882727650010422,2.17699343441814,12.3044516190116
"168",19.6947022216144,40.0609483938378,4.88431475357299,6.76945940525422,0.0182585886907657,-0.0242712612797602,1.93614273338511,12.0963825483469
"169",20.1178040428634,41.2751126953932,5.18601986394561,6.82348038781127,0.0566082374709761,0.00895971893908324,2.13161346773693,12.5839576232359
"170",20.2590366040128,40.4088033125726,4.90628873115661,7.04192464979826,0.104725423380007,0.00982618225258819,2.04063091102104,12.4715565935599
"171",19.7494571561719,40.5890850667834,4.99904602326565,7.03124652813153,0.00934474566545719,0.0526229679846885,2.02929536577983,12.1879375819735
"172",20.1199815222179,39.944125482116,4.95489331899481,6.4879151079819,0.000592227886651682,0.0146471268772957,2.14947061900115,14.0534293995872
"173",19.8210721947905,39.6283691803503,4.92855475865858,7.02692106800975,-0.00042514776981906,-0.068423683794324,1.90712033035411,11.4935205378981
"174",20.1307904583946,39.7465884522338,5.11006010710109,6.94575800356593,0.00313217023822704,0.0166352144413537,2.10324770934001,11.5892788188878
"175",19.9524739586642,40.2189320466826,4.91845376208214,7.1305693721538,-0.0654009101679555,-0.0115621383525059,1.97991166302493,12.1636179142306
"176",19.6470651218958,39.8876765112095,4.87330680581726,7.01866639001824,0.063893759318828,0.0101968357645678,2.02431997039876,11.9324397150115
"177",20.3721195001185,40.061567678812,5.21311162003358,7.31371558197065,-0.0277972660876976,-0.0680714602537039,2.01583206475794,12.3742739231728
"178",20.00479967309,40.231914066273,4.97619174471587,7.19701137975682,-0.0254784555229059,-0.0609300979354751,2.04549075827516,12.2674138889589
"179",19.9481198357344,40.8006102749628,4.97413463185651,7.12036722496024,0.0722957733798048,-0.0366890708970774,1.85799470389563,11.2411752303168
"180",20.3418096685163,39.8857250158184,5.01830877352337,7.21856867162628,-0.148666741415202,0.00438558141966428,2.06934006510517,12.0191928671124
"181",20.5449229863364,41.102067867394,5.17309234665043,6.68036953284395,-0.0329630623775536,0.00230002697560273,2.02080306287975,12.9219086708263
"182",19.9811768154189,39.7805457346628,5.2179004918779,7.06338674989441,-0.0872707441787427,0.0470262610906067,2.13137717018282,11.4483345496334
"183",19.7269302098886,39.5153787222634,5.03231830894714,6.87717184876714,0.00590281604354154,0.0355610408254889,1.97448239337032,10.7619053063224
"184",19.5835646338088,40.7036221001542,4.95524912883493,7.04660876867394,0.0632462467012943,-0.0105528822889162,2.02957160466757,9.83302132228593
"185",19.8510719108547,39.7205934110238,4.89561735736374,7.23448327954852,-0.0823445394527301,-0.0014569332737587,2.08318849961241,11.894949099188
"186",20.0264995605986,40.873855417777,4.8850520135021,6.92941531127874,-0.00163916006445113,-0.0168631139114008,2.16094476258921,11.7232203524774
"187",19.5747619219712,40.30055275324,5.06106545150918,6.82185730663908,0.0272026064379924,0.00205130148558613,1.94878846943603,11.366805535166
"188",20.2743867873141,39.6992820976328,5.17324980569004,6.56243192480848,0.0549561983757906,0.000324899808351884,2.08381985759905,13.081928533204
"189",19.8570606035094,39.9490294284552,4.90118587409156,6.54730476188744,0.05094545892459,0.022409028366501,1.95014767015114,11.6567649785418
"190",19.6093015811006,39.1034445893631,4.91268613808996,6.97850403587439,0.0290575361254145,-0.0336445927063974,1.96277768972625,11.1899311227529
"191",19.860677232002,39.707916395372,5.19735489490185,7.01864885919117,0.0116549631137137,0.00674984755473117,2.02994333409538,12.510198813463
"192",19.759056790284,40.398900542872,4.77725343315784,7.07779313505731,0.0569804659360068,-0.0152997304721178,1.90502828925908,11.495617341814
"193",20.3283275530221,40.380073260843,5.33974964009012,7.00518272835224,-0.0515324219140494,0.024646260764962,1.97948404994748,11.342643287944
"194",19.2858265011488,39.510388770889,4.95830529448296,7.1225272129017,-0.00381862499704372,0.0260878189301907,1.98492130478533,12.1267820854069
"195",20.2237612801366,40.8193632404566,4.86043290242372,6.86627782169764,0.031202014732946,-0.022447071299544,2.03643444126829,10.9757125842264
"196",20.4022326036022,38.9112983215762,5.00524043638336,6.54966586688968,-0.0846312151651353,0.0265068328908057,1.95425646844941,12.3730900291238
"197",20.4695874262737,39.4869653157896,5.13076478402344,6.93441047934078,0.021012248446775,0.0322624564947998,2.08235781902588,11.8808772935067
"198",20.3966491922973,39.371277555816,5.11437928442563,6.79626658006406,0.0266467660327038,-0.0553010897660094,2.15511555311691,11.9670027551543
"199",20.3588432283898,39.3183927870135,5.24426830041397,6.79971905523111,0.0136911778719997,0.0310766177665519,1.91178013147657,11.2650457627361
"200",19.9763527462816,38.9242194354169,4.89455981228296,7.13219670606497,0.0326581236732188,-0.0196420839740173,1.91150040217443,11.5893935988704
"201",20.2274064640957,39.6831445776327,4.97720053492805,6.94138256307351,0.0402600457832267,-0.0356048677962648,2.0408631019578,13.9995112876565
"202",20.2576844052846,39.9537239473629,5.26083734419118,6.79869157889561,0.0485589565713261,0.0363821849110946,2.00052780734927,12.0772937455179
"203",20.6914825273608,39.7289312380368,5.16573366033115,6.93434177469824,-0.05256258823097,-0.00791641519209754,2.16095641729553,11.1747804214655
"204",19.9067370353684,39.8242627224499,4.93763584385428,6.88574007371848,0.0658987925561413,0.0306983295324093,2.01159565930414,12.3548881505968
"205",20.2172757003232,40.4410305817943,4.87021898489565,7.04751350034676,-0.0877609538997623,-0.0217227384040904,2.02433000240705,11.3865692128464
"206",19.8788765980148,39.2537361413554,5.14582563550001,6.9086383161102,-0.0168689189643793,-0.0121453427421593,2.04725021233309,11.7999838897833
"207",19.7891609544434,39.9856935398437,4.92598845532616,6.88641209089707,0.070364060811573,0.0107283926387998,1.97978060902617,12.4346069874744
"208",20.1293976168183,40.0857165543426,4.90051503883297,6.9150993209437,0.00776552205707595,-0.0287147576337516,1.91321489258436,12.9399505849254
"209",20.3398756210858,39.4368934743016,5.05641421967738,6.86333794304888,-0.0457047452518573,0.00462426230717357,2.17372938002565,11.560143961821
"210",20.1178162640403,39.2685686708546,5.18286724346368,6.97669676592321,-0.113960465210392,-0.0125092350838799,1.97557016815907,12.6690627837837
"211",19.7851096549983,39.9629132240415,4.91430301254843,7.05455554026206,-0.0760227260554213,-0.00364040953981726,1.91994885262778,12.6743424810804
"212",20.2342052300206,40.6090144744589,4.96556749025661,7.09826012446916,-0.0252237120091856,-0.0265774380086252,2.07737848669134,12.5657443001875
"213",20.0958520931888,40.5434540886158,5.0250549114696,6.95892289623313,-0.0147724664782537,-0.0388088955052295,1.9735126926767,11.7318207255212
"214",19.51280577566,39.5348438940503,4.94422907367794,6.89043693226768,0.00586596717444814,0.00780203928596376,1.93154008315455,11.1621715632738
"215",19.8060828530465,40.9031699257994,4.83582612404446,7.1909849738163,0.0741629874318859,-0.0278252494843972,2.0954041668407,11.5735825114243
"216",20.060735645121,39.5370449368728,4.94881126713395,6.95979999465065,-0.0816517441251656,-0.0156891091068921,1.86908110815429,11.3295308484455
"217",20.2794709164298,40.0740609916202,4.81955951788435,6.95728781710453,-0.0621654077570487,0.0309590303736575,1.94147317605493,11.7746298750883
"218",19.7519180585146,40.4585997105368,4.96641385854451,6.91152359049215,0.0558483907602352,0.033619745090117,1.73990538148195,11.3180499544114
"219",19.7191954678335,40.5120894329797,4.77310849221078,7.06442520379655,-0.0152442193141812,0.0294460705760011,2.04998693888765,12.85901967222
"220",19.8726720680784,40.8868165928692,5.03921115876852,6.86562441820652,-0.0833406621183028,0.0153575997574379,2.06408406387947,12.1175783830295
"221",19.665588279593,40.8859774022543,5.07902467273811,7.05253938676825,0.0777629819478256,0.026212585692399,1.91344508242203,12.202858651273
"222",19.9323419006542,40.3933168624535,5.24865156585815,7.06346159301887,-0.027395860301202,-0.0325008332578055,2.06827414096188,12.4292116014194
"223",19.8980502490727,39.9228648981991,5.05350321378329,6.71886898795422,-0.0055584995079106,0.0403483880547553,1.88918540674476,12.2059987785321
"224",19.9585705342009,40.1280201433937,4.99866112266142,7.14681486057545,-0.0366958722934864,-0.00655223171939156,1.93492481391908,12.9844523360413
"225",19.8757626726683,39.4180672009838,4.96136188106732,7.08203428956246,-0.0603973954670426,-0.00411918470701816,2.00485035447408,11.1910035783832
"226",19.9428390595118,40.0927255473974,4.94170475315409,7.18456237808933,-0.0191608410263743,-0.0142903374439751,2.02559083444525,11.8213984607389
"227",20.3872814401693,39.5091676240002,4.99456672691996,6.83315789962068,0.0138249534445179,-0.0606158872136002,2.13910532050084,12.9753198686475
"228",20.0086269378003,40.157097841674,4.92850239771886,6.82326697566123,-0.0187364578791381,0.0139597850837292,1.94159501761622,11.7642064176539
"229",20.0951562258739,40.4905778792059,5.36168955439395,7.3096918180538,-0.0227808262933405,-0.054646112999756,1.92190167034791,12.2999064333874
"230",20.4225452801108,39.6806862632204,5.25314249432089,6.6874110769473,-0.00390381596582493,-0.00629590533332385,1.99601147772345,12.4753420440579
"231",19.6700517252764,39.9975601150039,4.92283768932582,7.16579200239255,0.0452421590251315,0.0254615585825498,1.96016786157702,11.0338604519929
"232",20.2598543859079,39.6600153754379,4.97570587908032,6.842951373229,-0.0757947656869657,-0.0322746891242386,1.91404949934362,11.73939868865
"233",19.5564436631801,39.1206690057853,4.87505754746823,6.79069260192831,0.0448567953155149,0.0281294596029032,1.9754171393937,12.9549355684858
"234",20.496823134363,40.0765349481946,5.518931625099,6.98796604032521,0.0329632751970177,0.00472587369680274,2.00346738383697,12.9263942251168
"235",20.4352784886335,39.4014711489882,4.95039132192139,7.03770274023721,0.0405445807750693,-0.0201068548353941,2.03851588077959,12.3461319751854
"236",19.59001048385,40.4968730154786,4.7819235749336,7.03900740616021,-0.00826344214119896,-0.0152064322913989,1.97753860400944,11.2301878566667
"237",20.5357998649219,39.4982506578271,5.09652381126394,7.26536810266517,0.0456192885241687,-0.0337795088525165,1.88858669247596,13.1435859417878
"238",19.7929897501539,40.0598798955278,5.07476593675738,6.93940920896024,0.0222407446291904,-0.0149879655482866,2.12407141531508,11.7823742749017
"239",19.6311798951014,40.848257852889,4.94495176032672,7.08255806102713,-0.0279976142298109,0.00356902146040346,1.9210018633713,12.1138474957291
"240",19.9318238544404,40.8220359757571,4.82752906992031,7.41673962049111,0.01677929019286,-0.0457003026770928,1.91994573612549,11.1343303552004
"241",19.6658581595637,40.2147612650761,5.03260165300669,6.87182587564234,-0.0232616509456112,-0.0119827563330228,1.87660885972517,12.1263607399475
"242",19.9162239634615,39.3756647763215,4.79936018774363,7.2724135037633,-0.00390518623171762,-0.0236335180675614,1.9400899951865,11.5395603437273
"243",20.0735339897012,41.4189326465036,4.89997769067951,6.9374374595141,-0.0627642382878936,0.0231286713976691,2.07472813022032,11.724678419617
"244",19.7914581564488,40.1294367374259,5.02192677413685,7.43093461669643,0.000330786206559263,0.00743308731929231,2.04377383772222,12.2897373111452
"245",19.9199469318236,40.8644424204522,5.05867855326709,7.17490982083379,-0.0498275054474808,-0.0185381971100553,2.01940112360295,12.1905721996059
"246",20.0000027454589,40.4142740898287,4.87170167690274,6.71450886859272,0.160515626122486,-0.00160573320271133,2.09356217875758,12.0823845544886
"247",20.2037422001947,40.9777603284593,5.17414170703797,7.065134155283,0.000738858834581708,0.0368346740628751,1.95448201774656,11.4656353145875
"248",19.5109540512024,38.6335706539856,4.84326151448905,6.65546779335001,0.00180056831243149,0.0106838869788772,2.04923393612984,11.8872303537537
"249",19.7340169436507,39.1335933146857,4.91483446966898,6.78909997907775,-0.0134409036806868,-0.0220460934931808,2.02520807039504,10.7907437017293
"250",20.4564624532846,40.6204840395793,5.2459219509997,7.3933628790557,-0.0153817164123055,-0.000347020798761617,1.95035407481412,11.866723865813
