"","V1","V2","V3","V4","V5","V6","V7","V8"
"1",21.2501293000032,28.1511519390553,0.123148094682663,7.52676549446699,0.0486806201590843,0.0953021311520738,5.11004803955805,3.51147249799488
"2",21.7343020441458,40.7408470147373,6.56950448440809,6.55238757840867,0.198053009864221,-0.0408486381947847,2.45167343415334,12.0624239685986
"3",15.2987039018949,36.9674955965179,3.14087601789733,6.34564260583393,-0.355386316160727,0.123155609976497,1.89869670226865,10.8150803556094
"4",20.7272726007981,37.7610159276567,4.88278037703991,5.30574032847655,-0.130515414618735,-0.0132828332198753,2.14151672203312,19.0571533417248
"5",21.5199103915299,38.5830958983941,5.70569327485864,9.0247126507677,0.18556629708473,-0.130640615501046,1.73232686540671,8.84735916401059
"6",18.3994878048368,42.3604052536533,4.14868093012282,7.63973751417481,0.0796604526355157,-0.0692540883052649,1.76432197715094,13.8453589534186
"7",19.9866128695774,40.0083568801018,5.74025720200174,5.9980593419407,0.0629897974115973,-0.160846031717873,2.79017588155051,17.2501751132694
"8",20.5118178291754,41.1905505624124,5.69247158978646,6.10656164644665,-0.237620625608181,-0.0770934423206569,2.66016493833737,18.9453556749372
"9",18.1108369094672,41.7650413690955,4.9727577189017,8.42199651783075,1.00651718557887,0.0609357772434233,1.935057796716,12.3200606701788
"10",18.7216308107058,38.4395043237013,4.72693546324099,6.25991046095965,-0.251568674313801,-0.0267482456486618,1.46058985801553,14.3659372904612
"11",19.556904589992,41.4580782952652,5.15042663915436,7.52737568027374,-0.0216662722991282,-0.0346995203339575,2.16623193733697,12.7015193334928
"12",19.3032351460752,29.4325745045003,3.90490766797741,8.97679123947908,0.347476876832315,0.324471666663875,1.49192905200103,7.33085607114339
"13",12.7696236789521,27.1359643149878,1.95669790312662,7.19851419203586,-0.634181729145286,0.234041303578155,1.60673169754148,2.77341737851062
"14",20.2939180169226,41.6807007547628,5.20706740452693,6.0513616383783,-0.160186741235229,-0.0953345551624872,2.13478762213818,17.1162639968567
"15",18.3601382997299,34.368129815907,4.23817498956311,10.0298193806427,-0.157399947850685,0.163491496572112,1.99976706274445,5.00173035498242
"16",18.7183821865064,35.5922326003521,5.47636656598215,6.15109115514478,-0.0840151240800177,-0.13291038806784,1.6699658405407,11.599470110011
"17",18.7353621821717,36.4790299566492,4.72900880104046,6.79092156357707,-0.0549863555619428,0.0340512913247902,1.97856359170015,22.4038940197401
"18",21.075698906565,64.0295241869496,5.35916597767855,9.92563863104088,-0.0129955365464831,0.105888752486804,1.80458147947322,5.52849914125134
"19",19.480315700458,39.540318962075,5.07142427085143,7.24513015509491,-0.204018228205874,0.197580424897641,2.57722327409889,6.74449443604716
"20",31.4710716362947,33.0359461867355,6.63762949597464,7.87780022913196,-0.179546181457111,0.391336560187294,5.73379034626937,15.5813633103857
"21",19.9985906069628,39.9225583380852,5.40020309913692,7.67984849867826,-0.130162903992402,-0.0695505938719967,2.65756884956161,13.1419772304898
"22",19.954954887713,42.4070966875362,5.23438645143002,7.39006473367131,0.346703617846959,-0.096027323756285,2.69554197508153,20.4450195952535
"23",20.5074970143019,38.0075850878594,4.30663154932449,7.34594417200483,-0.451091026528177,-0.060409996050549,1.7924269277786,10.4411147309683
"24",18.7042249282384,37.6995912473181,4.45829616374179,6.02275104927762,-0.465156192931588,-0.113517588752691,2.31936415436657,14.9799919566202
"25",21.4258422670819,37.9233464960192,5.47056775687,6.13946537931023,0.126335796626467,-0.109033568953392,2.12649109451557,17.611229274677
"26",18.1863296129255,41.698040717933,5.22142984191079,7.3890643136969,-0.00713520405323589,0.0273675886344713,1.6357541794926,15.0193515684497
"27",17.1329106954559,39.9171405577041,3.4037986239182,5.86543587464581,0.0035678034908099,0.217474978050379,1.50611957933879,11.0043202977594
"28",21.4560337326736,41.1379986499479,5.59841879691475,7.60011109683161,0.577760144592825,-0.0156448533701166,2.59171010933108,7.98003024582576
"29",21.0394527985199,40.8885921222638,5.19870136430874,7.57251473230671,0.0975934885764235,-0.0432957986340262,2.58243320292589,22.0197300287155
"30",19.1410577493842,38.7079659104838,4.66284585956055,6.2158015444035,-1.6930149863556,0.00710529398903922,1.11760711186875,12.3911853807527
"31",21.3163281312884,42.7355225734202,3.88169346470352,6.33275068328603,-0.108490181570914,0.0236298084369662,2.65113157160712,10.9783784780553
"32",21.7973387801308,40.6968223673941,5.06905351407674,6.27153946956367,0.147197323089812,-0.196437016983786,2.5617250866233,19.4867594724238
"33",21.801445681617,38.005431323642,5.23008326580559,5.84975965519627,-0.176739802073762,-0.0531026607113306,2.08110859074078,10.3574697392793
"34",18.1611252281513,39.8897862299844,3.9779693607709,6.56822316437441,-0.128674743985697,-0.026367923571714,2.15218013018112,12.1391105124417
"35",19.0510357721261,41.5076539543072,5.29225613538436,7.63467781365393,-0.969878051119313,0.0495660856043569,1.55135337585662,8.8481531665322
"36",8.13216205930019,38.0592006912054,0.686965606473949,6.99795696096153,0.391434357768935,0.0808005333066782,2.4476717565895,4.13111674352556
"37",17.4773075330403,38.6756671864032,3.74257773293082,6.54413739790958,-0.141261509304914,-0.0112388478076306,1.99535021854103,8.1169828041785
"38",19.7777050192819,29.6587786192656,3.88896844414277,7.02074116286298,-1.26688049682857,0.815578490365741,38.5835321268463,3.23600896308438
"39",19.6827865829634,38.5923070605872,5.75738712440171,7.03268876077396,-0.226287097006494,-0.0273626164761402,2.51888964941625,9.52045096946461
"40",19.7357787377233,43.443333843737,4.73996894336426,6.71860612377879,-0.036705618101203,0.0580525530455431,1.87516332726645,9.54915504351345
"41",22.0389747565325,35.8507756201869,5.93759498688354,6.52533713819711,-0.108982662258633,0.213053137775768,1.83363910550971,9.50588604022941
"42",19.5289222654399,37.5689783734802,5.01933723679202,6.62160936360713,0.0977405059312524,-0.112561532155126,2.17759255770397,13.9618530553446
"43",19.8124212181202,33.3047070036015,4.38722194474149,5.26909832398127,-0.157287401483806,-0.183275018728845,1.70181740090856,13.727851094249
"44",21.7794123096026,43.8895184421555,5.20810621062729,5.45296991149494,-0.350609638162518,0.0530989033755254,1.7344108445891,26.5496563669357
"45",16.1236611035768,29.7982874004916,5.9503034074934,8.1433292408568,-0.434639730388071,0.293844997528442,9.52701275402584,3.44916448407509
"46",18.3536315650893,39.9751107195941,3.86403897248658,8.36641941887912,0.185849706582822,-0.169572450403278,1.82892032319159,14.6537924098484
"47",20.1515200064534,38.004838008384,5.02899112716062,6.33372304716254,-0.163796861349143,-0.0459771963630528,2.16077102016303,9.9015624581067
"48",19.3741168670067,38.8265134831196,4.42407293663844,7.00446182191483,0.203991034311739,-0.101229115859839,2.09301133545328,11.7911509627479
"49",20.5846146741947,36.2642629664168,5.75277846243435,7.12319422499202,-0.243230840256716,-0.0506105531220849,2.13009765738461,14.0750867661247
"50",18.1533076860989,36.9583515447945,4.31564162574232,6.16902400067419,0.240436630528125,-0.223496727423439,1.91863523565065,9.54937374487383
"51",18.2794471113986,39.93254349626,3.3930584853548,7.0265667246714,-0.173180088789574,0.0948553850234378,2.23344652603856,10.9635570531654
"52",22.6630261852042,37.3329309209067,6.17440246888536,6.96920655527283,-0.652307090024793,0.426590549818265,5.74651109556195,6.46732125751498
"53",19.7315855476468,43.469218437086,5.28421602122866,6.94524261583186,-0.270004331346232,-0.0833829010557988,1.83917801065537,8.49043139619891
"54",18.4683953095764,44.6061773664204,4.45097982842497,7.59960938803341,-0.111575241212889,-0.229322568583721,2.45610482849882,8.90423745308501
"55",16.5550921451599,41.447894884262,4.65207514385423,7.52991795786314,-0.374084834432297,0.0187804265701256,2.51334660695008,16.2107287864287
"56",18.1154183044544,48.0442253240676,4.3848293401915,7.92029398657518,0.143164543502819,0.563180763560904,2.13296609581155,14.770710924801
"57",17.8418741592171,37.8503951128956,3.68253395727438,6.54060956640821,-0.254357437239699,0.231214320172244,1.77460428158879,13.0643701231195
"58",17.0849107651783,41.508151121959,4.02849948339233,6.61468469452301,0.220242395251007,0.0499886537334852,3.11535632780639,12.9729656264777
"59",24.8258921301847,40.0421847994939,4.82027121505745,7.47221444773978,-0.232273175626409,-0.0437147083085214,3.02446041811183,12.770933293282
"60",20.1670275151239,39.0076466975181,5.26282137280497,6.88725633180983,0.258685127968414,0.117986632048422,2.3743788582201,8.34120768901268
"61",1084.64059340357,33.3687948205754,0.736895152235028,7.96675509259514,-0.0247277045331372,0.203799319436704,11.5102982002758,4.27807620985765
"62",19.5322847670673,30.1056985807213,5.04456426426554,5.60529328740225,-0.119567811776776,-0.00640059643649164,1.11932993754029,3.92793627098778
"63",45.737961107334,27.6799372278448,5.43821197687825,7.05882773729496,-0.169960178802261,0.0656810644332727,70.5499452554534,4.17243408759368
"64",18.9160525016389,38.6048359218563,4.83327445390339,5.19090141834923,-0.00505004725943436,0.316931768017551,2.48066678147607,13.8073577647819
"65",21.5850514776916,38.6615937533563,4.42736110016814,6.55235771369106,-0.240601999201439,0.0971857539360402,1.45780228830779,11.328618256736
"66",20.9764602937384,43.5705276705315,4.44326647677255,6.54826597782942,0.407499141450076,0.0449311603198107,1.80767865065512,14.9001897031953
"67",14.3214652274002,28.1635741085204,1.59900629625097,6.5366341054149,-0.213823718469493,0.229243852963211,17.061233178428,2.96721724349487
"68",19.0630794947646,44.5421261891002,4.56154068725497,6.05356646346207,-0.17482108777169,0.167164433994422,2.34123056951262,18.0501269037597
"69",19.3783330463805,24.733088158944,0.497371352455154,6.80755396947016,-0.785604966081044,0.115731519994097,13.6766560223195,3.32858814980355
"70",22.3622261852188,40.3486298335534,5.1957394479029,6.66720199020928,-0.218551234215297,-0.066625489078108,2.34135535288794,15.457364832384
"71",20.0452450127796,36.7219577662913,4.58780577173832,6.60005440434458,0.187223064751269,-0.0251597995101552,2.05359552610672,16.1793416163834
"72",16.3401499678451,26.7750270093488,2.7862810000704,7.0873592968101,0.0075861640416622,0.106241098554907,22.8613443178972,2.77404776854369
"73",18.3414857288202,37.3820066785044,3.92614910589629,6.51131838288047,0.286144250102019,0.0763031885550595,1.67935771207576,13.5483365280797
"74",16.8713270544256,39.3030132687823,4.36927565330744,5.63377055905151,-0.246444161695938,0.0695261083612752,1.96036849171667,8.1793230674709
"75",22.5970978123659,37.3150048424138,5.08747337901102,6.394017908788,0.318193428710222,-0.0677363276652906,2.94603476738108,12.7994158090539
"76",18.9554090920504,34.7142805440866,4.43316345005463,5.64253744655083,-0.65745107888843,-0.0259647860303126,1.9445855956311,12.2188662025743
"77",19.1373127302689,38.1293069487714,4.51891658745574,7.13591648211618,0.0906099577745745,-0.245346059093722,2.66335384086161,11.2554214330431
"78",19.0100789935167,39.7793376813292,4.60681761217433,6.09372863767447,-0.0884683314494035,0.0973211247079151,1.62397104797231,7.00703369871225
"79",20.5935519370351,39.2068005142688,5.40165994943479,8.74153018953727,-0.367022257053753,0.052064234676769,2.15414470749479,7.92324919383777
"80",17.5283186266253,41.9839688571105,3.84626118073488,7.21794562562714,0.0293109171164386,0.143011558508672,1.88360177308828,11.2280092365373
"81",20.0836748971173,41.5496644478823,5.06566576430712,7.3300773562995,0.413480239105225,-0.0850932265913277,1.95478454799059,7.74763305930915
"82",20.0992752963992,40.1009469406076,5.38979607394253,6.13862644380361,0.0940427242990184,-0.0874806344285662,1.77040788898992,10.7295109004161
"83",19.8221872807414,44.6886069312639,5.4466356525644,8.47392470060755,0.0363075443287154,0.0797673308048212,1.47796277467555,6.77524329649509
"84",20.074594018453,37.9408136808119,4.74236771808855,6.48543257785662,-0.101911688146099,0.128562257770544,2.24851352060471,11.7319944917694
"85",39.0331563844307,29.7448682480688,4.11341322879843,8.30881599818485,-0.337009005999303,0.143259402444724,107.57737101243,4.62013544343574
"86",34.3783379486881,17.909182466418,8.30499136384289,3.44297529482417,-0.0654020025487331,0.476546308355137,10.4939260419237,1.79126714881554
"87",15.5425703825824,38.3068497545313,3.52991786819921,7.84057870251652,0.565177364052264,0.0288731139324021,2.79520807538222,12.6459689394289
"88",19.064402238907,36.8330131494135,4.6769448461037,7.11845465153207,0.180941978094866,-0.0813839785314125,1.91171228102909,7.95406601370634
"89",22.1358132541091,40.3700036541171,5.75459787604317,6.75569523278318,0.049597920607018,-0.0170589272273103,2.11300287889998,11.4656571368787
"90",21.7323496732974,39.4007110364406,4.01479421741319,6.68343833445945,-0.324503686827546,0.0729204961459491,1.15411946112182,13.8928948063715
"91",20.1783137401639,38.8578255680726,4.64604138845072,6.29742261153044,-0.616816386679553,0.086021205533782,2.00999895442113,8.30207305519759
"92",18.2809120735514,39.4970642287787,3.7472829914205,6.68251170921498,1.10211665110112,-0.0219946876552102,1.74908122083536,12.7315309956715
"93",40.4424302329718,28.2113610394431,3.66144516912144,6.969709288674,-0.2520241243915,0.369995656830387,29.8952837335577,3.81334846516344
"94",21.2115398591903,40.6132678476928,5.13269841817739,7.33133575774298,0.000845541246804516,0.0371231660137173,1.98123111831124,9.67143739389224
"95",19.0038494837986,43.3840261246344,3.97027430121579,6.93945598276677,-0.409081157575939,-0.118791928875664,2.0877642838714,10.8555107981753
"96",19.2908365412928,39.9912357988263,5.36938443329181,5.96861842857103,0.166279510448453,0.189252959827453,1.82320289375921,11.396696291609
"97",19.2900578435321,40.6954502612033,5.77895397889555,7.11139328238756,0.339558739190525,0.0540583776348014,2.52479773846505,11.9714255823651
"98",19.6371801968957,37.271391956257,4.77019054548124,6.37424527686265,-0.122629632753,0.0967827620853873,1.92619064722757,16.0466571837343
"99",20.085353079962,39.7526674967252,4.28128336274833,4.83860342305266,0.0592996648536395,0.095858312132912,2.3868891969485,17.2519857429011
"100",16.7673385496792,42.6046391868754,3.77468986147449,7.19875277319127,-0.365694393967192,0.238322558456177,3.50045905293573,7.26071174036569
"101",19.9152442642204,38.5179130312281,3.97973779533428,5.39686104256474,1.10193450355784,0.0640901642605161,2.709225458442,16.9312531419149
"102",20.5960627038087,42.0735951479642,5.5936167585403,7.67066899527484,0.0351382178999207,-0.104035528476695,2.20024932309145,11.164979650107
"103",18.5676602945357,35.4423687350462,4.71521405961871,6.57775411404941,0.0293626013069845,-0.102787655934962,2.02594119252094,11.8316009573079
"104",19.893493289451,36.990441010425,3.90570197713472,7.00305360517734,-0.000693158921419176,0.139374929020937,1.63921002199722,10.0861332353931
"105",18.5158969074924,35.1511540896973,4.41613976188794,6.46262656788729,0.204216317882102,0.108779649621875,2.64147650193344,9.64791885611321
"106",20.6629986095487,36.0256997266128,4.15000485446213,6.31213421978618,-0.128550829827044,0.0273266804722142,1.89754592830539,14.3108891874902
"107",20.408518750341,42.1283715392926,4.99792864689894,7.17716536840879,-0.0934912915077668,0.027420494690912,2.04645356639759,13.3847353816515
"108",21.4483943606239,42.4010966861091,5.95899776905678,7.36789103636931,-0.135943084543615,-0.0216899568234872,1.98338932238036,12.721222127275
"109",17.1968793462205,39.3227940832248,3.53743224351179,5.26836417859672,-0.0413548739252576,0.0694711065879337,2.14914952253883,11.1240466896418
"110",18.5652473830373,35.4276444425849,4.71217310128899,5.35810979879394,-0.356845526986012,0.099513431472192,1.66339672323454,13.9186420328711
"111",88.8094093551738,25.210906941143,11.4389665751317,7.24517353318601,-0.21070017281865,-0.237470110120663,23.0669880814792,1.92951917018915
"112",20.6997165230142,40.4805680486111,4.51116221545152,5.71377080253476,0.27729056667557,-0.0108637705653828,2.62872190626461,12.9022255889355
"113",22.4967614163077,41.0348399764817,5.81380263654485,7.49220333424787,-0.0705971811132623,0.0424373397951379,2.30347216298835,14.3803471178868
"114",17.5569481577809,42.161889634072,3.13704206040833,7.27150178176962,-0.0654720155331947,0.133592418664683,2.61758049766646,11.4060876340237
"115",19.6957998944651,39.3286113446598,4.54582702337182,5.93301877393166,0.357475183003359,0.000637560342505347,2.17490207267738,13.9417831665865
"116",18.3608207201522,41.4617418634948,4.89073368097503,6.80236178790229,-0.398316789159974,-0.0807132518278394,2.61431395440175,11.2947910722722
"117",22.1125708604458,38.6852514374704,6.00178735781406,7.41998016131,-0.277078455301677,0.0812976532766552,3.27788120932816,12.0549436994037
"118",19.5871082406927,37.8981792957912,4.74036183074722,6.64422175695465,0.00545535085046834,-0.308160584532801,1.66617776570956,11.8890839695033
"119",18.3930634811438,37.9855737170243,5.50033643775902,6.51678424877627,-0.390860120528707,0.0107990968409509,3.60759486771154,13.1689064406962
"120",20.0151814127819,37.2396663544334,4.90050961618104,5.17776070884908,-0.290075871912044,0.25526739445664,2.06397014167044,16.9943187419081
"121",21.2367632241556,40.5467270296587,4.76787491137461,5.35515743344869,-0.1298810621675,0.0086825811035863,2.78117391863876,15.365512830802
"122",21.0466097021436,40.4028267223128,6.30353647632654,7.13754658870856,-0.0853100611896472,0.288530601848667,1.57951191804927,14.3073215201595
"123",22.8086645399115,39.3017469512929,5.33358088256413,6.35781494934515,0.236212464052815,0.00673675368477995,2.78776795463546,12.3570079892086
"124",3122.97862250755,29.9794360085301,1.00636066636909,7.97737322112607,-0.232580378037978,-0.0105048221036402,7.52193408481141,3.68628947768157
"125",19.1644640086585,44.6251106293843,4.72052125444327,6.11782830558171,-0.12859847609122,0.0817469429631497,1.61758057957513,6.9878899093702
"126",23.4520416085935,44.5742267805577,6.01235912319037,4.502372338193,0.0299436882835049,-0.0302760525850116,2.34696601943463,23.0917126513512
"127",17.575126908644,38.3338850847701,4.13609951293327,6.45519382242704,-0.0995100139903183,-0.0877049030695068,2.50697847043253,7.79220038272013
"128",16.8778766528939,36.7161034099811,3.86601708908139,6.77763806667723,0.0891912824064181,0.0103765036350776,1.79630928056135,6.17940427340507
"129",20.3039530067293,37.5158898685316,4.49134545413116,5.47398353156619,-0.63412493163745,0.376779107111742,2.05987068796329,16.0216991459906
"130",18.1041600946822,42.3080396088668,4.22559337961879,5.8317494999939,0.23769921149509,-0.155067876727142,2.19893356649142,11.3273627058334
"131",17.6663931199907,35.6792832585219,4.33061896395825,7.42167052070757,0.936048473596598,-0.109475910487123,1.82711978474054,9.98125159676075
"132",15.7163483602858,38.8048918510191,3.75043471913008,7.64268326064581,-1.94224532070009,0.159150213486006,2.9207257852122,8.93298056403028
"133",23.2727627643001,41.9908851380282,6.76743494394425,6.40533922929646,0.0493366720373758,-0.00235905249635664,2.35310343648373,9.67091877419703
"134",13.3313838786315,26.8969702446205,0.238898148099476,7.24345078474597,-0.509254482494511,0.0635020169742611,6.12491772673055,2.43292580119243
"135",19.7073344057769,40.2939739893414,4.46876060604875,7.05231225913737,0.132652416574253,0.360200697436097,2.37632219937452,8.649353371402
"136",21.009313165745,42.706017554936,5.06164406899255,7.73134882190994,-0.494834723158818,0.171763128933484,2.32387610384185,12.6012224737932
"137",18.0311203502632,36.6680535117996,4.03250228527889,6.39764583089591,-0.213718228674774,-0.230176756933734,1.84433349520771,5.6638794550829
"138",21.4432403173064,41.17225853762,5.05651677436926,6.98717917711548,-0.219150784661654,0.0894154651621028,1.9506043663087,10.4875219435177
"139",16.3632711606659,37.9781256436235,3.65360364329463,4.81714634403751,-0.0968336632216787,-0.0984164006973086,3.03815268917337,16.1307020610217
"140",19.5762411856286,33.643498795805,4.59042361919134,5.44696705517005,-0.165579562822636,-0.0222397857698529,2.22678946754225,7.11943700880684
"141",20.7035552001408,43.2668681767706,6.07805325263567,6.55083316580475,0.00972792048103157,-0.0384068532298192,2.30381885558752,13.5865542586573
"142",807453.796511107,36.0776236157627,142040.8844945,6.23882771093385,-0.290963060608638,0.698361089328718,6.17617636262886,16.7570408570515
"143",18.6041014930283,45.0997538093421,4.28141137046453,7.8904599110221,-0.0652699131235155,-0.218026239510823,2.21301272921507,10.0149047172099
"144",17.527987395748,40.1452786216283,3.94355745092167,6.33936586460867,-0.180471156567593,-0.0217783814744066,2.63185955122076,12.6078629947112
"145",21.6802087783464,37.4450180526299,4.21753425974194,7.36455100298192,0.311793331430805,-0.0430145888099757,1.82035091453029,12.8609676196307
"146",18.2579123444835,35.1038963652404,3.60953096594662,6.94948739371443,0.0263781604337166,0.0695584617312365,2.01044491498191,5.56268587908204
"147",18.6850897246843,43.0033356441976,4.66450821531857,6.57222456514728,0.114550225137386,-0.103803221338474,2.17037121493516,13.017687882491
"148",19.5926677707477,43.7959481837155,4.67142388981583,6.82442933856684,-0.0714623748065985,0.00735732580717369,2.36680925759675,11.0002940227426
"149",20.3589268450519,36.538998900364,4.66503336884655,9.57312411808337,-1.75652974003898,0.0583049361631871,1.3517553590261,10.7767084345946
"150",20.9855781380247,38.6380292961555,4.78153279008367,6.361835317545,-0.0353506889908479,-0.0954769661418419,2.33772103701664,10.8940354570009
"151",18.4224272749448,39.6340562722339,4.44649089529097,7.54994486981681,0.0525487344147867,0.0640558212011435,1.45280595521486,13.0754131937795
"152",22.0399187080481,37.7787069400117,5.52052529554208,6.79597578922108,0.0964296760295202,-0.150668152072818,2.21200280668581,10.0611822049449
"153",20.495166904902,38.6088420697447,5.24991750743501,6.52938869089886,-1.00924655227742,-0.00462207777885619,1.81112559461151,5.86245208305112
"154",18.1062965724296,43.5132224163933,4.71581494859806,7.62330648391185,-0.146166988359243,0.0637190712477475,2.92172328406413,10.2415159967376
"155",16.8265855011038,38.9725115122333,4.09308130489788,6.41965197658608,0.00867913302629043,-0.182204119407983,2.30378491265956,13.7540672477619
"156",16.5528889460902,38.8601717626363,4.16271651525116,6.07625834724078,-0.200620256816881,0.0426609608681537,2.05849612284811,23.8971552313856
"157",20.9873043098842,37.7154019508234,5.26620107088669,5.7766457200113,0.0445932810997159,-0.0641390928840817,2.61916570179968,13.9508233132466
"158",20.1392504858684,45.310304394067,4.93710051267259,6.72224094520134,-0.372454829808646,-0.133392100112776,1.8259230675978,13.2244016268626
"159",8.70295279086134,28.6726862703092,5.73787366760582,7.30200514479194,-0.23976070226698,0.10537476204413,5.97393312173944,3.40854277443289
"160",18.8854574102955,35.607939566755,4.50019172585564,4.50233140298966,0.0747246868910611,-0.217448894089783,1.95675907675044,9.92039654568275
"161",19.3818102020529,41.7256070808122,5.19794262099403,4.73701281391703,-0.071887933337548,-0.056895312487396,1.77487243051277,9.78418877646166
"162",19.290337861882,39.31375471032,4.05008907251115,6.8606337070308,0.319330019679974,0.0151463671747116,2.0765170501256,17.1645088939805
"163",20.7312105407293,40.3283477879289,4.75781085710212,7.30814788956853,-0.0602065443786303,0.104241751077988,2.58565724701796,14.7334994873244
"164",22.2280591836896,38.5677388215691,5.97178745687211,6.16996630085512,-0.0119957164078571,-0.0189360028116049,1.75757613820397,13.8972149148533
"165",17.041582521463,42.2267336792523,3.39032472971166,6.34289173799018,0.480223597802424,-0.136169227099551,2.18132537741221,14.0127195209568
"166",15.3215419014172,29.6682189604887,0.00299340798787028,9.76437158739089,-0.833725927566977,0.256522778345532,1717.63224652062,3.21622279080409
"167",19.2666802820226,34954.7577219669,4.40022808372635,7454.00923503524,-0.421815803836781,0.103324735875772,1.97104633584037,23.274155146373
"168",20.6842203100334,35.0933881202412,4.46651644985673,5.84589469488675,-0.217426869014137,0.0237595982964932,1.57463336866928,7.91028823751224
"169",45.867886577634,20.0933826103873,5.14710488236388,4.59261854136962,0.151515880205953,0.247770580413967,14.5414205498203,2.66866779577995
"170",19.9978806793812,44.9148886916695,4.16879735592355,7.34142792962867,-0.0722311514002428,-0.0325666612056112,2.78189176196249,15.1539523802026
"171",20.4822776167159,38.006188543231,4.24457783083928,8.36410841806696,0.746740339715141,0.0423123162578888,1.97860007829323,12.1892339931793
"172",21.3106058173891,43.4505161514054,4.55190614799749,6.2157401968792,0.199424362757913,-0.0247154436073433,2.20444963462315,14.206889926661
"173",18.830985275015,36.3589439746275,4.22693687280776,7.36159108534747,-0.685760551992607,0.0405902288750916,1.51671255857577,9.69925488623525
"174",22.6479538627293,21.9756290576838,8.08103462883227,3.33197629383846,-0.41468919915362,0.416380676809127,6.90377596976348,2.15531341187514
"175",18.7985192386376,40.1016038933092,5.30231089722891,6.39646008685976,0.3130261744237,0.00697386490579838,1.59266253883145,11.3617174099878
"176",20.3883450887206,40.7818194780376,4.66315163143152,5.82280859768189,0.11753656209491,-0.1823745315839,2.03423017630428,13.6850259670347
"177",19.0386620126142,42.1913115563466,4.52994546975701,7.3061968390289,0.260203578981219,-0.105137930133267,1.7216688481436,14.8496438631039
"178",19.3983500497521,43.9265524857509,5.00378690087047,7.49929815374157,0.184499486661764,0.301802385626064,1.798187874422,12.6958900425128
"179",15.3723631350217,38.1764832498446,3.38420241201922,6.81470910027519,0.0508499692962226,-0.0125351358044521,1.66858046969427,6.62661461179339
"180",26.4802502897508,18.4034362042734,8.29774404409604,4.08939622236912,-0.365061596912353,0.935426607102568,7.57065203698649,1.5951231272869
"181",20.1629571381839,41.4632544315147,5.72198447327561,7.90125684867118,0.0615991214226152,0.0507651391732949,1.52544793559051,9.23433362118041
"182",24.6999957192067,42.0819880956622,6.15248172799951,7.21616722423755,0.370848350963054,0.00503287852011255,3.38247335689127,10.8070333556076
"183",21.8186967849017,40.2740409067366,5.53989145980807,7.04102412835139,-0.355015297207316,-0.0460345731137122,1.79279437932276,5.74086663785722
"184",19.7969827649947,34.5250077800375,4.77517203497914,9.0748749243384,0.129384753325379,-0.0427731084421338,1.10989337339138,11.2143391130363
"185",19.7819454303349,43.168868594938,4.59721339849639,5.2328808966347,-0.054911032498613,-0.172567661862918,2.24254790901569,15.587124908959
"186",20.9002949312812,47.9071909569173,4.91085913554515,8.36324017285943,-0.342875251519399,-0.1817119246332,1.69450703322294,16.6071321231042
"187",20.040924609856,44.7966797874248,4.89277386296615,8.70276285817079,0.0188802911089503,0.0771368160896333,1.9431169473444,13.7779188736213
"188",22.2380319790853,41.2990971194562,6.58646949899965,7.84160394593757,-0.213938347435242,-0.0808765741214576,2.45259241484563,18.2575501544665
"189",20.8415366472428,40.2648602228154,5.20456924046776,7.62797412890245,-0.384288247469804,0.0755495576723689,1.72688899985901,11.9547949166998
"190",8.59305926367414,38.5141714358447,0.343307242947063,7.52030223700326,-0.263604926120582,0.0268288372728874,13.7254837008895,5.90196780774474
"191",18.6568487068586,41.60690292715,3.80845380416838,6.71724608451524,0.163059217493092,-0.0244860158389727,1.6469408692543,15.202011180421
"192",20.2635141854652,51.3064085880421,3.92852485173546,6.73671503049761,-0.21951689824001,0.00441807036067619,2.48501067791139,11.0096442951338
"193",21.0939589156688,44.3231680023444,5.94431790734014,6.54922045552597,0.00857866490977346,0.17288877945443,2.03975738925424,25.4524566010374
"194",19.0501973250167,39.6897096559421,4.93261404527809,7.66026188646026,-0.0943686624641608,0.087515125319612,1.82105615946142,11.2801587790472
"195",18.3485942982207,38.8775704280681,3.82675683884571,6.94181500449032,-0.331990463320658,0.0875315717048043,1.74855712252985,11.0320513826838
"196",18.5606210978191,35.9341230720203,3.66275608148213,6.94638588046026,-0.0777898425978243,-0.141517006531919,2.4650987877895,9.46973942020636
"197",17.8005455088841,38.9062573265353,4.66175536504824,5.69638633517923,0.0081359247846708,0.246862852766319,2.40621056893384,17.7962584283429
"198",19.3477532528208,44.2187499436155,4.18255338347333,6.62620991596852,0.0892808590837836,0.146654904854877,2.41863076565628,15.206609846673
"199",19.4750557557884,40.0297949935633,4.77753958279308,6.80588763893015,-0.119261765378627,0.331246806037021,1.90056067488642,5.47029462127058
"200",20.3764220631544,38.2018021057485,4.54289363031969,8.00405349886547,0.00197214966581005,0.169017681559499,1.95540533062797,8.52270003049815
"201",21.9905505963949,41.3766765750017,4.48253242714297,7.97360403618833,-0.164796805340037,-0.102786222940742,2.56346987570052,14.4853505325853
"202",20.2960713975072,35.3220161022093,4.8069616846985,6.49493637842225,-0.0133165578364514,0.00654372238023652,2.11838890092256,15.5153615832416
"203",19.4505566030865,40.8084501911834,5.10220589639462,6.2142594837066,0.293304785167478,0.200463625828733,2.35121793879012,12.4068416245369
"204",19.2100988364051,49.9976630385284,4.13829534127338,9.03601463150396,-0.483668573536544,-0.0273785989173586,2.15349831325066,20.5025849656846
"205",19.013320593106,32.6179350987532,5.7570918586254,7.79851627984862,-1.11593349848004,0.0904244598536538,21.7850859396336,4.15886989362451
"206",21.6106589615024,39.8786679181504,5.48726642877137,6.08455169959341,0.119167358300699,-0.135820908723184,2.40920553866074,10.0561186587423
"207",20.6239688044088,41.0475544109742,5.2734215224709,7.36995081733666,-0.40476421144653,0.186082921666409,2.35442392335225,11.5545105604611
"208",20.7245561962279,36.7548248558626,6.23393723545908,6.72190010655842,-0.0265797394379492,0.0911958692208911,2.2433380598366,13.7306037709396
"209",46.3290582176332,20.5577209544405,8.00242658808627,4.62031613649722,-0.0500093521365135,0.180798518730461,13.4032182721907,2.64806220214972
"210",18.2144463554785,37.3213602132691,4.42710442450235,5.86341677051041,0.264250178575208,0.0501707849531906,1.90663281201058,10.3429594622667
"211",20.2156827084627,40.7383014585762,4.29568425869786,7.23019669362522,-0.00391572691698767,-0.0127544833956126,2.15468416105737,11.0733485603153
"212",21.8543069178977,41.366555096609,5.50356296044571,6.35411896998135,-0.241510869118416,-0.158791058615807,2.07643887418099,12.7111179454617
"213",18.6031020297873,39.275192427189,4.43452568446798,6.11735799464162,-0.03300176904661,0.0345347773010631,3.20054837131622,14.2318174790146
"214",21.9995385259617,40.7759281628523,5.65582052505493,7.3188368188012,0.0470280617338092,-0.135033285444707,3.07234058460202,16.1483782902773
"215",23.3624280847101,41.5663350016195,5.23574983451442,7.40707630514381,0.534568285180695,-0.13664212930875,4.04816199555174,16.6864350815185
"216",20.9913727434112,37.9792166960896,5.39748904165187,7.8187372782716,0.0481303420372216,0.0388354837384615,2.17298825612167,13.3411831471288
"217",21.6803960325074,38.8703035440964,4.94589712806415,7.1425402331396,0.203173568244115,0.0775393472751431,1.72131964051343,12.3954665900464
"218",21.8476869350472,45.4419255580057,4.47428999595072,6.31202471009208,0.10627537417969,0.130893191280934,1.92771514256095,7.23946154625821
"219",21.0770885380555,50.5508687816374,5.91049850338013,8.94678437987879,-0.0862327551040596,0.0880832228833144,1.73084877292907,10.9752183986734
"220",14.8097143428114,34.2330882197757,3.70356235154448,6.70856649033926,-0.129958504347338,-0.232067993082042,2.44325894778427,2.90604530626515
"221",17.5328550249851,32.8009963427289,4.37920388436012,8.19104239248925,-0.635930493652621,0.0352506161690469,4.89757398470052,2.92998484928532
"222",21.0865164264701,41.0398882370997,5.52841308115638,8.9947249200215,-0.0303497907026335,-0.21557608345197,1.99074006909826,23.1397330970288
"223",21.6254356978774,37.8612312798067,4.74090563310465,6.56593051471593,0.057356047859562,-0.0899916250193383,2.50102750342695,12.7855650679871
"224",5.47863139721062,64.1571679237891,0.751344220963918,11.3392293222042,-0.609621257399599,0.0596034447750273,10.6868320075661,3.92931605605599
"225",19.3822331414861,41.5490707616704,4.16152810945564,7.38475123818012,0.133341343161716,0.0185293962651627,1.90557468638473,13.1167180406934
"226",20.4309216159856,39.1665631808231,4.90177060545526,7.05302948950084,0.542986062276409,-0.115498520607523,3.35066228796698,7.62502641912824
"227",19.3822666437447,40.1954414322299,3.70951303498579,6.96285779638797,-0.182596894877562,0.0645767509866195,1.85639621306866,9.80948111654568
"228",23.277629815201,38.4862291873163,5.60635584894804,6.75991329159414,0.230800762215843,-0.198380312779481,1.91204454741049,14.3885589435151
"229",21.4180842357349,31.8751596508084,5.30103633184123,6.9508462340946,-0.424522210632213,-0.0461023543537735,1.5642118788552,5.06009413062985
"230",59.7764717523498,20.7685412558546,5.61852884871704,4.78452391474771,-0.444156875038445,-0.318445844842798,24.7896384045823,1.87093513758053
"231",18.8721937435984,39.4696320695602,3.56918465737935,7.25619616050195,0.20324098726328,0.070700805887552,1.24885756249646,13.6748099689765
"232",19.715995991942,40.9561076858738,4.31442445194362,7.88333193501314,0.128558511559395,0.123662107243339,2.39444718176123,10.03865109348
"233",18.2195350746142,37.1985024779045,3.6627425856988,6.27933703231216,0.772399422867219,-0.117797154418725,1.54222140890597,7.68046937445902
"234",28.6442001342919,19.0546568574309,7.75215540516298,3.33209927449502,-0.227403632631659,0.412734729762886,10.0786692162505,1.26401077660597
"235",15.7709044184583,25.5842259849754,0.314961204575245,7.33220550364454,-1.72442861525119,0.0481700798466143,10.3407409340023,2.88270674849393
"236",12.3422752708634,31.5195364575194,0.440602122017101,8.10600894390426,0.590418787905661,0.070814464294329,3.03396242243838,2.55658284796203
"237",18.8512398648565,39.9854837096663,3.93162656089315,6.19311210005892,-0.152357182449612,-0.0511691661932153,2.70963533276823,13.8212204333186
"238",22.7077123138455,41.0730542501535,5.91775271138132,8.28562005960716,0.0681623084386219,0.105318871231369,1.86028585078767,13.9043813030121
"239",18.6014791217896,38.4151593626363,4.3695035105155,6.58260601194328,0.257118682090618,-0.0880799579452738,1.68503628462925,10.8374398910941
"240",18.1824893713652,39.4174121449368,3.84201888589343,6.33213989713465,-0.579157005585603,-0.0864388425211974,2.0264214350607,8.55843418675774
"241",19.4078109366932,38.309349555313,3.73429447678632,7.39621392666363,0.21356264053593,-0.0229733252103387,2.60500028811583,16.0921202741987
"242",20.305009268041,43.2475213420797,4.71963178187834,6.51391803143354,-0.384726638531328,0.166844301060294,2.75387881336607,9.11238999800882
"243",21.140154292369,38.9989442182248,5.40311556268153,5.06624668941741,0.0175559323031906,0.152183684218418,1.88381394695374,14.0469629269635
"244",30.7393287417885,22.985961328331,7.16350805150979,5.75719364781992,-0.178238492878658,0.10512994976641,7.50412889460285,1.26985729299506
"245",20.5869388495502,42.6223901432684,4.56517392738832,5.62771594871816,0.102081736177987,0.185336317696994,3.26835052569163,23.3396663057099
"246",16.2932583923425,38.1861775549248,3.6750310547142,6.65501138754142,0.360882711633251,-0.0354254500400317,1.52859160236143,18.2332148493946
"247",21.087340986857,41.6334644784447,5.31112308649267,6.68425552110797,-0.246265804197249,0.0568516193193335,1.76277086682848,11.406501518121
"248",19.6047024615769,39.932494895617,5.94769235338776,6.35882517024222,0.188817565586493,-0.00014376645430787,1.80434342370029,13.1222485556869
"249",17.3596223286877,40.7693333243731,3.55364764560311,7.59343649445673,0.534400458468007,-0.106401912985921,3.76017315301637,13.972853987644
"250",21.5082550276933,40.2891620105931,4.86993191307798,6.42401444287412,-0.0890896876683542,0.0799417101234129,2.04984613032681,14.18069381552
