"","V1","V2","V3","V4","V5","V6","V7","V8"
"1",19.9295315922148,40.5969066176338,5.02796579552563,6.8633002410589,-0.0291684623847098,0.0169361574371067,2.1768788505761,12.8812577885856
"2",19.6642906296808,40.1088321014411,5.09734318496121,6.98558514243231,0.00252066867660731,0.0104153324932976,1.91975391778199,13.5900217146593
"3",19.4313561278796,40.5234068610208,4.84297686479426,6.99743100858617,0.0191200038567628,-0.0101110258992704,2.12880157041327,11.7606295653417
"4",19.8849734951779,39.9907071226759,4.99001339010485,6.91069316873268,-0.0574862792865277,0.000723558508944499,2.0157589867675,12.1141489102423
"5",19.8756961380862,39.303615984983,4.95988901801428,7.08724386968115,-0.00110716088267339,-0.00532998079872996,2.01249506378704,10.9345364463835
"6",19.7163310302588,40.009671962543,4.84918101125204,7.03092465091909,0.0647145198301535,-0.0147560513130534,1.90870810487319,11.226417862475
"7",19.4138716143867,39.4317083643799,4.89558575608365,7.26738171368027,-0.0491799347807249,-0.00972111347013821,1.86558350285361,11.8831989379287
"8",20.1451741120758,40.0736564498383,5.18780656015747,7.06310503334109,-0.00992543898475618,0.0214888301177088,1.98054341129351,11.6476773798631
"9",19.5140397841532,40.7766908092112,4.75657373178729,7.18993219363989,0.0240557802614255,-0.0290105268789551,1.98156763356832,11.2367479164199
"10",20.6123966017,40.8583843024892,4.97534112660464,7.24260445360842,-0.0514181530901716,0.0619272934294159,1.84938331172987,11.3116735814984
"11",19.6117704533095,40.2456415679678,4.94403891241061,7.23078687647446,-0.00903134194043908,0.00802707250566414,1.91935976302559,11.2823618402025
"12",19.4952911659443,39.7758118332299,4.81902749861182,6.89512470392334,-0.0128665362765815,0.0247573343161815,2.00739842797329,11.8002611758115
"13",19.8053606198667,39.8486070919885,4.67968970475752,7.18076224038225,0.047156932292915,-0.0127370631635232,1.94031421926724,12.523336268104
"14",19.4869507583035,40.5150812297192,4.65950637411162,6.96555675962045,-0.089002700374573,0.00623275576264123,2.02524249325462,12.4073006921217
"15",20.1500154531338,39.8607571336663,5.06668754302286,6.92765048211833,0.137219485899612,0.00051710637739405,2.10074130908971,11.8564711170095
"16",20.1898245803762,39.492473964815,5.2227818112008,7.24010841127898,0.0577118407687766,0.0119213803020244,1.91849463369532,11.8436034190556
"17",20.3141615234688,39.6189922326793,5.08940630580287,6.90805811211336,0.0400724513742046,-0.0253689530571505,1.87646981302563,12.3503619727633
"18",19.9841718433472,38.7015908105599,5.01652298052408,6.73362937515499,0.0928799262226219,-0.0209158268155226,1.95564186936242,12.5208466194236
"19",19.7608293240751,40.3440446777659,4.75805201847033,7.34027299785522,-0.0263335919699254,0.025300234176257,1.94285144658199,11.0646246718212
"20",19.4563486399709,40.6599496846302,4.59755687576763,6.96280133049381,-0.0485794996846318,0.0289323417191388,2.06160748526683,11.6102230243835
"21",20.0930286959111,40.5954601821806,5.11939431165225,7.11843477994123,0.00889999373279841,0.0100412474665197,1.98946960559425,12.816661536235
"22",20.1786624146323,40.7771093777763,4.93604059974161,7.08224648742887,-0.0554448882804065,0.0139911974018729,1.96324808416882,12.5731692168553
"23",19.4914984625389,40.017954037529,5.19699396708774,7.2612666615871,0.0171131648446682,-0.0151021074823815,2.14106986411234,12.372673534381
"24",20.288478316056,39.6269919156142,5.20386354286508,7.08521536586323,-0.0379498072946046,0.0182299369524193,2.08177085106244,13.2800927803425
"25",19.883852516695,39.9981042505008,5.06788099331681,6.92356524943549,-0.000838006569182457,-0.0119227839879253,1.95532000506746,11.9728717175895
"26",19.829320836861,39.8196408991483,4.97284734790978,6.75989261839973,-0.045407143696804,-0.0745610715304478,1.96478410334339,11.5788502016821
"27",19.848168874765,39.6137730831342,5.02451089013816,6.87267312338265,0.0243812912684107,0.00693745349379197,2.10386229835142,11.4541350778819
"28",19.8139200141756,40.1206825472089,4.85108609789417,7.17443379489807,0.0281246557331877,-0.0263257513189144,1.93079254204852,12.050866163234
"29",19.6332632592549,41.1899373667741,4.73764470121066,7.19112894390154,0.0451202274228847,0.0119523130957071,1.99246757835503,12.3373430327604
"30",20.634515860089,39.4359345101358,5.4146358279666,7.02374998046883,0.00615138844866401,0.0117407447688485,2.12283526635252,11.3861072177887
"31",19.9436765531671,40.7091853206652,4.90050021037577,7.12627088718746,0.0434199886496519,-0.032165190964916,1.95617815928006,11.6762735881065
"32",20.4210202844004,39.5649082661932,5.25850815062885,7.07308981686337,0.000207325227937421,0.069243148181655,1.93508542280206,11.3579771396171
"33",20.101022632705,39.3988241572479,5.09078845332043,6.9474138685548,0.0869243393684639,0.0139185124351506,2.11737980448084,11.8086365694712
"34",19.5033313498484,40.1753902437514,4.79971417395496,7.07758872513593,-0.0603360679008581,0.00363940167033277,2.04891968224981,11.7623177456238
"35",19.8836298227144,39.394706389874,5.13048403544716,6.92421158064869,-0.00147481227693291,0.0322715013789447,1.93167496518998,11.9233206162803
"36",20.1183134627245,39.5278090303893,5.21161613340759,6.60212146680434,-0.0750960696794846,-0.0340309850169141,2.08397429744632,12.0849917140279
"37",20.4819294252815,38.9808706614109,5.04709830904478,6.88000080661973,0.0760167862501155,-0.0275367774452955,2.10500926219799,12.3664817900998
"38",20.0135611576817,39.5112299819632,5.26785622497773,6.79346758468007,-0.111587843621737,0.0243501595880074,2.08302008408939,11.5932791751766
"39",20.0534912755344,40.6728809848821,5.05080797032835,7.16352675896304,-0.0605317872139993,0.00372209861987617,1.96989062909279,10.9709107659619
"40",20.1107390107417,40.404755417945,5.07453223216804,7.33445357453156,0.0917581575387916,-0.0167800975742684,1.88654498969955,12.1823337520289
"41",19.8899214319221,41.2595714808242,5.04920147703223,7.19619812531036,0.00466471157441592,0.0177338569952173,2.14012658582167,11.7711832806939
"42",20.072522119717,40.0742923314779,4.90141175772637,7.16085135147263,-0.0326319074569265,-0.00445816948125454,2.06113212270281,11.9415756258545
"43",19.8071013849404,39.8565836651863,4.88268703833281,7.03466552355807,-0.0579123124417356,0.0174824723822325,2.06249965601362,11.4164913658774
"44",19.684445710434,40.3369679348882,4.88751279847314,7.18348312982857,0.0129379097920545,-0.0179484360562919,2.12636395668809,11.7866740977204
"45",19.9146728802474,40.4183436000539,5.01168920798238,7.22467180842606,0.0980779081001954,-0.0243020267213589,2.02207144719851,12.652087588587
"46",19.4846394717767,40.5147400931171,5.03945565444841,7.14717642092691,-0.0262073075829223,-0.0414936839754056,1.89679137064163,13.0676723959119
"47",19.5781381184193,39.1650430548643,4.83709591732141,7.0581404968718,-0.0400955770142188,0.00825843351059641,1.96753216244858,10.9820353445656
"48",19.8037165004073,40.4985603744371,4.89778776536819,6.95476902341962,-0.0222863917278888,0.00925558557931905,2.18895986752477,10.9702665840947
"49",19.9160268045171,39.6859320719157,5.22954906207141,7.06457226046818,0.0370746706930086,-0.009888715385107,2.01468135277953,12.1679364740835
"50",19.9251687744961,40.5295648134198,5.18553950941276,6.90687778701149,-0.0227396388294371,0.0146140210708026,2.05712483246028,12.0525182996505
"51",20.1374192746171,40.9255724923992,5.30171394066279,7.32995037725023,-0.00480659431432104,0.00991597262047519,1.97438471621603,11.6512576587712
"52",19.653840828922,39.7445110548524,4.87297861885677,7.31715072267523,-0.00557909940106291,0.0515618305767826,1.94765155723658,12.1011208975751
"53",20.8340323292266,39.5091003141564,5.3902238608795,6.76837168106719,0.0307425893750979,0.0061130451727617,2.09246724737755,11.1835578611246
"54",20.7304130257545,40.5750615555685,5.39574558203767,6.89200817883104,-0.00228686480426844,-0.0226639214559378,2.00109004605341,11.030475866065
"55",20.4704349636586,39.9631327620782,5.20303197933811,7.04618662548055,0.0396958185823962,-0.0182743340850192,2.0069355707627,11.6687646779157
"56",20.016766568282,39.1214581418377,4.93906533418875,7.08754067119115,-0.0459791349532576,-0.000832601605140056,2.0228949459035,11.8884606011181
"57",19.9362387659578,40.8974069714621,5.06644246061239,7.16775782450092,-0.00876642472526624,0.0282995765579848,2.03594749312254,12.1602674571475
"58",19.5145114709374,39.6934125232311,4.87218944234653,7.19901830855367,-0.0603547343127421,-0.0438555297822175,1.88741645786689,12.1228559008307
"59",20.1635277396831,39.8286490456225,4.97198300758596,7.07172364918433,-0.0498530323178615,0.0494567760982049,2.13101086237306,11.7626461499442
"60",20.0966592307667,39.1800756953409,4.91064098609745,7.12164275356439,-0.0507448573477696,0.0157478531365581,2.01132374693134,10.8340935395513
"61",20.2639911015855,39.1031894782108,5.12149785873822,6.69018690096889,-0.0194785613566592,-0.0301994391342862,2.09476588468552,12.3824946502668
"62",19.9343925353623,40.1043638768609,4.92593704454514,7.08654196253987,0.0206064406285871,-0.0649695962877785,1.96699914424248,11.5822164644569
"63",19.5500801260087,39.8710170906128,4.80730334616914,7.41588900522312,-0.0575904893998929,-0.0184183698485566,1.86914835565083,11.4394773923307
"64",20.4370127429412,40.7054317951285,5.32882895341184,6.77626781350454,-0.0176541365722266,0.019299159301383,2.01189771653527,11.6494271400068
"65",19.9653263043161,39.4103623675564,4.98213578718925,6.74570327344878,0.023424444763596,-0.0421284170585589,2.10715663996734,13.3590183745669
"66",19.9208787371126,40.3817350671069,5.13808136924607,7.13431302935466,-0.0715916278131373,0.038761574851524,1.98503200455678,12.4754367427575
"67",20.1104520262637,39.322618477713,5.05359736539587,7.20137673878385,-0.0485721482661972,-0.032293690652017,2.09159248661895,10.9525690264665
"68",20.2600646017113,40.4615334809805,5.13087660902599,7.08361023658695,0.0413638138196215,-0.00384140230695466,1.92924667105305,12.5550684275807
"69",20.4144841126392,40.0950505844837,5.30628776649205,6.96706486043764,-0.00272436938900392,-0.044859881339014,2.04657776946671,11.810808081931
"70",20.335657782668,39.757886874436,4.87188962580668,6.75577432181282,0.0377313674227277,0.00540177185762766,1.870727824707,11.4266001431099
"71",20.2081224310522,39.2499271000101,4.96522977017336,6.98406228574187,-0.0210796156837995,0.0184042579798837,2.08119176932971,12.5185633437447
"72",20.4372511168801,39.8197194276911,5.21326199848457,6.64620010381602,0.00647786763903676,-0.0433684586269994,2.02059937571744,12.8724000953497
"73",20.4284044728774,39.3669202449327,5.06777283733036,7.02049602013587,0.0263725709123957,-0.00638743560446405,1.93731148572782,12.634436725407
"74",19.4061980440188,40.9287567954183,4.58065599140637,7.24779375211982,0.0243439484268458,0.00906801807451549,1.99906488857096,12.7338053499687
"75",20.366550254574,40.6494285311149,5.00346616217407,7.28147730638271,-0.050604715527877,0.00284894710222951,1.93330810133485,12.9054009899511
"76",20.724421341693,40.6364434456513,5.13786546343924,7.01633769154148,-0.0196989089226694,0.00608881346968941,1.96706145515062,12.6649833696311
"77",20.1093911699111,39.0130209572716,5.07782360039573,7.06210649266655,-0.00881200095441551,-0.00166145310060106,2.03209147586889,12.065949319627
"78",20.3024710714052,40.3833038680344,5.04205094767298,6.7337399231092,0.0613195962796162,-0.018142165560263,1.871791782037,11.8808797103206
"79",19.7856802214664,40.4675557245053,5.00991922010771,7.12207201709649,-0.0555948605196088,-0.00532564940231981,2.06134452912206,12.9576161693727
"80",19.8297758495258,39.7735479576189,5.04236399715196,6.86225820844248,0.0375089213714225,0.034605355017964,2.10252117624219,11.9020666252594
"81",19.9902659101968,40.9816379195502,4.90974933619897,7.15230327146827,0.0101811184511537,-0.0329440529380214,2.08240615178764,11.1405249962863
"82",19.6406901210934,40.4147989212688,4.94920445911411,7.26195830886728,-0.0694599007519807,-0.0156180377279362,1.88844498532798,11.7873439742228
"83",20.5938697513952,39.3063044102828,5.223051737466,6.93910683319899,0.0227074397806253,0.00525853428739543,1.94742830622803,11.6070172136074
"84",19.6688541695277,39.2199949920574,4.88799108192933,6.85342530073453,-0.095087449424151,0.0455840363615491,2.05267895484,12.7224384839307
"85",18.9320330430376,39.4671832385549,4.38379374406726,6.74170127546332,-0.06012377325298,-0.0168375315232626,2.06251076259211,10.4023177684914
"86",20.053040282806,39.5619777553652,4.93683362666662,6.82463471687452,0.0184169780703847,0.0328980049665497,2.04891742750152,12.369025423907
"87",19.817313142388,39.3429437061188,5.06005462791823,7.07720849821444,-0.0242291843272329,-0.0233623016191005,1.97306348177808,12.2891479230547
"88",20.2709444296062,40.0966024554168,4.98610373016438,6.98095382921807,0.0456528231904612,-0.0277718739394006,1.84853578380956,12.4857290458088
"89",19.530414454921,38.7296007851676,4.7642771805057,6.681863224715,0.00752982963342506,0.0201967890806435,2.06675335175931,11.7505971145813
"90",19.4345189405999,41.1422134300809,4.80878477286267,7.13301941614569,-0.0078494506518942,-0.0262461010305928,1.98706869201153,11.6077072486027
"91",19.9037532623971,38.6842587441155,5.0104724476418,6.57166842419876,0.031951878860767,-0.0111912524948835,1.89058726815405,11.7721027967252
"92",20.511090710799,40.3204112266801,5.0014455587082,6.74837373600816,-0.0520803393652883,-0.0140390202748548,2.00794214420426,12.3945793721203
"93",19.750690699626,40.1588211577667,4.86734791145312,7.13416585393468,0.000963967425556621,-0.00378357559939476,1.9564689661147,11.7360622276119
"94",19.8011342452159,39.937458558354,4.76977679477108,7.11270140404855,-0.0292574285065096,0.0253710054469437,1.92771064432754,11.4886621937392
"95",19.6120948905198,39.8553610337721,4.9782746556067,7.17953509508799,-0.00312087052343076,0.0140656610018091,1.99587173988812,12.6158536304149
"96",19.8785115540911,40.0199505280017,5.13110875677321,7.23844317021242,0.0904320766091659,-0.0197176770388347,2.02083073932106,11.9913972510717
"97",20.1522651321512,40.4629164959149,5.1843257835543,7.05700919491602,0.0430722513612127,0.0630703105604526,2.08934661670039,12.0796235373436
"98",19.8189986966677,39.8540341048495,4.45790770294937,6.94274142319124,-0.0147162852536544,0.00621027394851642,1.92628366942945,11.3872093103338
"99",19.9805988355589,41.1616931633611,4.85111173832104,7.21657281573474,-0.047542780447483,-0.0233091769616909,2.00455118800721,11.9780589140173
"100",19.9688382133818,39.1961525844036,5.05605125688206,6.89403834078267,-0.0265257089244596,-0.00698755713620093,1.83264849726229,11.3643367185831
"101",20.2919295133362,39.5482491591272,5.10692863505482,7.12437911069907,0.0838668516817997,-0.0328410376197451,1.86740891194948,11.117663431184
"102",19.6277542504422,39.7489877783611,4.80040452380539,6.81064534973078,0.0749915959875571,-0.0152273914855304,1.96419181753443,11.7948141126752
"103",20.0195501224679,39.9038760664013,4.84424503698512,7.18791486410358,-0.00454280168868192,-0.000946913240028107,2.03929134201187,11.4356433482884
"104",19.5401925956817,40.0291648266994,4.7458729658987,7.02143169158078,-0.0285941467031034,0.0535307622719242,2.22137662850021,12.4954742523212
"105",20.3721598877547,39.4325928078797,5.13203490355837,6.97587800231438,0.0421818554354322,0.0285986929829302,1.9975510400055,12.8663006369072
"106",19.7450483428244,40.1486802331124,4.93123471095672,7.114547789998,-0.0216576338507091,-0.00846845391308184,2.08808448849171,12.5749315116544
"107",20.7112373880641,38.3991877247308,5.46451730057749,6.82072861835368,0.0197635076639571,-0.0441170715276177,2.01840749358707,12.0539652079627
"108",20.0807493272548,40.4253685521984,5.14132874761996,6.89974793039582,0.0193273483226338,-0.0590902352020018,1.95819533886341,11.6274845852724
"109",18.9460066833116,41.3899998592089,4.79849198445311,7.17601357583958,0.0866582063294448,-0.00819243070122744,2.03242401169228,11.6085969433355
"110",20.0609796218011,39.5218438512731,4.9336869360407,6.8047651995349,0.0353895106831315,0.00223903266783619,2.05740370075592,11.9632150716455
"111",19.3428446266018,39.874939007518,4.72062155212229,7.03847110950527,-0.0136573269484952,-0.0190582009242505,1.99257736733034,11.6383285679941
"112",20.1652097491267,39.5348574217625,5.30919880734572,6.77240921312407,-0.0228199465171104,-0.00855696401844221,2.06189200351392,11.3831080354751
"113",20.4645473646386,38.5513221096205,5.18309580506131,6.73580851661369,0.0117117347993977,-0.0237041303893041,1.94601017643741,11.4028595652767
"114",20.3361888042167,39.3463978276026,5.2001567812616,7.15183911306102,-0.0194075133039533,0.0124287919449093,1.92488944181508,12.0416539933675
"115",19.6359631224226,39.2029745545332,4.89902559608461,6.81465908296167,-0.106955950116091,0.026378492215889,1.92821847597475,11.9336857623938
"116",20.0620250195321,39.558742701906,5.04019670967261,6.70124173252081,0.0262466276525331,0.00953089422764693,1.96047114840484,11.8071811056182
"117",20.3635918364803,39.2041225611371,4.9720605961216,7.18168054703288,-0.0116286996560896,-0.0190477325268913,1.85404886071976,11.5340239308899
"118",19.943566576368,40.3530118999931,5.0707005186953,7.02774297673493,-0.0809000197132814,-0.0335749819936283,1.92809877552218,12.8857438482772
"119",19.8239593499531,38.788047196638,4.94269700993566,6.6592347203951,0.015139181790146,-0.00528170216625964,2.03944287171903,11.6776441866813
"120",19.3975968001655,40.4560755787916,4.71215798236577,6.89456085095395,-0.0188945199117975,0.0159135401913881,2.04954583463521,11.8952884696596
"121",19.1627082082139,39.1157613319415,4.55383860464258,6.74584242700106,-0.00227873877577256,-0.028534785631571,1.86721979866227,11.8854034840922
"122",19.9951028546923,39.3303647745213,5.03622809351076,6.72002372625257,-0.0401000178465309,-0.00162302145966025,2.21887126080738,11.5174028457039
"123",19.6573781241246,39.8494596837321,5.04181859191558,6.99393953478212,0.0212053931607593,-0.0230080080993565,2.07019397098341,11.8510935427927
"124",19.7256087925352,39.5343902489216,5.18624162771612,6.91099335416184,-0.0170835782315326,0.0243135528405116,2.07823358301734,12.5853819794197
"125",20.4211847083677,40.4994827027373,5.02246903156434,7.17643447688033,0.0360207110244997,0.00285744586033723,1.90364257116529,12.3934187248309
"126",19.6526384503286,39.4950007431902,4.78870159459002,7.13550693059607,-0.0771338151754656,0.0168690614244486,1.92418000925176,11.5826441788873
"127",19.7859640099809,39.4023115134019,4.71913504396376,6.9772244954098,-0.0229471006405608,0.00119262146232326,1.9559019900779,12.4192951292588
"128",20.0273473312579,39.3127447516444,5.08846419276176,6.61900424838328,-0.0119677848291497,-0.029479549981461,1.95590156628964,12.7926334086313
"129",19.7816270805084,39.918700355815,4.97717310764305,7.01068572160874,-0.116501053594056,0.0174785231717098,1.99872339344676,11.4363911737312
"130",19.6602537714159,39.8561869637513,4.94710364230204,6.80402401044505,0.0728751362489543,0.00506583796899007,2.12768599132707,11.7262475223734
"131",19.8451952200201,39.5276635287414,4.8981700843477,7.02143236064161,0.0115455968807551,-0.00142150908100468,1.9904136138005,13.0485464157612
"132",20.1773413165888,40.3350759469795,5.28472971741624,6.80356760355655,-0.0165068302044419,-0.0252766451617396,2.01604870150901,12.4962048008362
"133",19.314778938715,39.955529840114,4.8238007930541,6.92038137110856,-0.0332471646749311,-0.0214386898540005,2.10652040476585,12.0234699634137
"134",19.9604818977783,40.5531744656201,4.99489576169473,7.04857695104046,-0.00478615588830584,-0.00541303330212254,2.07249136114627,12.591547897125
"135",19.5330204714065,40.3699374527652,4.85248893298007,6.71642146026272,0.00483710712466752,0.0320418692862953,2.1039017680007,12.9068394400151
"136",20.3841839025169,39.9574262683269,5.11672749743826,6.86917611342461,0.0519627451837684,-0.00340807597745944,2.04938128328118,12.367593489148
"137",20.5743635410599,40.3624380200396,5.02561239374496,7.09620462901452,0.0233647849736105,-0.0125268638471947,2.05546052293779,13.1778478892053
"138",20.0839788583784,40.675194333041,5.1203192587257,6.99889085929559,0.0174206628746873,-0.0338521034073303,2.06050645403808,12.3480167610986
"139",20.2028757056401,40.0060725596526,5.11282414839819,6.90271787533024,-0.0599888807148661,0.0227919706992232,2.00826484670364,12.1720917389661
"140",20.5996305120419,39.5103439091904,5.15502017441927,6.89991278003514,0.0472889001851795,0.00491223931165856,2.06848669154604,11.3482773845243
"141",19.8538071962014,39.6226833471815,5.11625225053841,6.95141707122462,0.0658007544288871,0.00911650307090265,1.96830876484108,11.4572392818317
"142",19.2936312711062,39.0150741372298,4.82551759108608,6.62040392704566,-0.0133971763989957,0.0232797966401068,2.01522917117083,12.7798484561762
"143",20.2641152699211,38.589384838687,5.10222255561794,6.85529492908934,-0.0528987310124895,0.0447859235493227,1.88700891249968,12.3331592207137
"144",19.4312007718095,39.6247265352985,4.75704826819686,6.65125819642461,-0.0326102140668505,0.0234327255377369,1.89109535608826,12.2236148086763
"145",20.3672031379797,40.1774657897867,5.11462082364994,7.06599874820815,-0.0422562802052576,0.0592826154248889,2.12092284548969,11.0961302966705
"146",20.0825857192057,39.8824984084187,4.99856084831476,7.11973532312318,-0.109775793275402,0.0170558184136951,2.01291460018509,11.7501870889498
"147",20.1000956937341,38.6833658363285,4.88250758946137,7.03976318676992,-0.0710638020714567,0.0243459586102717,1.95864051417755,12.1069132133468
"148",20.2292880073875,41.8836292353962,5.26471274236662,7.24784597718308,0.110798611109538,-0.00945035380504516,1.93705977397203,11.5122571787632
"149",19.6399639950139,40.819779473799,4.91197322372957,7.40175987463424,0.00126850761748959,0.0229701698997997,2.01007557130306,11.7193851055211
"150",19.5362988104189,40.5886756129071,4.9842330184575,7.0106806999084,-0.0605389971670082,-0.0390443272528816,2.01975159876199,12.009340601607
"151",19.9400546922774,39.7225687061515,4.73856295926851,7.21559002566406,0.00476035254683451,0.0337855175478549,2.03124415969886,12.2534779034208
"152",20.0990164830051,40.1292756997508,4.99913418966063,6.80786437580087,0.00118717726332777,0.000720058680790498,2.05598084332137,12.4957058652683
"153",19.4613607699565,40.184389296601,5.03065283584583,6.69680627575646,0.00724801523233787,-0.00511586138205655,2.02425213781892,13.2615331234184
"154",20.0597858095704,40.9262162960888,4.92139498275423,7.26362477108959,-0.0503228442582201,0.00755017471917129,2.01060131793882,12.7190308289512
"155",20.1906044222791,39.4169844817966,5.06021868206454,6.74498648975191,0.059083626000476,0.0104519380294542,2.00532244055703,11.1365190426266
"156",20.0117766114507,40.4577912778083,5.14248648409467,7.34960225927765,0.0363925655984791,0.00311486032096279,1.96853944650274,11.4573986012248
"157",20.2414248522413,39.4782525089709,4.98627376274531,6.85138556147248,-0.0142560677981413,0.0164024013027691,2.03028863615572,11.8893378108883
"158",19.8004110083894,39.7195494946198,4.68295626901101,6.83213401290448,0.0997889440685392,0.0163551294029913,1.96366286301837,12.257074639042
"159",20.3627939292643,40.8268664585231,5.21701394695562,6.87337527056753,-0.0733316512221832,-0.0056811267753957,1.98041424742669,12.0617626138008
"160",20.0580559902065,40.1394999244113,5.02921369586159,7.09904673643108,0.102159728514206,-0.0417121252151746,1.95028321942891,11.2689274077613
"161",20.1619479044752,39.8922832029307,4.95970059689379,6.93884504141561,-0.0124096289702113,-0.0210653125398133,1.98247265932252,11.3859310682736
"162",19.6830297992875,39.890544488322,4.85786272208495,7.09330109353575,0.0278743353046304,0.00751831980160265,1.99204632368801,11.3776694285988
"163",19.5455517358042,40.3527771281001,4.74129002655759,6.83796259234245,0.026423824775281,0.026334017169182,1.92867528040197,12.3228065623982
"164",20.1547083297183,40.0875434651242,5.13697682805287,7.01856483379871,-0.12216319317659,-0.00450685232672572,1.92031523312564,13.1250976746844
"165",20.5181754898629,39.8118002948943,5.10418816083887,6.86555761512965,0.0344248138321662,0.0317442427732837,2.00644684350187,12.0991463025566
"166",20.4168489487684,39.7936207403209,5.19493006267959,7.02595179160952,0.034841394656902,0.0282774021836131,2.01999729879732,12.2775079406473
"167",19.9023241678998,40.5086458118384,5.0153148905614,7.07875771971332,-0.0632845240695157,0.0452442950834838,1.96555931848918,12.225616011739
"168",19.4053079752298,39.7445688927251,4.88458004884552,6.69111293035561,-0.108815745086308,-0.00582890854821194,1.94051339742682,11.527319370427
"169",19.8911735381465,39.7924441775869,4.92457349799061,7.03207369469257,0.012558115083415,0.0136907255804024,1.89532892996888,11.4289920723462
"170",20.1733219854555,39.2791529170627,4.86422158367273,6.77811073352401,0.00825935865504627,0.0249417018587558,1.92509168124272,10.9947749130416
"171",20.1829880599774,39.8986669051544,5.12399183528564,6.72599188953904,0.0390207880271673,-0.0361464779078716,1.98880638454349,12.4044546134347
"172",19.7142744023042,40.5244844036104,4.93484399848788,6.98363698123765,-0.0719777415128229,-0.0200307150730121,1.96165751841847,11.9967288107911
"173",20.3465374252484,40.8414121253919,5.09792059761225,7.08525469650429,-0.0345022444435637,-0.0342475828978975,2.13556177525142,12.0306838681127
"174",20.183680941357,39.6148340646528,5.05587678342868,7.17712900574354,0.0259232618616864,-0.00959227326043345,2.066687086744,12.2863884216108
"175",19.867198686448,40.3717871826105,5.04580263499105,7.09753779129688,-0.00440427329920576,-0.00516726389339209,2.05850179835661,11.6549524204802
"176",20.2178774726553,39.1868603829643,5.0224805614864,6.69685517612338,0.00309359755770937,0.0021982073538238,1.97786804479415,11.9123818457122
"177",19.6522637125574,39.663419613562,4.96748043015553,7.45311567763493,0.00205510588161794,0.000648905164177934,1.83461294371015,11.9878394325787
"178",20.1997003810637,40.1855970332336,4.86310596584372,7.05986431749433,0.0187957715014065,0.0304262821149921,1.94256716200584,11.7598666135532
"179",20.2645175181643,38.7035704444964,5.04486870180519,6.83279364589592,0.0393161726492016,0.0169014618588545,1.89784676933872,11.2823494623475
"180",19.8352134623709,40.6445776772438,4.91343936649931,7.06529134654083,0.00333348497085605,-0.00850063550464068,2.07609341938402,12.0396150581154
"181",19.5222530269018,39.7802804807607,4.97182853584952,6.71587861630329,-0.051975361416484,0.0104711907249162,1.89460002684596,11.9497413558712
"182",20.1486208328979,40.3495082071191,5.17332118813985,7.05115433244103,0.0022192056011561,-0.0195916694344271,2.00839422103798,11.6551854738434
"183",19.5243024211992,40.6838502996261,4.97408094337729,7.13427218029661,-0.0324900390030114,0.00170412664829293,2.09179190423357,12.6833598745384
"184",20.4394262254041,38.8684997603585,5.09310791310348,6.85629575533956,0.0783519810323102,-0.0116488429558993,1.97987686914149,11.0853145752831
"185",20.0354298242051,39.1300929882051,5.2389182803479,7.06551705395343,-0.0232677529909516,-0.0177802537501066,2.0367235606178,12.2330997358798
"186",19.9219091340075,39.8625661519002,4.98445892043663,7.21387616801887,0.0192250713445269,-0.0111644815979921,1.92755187565777,12.1059543393592
"187",19.3617555011248,40.0906930329025,4.59632965771555,6.8151407353761,0.0199431582742812,-0.0414350629840744,1.93997690941855,11.8399081202004
"188",20.040782018985,40.5682421043429,5.06322240561741,7.02184021250952,-0.0233340467728364,0.00903648750580395,1.98215380578409,11.4649701698576
"189",19.7842974484163,40.0185803502154,4.73796677791852,6.81039821567574,0.0473640952814266,-0.028099085996043,2.02221041284712,12.4241234162492
"190",20.2034992922462,40.9218126500969,5.14022511029476,7.31325942482673,0.0264437976787743,0.0129004734593348,2.01425046683115,12.0809002506728
"191",19.4207140162594,40.1894870024911,4.75258383627414,6.68982730170807,0.00483629976184348,0.018878190572493,2.02543647165698,12.4971554832152
"192",20.0218956842322,40.0022041714726,4.81441587853125,7.13115914485711,-0.0566295005046702,-0.00920501081432926,1.91079131243161,12.1955554194374
"193",19.6526940242561,39.5048447540389,4.85603617434968,7.10145236648179,-0.0419875193472499,0.00133500866438514,1.9793049991515,11.5238697970862
"194",19.9753268600295,40.3762060846007,5.1666931599756,6.73875795586107,-0.0600791603246126,0.037040486350346,1.86018199247053,12.050013917902
"195",20.0928514247242,40.7464039545657,4.91743359976401,7.1505214331997,0.0187941929493943,0.027262339797052,2.17247014540726,11.7419919744043
"196",19.3481235827223,39.8415533410393,4.82738568366212,7.17759028287194,-0.0557060486761274,-0.000235857263765267,2.00517437223732,11.5102264453282
"197",19.8817918651501,39.3796741627443,4.92881221857348,6.78884600958974,-0.045501321984592,-0.0241100120031572,2.05306472283134,11.8630032140367
"198",20.7210174434202,40.9614050764516,5.14465527123127,6.87033104438215,-0.00356567314780855,-0.00118684732717311,1.90292339273397,11.3224718557821
"199",19.6402218260057,39.6071416203292,4.93821675754111,6.98483295927241,0.0196474899249545,0.00695279529879527,1.85696711294528,11.4575175057501
"200",19.8293997961786,40.1219813290029,4.79485230178055,7.23983784277235,-0.00253916728130075,-0.00951970246609049,2.02036355909775,11.6931987067081
"201",20.3513103793429,39.6998970640416,5.03822516054788,6.85068591240436,0.0288226871454127,0.0131545461912098,1.97574175580385,11.1384434043458
"202",20.1329732190851,40.8435548483367,5.00028504638827,6.93057857409676,0.0397648713248565,0.0346308858586286,2.0120326062235,12.0397557827826
"203",19.8746328723007,39.5929104113571,4.86133537181826,7.17301201077178,0.0199270869982274,0.0103487465438516,1.97843110639151,11.3243868364433
"204",19.4145056173172,39.8915966277383,4.8986586521907,6.91915692236561,-0.00236577092785916,-0.0138656674922211,1.93830942718734,11.7566911233962
"205",19.2471908383228,39.4287993147348,4.61223429109454,6.5556567117285,-0.024445593101242,0.018820938876206,1.91516292263038,12.3156202210381
"206",20.4744661789098,40.0046799157705,5.19170570535665,7.22569630862765,-0.0458156867670044,-0.0120918013451333,2.10396375710667,11.1417942511265
"207",20.3188254927217,39.9132278506918,4.95402506373862,7.16616612941013,0.0440459999472433,-0.0197567030021255,1.91185848196623,11.9204217319552
"208",20.1597558963942,40.4628511650664,5.1111790203883,6.94965663572972,-0.0601830656625282,-0.0263806823807441,2.15410843654434,13.2022277243404
"209",20.3586066748393,40.6009541426301,4.86898527196846,7.19973333099723,-0.0568647084762884,0.0441615915946033,2.058059968407,11.7031981238843
"210",20.1184963477305,39.9253874371447,4.99600512028917,6.99566995938221,0.0417229165532193,-0.0329284452168668,2.073802799962,12.6360654723626
"211",19.9359847019822,40.54902654289,5.15036539125434,6.92303746919162,-0.0247763520565088,0.0421427242162848,2.08662006424014,11.9974660998646
"212",20.6156196075847,40.365333661399,5.14728733377759,7.04429620339259,-0.0607952862960089,0.020490620140657,1.92681350634783,11.5212746245263
"213",20.3586156468685,40.6584926405996,4.94472474163263,7.52009145668039,-0.0725124735653115,0.00951938873775694,2.08576197835439,11.6856928999384
"214",20.4667112985799,40.6620444752866,4.96261372533974,6.94924486049864,-0.0777189086621408,0.0248541870256408,2.01659489890365,12.3959632028895
"215",20.1717617468476,41.1594261647398,5.06502856203447,7.47529753599641,0.00137621188895087,0.0311602595888367,1.95009508091316,11.6835534766811
"216",20.6462843498297,39.7135094738837,5.25115001383693,6.80747071754293,-0.0198620532586854,0.00376428729129592,2.05426625106686,11.4961960073365
"217",19.5299025969975,39.6763757962344,4.66707720228814,6.99855810954677,0.102874724271004,-0.00355185270020157,1.89614485463733,11.9408256732588
"218",20.9407110455143,40.326399183803,5.26553634988852,6.85708716051778,0.0186395492135992,0.0324397630722273,1.99362194839972,12.3495184193012
"219",19.7979966346939,39.8406617048548,4.85207843809081,7.12705733198733,-0.0224812413574427,0.020789501712315,1.9551343574436,11.8168877789651
"220",19.9132652087462,39.5513451238865,4.98808273204444,6.84605092813741,0.0535429961404123,-0.0159210078121541,2.04840972708211,12.9443410957916
"221",20.1894947939456,39.2834827065942,5.05553223387203,6.77118889732068,0.0724873981304916,-0.00086405268702561,2.23637678773474,11.7106506336712
"222",20.5036987602975,40.1550131352347,5.12312307157996,6.80818338797627,0.0425890920300845,-0.0183672917884092,1.96066837499534,12.6807373148582
"223",20.2232088816841,39.3247502172941,5.0654209281525,6.74066932732754,-0.0406474066843989,-0.0297066048076249,1.95855096386764,12.5689861135231
"224",19.3795205913999,40.6545217448448,4.6375126944629,7.01195106826191,0.0570417452092808,0.0177780539618628,2.0809973592479,11.6064843045849
"225",20.0447391870524,41.0740337583924,5.08961975590762,7.26977029285926,0.0339483127570504,0.0268712970099208,2.05018613093491,11.2816241125234
"226",20.3009499920786,39.6337799330591,5.15151242508473,7.01676704402101,-0.0532632857469529,0.00308304654624587,2.04385585114974,11.825190292035
"227",19.5654840887489,39.8400044786179,5.00444479560375,7.11965477772205,0.110284363269556,-0.0408613729633074,1.95973628513382,13.200582124052
"228",20.1553419066366,40.8112469241441,5.17624795440073,7.25110827860995,0.0465701592650921,-0.013180714447472,2.10606056610957,12.3271189934522
"229",19.846615044487,40.116079362204,5.0822925456986,7.1303162393407,-0.00215070342354237,-0.0663828867121098,2.12203808296879,11.6280158503831
"230",19.9988315738825,39.2060072704445,5.1201808021849,6.83825660855278,0.110105157558947,-0.0442544692370104,2.11133482921477,12.4504432865379
"231",20.053707731227,40.5388369861029,4.97201700872395,7.07530885638062,0.0632072434527707,0.00381254564062629,2.00233572736797,13.1029410145187
"232",19.977295663873,40.8919024346746,5.12650444096319,7.29232724685359,0.00170929070790865,-0.00591467841877464,2.01755847120528,11.6946586811546
"233",20.4235649360966,38.9239744379747,5.18619646937337,6.88562547404753,0.0497917863926573,-0.00687927179818333,1.94014636697916,12.0646003102253
"234",19.9267311921642,40.1491146241622,4.82332268975891,6.83290733464117,0.0555545136571017,0.0287856278734461,1.94289932482062,11.7622303682122
"235",20.4026073273874,39.8006165667708,5.08779309545016,6.95529347917975,0.0245076477166989,-0.051400683158421,1.9826486526324,12.3980163236777
"236",20.7713262643736,39.1014902223554,5.36771988951213,6.74347017695007,0.026963068040758,-0.045528202927845,2.16864408236426,11.2482091656598
"237",20.2966210336952,39.6539124568173,5.19117051101226,6.73342354224127,0.0374865024840058,0.000238669372684549,2.17626007271725,12.2187906209456
"238",20.5564624691569,40.3574427290865,4.99088609051884,7.21873826334357,-0.0358176690451101,-0.00449231569448167,1.97952319505446,11.5114780012634
"239",19.7250480886109,40.1105114425558,5.04700205627978,7.14543130392292,-0.00307617021384243,0.0151975072102413,2.03394617906472,11.0649258001263
"240",20.4416433245736,40.4929907983202,5.11338810875388,6.82689945420702,-0.0108831041850242,0.00610197259647748,1.96332240199717,12.4317988046674
"241",20.1990489232783,38.6177581734171,5.10144314060224,6.79966025093503,0.044929829117028,0.0278286654293426,2.16646550207161,13.2293605941453
"242",19.9889428382257,40.6604952436493,4.98932992822809,6.99498163359397,0.00172972384703227,-0.00581131728470822,2.0199143551638,12.985723322319
"243",20.3178233367235,39.7306961331748,4.88640404763415,6.9053071697346,0.0726520920907986,-0.0188164738912048,1.86245709935707,11.988379225347
"244",19.7135887511427,40.7924501464036,4.7359341633797,7.04834801091386,0.0548928403775591,-0.0105844036989294,2.00305816053612,11.464076613997
"245",19.6510579284707,40.6578690045367,4.87569009873673,7.07290275495206,0.0944188998894794,-0.00457528535698417,2.09042877763253,12.2869606873357
"246",19.7033205553674,40.4544514911846,5.06757811351158,7.33642526232224,0.0149017985689212,-0.0278986037744578,2.00420206739882,12.5924913563015
"247",20.1786304008922,40.3999965181923,5.12684504412468,7.31634789371563,0.0117196964950677,0.0157700976994996,1.8560027580779,11.6805737663492
"248",20.6277440202922,40.2624635344242,5.2365245868082,7.22104486736748,0.0207149184671316,-0.0410160296744811,1.97626087950623,12.058166664852
"249",20.4844377624455,39.8653817399992,5.23154245866563,7.04372297725645,0.0188132725483823,0.0246319795207235,2.05886119227596,12.5248258666956
"250",20.284101789152,40.9602570796007,4.838662990606,7.32559267109759,0.021885527339283,0.0408102619088857,1.97477431775607,12.5618350352682
