"","x"
"1",-8458.95896509184
"2",-8478.52214282578
"3",-8519.01799222297
"4",-8587.91178085249
"5",-8558.85994279526
"6",-8524.5377054496
"7",-8569.56879683599
"8",-8589.31512365744
"9",-8633.96617089368
"10",-8466.5096118189
"11",-8416.57279982358
"12",-8543.34578024463
"13",-8550.96934241531
"14",-8610.98368770542
"15",-8579.1462732775
"16",-8492.8828290148
"17",-8443.50513808137
"18",-8484.10554727615
"19",-8506.79134958641
"20",-8435.83793226134
"21",-8585.25422109113
"22",-8618.34808676562
"23",-8471.51190603118
"24",-8576.54006167756
"25",-8483.9808271177
"26",-8605.66063564
"27",-8589.77464949689
"28",-8596.09760284594
"29",-8591.13079117949
"30",-8579.3957587982
"31",-8537.80003282739
"32",-8600.56123031566
"33",-8494.7560346315
"34",-8472.07707463383
"35",-8629.99932448995
"36",-8594.54477632213
"37",-8526.02944956795
"38",-8638.58936688921
"39",-8570.58517149461
"40",-8550.43875772611
"41",-8421.88802530672
"42",-8530.46177409126
"43",-8635.77989086822
"44",-8430.49728043439
"45",-8550.01035892293
"46",-8313.07846648777
"47",-8488.79020182776
"48",-8479.20674608516
"49",-8421.95188033167
"50",-8496.89418928786
"51",-8552.26904649545
"52",-8622.99800649186
"53",-8569.29129248227
"54",-8562.68104847628
"55",-8577.08533926052
"56",-8424.47395098084
"57",-8622.20004279543
"58",-8495.86017674107
"59",-8535.25871194153
"60",-8680.31657179963
"61",-8505.66938262427
"62",-8607.64794953559
"63",-8377.91467353947
"64",-8565.20082081427
"65",-8458.67221898282
"66",-8530.88752222318
"67",-8521.60140156522
"68",-8457.877947334
"69",-8441.27148973248
"70",-8650.0495175906
"71",-8635.76913756525
"72",-8505.18274020701
"73",-8502.19424512273
"74",-8409.95802029254
"75",-8487.40626662508
"76",-8455.55555825186
"77",-8390.28587372653
"78",-8544.04719129101
"79",-8520.06778185363
"80",-8447.47414817585
"81",-8541.66399713678
"82",-8614.24082489059
"83",-8358.05971906972
"84",-8562.33892246553
"85",-8496.98230905172
"86",-8580.73276742554
"87",-8477.76842700305
"88",-8482.16828440744
"89",-8479.36182690512
"90",-8465.40056013096
"91",-8650.21782363828
"92",-8599.28154273907
"93",-8540.99592382202
"94",-8486.73975687393
"95",-8440.55485930571
"96",-8494.79424228112
"97",-8705.9854952767
"98",-8589.3079501546
"99",-8604.87898417137
"100",-8498.49643108145
"101",-8420.90390205196
"102",-8428.90548366261
"103",-8489.58160541973
"104",-8459.86509228664
"105",-8493.36817306786
"106",-8527.57155882021
"107",-8582.68020847059
"108",-8596.53785440571
"109",-8497.71801666537
"110",-8558.3060656306
"111",-8396.82761737049
"112",-8529.12746402823
"113",-8541.80508465169
"114",-8518.1624059601
"115",-8465.88376120689
"116",-8480.99818810055
"117",-8548.10245492321
"118",-8419.07531657824
"119",-8383.86180234511
"120",-8611.32958067925
"121",-8350.8009302812
"122",-8574.48229626245
"123",-8432.3871564612
"124",-8455.35038398028
"125",-8532.56335713825
"126",-8603.82481364163
"127",-8519.53593162506
"128",-8595.8550872517
"129",-8518.12469020672
"130",-8555.00090522829
"131",-8561.06157906843
"132",-8508.90299174199
"133",-8565.819677159
"134",-8555.28275216761
"135",-8555.2890103718
"136",-8580.62176756447
"137",-8578.16371896857
"138",-8523.23123497016
"139",-8522.55663912725
"140",-8493.6195722672
"141",-8566.78291044173
"142",-8500.2441841294
"143",-8586.75854804468
"144",-8516.4795994399
"145",-8403.22409901867
"146",-8558.14854584459
"147",-8644.8886379905
"148",-8523.50720730597
"149",-8625.83565753989
"150",-8522.73862228062
"151",-8660.07011837838
"152",-8516.53572759491
"153",-8587.1938787893
"154",-8350.34311784007
"155",-8508.57408743161
"156",-8534.12016561508
"157",-8535.82054522024
"158",-8494.77321060222
"159",-8523.35578646896
"160",-8569.18584642674
"161",-8470.14012739114
"162",-8454.3596808014
"163",-8580.46529988234
"164",-8608.61461216556
"165",-8439.97727748337
"166",-8521.82726295516
"167",-8528.99286545109
"168",-8511.95152271263
"169",-8439.98420527284
"170",-8642.62166930837
"171",-8585.33475133146
"172",-8462.49343686407
"173",-8582.85646281416
"174",-8518.09150264752
"175",-8494.39064505249
"176",-8585.37625786465
"177",-8608.53439814512
"178",-8532.62751249144
"179",-8571.49804513162
"180",-8580.87606147608
"181",-8518.2778395951
"182",-8449.6304774363
"183",-8506.69328423308
"184",-8515.91674135006
"185",-8630.30932715943
"186",-8597.25665477314
"187",-8436.01160335274
"188",-8584.72912680122
"189",-8534.48366979908
"190",-8604.47310996997
"191",-8602.30318702913
"192",-8621.36239027922
"193",-8566.24559149455
"194",-8496.47982061889
"195",-8510.35567688381
"196",-8518.6638017622
"197",-8765.69753260485
"198",-8538.24027651094
"199",-8627.76442739845
"200",-8487.4256752726
"201",-8731.32504537879
"202",-8610.10680310749
"203",-8640.7717264028
"204",-8448.27231257893
"205",-8446.75351337091
"206",-8582.5306653681
"207",-8540.20581662812
"208",-8521.89122451947
"209",-8418.91954379666
"210",-8395.41991638825
"211",-8630.58800428199
"212",-8471.32424079652
"213",-8611.36633139684
"214",-8601.91394247962
"215",-8610.7706506321
"216",-8501.12159715351
"217",-8608.23245722908
"218",-8471.35132348443
"219",-8511.00730876487
"220",-8468.30235935255
"221",-8602.7242823212
"222",-8603.43583482208
"223",-8626.72876036085
"224",-8536.41877182963
"225",-8622.66205457635
"226",-8371.77265122564
"227",-8372.86046335933
"228",-8395.31872904093
"229",-8407.01257794394
"230",-8537.8222818166
"231",-8513.91355151306
"232",-8561.22627999229
"233",-8548.11076708539
"234",-8551.20698824799
"235",-8567.34996123986
"236",-8448.9046060854
"237",-8494.65442741354
"238",-8400.3079986961
"239",-8459.19359328008
"240",-8531.08499076283
"241",-8448.76747222564
"242",-8512.94219296323
"243",-8440.10547262183
"244",-8522.26477931089
"245",-8626.94120260022
"246",-8648.76711964989
"247",-8447.63724413349
"248",-8627.02688238666
"249",-8540.3800434119
"250",-8631.34373722231
