"","x"
"1",-4067.4086083376
"2",-4165.53761036019
"3",-4154.96347084394
"4",-4138.81533038124
"5",-4175.12008020176
"6",-4073.98276468363
"7",-4139.91864503681
"8",-4023.42713997301
"9",-4117.48602668141
"10",-4100.22697896867
"11",-4289.08800737899
"12",-4040.77042564754
"13",-4079.95098217124
"14",-4141.90333065471
"15",-4101.45120504323
"16",-4273.56829368664
"17",-4254.49831213003
"18",-4064.87473711333
"19",-4115.20833377779
"20",-4119.46527766339
"21",-4053.38179808393
"22",-4068.0569716298
"23",-4134.83911017666
"24",-4174.92638907409
"25",-4056.55096677597
"26",-4175.76897858207
"27",-4127.77278528996
"28",-3993.37892093956
"29",-4032.57530628507
"30",-4031.5833428258
"31",-4043.51186496954
"32",-4114.64676437169
"33",-4128.70348625637
"34",-4084.00285099349
"35",-4086.12135226849
"36",-4182.98066691406
"37",-4109.86655011149
"38",-4046.19840548451
"39",-4127.13261710353
"40",-4070.01544554018
"41",-4209.88374893918
"42",-4151.03337038814
"43",-4039.70357548259
"44",-4075.30443630493
"45",-4139.36018482459
"46",-4063.77444678009
"47",-4084.46992161892
"48",-4171.84070938664
"49",-4045.78579229503
"50",-4162.34783123894
"51",-4124.08518640698
"52",-4259.05753499686
"53",-4161.23741924889
"54",-4062.32643264892
"55",-4110.52224154054
"56",-4237.58661863745
"57",-4105.58642811852
"58",-4117.01467376468
"59",-4009.81524831058
"60",-4185.27078047072
"61",-4182.78942729948
"62",-4091.04717340638
"63",-4129.32344463713
"64",-4185.22165350398
"65",-4153.66606500413
"66",-4068.69082049666
"67",-4123.0617510264
"68",-4038.04161634294
"69",-4075.81309295257
"70",-4087.40025203411
"71",-4100.96119322952
"72",-4159.43076752464
"73",-4065.6342238849
"74",-4006.81543176017
"75",-4121.59337283264
"76",-4027.52689263264
"77",-4213.42653943579
"78",-4075.8102213376
"79",-4065.61391687369
"80",-4107.03850172357
"81",-4161.00724774142
"82",-4050.13881682611
"83",-4179.29708443086
"84",-4045.15178572797
"85",-4140.18754658512
"86",-4038.16325230035
"87",-4128.36115414711
"88",-4072.36178505255
"89",-4194.17094278191
"90",-4067.00794619364
"91",-4102.14874002587
"92",-4128.34681425125
"93",-4166.68124343186
"94",-4136.99963121059
"95",-4064.30783219263
"96",-4117.5519233328
"97",-4175.10576445639
"98",-4095.04130827728
"99",-4110.16606995859
"100",-4064.49637220958
"101",-4049.13418944626
"102",-4128.65615716306
"103",-4047.13471481537
"104",-4075.52754139724
"105",-4167.62585713457
"106",-4068.44406066613
"107",-4267.0248996018
"108",-4017.2019202269
"109",-4082.14583003133
"110",-4149.33050822948
"111",-4072.41491607804
"112",-4126.04101384055
"113",-4058.36205173829
"114",-4055.72750503594
"115",-4259.99273204053
"116",-4073.53398861931
"117",-4124.57253853609
"118",-4136.22210041917
"119",-4055.67713733084
"120",-4120.63074853673
"121",-4091.06679589367
"122",-4120.60127429961
"123",-4053.30938033708
"124",-4120.52157120246
"125",-4207.2734040464
"126",-4158.42919634029
"127",-4097.56988152496
"128",-4034.93558860401
"129",-4242.55050164577
"130",-4069.59212075243
"131",-4168.3964114752
"132",-4149.57765306591
"133",-4140.2753201468
"134",-4140.74807187073
"135",-4116.26280099422
"136",-4124.16074551857
"137",-4136.02763564878
"138",-4067.96582238199
"139",-4169.60287611682
"140",-4095.01514803182
"141",-4145.01915327744
"142",-4101.09575823279
"143",-4103.29307155705
"144",-4170.01469346409
"145",-4209.56235913525
"146",-4197.16655861073
"147",-4051.26019627104
"148",-4082.61187583131
"149",-4040.45071792809
"150",-4123.85045090824
"151",-4309.40804568491
"152",-4066.06418628148
"153",-4033.83306015143
"154",-4288.61517478538
"155",-4187.40245036112
"156",-4180.04118570138
"157",-4067.9894091123
"158",-4143.98002736894
"159",-4057.30951862484
"160",-4165.10268799928
"161",-4076.11085998957
"162",-3994.90610523624
"163",-4068.02705352689
"164",-4095.06815077538
"165",-4082.36415674919
"166",-4012.02530625545
"167",-4115.27059094414
"168",-4235.42319557444
"169",-4114.43685197076
"170",-4099.35416995241
"171",-4132.263890612
"172",-4104.16338065071
"173",-4068.32745950271
"174",-4070.29378837353
"175",-4060.08960824976
"176",-4060.8863494022
"177",-4068.62480495174
"178",-4151.34460247571
"179",-4247.46957044798
"180",-4117.09611304065
"181",-4109.01935717139
"182",-4160.19408140787
"183",-4308.29825043515
"184",-4147.27670949878
"185",-4140.72701051946
"186",-4136.2148781351
"187",-4130.54139825787
"188",-4040.72700146911
"189",-4110.41124016787
"190",-4015.77325132349
"191",-4106.49725151597
"192",-4061.59338842975
"193",-4066.11054163104
"194",-4080.66405875147
"195",-4196.51665523919
"196",-4178.91995080073
"197",-4115.13324167252
"198",-4097.62445348711
"199",-4097.64751030794
"200",-4137.78486842646
"201",-4113.94884557899
"202",-4083.75791703308
"203",-4120.9950943609
"204",-4077.7663629239
"205",-4045.91727741118
"206",-4163.01421294349
"207",-4107.12659435514
"208",-4062.21370527445
"209",-4086.16106587605
"210",-4179.75037906757
"211",-4075.9644811965
"212",-4022.69164329247
"213",-4195.9571390421
"214",-4057.46393349084
"215",-4172.44711596852
"216",-4016.04440863968
"217",-4067.58596937021
"218",-4133.09708962505
"219",-4124.72436086526
"220",-4169.48701924322
"221",-4186.23758063392
"222",-4083.04217416272
"223",-4013.27535257928
"224",-4104.19494901999
"225",-4121.25847191537
"226",-4221.18873950916
"227",-4177.56351240282
"228",-4140.85287391222
"229",-4069.04834077548
"230",-4031.50139406556
"231",-4023.06583430716
"232",-4070.40838597454
"233",-4124.07510142384
"234",-4113.59873854785
"235",-4116.17649482536
"236",-4134.10060060366
"237",-4174.95481815505
"238",-4212.46647683951
"239",-4098.13291507079
"240",-4067.79048558806
"241",-4123.24703373255
"242",-4031.41661331545
"243",-4153.92645398192
"244",-4135.87375734681
"245",-4177.2469795913
"246",-4072.55719149995
"247",-4161.62761027545
"248",-4103.9310497134
"249",-4205.92395095368
"250",-4082.31984881251
