"","V1","V2","V3","V4","V5","V6","V7","V8"
"1",0,0.02,0.026,0.001,0,0,0,0.001
"2",0.004,0.004,0.001,0.002,0.071,0.002,0.008,0.001
"3",0.002,0.014,0.031,0.004,0.009,0.003,0.001,0.002
"4",0,0.001,0.001,0.005,0.002,0.004,0.036,0.022
"5",0.005,0.043,0.001,0.002,0.045,0.002,0.05,0
"6",0.002,0.008,0.001,0.008,0.085,0.044,0.008,0.002
"7",0,0.04,0,0,0.01,0.073,0,0.013
"8",0.029,0.008,0,0,0.002,0.038,0.002,0.014
"9",0.024,0.019,0.001,0.027,0.055,0.055,0,0.003
"10",0.034,0.001,0,0.001,0.015,0.012,0.001,0.044
"11",0.028,0,0,0,0.035,0.001,0,0
"12",0.003,0.032,0.003,0.013,0,0.001,0.036,0.025
"13",0,0.001,0.004,0.002,0.044,0,0,0.048
"14",0,0,0,0,0,0,0,0
"15",0,0,0,0.005,0.002,0.002,0.001,0
"16",0.034,0.008,0.002,0.003,0.013,0.004,0.008,0.039
"17",0,0.001,0.001,0.001,0,0,0,0
"18",0.003,0.024,0.036,0.006,0.004,0.07,0.003,0.001
"19",0.017,0,0.003,0.005,0,0,0,0
"20",0.003,0.01,0.009,0.006,0.004,0.011,0.004,0.012
"21",0.018,0.007,0.041,0.001,0.011,0.007,0.002,0.002
"22",0.001,0.022,0.001,0.015,0.028,0.069,0.004,0.003
"23",0.008,0.03,0.002,0.001,0.006,0.002,0.021,0.028
"24",0,0.027,0.003,0.001,0.053,0.001,0.015,0.008
"25",0.003,0.028,0.004,0.005,0.004,0.01,0.002,0.055
"26",0.009,0.009,0.001,0.015,0.004,0.003,0.001,0.001
"27",0.013,0.013,0.009,0.018,0.002,0.011,0.002,0.012
"28",0.002,0.001,0.001,0,0.005,0.002,0,0.003
"29",0.003,0.001,0,0,0.001,0.001,0.038,0.001
"30",0.001,0.014,0.03,0.002,0.004,0.013,0.021,0.001
"31",0.037,0.001,0.002,0.025,0,0.048,0,0.089
"32",0.005,0.025,0.003,0.02,0.035,0.001,0.012,0.004
"33",0.007,0.025,0.001,0.001,0.004,0.018,0.002,0.001
"34",0,0.036,0,0.02,0.009,0.001,0.029,0.001
"35",0.025,0,0,0,0,0.001,0,0.002
"36",0.019,0.001,0.001,0.001,0.001,0.037,0.001,0.007
"37",0.002,0.003,0.015,0.039,0.001,0.001,0.001,0
"38",0.002,0,0.003,0,0.002,0.003,0.011,0.049
"39",0,0.001,0.001,0.027,0.003,0.03,0.002,0.03
"40",0.019,0.003,0.031,0.002,0.007,0.024,0.004,0.03
"41",0.002,0.001,0.002,0.018,0.05,0.063,0.001,0.004
"42",0.001,0,0.022,0.015,0.001,0.01,0,0.002
"43",0.014,0.001,0.024,0.001,0.003,0.005,0.002,0.005
"44",0,0.001,0.005,0.022,0.075,0.004,0.022,0.001
"45",0,0.001,0.002,0,0.001,0.009,0,0.066
"46",0,0.001,0.001,0.001,0.001,0.023,0.011,0.001
"47",0.022,0.004,0,0,0.062,0.011,0.001,0.026
"48",0.022,0.006,0.002,0.005,0.007,0.002,0,0.003
"49",0.003,0.004,0.012,0.001,0.003,0,0.002,0
"50",0.002,0.021,0.024,0.001,0.004,0.003,0.001,0.013
"51",0,0.028,0,0.024,0.001,0.003,0.012,0
"52",0,0,0,0,0,0,0,0
"53",0.018,0,0.001,0.002,0.003,0.037,0.018,0.007
"54",0.009,0.008,0.012,0.042,0.001,0.014,0.001,0.033
"55",0.035,0.001,0.012,0.001,0.007,0.003,0.001,0.014
"56",0.017,0,0,0,0.001,0.001,0.001,0.02
"57",0,0,0.002,0.054,0.001,0.001,0.007,0.006
"58",0,0,0.001,0.002,0,0.009,0,0
"59",0.001,0,0,0,0.056,0.033,0.049,0.001
"60",0.015,0.038,0.003,0,0.001,0.001,0.005,0.059
"61",0.001,0.021,0.002,0.001,0.005,0.011,0.003,0.001
"62",0.039,0.004,0.003,0.046,0.008,0.01,0.01,0.015
"63",0.001,0,0,0.001,0.001,0.001,0.001,0.001
"64",0,0.004,0.001,0,0.006,0.003,0.002,0.003
"65",0.002,0.014,0.002,0.001,0.068,0,0.001,0.001
"66",0.006,0.004,0.013,0.005,0.007,0.005,0.029,0.014
"67",0.018,0.002,0,0.004,0.001,0,0.056,0.002
"68",0,0,0,0.028,0.001,0.055,0,0
"69",0.002,0.004,0,0.001,0.005,0.06,0,0.006
"70",0,0.022,0,0,0,0,0,0
"71",0.002,0.008,0.002,0.001,0.099,0.012,0.009,0.01
"72",0,0.001,0.004,0.02,0.086,0.032,0.001,0.007
"73",0.025,0,0.034,0.001,0.1,0.004,0.001,0.001
"74",0.005,0.002,0.002,0.002,0.005,0.057,0.001,0.003
"75",0.026,0.001,0.001,0.019,0.005,0.024,0.001,0.006
"76",0,0,0,0,0,0,0,0
"77",0.001,0.022,0,0.002,0.066,0.015,0.046,0.001
"78",0.003,0.022,0.002,0.001,0.066,0.004,0.001,0.022
"79",0.001,0.034,0.017,0.004,0.056,0.006,0.001,0.042
"80",0.001,0.019,0.002,0,0.002,0.032,0.006,0.011
"81",0.001,0.001,0.001,0.003,0.005,0.003,0.009,0.026
"82",0.015,0.036,0.005,0,0.005,0.002,0.002,0.005
"83",0.002,0.018,0.055,0.001,0.004,0.031,0,0
"84",0.004,0.005,0.011,0.002,0.014,0.034,0.001,0.002
"85",0,0.031,0.043,0.001,0.002,0.008,0.002,0
"86",0.015,0.002,0.051,0.003,0.061,0.002,0.007,0.004
"87",0.003,0.043,0.011,0.004,0.004,0.011,0.001,0.031
"88",0.003,0,0,0.021,0.001,0,0,0
"89",0.001,0.005,0.001,0.001,0.053,0.093,0.011,0.006
"90",0.001,0.002,0.014,0.045,0,0.08,0,0
"91",0.002,0.003,0,0,0.001,0.012,0.001,0.021
"92",0,0,0,0.043,0,0.003,0,0.05
"93",0.001,0,0.001,0.031,0.004,0.057,0.003,0.003
"94",0.014,0.059,0.001,0.001,0.044,0.02,0.004,0.001
"95",0.044,0.001,0.033,0,0.001,0.01,0.002,0.001
"96",0.007,0.007,0.002,0.01,0.005,0.008,0.008,0.008
"97",0.002,0.005,0.007,0.005,0.02,0.002,0.009,0.001
"98",0.008,0.008,0.003,0.009,0,0.019,0,0.006
"99",0.004,0,0,0,0.001,0.027,0.001,0
"100",0,0,0,0,0.001,0.007,0,0
"101",0.013,0.043,0.015,0.004,0.049,0.028,0.004,0.006
"102",0.004,0.032,0.02,0,0.001,0.004,0.002,0.001
"103",0,0,0,0,0.003,0.011,0.004,0.007
"104",0.001,0.004,0.025,0.026,0.002,0.014,0.001,0.022
"105",0,0,0,0,0.043,0.038,0,0.002
"106",0.012,0.002,0.001,0.015,0.009,0,0.005,0.065
"107",0.004,0,0.002,0.004,0.003,0.01,0.003,0.001
"108",0.001,0.039,0.001,0.036,0.005,0.045,0.001,0.038
"109",0.003,0,0.004,0,0.042,0,0.019,0
"110",0.001,0.001,0.001,0.003,0.005,0.061,0.005,0.002
"111",0.001,0,0,0,0,0,0.002,0
"112",0.001,0.027,0.001,0,0.006,0.001,0.044,0.004
"113",0.001,0.002,0.029,0.032,0.008,0.004,0.006,0.005
"114",0.019,0.002,0.001,0.001,0.003,0.004,0.01,0.001
"115",0.022,0,0.003,0.004,0.082,0.102,0.001,0.001
"116",0,0,0,0,0.001,0.014,0.019,0.018
"117",0.003,0.001,0.026,0.025,0.002,0.061,0.048,0.008
"118",0.002,0.003,0.002,0.001,0.008,0.012,0.005,0.04
"119",0.001,0,0.001,0.009,0.041,0.005,0.001,0.021
"120",0.001,0.009,0,0.005,0.034,0.006,0.005,0.002
"121",0.003,0.032,0.004,0,0.003,0.017,0.001,0
"122",0.001,0.001,0.005,0.001,0.016,0,0.061,0.001
"123",0,0.004,0,0,0.001,0.017,0,0.012
"124",0.001,0,0.006,0.026,0.072,0.001,0.048,0.002
"125",0,0,0,0,0.017,0.004,0,0.002
"126",0.013,0,0.023,0,0,0.001,0,0
"127",0,0.001,0.004,0.001,0.003,0.065,0.022,0.002
"128",0,0.001,0.016,0,0.001,0.003,0,0
"129",0,0,0,0,0.057,0.001,0.011,0
"130",0.002,0.007,0.002,0.004,0.015,0,0.001,0.056
"131",0.014,0.001,0.002,0,0.002,0.004,0,0.012
"132",0.001,0.001,0.025,0.003,0.005,0.089,0.003,0.002
"133",0.005,0,0.001,0,0.003,0.007,0.02,0.003
"134",0.002,0.022,0,0.023,0.001,0.003,0.039,0.002
"135",0,0.034,0.012,0,0.002,0.005,0.011,0
"136",0.002,0.013,0.002,0.003,0.004,0.004,0.043,0.022
"137",0,0,0,0.023,0,0.027,0.001,0.018
"138",0,0,0,0,0.05,0,0.001,0
"139",0.001,0.001,0.012,0,0.002,0.101,0.002,0
"140",0.014,0.001,0.002,0.008,0.012,0.001,0.001,0.038
"141",0,0.012,0.026,0.001,0,0,0.047,0.001
"142",0,0,0,0,0.027,0,0,0
"143",0.011,0,0.031,0,0.062,0.001,0.001,0
"144",0,0.015,0.004,0,0,0,0,0
"145",0.022,0.016,0.001,0.005,0.013,0.002,0.02,0.004
"146",0.001,0.003,0,0.004,0.001,0.056,0.001,0
"147",0.004,0.02,0.017,0.029,0.011,0.004,0.011,0.006
"148",0.006,0.034,0.001,0.001,0.012,0.009,0.003,0.003
"149",0.011,0.012,0.001,0.014,0,0.049,0,0.002
"150",0.004,0.001,0,0.023,0,0.005,0,0.002
"151",0.001,0,0.001,0.002,0.002,0.066,0.003,0.003
"152",0.001,0.026,0.007,0.024,0.001,0.038,0.001,0.005
"153",0.019,0.001,0.001,0.029,0.01,0.001,0.001,0.037
"154",0,0.008,0.002,0,0.001,0.004,0,0
"155",0.011,0,0.002,0.059,0.051,0.025,0,0.003
"156",0,0.011,0,0,0.001,0.004,0.001,0.048
"157",0.002,0,0,0,0.012,0.003,0.001,0
"158",0,0.001,0.001,0.006,0.009,0.012,0.001,0.007
"159",0.02,0.021,0.017,0.023,0.076,0.058,0.005,0.013
"160",0,0,0.017,0.023,0.003,0.005,0.025,0
"161",0.001,0,0.001,0.001,0.015,0.035,0.019,0.001
"162",0,0,0.021,0.047,0.001,0.004,0.007,0.005
"163",0.001,0.001,0.003,0.007,0.004,0.017,0.034,0.012
"164",0.001,0,0,0.001,0,0.031,0,0.018
"165",0.001,0.007,0.031,0,0.038,0.002,0,0.001
"166",0.008,0.001,0.016,0.002,0.002,0.011,0.002,0.001
"167",0.018,0.003,0.001,0.001,0.002,0.005,0.004,0.002
"168",0.002,0.02,0.001,0.001,0.006,0.011,0.005,0.052
"169",0,0,0,0,0.007,0.005,0.002,0.02
"170",0.017,0.014,0.038,0.002,0.008,0.003,0.029,0.005
"171",0,0,0,0,0.007,0.058,0,0
"172",0.007,0.039,0.004,0,0.021,0.019,0.003,0.002
"173",0.035,0.011,0.001,0,0.022,0.003,0.008,0.033
"174",0.003,0.043,0,0.001,0.01,0.004,0,0.026
"175",0.019,0.016,0.005,0.005,0.017,0.012,0,0.039
"176",0.019,0,0.028,0.001,0.001,0.03,0.002,0.005
"177",0.015,0.006,0.002,0.003,0.001,0.002,0,0.038
"178",0.005,0,0.002,0.001,0.014,0.008,0.028,0.005
"179",0,0.002,0.032,0.002,0.03,0.01,0.004,0.001
"180",0,0,0.001,0,0,0.008,0,0
"181",0.017,0,0.006,0,0.075,0.003,0.001,0.001
"182",0.01,0.001,0,0,0.065,0.057,0.042,0.02
"183",0.012,0.001,0.001,0,0.03,0.002,0.014,0.001
"184",0.002,0.008,0,0,0.013,0,0.011,0
"185",0.004,0.001,0.009,0.058,0.001,0.002,0.003,0.039
"186",0.014,0.001,0,0,0,0.003,0.056,0
"187",0.002,0.003,0.001,0.042,0.002,0.045,0.005,0.006
"188",0.003,0,0,0,0.001,0.001,0.058,0
"189",0,0,0.001,0,0.001,0.005,0.033,0.004
"190",0,0,0,0.002,0.009,0.018,0.006,0.001
"191",0.003,0.01,0.001,0.03,0.001,0.045,0.071,0.013
"192",0.005,0.001,0,0.001,0.056,0.06,0,0.004
"193",0.001,0.001,0.001,0.001,0.002,0.002,0.006,0.002
"194",0.001,0.001,0.034,0.011,0.004,0.003,0.006,0.004
"195",0.001,0.002,0.013,0.034,0.013,0.024,0.035,0.001
"196",0.011,0,0.001,0,0.002,0.001,0.001,0
"197",0.001,0.04,0.017,0.001,0.006,0.002,0.039,0.003
"198",0,0,0,0,0,0,0.006,0
"199",0.001,0,0.001,0,0.003,0.002,0.009,0.001
"200",0,0,0.004,0,0.001,0.037,0.002,0.019
"201",0.001,0.002,0.003,0.003,0.036,0.006,0.004,0.044
"202",0,0.001,0.002,0.001,0.003,0.005,0.028,0.001
"203",0.002,0.038,0.003,0.001,0.006,0.03,0.01,0.026
"204",0.038,0.016,0.004,0.027,0.136,0.053,0.016,0.005
"205",0.001,0.001,0.001,0.001,0.002,0.091,0,0.005
"206",0.008,0.002,0.002,0,0.002,0.001,0.001,0.001
"207",0.018,0.001,0.002,0.001,0.002,0.004,0.007,0.001
"208",0.001,0,0,0.028,0,0,0,0
"209",0,0,0.001,0.002,0.002,0.002,0,0
"210",0.003,0.003,0.007,0.02,0.059,0.012,0.005,0.002
"211",0.001,0.006,0.001,0.002,0,0.035,0,0
"212",0.016,0.001,0.001,0.004,0.079,0.008,0.002,0.001
"213",0.025,0.002,0.004,0.001,0.037,0.079,0.042,0
"214",0.003,0.003,0.033,0.003,0.082,0.001,0.002,0
"215",0.002,0,0,0.04,0.009,0.013,0.005,0
"216",0,0,0,0.035,0.002,0.045,0,0
"217",0.005,0,0.001,0,0.032,0.001,0.001,0.002
"218",0.011,0.017,0.002,0.002,0.001,0.049,0.004,0.002
"219",0.001,0.005,0,0,0.001,0.006,0.02,0.037
"220",0.001,0,0.001,0.005,0.01,0.002,0.002,0.002
"221",0.024,0.011,0,0,0.008,0.002,0,0.001
"222",0.002,0.001,0.002,0,0.04,0.008,0,0.007
"223",0.001,0.002,0.002,0.002,0.001,0.008,0.001,0.001
"224",0.001,0.004,0.001,0.001,0.006,0.013,0.017,0.028
"225",0.015,0,0.001,0.001,0.013,0.006,0.058,0.001
"226",0.001,0,0.006,0,0.001,0,0.004,0
"227",0.001,0,0.001,0,0.078,0.055,0.039,0.001
"228",0,0,0,0.048,0,0,0.003,0.026
"229",0.004,0.016,0.027,0.042,0.009,0.006,0.013,0.004
"230",0,0,0.047,0.004,0.071,0.002,0.001,0.008
"231",0.002,0.002,0,0.004,0.01,0.085,0,0
"232",0.022,0.014,0.001,0.002,0.001,0.002,0.004,0.032
"233",0.015,0.001,0.03,0.025,0.004,0,0.001,0
"234",0,0,0.001,0.008,0.002,0.072,0,0.002
"235",0,0,0.058,0,0.046,0,0,0.021
"236",0,0,0,0,0.063,0,0.053,0
"237",0.001,0.002,0.053,0.001,0.053,0.004,0.022,0.044
"238",0.042,0.002,0.002,0.005,0.061,0.034,0.002,0.039
"239",0,0.002,0.042,0,0.001,0.027,0,0.016
"240",0,0.001,0,0,0.001,0.003,0.031,0.002
"241",0.004,0.001,0.002,0.003,0.08,0.001,0.004,0.003
"242",0.011,0,0,0.028,0.027,0.069,0,0.004
"243",0.001,0.001,0.035,0.001,0.028,0.002,0.003,0.001
"244",0.002,0,0.034,0.036,0.003,0.002,0,0.004
"245",0.012,0,0,0,0.056,0,0,0
"246",0,0,0.001,0.005,0.001,0.001,0.001,0.009
"247",0.001,0,0,0.007,0.04,0.036,0.001,0.005
"248",0,0,0.001,0.001,0.04,0.039,0.024,0.001
"249",0.006,0.009,0.044,0.037,0.038,0.058,0.006,0.003
"250",0.012,0.002,0.02,0.009,0.044,0.001,0,0.022
