"","x"
"1",17098.3728578236
"2",16940.7253817185
"3",17090.3787567467
"4",16928.3881197944
"5",16886.6952588988
"6",16685.7543498487
"7",16824.410890299
"8",17127.3116929547
"9",16960.9005191125
"10",16552.9497467306
"11",16839.88326678
"12",16954.3890554959
"13",16770.7007755787
"14",17215.5279194429
"15",17251.9953446972
"16",16706.0501677387
"17",16842.5552610299
"18",16857.879409599
"19",16865.2883487054
"20",17019.282010823
"21",17074.7936741236
"22",16820.1740758876
"23",17012.9794621737
"24",17063.9819470483
"25",16852.9655909509
"26",17099.2472056617
"27",16830.913855084
"28",16715.313702657
"29",16925.9313519399
"30",16791.0212911332
"31",17056.7273713226
"32",17036.4741456159
"33",16865.7922327619
"34",16972.9707960799
"35",16942.9705480953
"36",17082.0299945256
"37",16844.223111821
"38",16673.5109236994
"39",17024.4886780693
"40",16967.2119098212
"41",16947.0148543834
"42",16959.2036663629
"43",16600.2190210931
"44",16992.1790001023
"45",16975.5886456294
"46",17142.2247584396
"47",17078.0711725733
"48",16700.8456425083
"49",16570.409087771
"50",17007.0287352036
"51",17031.4920889303
"52",16943.4495634998
"53",16930.0500713248
"54",16900.379856995
"55",17122.8603677971
"56",16822.3102832288
"57",17083.3792119791
"58",16920.8971287728
"59",17044.3932497028
"60",16775.2045649157
"61",16879.7901971156
"62",16793.1858562194
"63",17192.6693319764
"64",16862.7370361881
"65",16685.912185158
"66",16985.2944119181
"67",16970.8125673687
"68",17036.2574438359
"69",16829.4936963774
"70",16991.7851209464
"71",17016.1524770235
"72",16882.5019446193
"73",17000.8449504793
"74",16904.5318809252
"75",16871.3609532956
"76",16759.9581553031
"77",16865.4530509172
"78",16913.0319196204
"79",16917.3297938405
"80",17092.9016519267
"81",16929.9954728469
"82",16869.134671301
"83",16990.7377914531
"84",16809.434282017
"85",16952.3763379644
"86",16965.7164332639
"87",16691.9983115569
"88",16811.3972446359
"89",17210.1620642454
"90",16931.7747724084
"91",16964.1912515062
"92",16718.0253600057
"93",16859.9620000526
"94",16944.2330865386
"95",17016.7583808016
"96",17056.5469449884
"97",17144.267228718
"98",16920.3845596506
"99",17025.8068671272
"100",17063.2445401703
"101",16991.902412494
"102",17061.5352493684
"103",16676.1792691972
"104",17146.0354682067
"105",17333.1872438765
"106",17197.8804660382
"107",17108.1568094628
"108",16817.0709563999
"109",17021.6763856744
"110",17056.8189037529
"111",16768.722373563
"112",16718.935850408
"113",16956.7122647859
"114",16744.0534646375
"115",16780.1846603281
"116",16718.0137592728
"117",16760.3183009424
"118",16927.4501398222
"119",16684.7546956608
"120",16907.783466132
"121",16973.4287689407
"122",16763.8157360506
"123",16885.601107701
"124",17128.4799289943
"125",16888.5957975987
"126",16920.4875472091
"127",16842.093708593
"128",16852.56952283
"129",17109.7513537882
"130",17099.5421676905
"131",16957.081326577
"132",16694.6668333766
"133",16763.5696521781
"134",16818.3311964676
"135",17000.2690936
"136",16691.6340116196
"137",17080.5704553483
"138",16718.495910505
"139",16932.5644973092
"140",16964.661414636
"141",16746.5833037811
"142",16717.6703669693
"143",16905.7612527874
"144",16791.0948049636
"145",16825.276599465
"146",17112.8815708772
"147",16952.6220530808
"148",16975.747943136
"149",16977.5044477244
"150",17205.6731521281
"151",16928.7856508312
"152",16748.1434675486
"153",17090.9334872626
"154",17143.0150792775
"155",16753.3707874141
"156",17050.1571453782
"157",16836.2937083208
"158",17095.1645951726
"159",16984.3270791567
"160",17127.2025094062
"161",17103.3889938624
"162",16969.4745261896
"163",16694.8409793887
"164",16612.5178705836
"165",16976.7942191009
"166",17035.4945362438
"167",16919.2737655806
"168",16770.3631116291
"169",16893.3166998147
"170",17050.4391306902
"171",17250.6008155221
"172",17047.2914462202
"173",16925.7534062702
"174",17107.9640887751
"175",17112.9831429073
"176",17140.3067199608
"177",17034.6386905605
"178",17118.3813375255
"179",17333.2603803872
"180",16705.5673629309
"181",16956.5324368002
"182",16948.2754913045
"183",16782.851476286
"184",17029.6879192509
"185",16915.7412186958
"186",17080.7601298536
"187",16942.6897749205
"188",17067.709189041
"189",17058.3871199863
"190",16736.3264334748
"191",16834.0120141382
"192",17089.6852369588
"193",16826.2246100413
"194",16979.9085556734
"195",16821.2576299344
"196",17034.1305001731
"197",16864.1189562975
"198",17073.2086238825
"199",16975.796057837
"200",16788.1229769663
"201",17186.9678029804
"202",17005.9836312421
"203",17071.7004187186
"204",16911.1853905849
"205",16919.3629324572
"206",16866.4943872703
"207",16829.1825847953
"208",17175.1180753347
"209",16935.5292266978
"210",17143.5594044546
"211",17179.9794684124
"212",17006.7202521211
"213",16784.3974333448
"214",17083.9110030227
"215",16997.2728590917
"216",17058.8719104631
"217",16941.2924110271
"218",16864.3033669436
"219",16795.6279400678
"220",16707.6473196044
"221",17102.8735278597
"222",16808.1391080978
"223",17184.504288982
"224",16987.6931936162
"225",17065.1453443792
"226",16989.5754540762
"227",16990.4463454395
"228",17116.3343013642
"229",16928.938236141
"230",16839.3702186601
"231",16928.7204171316
"232",16981.0716021877
"233",16796.4341604165
"234",17042.4416612684
"235",17152.8575353748
"236",16897.7400241049
"237",16721.7674917068
"238",17025.3500495906
"239",16969.0896128295
"240",16992.5765823748
"241",17083.3372320808
"242",16901.8432722413
"243",16862.6629957984
"244",16962.6017604448
"245",16905.4425826559
"246",16876.2730684847
"247",16999.0968525558
"248",16806.3152727169
"249",16879.0067551795
"250",16902.8731046429
