"","x"
"1",-2059.13492376807
"2",-2045.2884437184
"3",-2066.5120434344
"4",-2035.56271837374
"5",-2075.0972648735
"6",-2118.57910255268
"7",-2029.40304307552
"8",-2034.78956174541
"9",-2026.85154677112
"10",-2060.42134693375
"11",-2110.5495432185
"12",-2105.93514882914
"13",-2038.76851675073
"14",-2068.2124056202
"15",-2022.33755026094
"16",-2095.63128148197
"17",-2071.02223328459
"18",-2063.72324088938
"19",-2027.23649945824
"20",-2120.93786929393
"21",-2016.57378014247
"22",-2056.14630543715
"23",-2049.64644298178
"24",-2037.94802879801
"25",-2013.3810980863
"26",-2063.77668799983
"27",-2048.39115161648
"28",-2083.49169540332
"29",-2113.29574162744
"30",-2016.65203563979
"31",-2056.3858591304
"32",-2106.18350392715
"33",-2016.49364925707
"34",-2076.14643676921
"35",-2038.95758861764
"36",-2084.09418366719
"37",-2100.52190646569
"38",-2126.80924418119
"39",-2100.10578306859
"40",-2038.58382025665
"41",-2094.94498075457
"42",-2026.71774333901
"43",-2089.65303887881
"44",-2107.0331493901
"45",-2111.55964589301
"46",-2030.04385795804
"47",-2051.77282296814
"48",-1995.19240453668
"49",-2096.17036803622
"50",-2079.48096601914
"51",-2053.29541404069
"52",-2038.44731405036
"53",-2115.53154773123
"54",-2082.09409198117
"55",-2084.35373213732
"56",-2018.93724589835
"57",-2071.42462577794
"58",-2079.66987679144
"59",-2069.69730620054
"60",-2069.4967437038
"61",-2032.76489829383
"62",-2079.76570781644
"63",-2081.5246030151
"64",-2050.24807963046
"65",-2104.3893754052
"66",-2067.74296167165
"67",-2041.6073665892
"68",-2089.57791830084
"69",-2087.62302847559
"70",-2047.49083637508
"71",-2042.75568187935
"72",-2078.40713944259
"73",-2057.96778357844
"74",-2062.75901359939
"75",-2111.10687677742
"76",-2091.43015433856
"77",-2151.32973772313
"78",-2065.23495509218
"79",-2082.0787240623
"80",-2097.7490755005
"81",-2021.44041059552
"82",-2102.29566085743
"83",-2068.92589140319
"84",-2010.08362291639
"85",-2063.62079600651
"86",-2042.40963335045
"87",-2110.21208892143
"88",-2116.49934277257
"89",-2074.47915215341
"90",-2059.91524683865
"91",-2007.21417613279
"92",-2109.91807856233
"93",-2094.49555696241
"94",-2065.4497921783
"95",-2075.75401984349
"96",-2045.20209092543
"97",-2111.15380184591
"98",-2088.98446174237
"99",-2058.58767766374
"100",-2060.36901753065
"101",-2034.3283032154
"102",-2091.82809224763
"103",-2102.68495737371
"104",-2004.46171715985
"105",-2065.65683442043
"106",-2081.58051843018
"107",-2073.7772621582
"108",-2124.78482029179
"109",-2021.92036170733
"110",-2090.51086521996
"111",-2020.29248804252
"112",-2022.37292774714
"113",-2091.49666545243
"114",-2089.5172870819
"115",-2087.82937409358
"116",-2098.86284238135
"117",-2081.68985403556
"118",-2047.81503002629
"119",-2090.47431506121
"120",-2140.85438954128
"121",-2031.07003496088
"122",-2030.17053667372
"123",-2048.48685231283
"124",-2139.65282542339
"125",-2065.45332701489
"126",-2052.50835591235
"127",-2103.38324772404
"128",-2102.37183615429
"129",-2032.0842734247
"130",-2128.48293690414
"131",-2069.89373920487
"132",-2085.24840021232
"133",-2067.62560085005
"134",-2095.01287053915
"135",-2094.78571453274
"136",-2028.60391826962
"137",-2067.6708849736
"138",-2126.63287347422
"139",-2049.5716324701
"140",-2092.46676081242
"141",-2091.17641161289
"142",-2106.80133847017
"143",-2033.4636613954
"144",-2072.3788420004
"145",-2046.44590571201
"146",-2052.47231466042
"147",-2055.26390475504
"148",-2123.34548207858
"149",-2123.87835062577
"150",-2032.40884910918
"151",-2056.13253674507
"152",-2041.79516576701
"153",-2132.95906968392
"154",-2113.03830634073
"155",-2083.74346071141
"156",-2081.56411624589
"157",-2111.37473270424
"158",-2064.37028828859
"159",-1976.32970865726
"160",-2052.15563044199
"161",-2079.65073111855
"162",-2043.73567030149
"163",-2067.83930688525
"164",-2030.49327272046
"165",-2069.05668068157
"166",-2115.39237865303
"167",-2150.76578164505
"168",-2057.39121824926
"169",-2089.97344995022
"170",-2109.02911715007
"171",-2074.72759915048
"172",-2081.56570145223
"173",-2105.74482290018
"174",-2048.82060624687
"175",-2108.56571402772
"176",-2034.51771402107
"177",-2060.9190411038
"178",-2112.48765727349
"179",-2054.6075517757
"180",-2097.54301800833
"181",-1993.41342972833
"182",-2106.3326092141
"183",-2045.55566267676
"184",-2052.10211513105
"185",-2066.89959472937
"186",-2013.59770159596
"187",-2077.80014485244
"188",-2040.49419845303
"189",-2099.48378886678
"190",-1990.71339419009
"191",-2097.44584923301
"192",-2030.03817375583
"193",-2081.7727512191
"194",-2065.5854541526
"195",-2071.47605139685
"196",-2026.01554906393
"197",-2065.40108998354
"198",-2070.10878019826
"199",-2042.43808123576
"200",-2069.6652320708
"201",-2022.70950744034
"202",-2050.49679693092
"203",-2108.56098067515
"204",-2075.93860485639
"205",-2035.67002535819
"206",-2095.85461130407
"207",-2064.79667657624
"208",-2054.08934881069
"209",-1989.44834331598
"210",-2065.57357320126
"211",-2020.30472513583
"212",-2030.32599518441
"213",-2096.75528789284
"214",-2085.37272749324
"215",-2006.56476178752
"216",-2066.25348907014
"217",-2039.109295141
"218",-2051.00962162616
"219",-2058.78707467332
"220",-2031.32131152913
"221",-2047.38029703391
"222",-2077.64726685663
"223",-2097.18548911307
"224",-2047.6601395493
"225",-2097.38334169184
"226",-2029.12163996723
"227",-2108.30203437106
"228",-2096.37749180214
"229",-2090.51934667667
"230",-2029.7629620165
"231",-2085.63257044017
"232",-2083.24911326131
"233",-2072.57442117584
"234",-1987.66703014667
"235",-2059.70985613603
"236",-2061.9802540281
"237",-2104.61947879554
"238",-2060.52870099254
"239",-2027.39410618545
"240",-2107.3793251126
"241",-2042.27103663431
"242",-2090.68106994334
"243",-2020.15309445828
"244",-2052.93347087898
"245",-2114.52546970295
"246",-2074.06863318742
"247",-2048.75499741534
"248",-2075.24356253298
"249",-2079.78597785361
"250",-2039.2167935409
