"","V1","V2","V3","V4","V5","V6","V7","V8"
"1",25.1319946088114,30.023254402404,5.04313408208861,6.8571945107138,-0.0320745991587955,0.0297273360409581,2.24061884065957,12.5712845141548
"2",24.7452457359108,30.2010236395872,5.08638324107269,7.09002983053612,-0.00693417318360272,0.0149279179067495,1.8690554211304,13.5801564273282
"3",24.5078948487573,29.7504360660672,4.7900234877474,7.0296347361692,0.0584453732820242,-0.0240825296622599,2.07503285710073,10.5904381309369
"4",24.8918096750524,29.8172602686064,5.03425037178444,6.82828310692459,-0.0302893469598289,-0.0208019961024817,1.97307578903552,11.5879004134201
"5",25.0915300161036,29.135473058355,4.95501423192992,6.93890914741596,-0.0331281112768371,0.016606764430428,1.95279032749035,10.1184553816847
"6",25.1223798655185,30.126009354417,4.94282649426602,7.03233480822678,0.0666367539046468,0.00277703165840452,1.8174010055779,11.1175725979602
"7",24.8303017071623,29.1966621718309,4.97615750998009,7.05899190721844,-0.0240095086019179,-0.0209087118568247,1.7956949049172,11.1085309236177
"8",25.1637074317694,30.1714715763693,5.12958795760667,7.18434234642524,-0.0209177606814208,0.0287289448489355,2.04189318670321,12.1971696507649
"9",24.729377225409,30.0749249068029,4.84714362682061,6.99674989837782,-0.0050071442675111,-0.00133026583251273,1.95683645481184,10.8793788679175
"10",25.4444846789162,30.7423326855518,4.97728661604804,7.04712617038489,-0.0129085764856418,0.0469094368324271,1.86874332728323,10.8512005313595
"11",24.7697232178311,30.5251362008218,5.07165328604512,7.03102134514068,0.00728192009515739,-0.0350992312344949,1.87353961270277,11.2562001282938
"12",24.1871659553731,28.9995408727388,4.65067852161404,6.94027238199775,-0.0055090174589476,0.0333484239291755,1.95498562609233,11.1274353748636
"13",24.7219269613208,30.2494734305734,4.60719963791139,7.13736594424347,0.0306617594202835,0.00181254551220082,1.92076074589706,11.9152936695738
"14",24.4843529017855,30.5454378323414,4.73633586589704,6.91643961426478,-0.0978243569979485,0.0194632222783463,2.00667813488801,12.2673775535986
"15",25.0184801002592,29.9559733720971,5.10617601412816,6.8488408943861,0.128309446108995,-0.0083749293444052,2.16321663461337,12.1183453315806
"16",25.2190954361064,30.1689563367536,5.20636733519803,7.1779686003745,0.0692062192894107,0.0104645619991973,2.00460847675377,11.625061527245
"17",24.7477196784241,29.8822963918174,5.0836266788415,6.96462329509491,0.0374354487656647,-0.0181489214671003,1.7899889285845,11.8617548695446
"18",25.1676627511677,28.7451110581549,5.19235597284829,6.56185999015952,0.0719019538741264,-0.0093021501285395,1.8699701148268,13.0290590860009
"19",25.0083068899275,30.580609259459,4.74797754333391,7.49681317593281,-0.0241982871654001,0.0107422179622647,2.049349678024,10.9936212377249
"20",24.377776024548,30.3989270201996,4.61302974133344,7.01553928194166,-0.0786611528231151,0.025851934843538,1.98999652741174,11.6604485884198
"21",25.4353500625153,30.4566938865188,5.14554003630434,7.13927509121651,0.06713497757213,-0.0170860264397962,1.99893610334355,13.5080336185258
"22",24.9862954018748,30.5332253508322,4.83028395079151,7.04141681000226,-0.0605863344372865,0.0106752624577453,1.97422111045746,12.146866793899
"23",24.6670393733211,29.9228962858762,5.25392077253743,7.24706167543786,0.0412191787645925,-0.0305777770274092,2.11373462280827,13.167157118573
"24",24.7825500251221,29.9214937213362,4.99089016933371,7.09746080747284,-0.0601875074254313,0.0205625110982283,1.92642458861119,12.0732165289656
"25",25.4234950277977,29.9333948214545,5.12983346964268,6.81165941050372,-0.00185773673542642,-0.01272221587384,1.96203235924573,11.9055699671092
"26",24.7740011250026,30.1574578421545,4.98876423390604,6.81218176501025,-0.0801767272677164,-0.0654309507136177,2.0548130859622,10.8562204799006
"27",24.9433077314966,29.8150982399991,5.04776762690046,7.06163318714229,0.0316893600625085,0.0246662816678619,2.07936391906318,11.4334927487753
"28",24.8787074457409,30.1255449424165,4.7758064853936,7.14558979923252,0.0589114667764851,-0.039732957158171,1.90933306877777,12.0979358607947
"29",24.696765418211,30.3288832183689,4.62483019018089,7.02940884081893,0.0550748720956186,0.0134949501021987,1.92866166484154,12.0418535182517
"30",25.8212354326293,29.6832932933797,5.43305879090244,7.01686839540882,-0.0255401689008444,0.0170909936138175,2.08774003961779,10.778979863459
"31",24.7462179630796,30.5876233201712,4.95523515344929,7.29515766249361,0.0399182181182091,-0.0289182221399532,1.99557303348848,12.7277608284243
"32",25.1056077326935,29.8800589395524,5.08144148056489,6.98202016604229,0.0101319774821539,0.0604917485691883,1.91917589346512,11.1866499821363
"33",25.0170573031341,29.5402718202005,5.05477760769585,6.98588904018199,0.0682713979813398,0.0327358755280764,2.04534318857665,11.6421218223502
"34",24.758276919377,29.1317320374218,5.0423230216631,6.67598736189721,-0.00384671453148982,0.0567586701979391,1.94236211640569,11.4432133551177
"35",24.9800101839835,29.5227608193688,4.94863928401234,6.61239954580726,-0.104468406026947,-0.0350257099121668,2.08432346158533,12.6782967214547
"36",25.0900563232907,29.1414249104257,5.00100101593305,6.91594734137279,0.0523235455593655,-0.0174152988040271,2.12783174525984,13.4424874874754
"37",25.4395901491345,29.6487427704517,5.28466874872463,6.83608041865572,-0.0855380873783445,0.0201626638090378,2.25775611948119,12.5389758201406
"38",25.4691201381734,30.5435700317388,5.12682862082033,7.09146424372181,-0.0772640278523518,0.0113728082047233,1.94541402383288,11.1079070989052
"39",25.1933347851186,31.2700354763636,5.05986255024722,7.65602866040433,0.0643441669131905,0.00870943085576766,1.97054027057341,13.2497072217639
"40",24.8657515011431,31.4582634397221,4.93214826764433,7.44561703901612,0.0212305709112102,0.00360045778828567,2.15883383742549,11.9716810123045
"41",24.5482708402046,30.0772892848793,4.9266039664059,6.99360106285433,-0.0092869197152324,-0.018724261446201,2.03031463704254,11.6195846360043
"42",24.6002393176646,30.2697038583771,4.84531787089775,7.23557388185831,-0.0250561798008705,0.0124434683827678,2.1138215015635,11.9047325327235
"43",24.8597549939308,30.3371708437862,5.01392366358485,7.04634006099243,0.0236203090765654,-0.0201257862344954,2.06888589662467,12.0261875327201
"44",24.6856936500624,29.7077678615275,4.97177745201187,6.91092121573985,0.0701639752131637,-0.0268719687865254,1.95714268354793,11.8612245884097
"45",24.64710609782,30.5770754665817,5.03912932987921,6.97777804679714,-0.00332317190734393,-0.0542789761628025,1.88672830456219,13.6959493388783
"46",24.5038608031125,29.5144166638277,4.77536402154488,7.09856740656994,-0.0104381775972196,-0.00458882997270784,1.9805353566049,9.62234069106009
"47",24.6105693274664,30.5952929680396,4.82473264867059,6.89578043325706,-0.0421240631508639,0.0103831844520985,2.12831448566886,10.9154194412663
"48",24.8623504502453,29.6515468624566,5.19190755898922,7.10565966311073,0.0881083867033262,-0.0351911820507864,1.89772773019403,12.2943918671166
"49",24.9274799854373,30.5132687870546,5.26145855236906,6.84318127072032,-0.0671371013123175,0.00789482131585672,2.01504869811688,12.8540439893962
"50",25.174006089869,31.1447056307047,5.1890575945579,7.45004465541153,0.0177831001260561,-0.00174649017474209,2.09585840805888,12.6008923907552
"51",25.0560933306592,29.515982841585,5.0068259834638,7.11039538925198,-0.0409072839220448,0.0375377061002734,1.8323135305791,11.4922530752766
"52",25.436107629053,30.0329662165088,5.25187649775694,6.77284973963748,0.0592982424123449,0.017936913534304,2.12098340312315,11.3449700750361
"53",25.3743932364288,30.184631666325,5.21024957101541,6.80900138368365,0.0176122659579637,-0.0543404513086001,1.94849729621391,9.20327663086591
"54",25.0844461266873,29.9514780058067,5.05195908245605,7.10695878797092,0.0327435291092799,-0.0207102588826002,1.97817419596364,11.3071375370095
"55",24.8103920759741,29.1087065201618,4.94511604242969,6.94583227417428,-0.0949098217921262,-0.000566118573301806,1.99219889877293,11.9912948758584
"56",24.8389410230524,30.5915969709645,5.00120061722248,7.14595319534425,0.00033920582120647,0.0211036041235651,2.01394840870886,11.4257138939994
"57",24.7073253471613,29.5358600642348,4.90352181929185,6.99548973420751,-0.0639292678457627,-0.0436944237761034,1.89884511830808,12.5802032385988
"58",25.4161854812118,29.4936353668982,5.01388060395353,7.22070538770751,-0.0611398945844637,0.0572818626858383,2.15609484237984,11.0597526675675
"59",25.0544395081705,29.1586306329184,4.89379623474478,6.91528911973402,-0.0511757072084067,0.0140668483002511,1.80539250756847,10.6184167721773
"60",25.0705301852907,29.2220473158831,4.99762890962227,6.74771798548711,-0.0204351592756134,-0.0256750881505352,2.03024420020269,12.0432709832227
"61",25.0264944956674,30.2726769172905,4.95141823225327,7.17585675691416,0.0163562949333024,-0.0676643738836827,1.98248093894232,12.0055233996505
"62",24.6999687343319,30.293451650157,4.86628781957688,7.31599814511827,-0.029642301216305,-0.0427797316228038,1.9001382456543,11.3762491428877
"63",25.2050649682528,30.9847708155991,5.22419067798963,6.93268380684969,-0.00654439203881428,0.0122271346960609,2.11570926172347,12.1232174769445
"64",24.9695535534019,30.0827287182425,5.01291424919136,6.83262339365123,0.0261965556190768,-0.0317334497823457,2.11434741239413,14.0459122603427
"65",24.8658296535045,30.5561548112413,5.20072816725445,7.05945249494856,-0.0644199541442491,0.042899759019065,2.0712297638641,13.162363480053
"66",25.0842038150488,30.1069131360624,5.21404592007516,7.01270615635434,-0.0425733177822625,-0.0121708992419261,2.14648074122974,11.3590503968726
"67",25.1071871297856,30.0787051749259,5.2531329698083,7.02851961548663,0.00553104538962177,-0.0470241238029905,2.13272629639072,11.8370486961485
"68",25.4173722000023,29.3584255223633,4.92618842256413,6.67337099029893,0.0486316702276254,0.000870513317950384,1.84073359069571,11.245483101167
"69",24.92780093023,30.1303440053994,4.90445524588274,6.98837046635256,-0.0470920017513478,0.0207791554716158,2.03153804983893,12.6902916473198
"70",25.369151955401,29.6806089571783,5.2353780596647,6.89862068477181,0.0649173785788103,-0.0572286816613487,2.08487138765121,11.564958402293
"71",25.2490317622625,29.603686032395,4.95047483488773,6.90762697510878,0.0115070137173364,-0.013437088487933,1.92868415330208,12.000828037426
"72",24.7302840891678,30.7432702246645,4.74435855648316,7.22003827002401,0.0320904161212203,0.0117248192624743,2.02452693311593,13.8086596954767
"73",25.4577408941317,30.3821055819157,4.90280159597165,7.41754508171393,-0.0492471254981636,-0.01758017253228,1.81480722537048,12.1389055494551
"74",25.4972300624847,30.7936886545332,5.12312146453378,7.20634046313047,-0.033822762229212,0.00140171156263018,2.00226914524962,12.6669033976463
"75",25.3009066324246,29.1133079787002,4.99881381424167,6.98503804311597,0.00253923498527523,0.00161928882038654,1.97217738552542,11.7026066277199
"76",25.1003689532626,30.0607220863704,5.13895294329436,6.61558421334049,0.0523783189784025,-0.0281112954727111,1.8213640657573,11.4824408290246
"77",25.0729413112253,30.077390406284,5.01313623525767,7.06837246376403,-0.041350585205991,-0.0157526419882867,2.13819913531524,13.1819996616468
"78",24.8986240166621,29.5928869255602,5.11275311809646,6.8971464577384,0.0400128295681386,0.0429226013128388,2.03124458224391,12.23064813281
"79",25.0429461823178,31.0409200328104,4.93198315114552,7.33462172293258,0.027489324991456,-0.0466599792926323,2.15993011418181,11.4383529371256
"80",24.5908624824242,30.85587726045,4.97837884484163,7.1411557441192,-0.041364405272653,-0.0214178006576265,1.90240205555289,11.4989726985745
"81",25.1711849253573,29.8374400160286,5.16809738312515,7.05641563229954,0.0373039697782895,0.00379665854476843,1.92447786129466,12.1066404173842
"82",24.403579730271,29.7707604970878,4.72072527520007,6.9533425781138,-0.115404758918259,0.0662195508866775,2.038568901432,12.778912786352
"83",24.338924971385,29.9578164141138,4.40212881950358,6.89609217214571,-0.0663463375489896,-0.0323158587255655,1.99592303796903,10.7123822707805
"84",24.5628808424401,30.086975547136,4.96400871249065,6.68283042022418,0.0208503465542423,0.0247039640658579,2.08746286572421,11.5676836870944
"85",24.6926046503701,29.8398363714341,4.99749664991962,7.14225935112739,-0.0307277275565927,-0.015611373117347,2.07903651853826,12.7332083880302
"86",25.4821842265305,29.7554534757996,5.02160849711129,6.73059034694617,0.0407619923200696,-0.0199922887481795,1.76366448274238,12.3244745920438
"87",24.748679111084,28.5371502384738,4.86251845252601,6.51241166901514,0.0104573752906572,0.0113638925255725,2.01196827400232,11.0715630765482
"88",24.960712947001,30.8396727918022,5.00561582501637,7.11127665539007,0.0435352945615548,-0.0452734591074331,2.10700503090782,12.6659804115786
"89",24.777588325642,28.7923646493888,4.94138036487743,6.38803216158228,0.0136256694758661,0.00707726596548926,1.89680340600725,11.4323291998112
"90",25.3490381307581,30.1121549203534,5.10222345118836,6.69415735403415,-0.0705715511191098,-0.00261650085240467,1.95065452572265,11.9074684500929
"91",24.7549168091797,29.9120331416167,4.80398053139854,7.27391950240123,0.0333469495156938,-0.0192118523292937,2.01767730650634,12.0343832618297
"92",24.8360158877883,30.4504164786755,4.71487285431655,7.14269493222186,-0.0426904197633309,0.0280132610610799,1.95578603766765,11.5761415548603
"93",24.1086673030373,29.9350671054419,4.93769217706928,7.03862683649423,0.0233213287016243,0.0346761511405035,1.9322440263429,9.64338502105885
"94",25.1155952104766,30.2194897679703,5.35713413611653,7.14965404373311,0.0662117167127129,-0.0104800046904519,2.03494591000868,11.9947068373593
"95",25.1335899405708,30.369396016567,5.20759007082249,7.21168096975537,0.0328320628966571,0.0762684449269053,2.11928117880616,12.1528639163083
"96",25.0716913403339,30.566182415119,4.64649730854423,6.93748518633337,-0.0311479618143413,0.000859946996987406,1.96846355540622,11.2041616174985
"97",24.7671793071984,31.8461566183687,4.80758948044959,7.41142759742564,-0.0669829698166498,-0.0248569674698912,2.0852316019764,12.2497675335666
"98",25.2040730719274,29.4494535913667,5.0782539454255,7.06943221272651,-0.0199575942422797,-0.0263267538533368,1.82404262233765,11.9419810721278
"99",25.3924701787549,29.7569302186194,5.15014020735759,6.90931499336525,0.0183165108662795,-0.0229729789603266,1.84916969589695,10.2631893525451
"100",24.7943266949079,29.7025080955385,4.81851249436255,6.80533270059044,0.0280911678601085,0.00944961675724896,1.93470926099282,12.2711743729209
"101",24.7512161688054,29.6676666435862,4.73162916119152,7.06385561834816,0.0325993148881407,-0.0157656051518728,1.98043015969347,10.8658200683314
"102",24.51679257324,29.8768185826461,4.77710785121927,6.89397922165404,-0.0648468095034564,0.0720467504493372,2.11405502857302,12.5302683579767
"103",25.1294580382058,29.5255955041248,5.0968363698446,6.91246152915896,0.044611900862109,0.0371828236810042,2.02364814357526,13.667209867082
"104",24.4508907578523,30.0612083277598,4.99317713784518,6.90349498551224,-0.0161541764136691,-0.0040665569509611,1.98527680693697,12.0181232898668
"105",25.1688073712292,29.0361188481093,5.24864135519761,6.81229527289475,0.00988659553847933,-0.0669669214852611,2.08608383831738,12.4137511628675
"106",25.1742609163079,30.0934288525476,5.10749383060442,7.05734899212592,0.00473663129332761,-0.0478773638642158,1.92735494390418,11.264975362572
"107",24.4027561191539,31.2009191416693,4.86313860837951,7.27511897307242,0.0734030700337041,0.00461556666073548,2.08101078253817,12.2774629588825
"108",25.1913476993262,29.4909442742429,4.91640621664583,6.89583043202863,0.0321180335651076,0.0130088834204701,2.03382102675083,11.6599728612984
"109",24.6299049126497,29.8139956589325,4.72207118696232,6.98227029475734,-0.0357634036319217,-0.0160760771698074,1.98843152122368,11.971426986604
"110",24.8438153310554,29.8672745202569,5.11932053541553,6.88824351343036,-0.0306075964682665,-0.0050566437898075,1.96729613939102,11.2356071932561
"111",25.3642961826351,28.8033780951783,5.09017187538651,6.69247438617312,-0.0332257085733141,-0.010099699547771,1.84755865849618,11.0863895782502
"112",25.1852433127176,29.4201996274857,5.08317098952867,7.0298105232059,-0.0051586253881313,0.0198693874392729,1.99476180687786,12.8630481525804
"113",24.6620955420896,29.6303990110028,4.83563449901144,6.78222688670814,-0.128283319074149,0.0365680995703372,1.92678617234281,11.1472182223406
"114",24.2839021008988,30.2975100670541,4.86892678076535,6.65740812836926,0.0127058462419415,-0.0100227263326359,1.93173817610402,10.7778842535187
"115",25.038802732967,29.4491971796316,4.93069630887774,7.03538978481692,-0.0213691074901597,0.00342388430421948,1.84978853287971,11.0053063373602
"116",25.1045833023329,29.4167336152672,5.10821707868725,6.8511143464865,-0.0445282680558387,-0.0431860787863678,1.79666634290947,11.9820509924561
"117",25.0316333509497,29.3896171951611,4.99291838501677,6.70541352510229,0.0296467736418251,-0.0154263142685777,2.08999986422367,11.8132506739976
"118",24.6473861141959,30.7531516632053,4.77659335808705,7.2372415571387,0.000725095050183799,0.00702378346557923,2.07110704138386,12.1597946604846
"119",23.9267127804267,29.6332356333097,4.53091848249153,6.71346691304484,0.0378919146971508,-0.03594549477372,1.86979953205604,11.7822355340913
"120",25.1448277515776,29.038028280498,4.90847088050871,6.81398774618538,-0.0394243762362661,-0.0271392263467235,2.15249004355649,11.0729829834345
"121",24.8390702896202,29.5806249338517,5.16340384830393,6.90562684204303,0.0578599592918724,-0.00672823657315272,1.94180212760024,12.4255301085778
"122",24.7717879067393,30.048694328394,5.1148846559676,6.98637356837741,-0.0281194445861507,0.032322621067365,2.15063824641878,13.9962973947549
"123",25.574895934743,30.103790208383,5.0282619795217,7.22898620348454,0.0578007282494405,-0.0132013801356754,1.90235743969556,13.2842603844469
"124",24.9006835850987,30.1170982695149,4.87538381957612,7.03819147885922,-0.0835408387844689,0.00753096458814582,1.82041206895173,11.6652026029643
"125",24.8746209469346,29.4568215987445,4.672927087378,6.98439935027797,-0.0459489401114732,0.000101793602944032,1.95956929647108,12.9743285588236
"126",24.7589192227917,30.1046387259437,5.11456256843156,6.64980442986465,-0.0284121473147432,-0.00910273637093703,1.96583529089578,13.2604582157652
"127",24.9526085218758,29.6322887995187,4.92195529104445,6.83685045650815,-0.14423876124603,0.0390205244488214,1.91532658740866,10.6497109999188
"128",24.9326723933571,29.7320412879174,4.9972033219415,6.8065185939595,0.0584961118261883,0.0039921075102111,2.02746461944826,11.9371146418704
"129",24.6378769541455,30.1950858191216,4.84607999236922,7.10950754872695,0.00653678018371252,0.00103041097534196,1.98377768758492,13.1182531866849
"130",25.1915580051053,29.656384553,5.20166421870076,6.88355377094197,-0.0185567477234054,-0.0190837200607362,2.03331261428776,12.0137663324356
"131",24.3059701662592,29.3726664716051,4.72653253221525,6.9627096907589,-0.057303156621999,-0.0189773351025933,2.01460644557346,11.9054722068481
"132",24.7252459813225,30.1086406692299,4.83969491977189,7.10841210639909,0.049465742485028,0.00575938827365262,2.10815517058119,12.4182750664369
"133",24.8266453435318,30.179335775237,4.85067666895069,6.92312625548683,-0.0504990661474117,0.0560718879952784,2.12486961884417,12.7599007702398
"134",25.2351879211301,30.1512175464902,5.0737993642275,6.79984122280454,0.0589116042488063,0.00162302515304591,2.10877912593838,12.369666650621
"135",25.4742637325185,30.1031871895457,5.15868577216488,7.13430190969051,-0.0152875660435388,0.0054269910641277,2.08004375012262,13.1976194503254
"136",24.9216827623988,30.8913113657429,5.04935977398267,7.05366830615731,0.00259333322043599,-0.0402115692352197,2.08706068124789,12.2235372093631
"137",24.7356827255408,30.4652749751706,4.93854084454955,7.01356424364145,-0.0267870264416524,0.0134551315372304,2.06327510975992,12.353145968122
"138",25.6544866303535,29.7742372135999,5.20280820276203,6.9418480254584,0.0674553430368768,-0.0105854816446471,2.12424586121427,12.0100099958592
"139",25.4337730127981,29.2568007748687,5.2283496534864,6.7858935525554,0.0394545021733912,0.0287711839589777,1.7853411373332,10.9960605115661
"140",24.5224655160409,29.5407777304045,4.83651151059134,6.75447000445707,0.0158607284506337,0.00717541399771255,2.0369941075481,12.6102217022736
"141",25.036865362454,29.1693542408924,5.12733667598777,6.80803541631546,-0.0514189593890571,0.0376289486451067,1.82457050724402,12.3398882958313
"142",24.5609036364419,29.4036550269625,4.64985734373725,6.82656444872427,-0.0677380855407406,0.0561459671213361,1.88161397910424,11.5014101073121
"143",24.9923862039243,29.9603922928818,4.9903205771272,6.88047887070044,-0.0782472082339001,0.0751588946509807,1.98910421800982,11.5206275298086
"144",25.4254428675777,30.1852149648036,5.15856054712869,6.79326130369423,-0.129279577300689,0.0349423903125782,2.01041490085246,12.0617341613293
"145",25.1851380675387,28.4949488982662,4.85631104432978,6.91929612434785,-0.0737347696906518,0.0275514869143271,1.94922613323789,11.7937269597007
"146",25.3946351051632,30.9689121556053,5.29987964400016,7.06266591793283,0.108347891424502,0.00707105517554489,1.86037229853281,11.4154759836901
"147",24.4962871564325,31.6601279192089,4.82691999121878,7.60159018867979,-0.0223999443926885,0.0504044452970749,2.00491764494303,12.4104486113053
"148",24.6483456100069,29.5179617111869,4.66781323522397,7.03238530426403,0.0210533506666584,0.0334596094392433,2.05772700555191,12.500935132277
"149",24.994813824922,30.2583878484996,5.02432091301613,6.84249696684617,0.0147885142469566,-0.00254093224388427,2.05025590775602,12.3252874363104
"150",25.355980932134,30.1950339026361,4.97848547145438,7.04779316485681,0.0534739623460102,-0.00473515556578962,2.05614760613792,13.7536009186938
"151",24.6210028580416,29.9282369172005,5.17276092415405,6.68451269182051,0.0135870769305241,-0.0200983162366875,2.05010063202723,13.4352781895096
"152",25.0127726769911,30.4078683512978,4.93744023999008,7.08469444177058,-0.0425187525317904,0.000735525966697977,1.98395546248871,12.3488620682884
"153",25.2696644923178,29.2315659115949,5.0759445759058,6.5366604101316,0.0466014572237393,0.0233940094515033,1.95127625797939,11.0301622052854
"154",24.9950063062633,30.6508409907522,5.17633337190129,7.2990685528208,0.043948132954509,-0.00407552133488649,1.90971173524078,11.2165186642446
"155",25.3236374192054,29.4680280874202,5.04733624753202,6.94253187399949,-0.000549559841437547,-0.000538746873661719,2.12931125850996,13.938930945463
"156",24.550748487713,30.5111321751504,4.92027657524477,6.8353775436331,0.0190297009922553,0.0515860606863982,1.85487339699586,11.7078647727023
"157",25.0862923617251,31.1865306712583,5.34007336320548,6.77856669244625,-0.0274872810945663,-0.00847224544778979,2.02675277547294,13.9160842280997
"158",25.0442390882023,29.6722689326935,4.82328190635371,7.06468869562154,0.140387411881063,-0.0337738116900153,1.916782602299,11.6337798057643
"159",24.906168825697,30.1152567407661,5.05722573549914,6.93455843686099,0.0318713159251809,-0.0453447762548325,2.01792555681089,11.4862089756969
"160",24.7320940230203,29.8584391294899,4.86548979367123,7.14771671124771,0.0427910346603926,-0.00058926145865994,1.94414678982077,11.142982237381
"161",24.6447575644727,30.2585577217483,4.77859055470936,6.86792347554879,-0.00333504503893737,0.0306405888559881,1.93076170626587,12.360171635105
"162",24.9358714459297,29.8848049986192,4.96931750604771,7.0318919442365,-0.114344180146647,-0.00356359746365873,1.83082460583592,11.9139553765508
"163",25.1528288331891,30.5926679855531,5.098039261019,7.01222077943807,0.0186646308508805,0.0421801232187933,2.10622855042883,13.1012125164907
"164",25.4204780940292,29.5993251218449,5.04470515972366,7.05051489077487,0.0125214108583433,0.0572244335855587,2.04183685094865,12.8759574032184
"165",24.7634765948827,30.4300863373425,4.93524593155348,7.21317942860715,-0.0536487001285628,0.0705532628861542,2.00840306976053,12.0796824609384
"166",24.8187597344887,29.9295535269739,5.08353219271976,6.73434633358485,-0.121129156190487,-0.00880274175720009,2.01315110083019,11.6999845254716
"167",24.694480711336,30.2648591777985,4.89975153276561,7.01669010490011,0.0112983056957207,0.00929541173681635,1.90240874328237,11.8166401506547
"168",25.0714991760394,29.4224255081935,5.04202510527459,6.66884355125935,-0.00701931689160247,0.0397406596421855,2.00917621902762,11.2043515289343
"169",24.8547528166249,29.6513453900799,4.99323283043007,6.57008004525689,0.050554927536206,-0.0349261496163702,1.99932566086811,12.0327589056639
"170",24.5798299940131,30.6964509262237,4.83596176174461,7.16468058173411,-0.0360537807363129,-0.0349642194513756,1.9938928548636,12.1136881197874
"171",25.3097135545963,31.5512115376817,5.0706372804958,7.3046596604993,-0.0210965057107145,-0.0404308971668305,2.20026561506683,12.3301815261746
"172",24.8892582218503,29.7053040532356,4.82459890437362,7.2352941519584,0.000145746409295016,0.0132251349859202,2.07452529420878,12.5784189974637
"173",24.9205255893732,29.9852817381689,5.07113664613921,7.11440275088776,-0.0130926543947656,0.0114038998307994,2.07020036305876,11.5090284219646
"174",24.720536540539,29.8461887098991,4.77336626068324,6.78158999794371,0.000472919917192179,0.000845152830398257,2.06387045078018,11.4870863117141
"175",24.6888213567767,30.6419582252857,5.0498075986754,7.49561707836902,-0.014595412245187,0.0246912423056186,1.86663091560193,12.3830837112467
"176",25.0772955068608,30.2615357097883,4.85263176034503,7.01853355264762,0.0402274829169456,0.013138089905053,2.03351674889178,11.5996304628563
"177",25.7140821153314,28.8126094130715,5.10292474433502,6.68543067956133,-0.00551842405601454,0.0449256285995991,1.84939509085156,11.6472394443051
"178",24.8737367956768,29.8628758871327,4.98577899649421,7.0371945565035,-0.0164096276009348,0.0148746981437166,1.92177182441041,10.7394838090605
"179",24.6329879509671,30.1996049999431,5.04708686130567,6.68033543071276,-0.0453102928910561,0.00813708027732161,1.83878931584611,11.0935685325691
"180",25.1717994772924,30.2571821762652,5.32854989932463,6.93570388915975,-0.0139258334043324,-0.0233547686217464,1.99912203805638,11.2723605935192
"181",24.6145005887465,30.1657296116344,4.9568168174828,7.26517669065067,-0.058449577323973,-0.00333657339255456,2.03219273538047,12.1241183783474
"182",25.2507640478158,29.0006215508633,5.11607446962483,6.7597287978049,0.0934097360772636,-0.0225308845248262,1.98866241154415,11.9443048040421
"183",24.5701965634986,29.9710257446124,5.19212348013474,7.03206409958041,-0.0278455689444123,-0.0243860885265773,1.99772431181965,12.9221023159841
"184",24.6311145091206,30.1610556473552,4.83851371202131,7.29785131414425,0.0205883560280412,-0.0239249905679814,2.0390315809524,12.2146723689145
"185",24.3451188176039,29.6923883104344,4.64430935755124,6.68069771929194,0.00850899251332569,-0.0122347186749116,1.79047550834065,11.4987372945083
"186",25.0082998473167,30.7358372217737,5.04722163099459,6.93971843482937,-0.00954008799247642,-0.0222088778690948,2.04127625123877,11.9990150149474
"187",25.2139975498832,30.0599066457488,5.02871253899732,6.91257581781847,0.085020028690447,-0.0559363470110932,2.00105434582061,12.8507588172226
"188",25.3018419330091,30.4341323836652,5.13532202410718,7.20469381011182,0.062339678794156,-0.0105838411703753,2.00741433508203,11.0885289590699
"189",24.629829923738,29.7781598387651,4.7814392193634,6.7374873669557,-0.018641191694355,0.0177019584008436,1.92889234095466,12.0621902652115
"190",24.9441952045513,29.9344040544396,4.83270290889407,7.05394566347606,-0.0624609170796162,-0.00551112462232813,1.89168749669098,12.1471621113535
"191",24.67066552369,29.4403244420505,4.84500607887923,6.8258746829122,-0.00494160190099046,-0.00957174030154039,1.96843114003672,10.861920204826
"192",24.9638183979474,30.1889096631361,5.1627023704656,6.74832330586234,-0.0109124104687512,0.0159281465285713,1.92479838519653,12.4563785109438
"193",25.1126032380534,30.6646026617012,4.88022040941657,7.1875534579716,0.0329879068476636,0.0255926566472931,2.12909110928737,12.3192462818157
"194",24.7752731444889,29.410823662664,4.95336519600881,7.01160091661073,-0.0247882357302244,-0.0119803802846522,1.93751318374795,11.6019025652534
"195",24.9243074887045,29.1811198103323,5.0754930010531,6.64006003335185,-0.0311218495620847,-0.0232514962254724,1.95808471647227,11.4314811846451
"196",25.6852042702868,30.9603293176374,5.15867274269191,7.00095612374587,0.00122762432888049,-0.00267525599179787,1.95282341474264,11.8148703676688
"197",24.8298385219653,29.9895116348808,4.99714591677475,6.94786218793059,0.027936816101299,-0.00880914412144525,1.91396679031897,11.8879390297789
"198",24.989280521628,29.8239885767106,4.85128242223456,7.20441601353443,-0.0078670286186195,0.016220678895445,1.98126434509356,11.5250011946437
"199",25.0822161384819,29.6442244796749,4.95836267899958,6.69135547149624,0.032098485469769,0.0176121617482037,1.90813573506653,10.6834143300776
"200",25.706157770222,30.6084837359087,5.24498600970987,6.96700903090266,0.0407217362132262,0.0227476566129259,2.08964867550954,12.978005809569
"201",24.9168205177717,29.3363412258794,4.92565768411653,7.09049384112801,0.0257266885680835,-0.00507933980182615,1.98382498352561,10.6709023679377
"202",24.8559865780287,30.0335016756609,5.00157621097858,6.99664579708033,-0.000975740904378271,-0.0275941290674403,1.94907999779202,11.8875549707202
"203",24.8147521084467,29.7490484300282,4.86292948294204,6.66563511081691,-0.0314565269205669,0.0255227085276456,1.97983116534208,13.3385251454924
"204",24.8701023809884,29.4436582591862,5.12895518644979,6.84515278567021,-0.017095806793719,-0.0259482490595946,1.97054029869806,10.2784020191746
"205",25.5279073537859,30.5407655209198,5.05495130484347,7.22612025388389,0.0448360132539721,-0.0166402896852417,1.92750157385811,12.8643673831958
"206",24.8318755536868,30.3979076473257,4.8690701876482,7.06343836232332,0.0695443803350739,-0.036990351915233,2.14266017591943,11.6766191850096
"207",25.1974541310018,30.1223893320815,5.06268513157381,7.04111150234595,-0.0388343473780861,-0.0401374921204214,2.14739983460598,13.1002647733754
"208",25.1034727609836,31.2816008080945,4.79873599689619,7.50945155172388,-0.0338068185961902,0.0349378787864611,2.12043583574222,11.4702441564732
"209",24.9380923104369,29.8481932316557,4.96271749142497,6.93206972216773,0.0454428408927778,-0.0280852967944183,2.00007534694352,11.5355901651337
"210",24.5265388465591,30.6483965414278,5.03059101895647,7.07152743607307,-0.0499455542653652,0.0516853823477426,2.09441448071166,12.5655870186342
"211",25.4540989930743,31.2726990483251,4.99812829481655,7.38628482670314,-0.0459311423184833,0.0158599881073619,1.99355374740949,11.426053212199
"212",25.233446207385,31.133360277406,4.85489895904167,7.57718812254127,-0.0920258605104627,0.020557871440398,2.05964624715184,11.6479912301986
"213",25.5633871107395,30.4006388324976,4.97920771512641,6.90746354716653,-0.0628338575679627,0.017548779396445,2.08451195727758,13.1178122248724
"214",25.3224745774224,30.7393333908163,5.03211198784216,7.32496594334115,0.0286223939250408,0.00965473702743068,1.95745266774602,11.4412943998501
"215",25.2884567306252,30.2250410443722,5.10668424882614,6.83779910886121,-0.0319474330010427,0.0193770417119648,2.02925072026749,11.5477432382651
"216",24.5891206012217,29.8329703250274,4.68537505339425,6.90173512515052,0.116252745602122,-0.00345127350704664,1.85778424446691,11.0861031686268
"217",25.6542138502247,30.4326879942762,5.31093103020245,7.00771847651601,0.0446947551859715,0.0209890091640674,2.0555294595063,12.5402258537179
"218",24.8926012855321,30.5494453279912,4.86187434036507,7.2241160303888,-0.0332797469172541,0.0137747548342061,1.97282539383558,11.9718238175084
"219",24.5210978931449,30.0154712090639,4.92949324009225,6.91699601863122,0.0751952777279084,-0.0525647499401911,2.10760611450349,14.4852579734847
"220",24.7751035987989,29.2793252574152,4.94489274887173,6.74769983493017,0.0606573993271309,0.0195116963759785,2.22709888239985,11.4602368867942
"221",25.5424236952169,29.7494656198067,5.16315792006308,6.77512184855641,0.0420692933826747,-0.00899072445562215,1.89946386197668,11.940642366052
"222",25.377651159667,29.2188118746059,4.96697581031828,6.88162114890281,-0.0472233723341573,-0.0420302772808552,1.9548372960114,12.439516242754
"223",24.3130913800355,30.7884457708557,4.59749645917394,7.04208260508467,0.0136088721514324,0.0242063838369619,1.99194429803016,11.4140503114008
"224",25.0196457637849,31.6836470545109,5.15602756767564,7.50191508970101,0.0553915643138309,0.024579232469434,2.14772598387784,11.9517328608537
"225",25.0676270186329,29.6355583547289,5.06405390045393,6.860269717547,-0.0378314422546295,-0.0156864151405496,2.07500776609396,12.4717867604502
"226",24.5844153483517,29.4881251912332,4.87893755106995,7.01432470796227,0.0699485326950262,-0.0452810610315789,1.88368510381329,13.0332504318666
"227",24.8910033759635,30.2087453246015,5.0523384733276,7.09113435601524,0.0462305605667357,-0.0131970092727222,2.09374242825032,12.3085646637708
"228",24.7915224155341,30.1436294703507,4.94929642560478,7.12045064022467,-0.04426284348746,-0.0505588317658247,2.09231345374935,12.3904467410641
"229",24.8310783777245,29.4385910659455,5.18528254456112,6.87399907940833,0.140435353026149,-0.0744743903898131,2.05242802389167,12.0069299862178
"230",25.1542185340726,30.1265570854781,4.92312541489175,6.97621651307657,0.0443792426973023,-0.0105887616174566,1.96264353235174,12.0368707052196
"231",25.0714368792424,30.5074901867252,5.28914864828659,7.12687732832004,0.00633360913159389,-0.00713376499939244,2.00544598373502,11.6257410800457
"232",25.5131216979851,29.1408317266123,5.03171650239049,6.95218511528824,0.0504039178528082,-0.000937074675363612,1.98253073307828,12.3101904110743
"233",25.3106659006439,29.4561355525976,4.75653895794837,7.03598822954251,0.0804184985558015,0.0153272908620644,1.92730043078495,11.8367077191208
"234",25.2871313163904,29.9780464331596,5.09337651603704,6.67315613489413,0.0512826595779391,-0.0552544052338548,1.9241239102193,12.0039860369972
"235",25.4181801299348,29.2721347545282,5.30384691911403,6.55519026021475,0.0823016734449212,-0.0559361128779926,2.08083112301233,10.3633989813721
"236",25.397242792198,29.3660717690392,5.22626808781688,6.79699841118568,0.0168594085645693,0.0198291841750101,2.1857447346769,11.9872143862806
"237",25.4287558298717,30.7730644829529,4.98125610885002,7.33597880148209,-0.0876687013552079,0.0366997270258178,2.02865127299333,11.7993918666687
"238",24.8801613647739,30.1301432949033,5.00927232551898,7.27162543878822,-0.00237837720099397,0.0170289387031497,2.03125673659906,11.643461748679
"239",25.2908130707232,30.3820402354388,5.1981707693275,6.86468003164659,0.0209603823889641,-0.00906405994566238,1.97289526466935,12.9167035347941
"240",25.6170529591949,28.4214961084143,5.10686701433697,6.79632589489397,0.0262104126397336,0.0348745044250052,2.23196630147835,12.4362440377708
"241",24.7115696973813,30.4965897764988,4.9529550779088,7.0501635819755,0.00380333413674585,-0.0147397086462441,2.00588961768259,13.6240623333778
"242",25.2375104953988,29.6766476677141,4.9833632298948,6.91734197342824,0.0807243441974978,-0.00631830919993976,1.84079923544735,11.8378439979636
"243",25.2177762716265,30.164021844683,4.91867829329328,6.89036034424126,0.0611467165354607,-0.00540347483845768,2.00420415268357,11.5805627895491
"244",24.4109457674803,29.8568725478453,4.82019409550707,6.94308524052663,0.112201692550267,0.00336471559208248,1.90314839438866,12.3945951883678
"245",24.7188367779668,30.3173656522942,5.09146005112896,7.18715235502998,-0.0106579951639574,-0.000544035578327,2.06572902348145,13.0604397618167
"246",24.8509873596832,30.4241957110135,4.99268398959973,7.16295883938504,-0.0122544854534619,0.0216155535582297,1.87983931521447,11.53428837838
"247",25.028256713028,30.6980403793243,5.18842325976567,7.16249277810058,-0.0195166922535311,-0.0511921325828392,1.9966283856098,12.1678093210322
"248",25.5226178651146,30.0808167408138,5.24769921999325,6.84936761423531,0.0274659088712909,0.0244612009699032,2.09124198950934,12.8815621812067
"249",25.3000801025497,30.48373958987,4.87759510827663,7.1714202982419,-0.0159935594739702,0.0590769964256142,1.90435682461209,12.5750112752981
"250",24.7188976813419,29.3932748436728,5.24345451922466,6.53802535628393,0.0265615917062719,-0.00460012584355167,1.93977761499459,11.3470526257414
