"","x"
"1",0.8835
"2",0.8915
"3",0.877
"4",0.893
"5",0.8745
"6",0.9
"7",0.8935
"8",0.876
"9",0.886
"10",0.8895
"11",0.87
"12",0.8785
"13",0.867
"14",0.88
"15",0.8645
"16",0.885
"17",0.8705
"18",0.8895
"19",0.869
"20",0.9
"21",0.8785
"22",0.9065
"23",0.8675
"24",0.867
"25",0.872
"26",0.8995
"27",0.888
"28",0.8845
"29",0.901
"30",0.8905
"31",0.8875
"32",0.899
"33",0.8885
"34",0.8905
"35",0.8845
"36",0.8935
"37",0.898
"38",0.884
"39",0.8465
"40",0.889
"41",0.873
"42",0.899
"43",0.885
"44",0.8805
"45",0.8915
"46",0.9035
"47",0.8785
"48",0.8745
"49",0.901
"50",0.877
"51",0.9015
"52",0.8815
"53",0.8855
"54",0.8855
"55",0.8675
"56",0.8725
"57",0.8805
"58",0.895
"59",0.882
"60",0.917
"61",0.875
"62",0.8975
"63",0.8785
"64",0.8915
"65",0.889
"66",0.8865
"67",0.89
"68",0.89
"69",0.8735
"70",0.892
"71",0.8695
"72",0.882
"73",0.8895
"74",0.888
"75",0.882
"76",0.8575
"77",0.891
"78",0.8695
"79",0.891
"80",0.894
"81",0.8835
"82",0.894
"83",0.8865
"84",0.886
"85",0.881
"86",0.8935
"87",0.8705
"88",0.8705
"89",0.878
"90",0.88
"91",0.877
"92",0.877
"93",0.874
"94",0.8775
"95",0.8695
"96",0.852
"97",0.8725
"98",0.8795
"99",0.887
"100",0.872
"101",0.891
"102",0.8795
"103",0.8895
"104",0.8745
"105",0.875
"106",0.8875
"107",0.88
"108",0.908
"109",0.887
"110",0.884
"111",0.88
"112",0.881
"113",0.889
"114",0.878
"115",0.899
"116",0.8635
"117",0.892
"118",0.8905
"119",0.8855
"120",0.8885
"121",0.8925
"122",0.901
"123",0.8695
"124",0.879
"125",0.888
"126",0.877
"127",0.917
"128",0.88
"129",0.872
"130",0.88
"131",0.868
"132",0.886
"133",0.893
"134",0.874
"135",0.889
"136",0.8695
"137",0.886
"138",0.889
"139",0.8975
"140",0.8785
"141",0.8885
"142",0.8805
"143",0.8885
"144",0.8765
"145",0.9025
"146",0.892
"147",0.8645
"148",0.8825
"149",0.894
"150",0.89
"151",0.9065
"152",0.908
"153",0.8815
"154",0.877
"155",0.883
"156",0.843
"157",0.8975
"158",0.8655
"159",0.8895
"160",0.8925
"161",0.8905
"162",0.873
"163",0.8935
"164",0.8965
"165",0.864
"166",0.879
"167",0.9105
"168",0.9005
"169",0.8765
"170",0.886
"171",0.8655
"172",0.8635
"173",0.8975
"174",0.883
"175",0.8895
"176",0.8865
"177",0.888
"178",0.89
"179",0.863
"180",0.905
"181",0.886
"182",0.873
"183",0.8985
"184",0.8765
"185",0.898
"186",0.8735
"187",0.893
"188",0.862
"189",0.8665
"190",0.877
"191",0.89
"192",0.888
"193",0.89
"194",0.8985
"195",0.8775
"196",0.9
"197",0.883
"198",0.866
"199",0.876
"200",0.889
"201",0.874
"202",0.874
"203",0.8665
"204",0.8855
"205",0.912
"206",0.87
"207",0.881
"208",0.884
"209",0.8905
"210",0.8995
"211",0.882
"212",0.8655
"213",0.876
"214",0.887
"215",0.8845
"216",0.8845
"217",0.874
"218",0.877
"219",0.894
"220",0.8785
"221",0.8995
"222",0.8795
"223",0.8885
"224",0.8695
"225",0.8885
"226",0.883
"227",0.8885
"228",0.874
"229",0.9055
"230",0.8825
"231",0.9045
"232",0.8625
"233",0.8855
"234",0.8705
"235",0.884
"236",0.8725
"237",0.8995
"238",0.8855
"239",0.88
"240",0.913
"241",0.8925
"242",0.905
"243",0.899
"244",0.8875
"245",0.882
"246",0.8965
"247",0.8685
"248",0.9125
"249",0.8745
"250",0.853
