"","x"
"1",16414.0533531962
"2",16299.7695595189
"3",16361.2723725148
"4",16307.7018666418
"5",16299.4809217867
"6",16027.2187563508
"7",16171.3525531415
"8",16408.9156928225
"9",16270.0939862495
"10",15956.1819881465
"11",16153.3317320575
"12",16233.4809209728
"13",16137.7299215038
"14",16505.7094389263
"15",16476.0376513771
"16",15994.9279801629
"17",15986.9085745404
"18",16120.1596707168
"19",16111.1393638663
"20",16376.5654907199
"21",16370.6722403141
"22",16185.0694091672
"23",16149.861195201
"24",16238.6197103841
"25",16185.6130755628
"26",16474.9901603647
"27",16206.9202947759
"28",15924.5852199921
"29",16313.6846708169
"30",16118.9287182689
"31",16225.145705525
"32",16437.696062469
"33",16243.9840335154
"34",16222.4304635918
"35",16313.1141277082
"36",16357.4336459555
"37",16238.4644340475
"38",15980.7565408572
"39",16202.0179754882
"40",16282.3026471743
"41",16119.8036831776
"42",16286.6408978362
"43",15882.1743281108
"44",16310.3954943538
"45",16292.920030103
"46",16541.1834172857
"47",16299.0827818647
"48",15949.1778411949
"49",15945.8307249802
"50",16318.6890154195
"51",16392.0084634155
"52",16262.7578149596
"53",16255.6380790116
"54",16058.9064988915
"55",16419.5781979276
"56",16109.7456115821
"57",16353.2014375896
"58",16264.0314557363
"59",16384.7612384765
"60",16190.0070301431
"61",16120.1071822278
"62",16124.8632829308
"63",16421.0946975173
"64",16159.6024791453
"65",16002.3862703963
"66",16219.5773055885
"67",16286.3973047329
"68",16460.4605516779
"69",16079.9739398023
"70",16241.9489447855
"71",16290.4807487803
"72",16162.4060168123
"73",16337.2674752167
"74",16197.8743186679
"75",16164.1134519291
"76",16098.8607384192
"77",16162.16130026
"78",16147.0216023097
"79",16266.3319126671
"80",16478.6803888902
"81",16256.5216234064
"82",16269.156244918
"83",16326.7837091339
"84",16118.5977734002
"85",16157.191885236
"86",16340.8359023035
"87",15885.746167717
"88",16068.3477718603
"89",16512.4054362131
"90",16232.8560981733
"91",16260.1508507288
"92",15974.8288017338
"93",16263.5657892603
"94",16320.5866324891
"95",16305.5976438277
"96",16305.9308237549
"97",16414.3801762901
"98",16172.5228382581
"99",16322.2380503327
"100",16234.9372654381
"101",16352.0235881914
"102",16397.9472088744
"103",16078.1522668451
"104",16357.1816189082
"105",16520.0062980334
"106",16464.7123854537
"107",16431.2675283846
"108",16141.6793165645
"109",16313.9185806614
"110",16310.6486062752
"111",16087.8497948708
"112",16176.9997813286
"113",16300.4092530676
"114",16054.0388718183
"115",16077.7686842557
"116",16050.4894452276
"117",16177.3569375146
"118",16272.8736982858
"119",16104.6588517397
"120",16259.1919740666
"121",16287.3089083933
"122",15962.4794664389
"123",16114.5453461798
"124",16459.4874273289
"125",16144.8188076835
"126",16169.9591360589
"127",16168.1099037118
"128",16292.3728657454
"129",16511.7441979451
"130",16390.2098566421
"131",16218.1036003432
"132",16140.1512825558
"133",16123.9811265634
"134",16072.2227849715
"135",16281.1464892254
"136",15975.768091245
"137",16390.8219968244
"138",16114.1135173992
"139",16254.9356757953
"140",16228.2774342681
"141",16049.0944009153
"142",16044.1418035657
"143",16189.3162290971
"144",16250.1445754018
"145",16165.5649658105
"146",16450.2597467328
"147",16150.6855396861
"148",16217.5698023539
"149",16373.5537150735
"150",16495.1271771603
"151",16274.6461844412
"152",16044.4545017101
"153",16419.5257734826
"154",16324.1938700967
"155",16093.3309110746
"156",16341.3647270422
"157",16216.4473414588
"158",16366.7700091427
"159",16295.4748995355
"160",16487.3139286755
"161",16418.1013742598
"162",16177.4571653984
"163",16049.1441173193
"164",16059.4084258972
"165",16344.3977239948
"166",16325.0141570108
"167",16366.9339625232
"168",16217.8112275365
"169",16135.4976674405
"170",16224.8588188926
"171",16519.9109988644
"172",16208.693472546
"173",16193.6852393554
"174",16310.485218785
"175",16412.7381763946
"176",16366.7961493727
"177",16441.8629303132
"178",16369.3256633202
"179",16495.2716106496
"180",16134.6126829757
"181",16312.9020345821
"182",16148.9317500422
"183",16234.4386461908
"184",16286.8276901654
"185",16380.8531802051
"186",16327.7373418868
"187",16396.9414245913
"188",16334.1352293321
"189",16275.5654984902
"190",16161.852357963
"191",16185.6093376153
"192",16353.6780012443
"193",16156.3103845164
"194",16363.6212346021
"195",16174.1662121097
"196",16444.878288418
"197",16055.8307167397
"198",16342.4901175492
"199",16198.8613533575
"200",16118.9603582966
"201",16509.3020635017
"202",16366.7323257496
"203",16395.7078827577
"204",16296.3499869944
"205",16374.1066193453
"206",16175.3683941719
"207",16250.6224686779
"208",16482.6857456942
"209",16317.6891316727
"210",16500.4358258975
"211",16475.5968604896
"212",16302.1717361548
"213",16142.2835460778
"214",16348.7941311463
"215",16408.7444664109
"216",16339.9175782186
"217",16204.8539504808
"218",16170.3355236332
"219",16174.4836593513
"220",16017.9218951878
"221",16508.646137425
"222",16017.5017709045
"223",16483.7984681009
"224",16174.7210869248
"225",16402.1427974226
"226",16302.8462330686
"227",16327.4395990751
"228",16308.8437161169
"229",16277.2696499829
"230",16097.6596547729
"231",16335.8092629365
"232",16286.214624944
"233",16182.5574369733
"234",16261.6148759872
"235",16429.5129014168
"236",16218.2309615965
"237",16076.1779380981
"238",16399.4300921956
"239",16306.4497203847
"240",16480.3733388113
"241",16414.9369472487
"242",16243.2096517088
"243",16060.5923340653
"244",16365.284478742
"245",16127.4602242687
"246",16303.9864791469
"247",16222.5723882766
"248",16166.1454147902
"249",16203.4408771878
"250",16153.0065416205
