"","V1","V2","V3","V4","V5","V6","V7","V8"
"1",25.1361047129456,30.2851552049373,5.00318585490272,6.9579855941351,-0.0284222017731873,-0.015310529450688,2.02968993394564,11.2074299594256
"2",25.0351052951328,30.128341748235,5.00079201418937,6.80303969209601,0.0197033342342877,-0.01186326452967,1.99009970613496,11.7473226817113
"3",25.3934651998432,30.1122382786773,4.95095648732802,7.16829656625665,0.00684277463247681,-0.0224067042068613,1.97828925094071,12.2225573362862
"4",25.0237004887874,30.1704932646189,5.14100434910953,7.40312493708074,0.00280489834354454,0.0112868910466886,2.03642448093702,12.7587637975183
"5",24.7955779906125,29.7127634386176,5.00212125064915,7.1180635102,-0.00878772963540432,0.00845053460182047,1.98303690481325,12.1509842953019
"6",24.9863090523733,30.066707563325,4.93983829999793,6.83238195926423,0.00675253504558462,0.00591281501237463,2.20172422172333,10.9613738817408
"7",24.9696717032743,29.9991147060318,4.95015128224015,6.95693259027829,0.0440424762863766,0.00577299944556026,2.00488490334172,12.2880593841292
"8",25.3858896321036,30.3061578920415,5.25327742417114,7.01055883044488,0.0132823992915319,-0.00675098950083872,2.0112185747938,11.0766476873493
"9",24.9565346699215,29.9878860399575,4.95747765414279,6.88570144293687,-0.0226264728962521,0.0133111305132054,1.98943260857809,12.491394850477
"10",24.7829597293841,29.7443403688144,4.76974144973336,6.93621891224198,0.0270619573996683,0.00415545065695034,1.88474079185536,11.6356051431211
"11",24.83117530243,30.057845359271,5.10973166182141,6.89933989452054,0.0313130238914757,-0.00236710673647523,2.04236913071411,11.6581871084762
"12",24.841164699608,30.3566652656262,4.9790759064704,7.0633976760054,-0.0268895537883132,0.000227472122409706,2.12456757857169,12.350043416922
"13",24.7994154362663,30.0498223524369,4.93862803458647,6.9516467922805,-0.0235889411747505,-0.0021850762781458,2.1251655460835,11.5955259770325
"14",25.2875252052758,30.2436619678821,5.23003408895744,7.2377547396003,-0.0178121831701136,0.00972704715842248,1.98331916477434,12.3895121843498
"15",25.2608590091641,30.0079173155601,5.15765686263741,7.15984012659938,0.0211593867104078,-0.000980617904950272,1.85716686594363,10.8882693850954
"16",24.9687571794563,29.6341018812116,4.82603101456852,6.65004242493559,-0.0403968648809811,0.00186520246919732,2.08955311140689,13.6864093827026
"17",24.9742894947262,29.7645166950539,4.63125495052719,6.76716864773514,0.00897019682066017,-0.0191160872211906,1.8526852661108,11.6724681348104
"18",24.8446973818548,29.9035250109372,4.89611145402578,6.8089887809354,-0.0395600861815311,-0.00694049803842953,1.96260415561383,12.0625093365438
"19",24.9226383896816,29.7109031240301,5.02956054155936,6.70598044926281,0.0170137607352423,0.0116445213153557,2.05130060908282,12.4634166651905
"20",24.9056891869853,29.849198585617,4.96140926277994,7.02786212824776,0.0340950682202244,-0.00957532575568904,1.88948245409488,11.8611725976035
"21",24.7355307231032,29.804690786674,4.86673101596246,6.85669246374358,0.00707980324741492,-0.0142425106053327,1.87000950081916,12.7091262548749
"22",24.8829640452655,30.2594300648198,5.13783078612172,7.03975558427705,0.0306032698176054,0.0140927378950046,1.9958959845247,11.7854603068142
"23",24.8759934328362,29.6296447681175,5.09348345635403,6.77863680698884,-0.0223209027040113,0.0107561288197176,1.9918796685227,11.9009406495131
"24",24.6836424281197,30.0715816740774,4.70739468451798,6.90141167837986,-0.0436435629458863,0.013237730429137,1.81161227919527,11.7375846007012
"25",24.9997795465137,30.002509534419,4.95316455998034,7.08032880520962,-0.00358685024720921,0.0157795467901203,2.04095473369046,12.258202960994
"26",24.9008838190919,30.2680537069166,5.0362295584395,7.2038569763447,0.00157753313609083,-0.0079792917247738,1.8683401413892,12.896210335834
"27",25.2853471620569,30.0493362823511,5.1056295333987,6.9168050101243,0.0150396121673359,-0.0353344511407427,2.00725804957987,11.9502257857013
"28",24.9070872456323,29.4790494660034,4.96633334236571,6.78235444313234,0.0201315950656704,0.016718322184905,2.13509080872207,12.1869562112558
"29",24.7595305538669,30.333669455422,4.99804435233442,7.17352455695145,0.0270787590147475,-0.0133357092826717,1.95144569117896,11.6366343779921
"30",25.0130995548079,29.8608616590318,4.95912497690909,7.00664646495672,0.0287284196339574,0.00678909139623602,1.91215929536942,12.6518990550377
"31",24.8025173620773,30.154363280734,5.05208658121256,6.8316812266037,0.0274651900714,0.00448584778741767,2.04699628149224,12.2691049187934
"32",24.6131067806812,29.9326135530484,5.25586644599071,6.96870593366892,-0.00609391602165365,0.00365401293464722,1.94786642279755,13.1284158569059
"33",24.9860013727226,30.0106461101913,5.08315504502483,6.61994768688918,-0.00579597610385819,-0.0110962105190195,2.14416976021999,12.5542493420987
"34",25.2055247234646,29.9811595425353,4.8172696719463,7.00538182832311,0.0330872715572914,0.00681910315901798,2.08481639179139,12.3703320944825
"35",25.0683766633763,29.9214058554921,4.99186441051183,7.192060569583,-0.0225440123035585,0.0112456084402509,1.9050495704096,13.0856562003966
"36",25.2961991111208,29.8146225994315,4.9198219654098,7.34184674852502,0.00820044012282961,0.00697157831088167,1.91161199443836,12.9734136512813
"37",25.327183417327,30.1174766392203,5.04974571877653,6.80558828935532,-0.0165327366403199,0.000927142275308698,2.0809590537848,11.9607639699679
"38",24.753644142952,29.9304194207993,5.06252464241529,6.83443379357472,-0.0401952327399734,0.0028471100612364,2.11341873181237,11.9010751411438
"39",25.1050991333026,29.6565757919041,4.96002297720259,6.89479600218402,0.0382702280204988,-0.0129700034102838,2.08269640557827,12.4208550308603
"40",24.8341293922368,30.0299917668884,4.87841759767171,7.11602597227408,-0.00173310299507128,-0.00946824070195941,1.93001005999312,11.4337844977391
"41",25.2862513334917,29.6651127162339,4.82003102149225,7.0571631609098,0.0380567232194738,-0.005614231316587,2.08586351130641,12.038354284631
"42",25.0001113712767,30.5440379959467,4.92077651650134,6.90864061450051,-3.23428558405104e-05,0.0186039465518737,2.10680096557144,12.0309404782337
"43",25.0392929084165,29.8095446293694,4.67329734734783,6.86548814419535,-0.0581744801711508,-0.00977281434600505,2.09732992992059,11.7661588040345
"44",25.060866467638,30.1428744866199,5.07316089831797,6.97817410094507,-0.0536344762728197,-0.00140869126353691,2.0018377607436,11.625074487055
"45",24.9279597775805,30.0285562560928,4.98036184832219,6.79185051797919,-0.0216134095421225,-0.008423841521747,1.9830565593761,14.1221451845194
"46",24.9323638637063,29.9333431443576,4.92929375763822,7.25857156820953,-0.0453844950754885,-0.00541901244414195,1.94951525058548,11.8312683695151
"47",25.060432847002,29.7850725855318,5.02948460591931,6.89015706255738,0.0185296216098241,0.00996433803940057,1.91180435807299,11.4380979479497
"48",25.0638240435682,29.6502767558733,4.96765472566281,6.65695887811363,0.0321398738888436,-0.00398813970966277,2.04438985466182,11.7466342612109
"49",24.5994203403452,30.0544068670671,4.67477832175725,7.00653962565625,-0.0035925577446955,-0.0190310435023615,1.94597818699351,13.05835976256
"50",25.2097812703152,30.3355573459785,5.04918595378362,7.23668405096581,-0.0133268864239398,0.0080149193863693,2.03851395773932,12.6638074928524
"51",24.7695517275552,29.7771116505918,4.65251679161823,7.20374575836075,0.00441166444257398,-0.00391428389235895,1.91422888961874,11.9860616451606
"52",24.7238479406865,29.6445932160005,4.8249969755166,6.90559692062295,0.00679688373483204,-0.00301461871161388,1.93720863963083,12.4057934171751
"53",24.8992260902167,29.9084434263136,5.10015067865937,7.32856000002683,-0.0119198082087126,0.0121009563520575,1.85402195104099,12.4602783037697
"54",25.0853991188956,29.725348716074,5.07883638339924,6.72384607570611,-0.00146634117677528,0.0157225340188897,2.00547451388699,12.5042738181795
"55",24.795149399336,30.2807581903492,4.80794657733304,7.14571412098715,-0.00142531945448896,0.0211276994233302,1.9141039281763,10.5606417428642
"56",25.2158764050103,29.7722865230554,5.13905127204467,6.84365608613318,-0.0115163485249621,0.00461598818070126,2.09967032683798,12.2978794990015
"57",24.8195743989096,29.9664657512733,4.89406570029218,6.8600489073833,-0.0162849515641277,0.0162501985047007,2.07893771157786,11.7896171868107
"58",24.9613604961511,29.8123142428816,4.97818199433734,7.05343297861598,0.013192858748178,0.00248533310849993,2.05457777355211,12.3912990442465
"59",24.9971107460863,29.8523177147406,5.20403116193947,7.1795107647654,0.0117794831563599,0.012427564943666,1.96649959152525,11.652491391029
"60",24.7748375783192,30.26506327478,4.87065004504699,7.01831761744051,0.0328677172537324,0.00822662283177659,2.01359347336912,12.0704067830899
"61",24.8667460504086,29.4472508774146,4.82817263127835,6.93785195973861,0.0463811766588738,-0.015943579323598,2.08173592365648,11.4596584794718
"62",24.4681537728991,30.0261327883448,4.76288742483744,7.17966454116874,-0.0193017034541009,0.00410015565948353,2.1179391746583,12.5592144675969
"63",25.0384229422442,30.1733380509444,5.11647986015927,7.05990526302995,-0.0141591918820399,-0.00864970451153292,1.81400988226944,10.7628221725105
"64",24.807730872909,30.3363881823171,4.86186034804814,7.14730235071583,-0.0207336235128242,0.00237773127034957,2.03180276658943,11.6035560405745
"65",25.0734171965604,30.1216763723267,4.74525016966246,6.83213786780941,-0.050380976891387,-0.00842911449165714,2.17244045014981,12.3778306262287
"66",24.8692355942108,29.8579254012118,5.15662960979624,6.74333272403531,0.0501806112509926,-0.0105695080016996,2.03053849487517,11.8193080656936
"67",25.0675300030898,29.8665947235316,5.01533298705837,6.88413464366314,-0.0110882964187769,-0.00517132536838356,2.03876941217008,11.9923935803113
"68",25.0663354862164,30.0634207895892,4.95224599886061,7.13224001012887,0.0270390465398096,-0.0038702253329246,1.97838811497744,11.3939196802903
"69",24.7001485800414,30.3327957815319,4.58019811289509,7.10391795711374,0.0116583460092087,0.0111694484182892,1.98214019838178,11.8872888115829
"70",24.9308081393908,30.5761201775982,4.99191821160047,7.14496999400281,-0.0199284794059216,0.00936858324056989,2.0286922903173,13.29035686352
"71",25.2654047772632,30.1283239313423,4.98245543709629,7.31983937216928,0.0254058812208541,-0.0133108688399759,2.0672236743596,14.7657047058505
"72",25.0627459201421,30.0801667312855,5.35218197707951,7.12840937880941,-0.019863833093851,-0.0137709106823356,1.92377659095092,12.3330772788266
"73",25.1411996502741,30.4159753707212,4.88752534961119,7.15096225742707,-0.0216376108970238,0.000852940103652158,2.03844258156941,13.0801694986362
"74",24.8288647055264,29.5925328465122,4.98196988804618,6.88420268058801,-0.00863849763686731,-0.0058377376030261,2.09386382253632,11.9817430089391
"75",24.6631324311437,29.7704503059366,4.64853511660118,6.75037675003978,0.00796845128653738,0.0102674125978121,1.90898729791932,12.5508223926758
"76",25.2164783978438,29.6782910473876,5.05997199431004,6.98637791505561,-0.0164374256359815,0.00347152221129457,2.00939642449484,13.0306121815603
"77",24.44360625965,29.5218263121942,4.92360495268969,6.73210512649189,0.0199010548365654,0.0140956224235492,1.92016627257819,12.3893452754744
"78",24.9064978686473,29.6760287253353,4.84910971173867,7.13239028398375,-0.0106645433678417,0.00872525424089649,2.09027600669857,10.9568190056814
"79",25.2976508422165,29.7490537024911,5.10248371800746,7.0274218151802,0.0174316487876378,0.00273961141446006,2.18848634244036,13.8266744645826
"80",24.8707621849618,29.9577767759645,5.0376002700067,7.12448353532245,-0.0167166334525959,0.00736868747987045,2.02440252421218,13.0410275796821
"81",25.096794757512,29.5276143231401,5.08727741900987,6.94934984661852,-0.0273581764344123,0.00659053849829661,1.86946311482539,10.9071564943481
"82",25.1294587150061,29.9126411470801,4.76929043418912,7.15956635594006,-0.0150627417293692,-0.00565682386262355,1.9444191068449,12.4074937666304
"83",24.9993805085932,30.2002102683195,4.9953432844151,7.13813966252609,0.037077083066698,0.00842640183616875,1.95183314694981,11.6361314875226
"84",24.9714018193765,29.8405046917479,4.98574333858316,6.78884497763124,0.0156982320311544,0.00717158582233057,2.01088086849667,11.41195923132
"85",24.9104223438906,30.2869905686344,4.98064927198392,6.9476935055947,0.0180906434430106,0.0034509516904203,2.16912187372638,12.0760379622622
"86",24.8885439675049,29.8159955000458,4.80321832742274,7.01676260062629,0.0135441676497314,-0.00713896361754409,1.98281075046185,11.0865972416343
"87",24.8477619019653,29.8843523145672,4.78885941606843,7.10499043720911,-0.0337843312275935,-0.00995278466223249,2.08299156293696,11.9451161428879
"88",25.1100056440713,29.7174671585703,4.69709306842558,6.8100085569027,0.0149940490125805,-0.000278004199087558,2.03945433261217,11.3109019144398
"89",25.0286441268101,30.760228801906,4.97682474303758,7.12542014721357,-0.00871247591248566,-0.0106960871307039,2.12206957602648,11.9354017802643
"90",25.1013913989873,30.1187858170392,5.12963823304685,6.96236789371395,-0.051825236900114,0.0105138744045139,1.91502420535776,12.7819483110235
"91",25.2927405871449,29.7330483363662,5.18582522620606,6.7987055620895,-0.0182931700514734,0.00539854569554898,1.99223161248147,12.7248272306188
"92",25.2204088229504,29.8309782020764,4.86808333760922,6.68924455522584,0.00555721605149557,0.000634269097012079,2.06022201373775,13.1020069721122
"93",25.1701017008638,29.2290732687417,5.04863748138975,6.88081853126704,0.020917698251418,-0.00940747229274401,1.91172650436501,11.5943147191906
"94",24.8017587978032,30.6093338272572,5.08751146772814,7.24340317330353,0.0375887304873584,0.0214206100624574,2.20519550175284,12.2286231718948
"95",24.8600239839178,29.9834823252933,5.17698817716715,7.12044411698465,0.084312488097251,-0.00729104739439703,2.0635497209695,11.5203888034616
"96",25.3278325777087,30.134622032931,5.19963841057561,6.90494354788793,0.0325833148547022,-0.0171565840168168,2.04623570456287,11.75676641786
"97",24.6901720741398,30.0090565394863,5.01270471738219,7.14922796167905,0.00760613098817393,-0.0187109510667566,1.85581708010753,11.0754227604517
"98",24.94591777629,29.8123534739706,4.9378447740924,6.94424677793529,-0.0587918909140205,0.00719756824549773,1.93833153673789,11.5394900487639
"99",25.0375212261887,29.9768141332621,4.82897981510494,6.96261089986655,-0.0151647977605553,-0.0116911040947706,1.87732696711168,11.8723695192569
"100",24.9820997818361,30.2371224287277,4.87437794702723,7.06917009369647,0.0614049896573799,-0.0119003483478175,2.01093591645176,11.7275310990825
"101",25.0694441415078,30.2636151797284,4.75732566117527,7.17335559097208,-0.00923834754544246,-0.00530882339741993,1.73688536528699,12.2570495655095
"102",25.0174321915282,30.07088620437,4.86258887085945,7.31746337568137,0.0265242832415384,0.0162297624126162,2.01292232044475,12.0341743216615
"103",25.0825013479134,30.2861416756189,4.72997941216201,7.02109240720486,-0.0161991912671523,0.0028702444944595,2.07277878644419,12.9545431497284
"104",24.9534671574164,30.108895244334,4.79727629534663,6.97305120620459,0.0082578509042338,0.00121007269909211,1.94989308412324,12.7054003135668
"105",25.0955254544364,29.753927700912,4.99483643368497,6.81368072503313,0.0464357929165715,-0.0179845552243219,1.85004375742193,11.0661646738293
"106",25.0608663652287,30.1369360020636,5.07336717207125,7.08761113533923,-0.0153394341445203,0.0138295162021936,1.98132150587164,12.0477451199684
"107",24.8466452562596,29.9491300107769,5.044307358928,7.31689786314799,-0.0427780168088715,-0.0282937109133872,1.83123639226617,11.8104799959577
"108",25.0078969280907,30.0743769067619,5.30699285832769,6.98825831480445,-0.00137960213897453,-0.00404681440849174,1.95237199639871,12.6106583790974
"109",24.8294145610447,30.1289330402152,4.86715116018998,7.0468310617475,-0.019792774377373,0.00219663556211671,1.88134714924191,11.1440835466603
"110",24.6579216662908,29.9579079361778,4.92930871004022,6.73157523808681,-0.00818311614828732,-0.00420244993471533,1.83410692389671,11.654852776633
"111",25.5168048562353,29.6574443794005,4.96130346517491,7.15422317298457,0.0279744693171695,-0.00764154810122644,2.06707420861352,11.562894337091
"112",25.1039653857618,29.3601432910656,5.0704399506704,6.89203430311567,0.00244484780000054,-0.0178283665030161,1.90578879621381,11.9214911951687
"113",25.1166913599519,30.0719197709853,5.07085837330794,6.71388742003939,0.00173149394089044,-0.00479897172121976,1.91755383212239,12.8023428613155
"114",25.1999779837693,29.691991512055,4.91921675030124,6.90802798232569,0.0193425622722699,3.36593406525372e-05,2.09293055313835,11.6180368563435
"115",24.9676502214692,30.082459623244,4.97191691997683,6.75521002232459,0.0235448626526412,0.00968248993590372,2.12390374618034,13.5118846092562
"116",25.4777198018093,29.5503532980271,5.19618545594059,7.1043123950858,-0.0061058109406847,-0.0096037933554064,2.24967976808147,12.1962077214018
"117",24.5959088831228,29.7957880973574,4.59716377037286,6.87427689393294,0.0343869830662561,-0.0095730387954674,1.89619682345205,11.3107254211708
"118",24.9725581206342,30.1425205718648,5.04617771095899,7.0251288866033,-0.0112753527149922,0.00937644961608473,1.95849693682236,11.9946486545109
"119",24.9024490891849,29.8600501576658,4.82412883285909,6.70677555849231,0.0228209737470028,0.0103295451391364,1.97267700497301,12.0167528785648
"120",24.8519829243462,30.0971857885831,4.90429711469511,6.92350823938756,0.0205567081058436,-0.00586880059167846,2.00641619292801,11.139628061135
"121",25.0084800147692,30.190459286663,4.95425897275609,7.05805908595341,0.032960050617898,-0.00355265003820667,2.08033401332709,12.0664110399053
"122",24.95355056753,30.2579225108156,4.7915036107783,6.98194539204542,0.0277883514127969,-0.00914612051158182,2.0653081362006,12.2147635440909
"123",25.19243485737,29.6727571503073,5.11686716100041,6.80712217013399,0.00686551143445012,-0.00885164175808723,2.13688368814222,11.3300343754104
"124",25.343312553683,30.1664286745439,5.13543372083459,7.07271809155545,-0.0146251070053249,0.0072606410146654,1.99156400179573,10.5205628645731
"125",25.3210605165996,29.7465919340178,4.96746794528245,6.93224090492109,-0.0148346678767201,-0.0109051819076246,1.98090628223987,13.1488965982465
"126",24.977162304541,30.120870261235,4.94797362764208,7.15333223454357,0.014085926880688,0.00846602483518382,2.05662577924673,11.6649922291963
"127",24.8947329147456,30.0098581828663,4.71710634399467,6.72435979293655,-0.0120987184897146,0.0181339961307217,1.8527331179341,11.8811769256416
"128",25.1991559886706,29.7982645458959,4.99355582548431,6.99232485676022,-0.0121527170295489,-0.00810972350730156,1.95065909567482,12.1002372544881
"129",25.2170849301753,30.477221106627,5.06700849441375,6.98225154126195,0.0250169600676711,0.0128243272198112,2.00885688355674,12.2624982779952
"130",25.0792807738985,30.1934204422192,4.8514020796875,7.21957025816777,0.0059601052482985,-0.0232270110055729,2.04829473069737,12.1522971990867
"131",24.8827425552808,29.571698334989,5.01234083006935,6.94091402905064,0.00374799864200006,-0.00253364881204532,1.9208712739616,11.2866401630218
"132",24.6885721280757,30.1876871154237,4.99734901818241,6.9713964527913,-0.0448907920903054,0.0143977178137109,1.93880326509465,11.5645660724193
"133",25.0588666363801,29.7041981443041,5.02955713965193,6.84418165273426,-0.0439516358620784,0.0129857847928018,2.08925654985823,12.9708060740619
"134",25.1935275428756,29.5550466178191,4.90395686071429,6.78415263889735,0.0102135718716865,-0.00126943668017336,2.05285813165709,13.1818605822777
"135",25.0785736383836,29.7623342376767,5.01976584375359,7.1357698955291,0.0267316480356485,-0.000603272322605662,1.9582665837893,12.4792212711126
"136",24.5980657550906,29.9761409791655,4.84566715418418,6.71493292352723,-0.0544784303528519,-0.000131213815949092,2.06754668986184,12.154616677257
"137",25.1486171144824,30.137612520377,4.93251035499247,7.02632785319188,0.00746713621177344,-0.00330929326252859,1.96637182752544,12.221382927628
"138",25.2002909880272,30.0589633407799,4.99966884792517,6.94280021576896,-0.0199163120958955,0.00776467678210153,2.00863166816043,12.9319304807544
"139",25.0831634041609,29.4738487852609,4.90852380015195,6.90835164970627,0.00875077855135346,-0.0107416873502301,1.98784460205424,12.4057396749572
"140",25.0037347625834,29.8067087036489,5.08892609210906,7.1701954171259,-0.00204811177443487,0.00280521592509371,2.099127840777,12.2425175830882
"141",24.939837306461,30.2205263673697,4.91059939616841,6.90704147730634,-0.00906458230113112,-0.00647030828050772,2.05852449858519,12.9519120059358
"142",25.0755618200028,29.6621920168482,4.7929650523862,6.93017169315481,0.0197785885430319,-0.000833157848528739,1.96569750056758,12.553970577841
"143",24.6276969062695,30.2222771516661,5.02036336126037,7.00995479530119,-0.0246903361106607,0.0157334032103109,2.07515035138844,12.469871216472
"144",25.1604467137998,29.4477103125588,5.10594015095479,6.83043743677894,0.000159531974153508,0.000669449825250087,2.14617771485431,11.6806508865237
"145",24.8419832324987,30.5444802888375,5.01622930519792,6.89289498526937,-0.00818425426818724,-0.0179625385700046,2.05602139169046,11.9350116780957
"146",24.7777568275656,29.8193534516049,5.02844267433628,6.89501008078066,0.00170829447962697,-0.0187698083780706,2.02906037201253,11.1914166849208
"147",24.9947060794174,29.9413605857795,5.06434187139932,6.78022275066714,-0.00856875137335215,-0.00740571797326457,1.94223434684946,11.7965852978278
"148",24.7174692111224,29.8196522952987,4.96715109431933,6.927095906166,-0.0468046886664678,-0.00203140186106974,1.90286261024414,11.6618247785386
"149",24.985035119367,30.3594718773542,5.19266435665959,6.88071098247407,0.0443823029404921,-0.0129899767513835,2.04711956525137,11.8293517086629
"150",24.7255477588498,30.1448660993597,4.92017564801737,6.72687053867959,-0.0155962768659863,0.00193860114870289,1.99107669697036,10.6796488085461
"151",25.0406754278436,29.8818191656032,4.86216629071868,7.20018187500639,0.0487916254040579,-0.011261149071282,1.89992361760056,11.4785614272832
"152",24.8801052683583,30.1534319272341,4.87784474623584,6.99945031341078,0.0191702822178717,0.00508200704606234,2.11284459955842,11.8839820191041
"153",25.1433142833765,29.5108931012722,4.8951433653571,6.9248139648289,-0.0491332730972803,0.0155556419334271,1.96616738858722,10.275039340485
"154",25.0736861471603,30.0002487072837,5.12089212469777,6.94777852802002,-0.00833790395117088,0.00229737292331717,1.85196376257531,12.0775952938817
"155",25.1044000440705,29.8367729580782,4.98987025859624,6.96450941815587,-0.0156664111262738,-0.00484461736639177,2.08742253205119,11.5698376332413
"156",24.9975082207914,29.5797474063476,5.15313555888438,6.7750790668654,0.0255909057882533,0.00546680665162164,1.87051202671956,11.0044550425188
"157",25.167585752114,30.078594635025,5.01104034431367,6.84600228993813,-0.0331683237657441,0.00518952508238973,1.96945907932002,11.8967852317234
"158",24.9588148392181,29.47293515321,4.90924380440705,6.87645590453148,-0.0137967852679627,0.0152209546542863,1.69342296540355,11.0616253410363
"159",24.7649487231085,30.2140376167094,4.84170250120763,7.069839294576,-0.0585673042317503,0.0113701160020318,1.96240248735753,13.5114821482362
"160",25.0119449513894,30.3792438795022,4.87401873068371,6.71898806959217,0.0453504051358097,-0.00506838345671998,1.82282132473015,10.9101571036125
"161",25.1242559420224,29.972483044202,5.07011240034049,6.91048905483043,-0.0172293788872901,0.00620067035264229,1.94189788176675,11.0192777651899
"162",25.1227104300953,29.8835141440705,5.15947896692755,6.87639279125425,0.0685992507170933,0.00847468714461492,2.04325592296683,12.4902876449803
"163",24.8817920322143,30.3178229551344,5.22301469753775,7.16295604019609,-0.0340821158377173,0.00346728140200088,2.25154510412259,12.2210883095665
"164",25.2263505406515,30.1583617144981,4.970976613364,7.0549316622957,-0.033145920899403,-0.0021061618089084,2.06827844451136,12.2663561183636
"165",25.2537917340993,29.6381957781117,5.23763543610016,6.77526906535022,-0.051585956037911,-0.00333329068538909,1.99136263896546,12.3575025813266
"166",25.0633701255407,29.9753881704348,5.02311680293202,6.85188744001655,-0.0139491239849706,0.00282364440705747,1.97238084016609,11.8462005736719
"167",25.0032040025914,30.0387273108186,4.97289425116478,6.94658226027585,-0.0039078254253983,-0.0070639449120912,1.91648556200871,12.2542201031062
"168",24.8234432097689,29.6885763167633,4.97909170370295,6.98842932467548,0.0130640528751653,0.009223395918419,2.08399872794766,11.7647274010422
"169",25.0562655436321,29.7044213266958,5.1895449072994,6.95307817141135,0.0184043629487954,-0.0151576961272201,1.98161520529305,13.4526049180353
"170",24.7484561153669,30.2282096542096,5.09174309889365,7.00856007333712,0.0198502661092361,0.00819746663585031,2.20562156021044,12.1014693928858
"171",25.2417083825366,30.5995517485607,5.30695095426431,7.26122402660449,0.0342092819485066,-0.00409299072158743,2.03051136593888,12.0962522950879
"172",25.2143669213651,29.823124205807,4.96803044816984,6.85150508136299,-0.0238156105108113,0.0158788160903768,2.06237291743923,12.6990917671367
"173",25.1461123445019,30.0207113935118,5.11813507921688,7.12250204681663,0.0769891907893384,0.00577272226993721,1.99534334173562,12.0319449225171
"174",25.0929826381536,29.8418684415903,5.18980226803245,7.2377025327695,-0.019636816663905,0.013768215967854,1.89889183766709,12.4016244791725
"175",24.710538645352,29.9106346236995,5.04278490366477,7.07774881081361,-0.0617681446063734,-0.0104354738850312,1.86646505763658,11.9074866418976
"176",25.2711156606016,30.1853986743956,5.23447378887297,7.40587624203266,-0.00426678810147802,-0.00347872180800707,2.13024806769916,13.3296647090518
"177",25.0880364984555,29.55325058596,4.87746073688241,7.17166337851565,0.021402673443378,-0.0165010595922286,1.89498182980304,12.2758790705564
"178",25.0291115093875,30.1307862004313,5.19331499504621,6.96319654010552,0.0276611441908422,-0.00127014733611857,1.84972073200396,11.7001736981509
"179",24.7725467279018,29.9779197766784,4.82972395753526,7.20546845515137,-0.0402462561340659,-0.0040252693194804,1.89158695704213,12.0168412586194
"180",24.9344039477926,30.0147840418935,4.83499571587757,7.00971373292197,-0.0451246604671156,0.00121910488483973,1.87326048087728,12.5837461036373
"181",25.1234479052027,29.5795635934757,4.89153444708551,6.98828566251978,-0.00575426241445487,-0.0229802679944937,2.01013242323959,11.0175738598492
"182",24.9094289187654,29.8714136888918,4.93931373788322,6.9255296553136,0.0580179619555391,-0.0144620482324331,1.99614803588357,11.354368280135
"183",25.1223358918721,29.8081805360005,5.03581733308821,6.85548359858483,-0.0118417417211669,0.00379618972758616,2.00219464553156,12.2537598147276
"184",25.2406251555305,30.182218913725,5.23037763055861,6.88136111953115,-0.0110130266954701,0.00737260114991449,2.16578286409989,10.6003685745252
"185",25.1481195859676,30.092505319842,5.09991294855619,7.39282804281262,-0.0349370431562988,-0.0108802779939684,2.15118492079667,12.4921991708826
"186",24.7185463057154,30.1915329705503,5.017225302289,6.81033901166962,-0.0285416366215903,0.00755510842656064,1.89354697416877,12.2821582522038
"187",24.9469212232777,30.1620371111388,4.84498713165475,7.02458242365285,0.0237388846926053,-0.00914772696371493,1.90404539278063,12.3593706366666
"188",25.0156523520545,29.7334761249015,4.96901522851925,7.01072064467693,0.0215387332330476,0.00500832476493474,2.02589994350332,11.9959298990856
"189",25.0080422840868,29.8832142526592,4.90227400949947,6.85190835425031,0.0221427421680398,0.00112910468275621,1.98488717830811,11.4096608493949
"190",25.1303147571862,29.708529473952,5.07288474893536,6.96575021040846,-0.0408613913303964,-0.00311251137147239,2.03791558760528,11.5250483004533
"191",25.1222060889479,30.0713277394609,5.04398647019409,6.9256568474614,0.0175384058329092,-0.0115939324036389,2.06279674319163,12.019314228345
"192",25.1406794163718,29.775142267779,5.24883694050104,7.06564909272706,-0.0165117297589283,0.0116075310165007,1.9729115807678,13.0437983246123
"193",24.7155701054335,30.1822148397034,5.00677472180177,6.96352676209674,0.0105510209115261,0.00601258540670098,1.91655830631675,12.5660684456468
"194",24.9620475902435,30.1072496642085,4.92064531170785,7.42863066534064,0.00902488154696656,-0.00629399926149822,2.09330851920625,12.1715514631831
"195",25.0043905604839,30.122440545597,4.83662360320651,6.72939477265194,0.00975887978750154,0.00775274327988645,2.03820712576134,11.7597874507997
"196",24.8585957721364,30.204332648443,5.035392565182,6.97948475195777,-0.0482079187918286,0.0137236418665068,1.8852617114319,12.4245528361231
"197",24.7034963914804,29.5801808133232,4.80508700591747,6.99356821673225,0.00630103913927016,-0.0138263199887107,1.96081886216882,12.5388471124762
"198",25.2398018253198,29.723462939703,4.94477172233301,6.98489610151542,0.0328392139650472,-0.00838657733843843,2.03158903704637,11.0493589156479
"199",25.3770494038109,29.7939964485025,4.90582526998668,6.86642481014837,0.037299660957533,0.00401897680207426,1.96435226962702,11.830023060311
"200",24.9241696964681,30.0696158473579,4.82022446547115,6.99473064617418,-0.00500578007379298,-0.00334117605474124,2.09980667242748,11.4774437113645
"201",25.1360128293215,30.335819235026,5.2104674666123,7.12440811713248,-0.0370309588279928,-0.0142740714540137,2.02069381515606,12.0116372552997
"202",24.8533015821715,30.096797465898,4.80951683928206,7.09309816661092,0.0145513408695629,0.000334960294172952,1.91591110989859,10.8874181464627
"203",25.073946247221,30.1434997602516,5.19166735929646,6.94263276952718,-0.0320955313077767,-0.00635676616262219,2.01083418497803,13.2524725098336
"204",25.1477805021065,30.076171627315,5.0582786892972,6.87412128814418,-0.00294451387293756,0.019117906778255,1.9034717143139,12.3487085608654
"205",25.0977520162065,29.9808348533955,5.14682648974663,6.48749292818264,0.00215226379617193,0.0055245078894305,1.96337629915618,12.1626674855812
"206",25.1867862807907,29.8405024724323,5.20893072843917,7.19067016306208,-0.0338693528342095,0.00114625840129223,2.14931006827852,13.6178258857955
"207",24.9991159901478,30.208625535167,5.1250034930569,7.00910210731793,-0.00178848064397408,0.0164603987412512,1.84805454397427,11.9854505390873
"208",25.1984953382108,29.8023668339169,5.02745002999488,7.32328309263004,-0.00643963584400952,-0.00225318673108669,1.91762858470326,11.4850837215251
"209",25.1229810077643,30.4955643510346,5.33134386653304,7.14273428454516,-0.00608091221155355,-0.00200644732439125,2.11660564010241,12.482411011195
"210",25.2547273505213,30.1479014523469,5.22956818828928,7.30315462086402,-0.00591720089348203,0.00255932764340953,1.99519255336656,12.551870096188
"211",25.0125331594959,29.7243513527237,5.07127265528452,7.10827985199793,0.0452637875826986,-0.0088301139711126,1.84110326812826,12.5401186590862
"212",24.9768058748434,29.8365845317654,5.05100190906519,6.73520925526921,0.00330742859187577,-0.00467998602416599,1.96303758291254,12.2468749619423
"213",25.0837642412438,29.9511978321308,4.92546738843427,6.7455813408189,-0.0486380730847373,0.0209987717558623,1.83649733308586,11.3807542495253
"214",25.1791836340719,30.0450699712037,4.8600019256759,6.88770772469157,-0.0283496065654616,0.0150806979745949,1.91960199669848,11.5183524690394
"215",24.8689124970725,30.2386258037927,4.77293302068053,6.95305489764795,-0.00653377683499123,2.28372057083244e-05,1.87764071607297,11.2607510680069
"216",24.9481660401378,30.0931504555638,5.10381348771684,7.0226958290076,0.0400693498585104,0.00273441519723029,1.94904732165763,11.7086163796258
"217",25.1709837649443,29.6603681641979,5.05643465662577,6.92235626048089,0.0232829864862735,0.00951111728688462,1.84289992220244,13.2677930331986
"218",25.0111697180255,29.5187458723432,5.22185228318544,6.87484650237975,0.0177773621090239,-0.00257038303010133,2.06352290414329,11.9141310513973
"219",24.5675612602181,30.0969374910949,4.86552367293179,6.80586919522758,0.0203248638920598,-0.00689727641316213,1.98632397942017,12.3974653570233
"220",24.785900170314,29.8811238257568,4.69462875646033,7.16899648902762,0.0296319018342623,0.0214605207657513,2.04259302507092,12.1552294570634
"221",24.7107593389927,30.2339151535205,5.02090639484694,7.41977602784208,0.0325787034886153,0.00679132056926725,2.01545200420652,12.5855088057866
"222",24.9599920486952,29.5182453204061,4.73758786920019,7.15694627683208,0.0566507781697063,-0.00100021525196083,2.0057682602763,11.2873557416457
"223",25.1156618726552,30.0246476779432,5.17501778481807,7.01247606391558,-0.0653880567912784,-0.0015450427774184,1.9742382778117,10.9345097961679
"224",25.1451305070503,29.8369793617366,4.96581369487093,7.38695651776391,-0.00107559908024436,0.00818416083698104,1.96588451922717,11.6834953424621
"225",24.8963711367404,29.8472398927799,5.0598590134578,7.0677876015347,0.0231680031284528,-0.00886715025016966,1.92010533692405,12.0186362424483
"226",25.0104645331628,29.5927480503899,4.86867530203017,7.13766936091615,0.0586130903903946,-0.0159005291539052,1.91456797799084,11.1453136296784
"227",25.0771763517903,29.9313405796602,4.97697121686803,7.10286532003907,-0.0302522295042169,-0.0108035303956434,2.13488291792472,10.9349040911309
"228",25.0291086412527,29.9297920447787,4.9556665716345,7.3931408309113,-0.00159454421658561,-0.0052203995599994,2.03664992076781,12.6035364790735
"229",24.872719371742,29.8803085315174,4.75160269830558,6.95548480537068,-0.0037218533053242,-0.00378427937624976,1.98181323983362,11.337043401257
"230",24.6995344481039,30.3707771033648,4.78122293777282,6.89546855698615,-0.0504934633261608,-0.00159427834550261,2.05266310566084,12.2236940620984
"231",25.2470486872114,30.1070373457473,5.14983601892501,7.1355679552501,-0.0198282513867015,-0.0023582040392011,2.01211553423593,12.7076235630491
"232",24.9787263558311,29.8937601915895,5.31619455204886,6.90840154770432,-0.0317914886080212,0.00346161793911488,2.03283440148464,12.663538836079
"233",24.9399430405042,30.0596456535515,5.04923698609558,6.98020811179751,-0.0106631453519683,-0.00624802059624288,2.10859047021048,12.3357427796044
"234",25.1946505412789,29.772222231133,5.24231320636406,6.82607748580742,-0.010694278289359,-0.011506894498074,2.05652992390082,10.8322756497262
"235",25.1052521579125,29.7188678726744,4.88998997111478,7.09101954379639,-0.0200338376619693,0.0123201714509447,1.89452408952816,11.5419043433064
"236",24.9851431548784,29.8178824221838,5.06049579631399,6.7902553738865,-0.0109555262793578,0.022451401020163,1.98616523726617,12.0595976705882
"237",24.6704728617239,30.2265640286136,4.73542308743444,7.29199792403327,0.00281252310996578,0.0010367118674397,2.032523677872,11.5458352042455
"238",24.869362117533,29.7062642740721,4.99279982054097,7.09855023567558,0.0444713209177645,-0.00475448858898563,2.00267800595968,12.4136196130426
"239",24.8607731037372,30.7048921659506,4.77352628421111,7.36646563373301,-0.0368342576503544,-0.000414447640412394,2.09069380397656,12.0303549778592
"240",25.0721478401258,30.0519033905398,4.83210724256604,7.10347073824292,0.00328740619927418,0.00173894215027624,1.87698050284291,12.4470822081522
"241",24.7278401753916,30.2706638780529,4.94372449795264,7.3128866319222,-0.014205438583265,0.024795647744498,1.98485476636351,13.2480701439927
"242",24.8501749035728,30.1320310206341,5.09884323341999,6.93971386891664,-0.0254307143467753,-0.0106123042562139,2.06185677502369,13.4980576221939
"243",25.0531293996138,30.4066321242848,5.0325299601536,6.83826214651948,0.0402066218946529,0.0150015094371432,1.99178992142303,13.1485004375672
"244",25.1902135508208,29.8849742750854,4.85034742789885,7.10929053190282,0.038325737889497,-0.00423307843179414,1.94202769421872,11.2052103635803
"245",24.7589217143072,30.1503216147153,4.92121307584681,7.11712010751004,-0.000498945509685673,-0.0131358217382994,2.07910732227577,12.7911295773978
"246",25.1787467974054,29.9410333067997,4.95529410692901,7.00628569628524,0.00836202996993061,-0.0198884919203801,1.99703230031989,13.1137436906291
"247",24.9900008862065,30.1438240709779,4.89517790207939,7.10975532766051,-0.00786954963363523,-0.00830279903345282,2.12271242677093,12.1642266982006
"248",24.9755910015564,30.0193288744565,4.82998691759072,7.17954499205062,-0.0436201155185362,-0.00142984674271766,1.84429215399344,12.1849132697675
"249",25.0996629784976,30.6590152452198,4.98507907016386,7.2216095307551,0.0135225028203061,0.0137084861881864,2.23024665660331,12.2214585349242
"250",24.3747865288947,29.4640461997366,4.93121830204248,6.80416962374873,-0.0193837128278448,0.00861213699899593,1.81454885558998,10.6484095482138
