"","x"
"1",-8293.57485901226
"2",-8159.9305131437
"3",-8146.23871955939
"4",-8219.81157824586
"5",-8314.2134721185
"6",-8200.71877203331
"7",-8163.51690670378
"8",-8278.02965766091
"9",-8258.05614091838
"10",-8271.12120077734
"11",-8148.74048164428
"12",-8301.36497683066
"13",-8114.86152273894
"14",-8363.72937447968
"15",-8263.89731533738
"16",-8089.6451400067
"17",-8170.61541167237
"18",-8245.09989110119
"19",-8356.52009572337
"20",-8272.901668169
"21",-8190.9784006926
"22",-8242.91839626019
"23",-8179.95580728998
"24",-8196.08636191106
"25",-8197.93266065835
"26",-8232.89668540427
"27",-8045.89976803369
"28",-8203.86693138704
"29",-8253.46206606996
"30",-8196.7019372112
"31",-8161.46565406062
"32",-8221.06092994371
"33",-8282.32138505589
"34",-8270.44457965724
"35",-8192.19420293782
"36",-8291.21010463508
"37",-8323.62474299483
"38",-8216.12162968735
"39",-8220.07181340398
"40",-8372.98159626512
"41",-8171.35573226428
"42",-8130.59868391615
"43",-8166.18640922584
"44",-8234.39353359007
"45",-8228.27083439712
"46",-8273.75529879576
"47",-8348.44338661085
"48",-8163.40257988721
"49",-8308.53316701834
"50",-8179.83010294413
"51",-8282.04275037016
"52",-8154.47393196942
"53",-8220.45387921473
"54",-8353.41618325608
"55",-8088.57174292898
"56",-8175.00088677604
"57",-8192.13483105433
"58",-8197.88231791709
"59",-8221.06901812178
"60",-8319.76295954297
"61",-8250.63078768919
"62",-8274.4160745353
"63",-8102.49085625962
"64",-8212.680758058
"65",-8253.78306519168
"66",-8190.73880454036
"67",-8234.45898485069
"68",-8312.68415309665
"69",-8250.24456074636
"70",-8206.19852530728
"71",-8176.26216569229
"72",-8275.20202609356
"73",-8264.40963487291
"74",-8178.90457172766
"75",-8135.28331817997
"76",-8227.95996379372
"77",-8232.69811481036
"78",-8232.99309863678
"79",-8275.94409597777
"80",-8313.06357447032
"81",-8237.83775083653
"82",-8161.79860385913
"83",-8324.5230569042
"84",-8297.50089784039
"85",-8306.24061823683
"86",-8219.7893043607
"87",-8284.62979940253
"88",-8032.27410918505
"89",-8201.38538387355
"90",-8326.40064044207
"91",-8160.94349419244
"92",-8196.184684018
"93",-8156.75109748355
"94",-8150.6878942374
"95",-8303.48929065717
"96",-8321.15408512079
"97",-8299.0339606199
"98",-8258.77048056195
"99",-8318.19156756743
"100",-8154.62186874206
"101",-8260.23028952558
"102",-8237.22994129263
"103",-8155.28515302847
"104",-8187.68623199891
"105",-8222.38696382413
"106",-8204.09354816558
"107",-8263.71609963965
"108",-8281.97255615433
"109",-8224.73276467107
"110",-8233.75258811477
"111",-8302.44647445788
"112",-8226.26018621305
"113",-8263.86791402189
"114",-8179.97725035907
"115",-8292.78234856903
"116",-8219.98900994629
"117",-8247.48391045978
"118",-8209.20455008253
"119",-8311.56403969033
"120",-8198.382877671
"121",-8209.44288953024
"122",-8082.76649772897
"123",-8210.22278847677
"124",-8332.29193791675
"125",-8266.43928214895
"126",-8403.38401906294
"127",-8196.07871882958
"128",-8322.1113566184
"129",-8087.08815693485
"130",-8347.21461251255
"131",-8254.06314651618
"132",-8267.96231235034
"133",-8231.43212491575
"134",-8150.69681757497
"135",-8234.97160362221
"136",-8245.93714646775
"137",-8094.05070148485
"138",-8150.71095674674
"139",-8202.77897603294
"140",-8168.21497101085
"141",-8078.5200905313
"142",-8188.51362747916
"143",-8163.90146737781
"144",-8188.12093996082
"145",-8417.78066523747
"146",-8135.89823869985
"147",-8430.17215976187
"148",-8321.77718114872
"149",-8191.39064688988
"150",-8337.90161928433
"151",-8187.72140640898
"152",-8186.78078833994
"153",-8177.02443708098
"154",-8093.57968249059
"155",-8105.07665856773
"156",-8326.08484286764
"157",-8246.9194947648
"158",-8214.23874002946
"159",-8317.13586253144
"160",-8288.11291428406
"161",-8264.99090591967
"162",-8277.76560367989
"163",-8239.2828056207
"164",-8177.1488971151
"165",-8230.6185634873
"166",-8277.65390678538
"167",-8268.08020018137
"168",-8266.4587859037
"169",-8221.58669520547
"170",-8224.60876993149
"171",-8276.41185355497
"172",-8301.95375507716
"173",-8299.54276236777
"174",-8208.05864385989
"175",-8317.02823880405
"176",-8156.53696085776
"177",-8243.65084826779
"178",-8146.34251290437
"179",-8338.59597117975
"180",-8294.52181117302
"181",-8321.11440446361
"182",-8105.0577257718
"183",-8083.42471407023
"184",-8231.56355044606
"185",-8243.94932474277
"186",-8210.54075241548
"187",-8195.05064866103
"188",-8137.21076541802
"189",-8324.70913900807
"190",-8176.06845832015
"191",-8221.28157740847
"192",-8285.51261558938
"193",-8203.32320050008
"194",-8201.53624475101
"195",-8224.11542353608
"196",-8257.28863152189
"197",-8374.01863049219
"198",-8155.15126728316
"199",-8266.84983726124
"200",-8184.3352391336
"201",-8162.02368594849
"202",-8245.54588714536
"203",-8217.36694709031
"204",-8181.03772567794
"205",-8161.7767559749
"206",-8179.26999729635
"207",-8244.82901317594
"208",-8230.68540829888
"209",-8119.43842220489
"210",-8246.39995824584
"211",-8244.54428996158
"212",-8243.44732831058
"213",-8216.57751164472
"214",-8203.10583874636
"215",-8254.53668810189
"216",-8211.7226440452
"217",-8317.90046058329
"218",-8167.10546736325
"219",-8216.54378283652
"220",-8249.10818015187
"221",-8228.34088063813
"222",-8278.7603448738
"223",-8192.42628854987
"224",-8257.8897543122
"225",-8284.86781618281
"226",-8174.59848750538
"227",-8148.01601328651
"228",-8326.47678537397
"229",-8171.45824854023
"230",-8310.16387520994
"231",-8133.01055964079
"232",-8265.10908576993
"233",-8215.45945843683
"234",-8341.89209340912
"235",-8169.3130257137
"236",-8184.73841776952
"237",-8286.2916254791
"238",-8326.4463409005
"239",-8170.59481333802
"240",-8144.1138364405
"241",-8300.1114216729
"242",-8228.47241464043
"243",-8282.26091725299
"244",-8274.22878261997
"245",-8155.50534402701
"246",-8189.20539561791
"247",-8186.09540019308
"248",-8097.22381545647
"249",-8342.08193280978
"250",-8263.08888765325
