"","V1","V2","V3","V4","V5","V6","V7","V8"
"1",20.215666771824,39.7328445909355,5.02951003251548,7.24719893656724,0.0456225558884783,-0.0435899012280939,2.00641380561354,12.1822344895005
"2",19.4530614842782,39.1134485913626,4.72427773024771,6.87159912003598,-0.0270415506351277,-0.00620588795712497,2.1116401302462,11.1012269397067
"3",20.7629024936762,39.3079913239401,5.37951744397395,7.00090323707158,-0.0251027658116749,0.0144342564138969,2.30165128949163,12.7159921895307
"4",19.9782566394312,39.2174080968473,5.12739562188233,6.86604109823756,0.0158748351771366,-0.014127337688583,2.11773311067665,12.8714633868869
"5",20.0373614871377,39.9643019651608,5.08785294535671,7.0461434845895,-0.0373612626623143,0.031429980299401,1.91321863519405,11.0513636776233
"6",19.6161723974055,39.4198829355924,4.93730046971238,6.87589533025928,-0.101497463854334,-0.0167043200039269,1.99367715471461,12.3001609140219
"7",19.3874786382522,39.8528879255003,5.11826283655802,6.62388866787727,0.0258995163946586,0.0156555840823314,2.0407478000529,11.7567534112405
"8",20.2864777802674,39.1667754570966,5.0079547674166,7.20217056570335,0.0645782062616423,-0.018524930890757,1.94339817006396,13.0988573896626
"9",19.9854064931109,39.8883467548077,5.05616636663804,6.84831664941285,0.121021089065838,0.0251360337555087,2.13662820199406,12.2345806528834
"10",19.9196408101838,40.5229287622454,4.94693929906573,7.22433909517061,0.0694004678459164,-0.00872699478530614,2.00855101587873,12.3719869953752
"11",19.9617433310979,39.2201158411466,5.04593797452716,6.75680964641736,0.01223829701201,-0.0143153324452982,2.09784008535344,12.9256778699662
"12",19.8159690659135,40.352269580802,4.81315482830494,7.00482071707387,0.031862554645358,0.00348411299106675,1.86567957388283,11.9951685358224
"13",20.2551057595403,39.9616479972985,4.94566334468109,6.77347921912382,-0.0645135691036021,-0.0468957625601609,2.08894651900671,11.1233366202015
"14",20.2272819394832,40.9106906150275,5.17716621416775,7.45281379123839,-0.0191783115576337,-0.029600550087136,1.9558014944603,12.9073091989987
"15",19.8918432305209,40.3975672103827,5.0281471855463,6.99314669720297,0.0146706307682915,-0.0414914025687794,1.9816279394341,11.4859777094093
"16",19.7905011689761,40.4171421510433,4.86805406282561,7.14628288140632,0.048247292214567,0.00041048275484368,2.02304944549517,13.2923035205633
"17",19.7386923708756,39.7839513283394,4.86136610967557,7.1256228827536,0.0360367538815168,-0.0209792744223998,1.94592745557566,11.2668333695953
"18",19.8330876067655,39.1002368610824,5.05618446533715,6.9727362019288,-0.0701106220452393,0.0353030824594392,2.11838658749933,10.9429926994094
"19",19.4035353438089,39.9854590271279,4.93240892610429,7.32121832215358,0.115057293952248,-0.00219498695502833,1.96622182292011,11.1473901679547
"20",20.5655282334907,39.5773761533507,5.09106394263398,6.83427917150956,-0.00970884646477525,0.0029697996662354,1.95763526089858,11.8207071980373
"21",20.3161380825728,39.6914530672891,4.80127439033294,6.92039962140498,-0.0019729220003517,-0.0310390722894363,2.0430823492584,11.9447735804631
"22",20.7575598298305,40.7444096422936,5.13999085464279,7.10485001975462,-0.0989511600592709,0.00700348530686404,1.95753410162126,12.5044472080129
"23",19.5995148753877,40.6167770320285,4.76994426691169,7.0990431928627,0.0229307212206212,-0.00911918020486518,1.98637246673643,12.4631434242069
"24",20.304091150129,40.3198942501432,5.0373262879491,7.19430366262339,-0.0707225999201157,-0.0250718037435569,1.94307379305526,11.6923682341285
"25",20.2134966889443,39.9388034063513,4.98169250776168,6.92756210839573,-0.0513358476670014,0.0304982744306367,2.0590807165862,12.4112780698736
"26",19.9323916927639,40.7037792324433,5.15222286894436,7.19452584592255,0.00292409968755081,0.0201467231284107,2.03244077235344,12.3269285867381
"27",19.9730622589181,39.8175670755169,4.82704173801785,7.05028745195176,-0.0660635856474827,-0.0198772482849482,2.06896390463199,12.2120369675928
"28",20.3312881690408,39.0640621374435,4.94200199282003,6.54183866137633,0.0190570887309134,0.021934952278904,2.04643831627536,11.9598118963487
"29",20.3048329590177,40.2305250532972,5.1660134306173,6.94968225677523,0.0857267561167831,-0.0490529551190945,2.00624341967118,12.6810870861593
"30",19.699103547463,40.3989511594268,4.91168544151186,7.08561565687354,0.0511849396369967,0.0306528652064462,2.11786837931685,11.083613908819
"31",19.9530253111416,40.5975528857587,4.8622287224186,6.9861337787855,0.0385807453156693,-0.00514049260037525,2.15323543378898,11.7806497773445
"32",19.7132006438998,39.3901579035816,4.78592878393541,7.05868807222825,-0.0550081344576869,-0.00368396483231597,1.95833578242831,11.1616606533763
"33",19.6464525796041,39.6951248738924,4.89880828728325,7.11038020834661,-0.00841851835997593,-0.0346710884710631,1.95755788965973,11.6790440123426
"34",20.5585137307575,39.370665213352,5.34504322466268,6.92129510327467,0.00564090976537818,0.0223672379131827,2.04366455700848,12.6262990386332
"35",19.8332262838029,40.1229219261278,4.83155044336712,7.01569797866427,0.042643470065517,0.0211934834170599,1.90261427626117,12.4784335549048
"36",20.1408404282872,39.0118706775028,4.97493368819539,7.23039780632748,0.0142963324594359,0.0310183572427232,1.97896042445242,10.859874760227
"37",20.7584109752941,39.8011413352296,5.44543787368575,7.02772516471109,-0.0699900092191213,-0.0145074072962734,1.96819642491418,12.7187408401113
"38",19.7597619098449,39.9500388326414,4.83591525444661,6.87488550816584,0.0205090883427312,-0.0366476185520214,2.04806336559109,11.9439795531502
"39",20.5601678061762,39.8713394787661,5.25863960231299,6.65502993240782,0.0160332539343856,-0.0369576065118577,1.96748122644645,11.9123295809704
"40",20.3804548799712,39.7057648218458,5.19393391151505,7.09276930653721,0.0040465722677195,-0.00754018819893256,1.93926062630258,11.8914175854659
"41",20.5615589641724,40.4036256786294,5.17837047884734,6.98540297993585,0.0554048596296397,-0.00151382107604915,2.13559130954856,11.5918895638004
"42",20.1160295867726,39.9666540792303,4.58255002429698,7.05030615582253,-0.127925781959198,-0.0321348319312353,2.01685638352788,11.8122636180766
"43",20.420259736158,39.3860532580016,5.03765325074521,6.97804941896167,0.0156012976467609,-0.0217191553083917,2.09948956353001,11.7645646711608
"44",20.3095292950106,40.0392719062298,5.11990919703192,6.94434075564501,0.0075965850112517,-0.0393695921767835,2.03497134074867,11.4913713126788
"45",19.4294635936862,40.6162343725162,4.79838186617561,7.27296215002107,0.0449281089547136,0.0132506733766297,2.00796814411443,11.9514098453976
"46",20.5454862935859,40.1176745830912,5.08059467566305,6.94864302390281,-0.0476173774727113,-0.0166995392475744,1.9417556864631,12.1798576856286
"47",19.5589144336631,39.538065149853,4.85345279070224,7.06980996379629,-0.0179589578262456,-0.0166587798348511,1.89930738054692,11.0405166280532
"48",20.0011958240494,39.4007583911572,5.1247616920014,7.02887042679963,0.0795953434133215,-0.00207148730041602,1.87405008984199,11.9405224439982
"49",20.2462581434408,39.8563852141843,5.20701406185479,7.0944165567589,0.0296112341054268,0.0330188422202903,1.94086500259195,10.9905352242172
"50",20.0613986603258,40.3431777139804,5.09812334415715,6.89208483259573,-0.0781464098881855,-0.00671486730650968,1.99196803269708,12.995389682359
"51",20.1189146412578,39.3629933790693,5.10416319637231,6.95859990268236,0.0257550035075211,-0.0590847771531081,1.85325813465369,10.6239679628316
"52",20.5575339110849,40.5142290624892,5.21255404873453,7.31022987676657,0.00134356073559152,-0.0129189783959002,2.01274185775902,12.8011176766482
"53",20.3644690616667,40.0141023735979,5.16214598003199,6.81555038391037,-0.0612513135176778,0.0048202453540346,1.97916618347923,11.5411791068855
"54",19.9619455261048,40.8259992398224,5.01208886049202,7.06688948758068,0.00470318835330507,-0.0174696670023229,1.87679165351164,11.9570127997551
"55",19.5005071296146,40.4248702029175,4.81109557502777,7.23881972025106,-0.0527469646721661,-0.000332308948061516,1.98523376066746,12.0844660930706
"56",19.4049457747144,39.8926149558017,4.79918505041902,7.05461480313757,0.0523366327442051,0.00236024254171152,2.06575619250943,11.4038844722803
"57",20.0464189543223,38.4261844156706,4.89086976083753,6.75158754449243,-0.0173129112969787,-0.00566997256174677,1.90459958883625,11.4668237123453
"58",20.1248774913942,39.787488609008,5.17040397272902,6.97881703016501,0.0447117496851813,0.00240800273963321,2.03641078698284,11.9468447846252
"59",20.4945256589967,39.7971631075899,4.92829384120263,7.05536707347274,-0.0248899521895255,0.00497749800257177,2.07212962591257,12.1799365001561
"60",19.9050853933134,39.8880837325799,4.95211148469242,7.1832678114745,0.00609736616626207,-0.00556941606912634,1.88068463579702,11.9393716903473
"61",20.0361134979465,40.5058474171779,4.91576712167617,6.72904638936642,-0.0381906988735021,0.0152959802488976,1.83452035902975,12.0669269140306
"62",19.8706333974822,40.128855405126,5.02455318446066,7.25629926366723,0.0461545085961549,-0.0348033546805535,1.82087970185127,11.6523669583806
"63",19.5935964009752,39.3509771420106,4.84350020018629,6.8994982312489,-0.0195380500104066,-0.00874191498874622,1.96647131762971,12.9999039455325
"64",19.9726982754052,39.8754504685934,5.08537278145178,7.3753074798063,-0.0170600637181684,0.0463952084617375,2.01541549621222,12.5871096500738
"65",19.21127765882,40.4924811024878,4.651944667682,7.02693183780238,0.0246155034731053,-0.0562842155575239,1.96650696435648,11.8923571057022
"66",20.2234363573289,40.7479650018235,5.15823380914516,7.04771230776418,0.0499919812587254,-0.0243700949606283,2.06151722009261,11.8925748792142
"67",19.8786861986038,41.3672240447655,4.87489338621252,7.20468282989706,0.0180721866333414,-0.0030589005685176,2.09117865001774,11.6650756088876
"68",20.2004790360771,41.0840370874182,5.0155156437281,7.41219124359557,0.00914693591621853,0.0236751087314933,2.12816910945097,11.9328872568077
"69",20.3340870196991,39.9644051663314,5.1929154243024,6.82773352273717,-0.00136918855382633,0.00658863032110303,2.10795168818204,14.1172188332896
"70",19.3768245556212,40.1689187570256,4.71586760143485,7.07362104388064,-0.0355242174828178,-0.0344801154859523,1.90019508373106,12.6019372029144
"71",20.4396461868457,39.8820123081959,5.41267203768458,6.79987459365517,0.00621164047380833,-0.0576087716095009,2.11177881108692,11.9648288103695
"72",19.7778547264292,39.5748883126412,5.00348276083,7.19991521040915,-0.00052204936242615,-0.0474443122620095,1.89729192914842,10.455141048672
"73",20.5395298953721,40.8916916130778,5.04288277850484,7.09276326849568,-0.0207774310746419,-0.0495036551801814,2.0096077726126,11.8654142184334
"74",20.108454643519,40.5255834619666,5.06470820686306,6.84832358845455,-0.0412772845669895,-0.00457163489383727,1.99435355143403,13.8364898066889
"75",20.2367907803743,39.6123252455486,4.92062734675164,6.92739247911348,-0.0163362719707284,-0.0122489893211529,2.13178081221461,11.3365456556739
"76",19.5275666637346,40.208254927526,4.51883151680252,6.92988137957054,-0.0372295470169875,-0.00424794741863293,1.98121921966285,10.8054896720775
"77",19.6516330037538,40.2721852807503,5.09648964938425,7.26021547000817,0.0210422231390858,-7.99719767504878e-05,2.00466572971081,12.5614667156174
"78",20.4693536377826,38.9633892770934,5.00315106614848,6.57294647939146,0.0137914227709246,0.00922722812937535,1.92566463051795,13.512912865202
"79",20.4002484594366,40.9908625727408,5.15847142513116,7.06576070148703,-0.126613843594657,0.0196216000313221,2.09181268484038,11.8269120537421
"80",19.7261524667479,40.0184258971204,5.05177869928086,6.7458096145484,0.0609665308970447,-0.0288019016020755,1.94451592558832,12.1543372744732
"81",20.0380553262379,39.6630246603029,5.01413473871603,6.79356135497069,-0.0575248407331406,0.00743266117251689,2.03229618605149,11.3164449739977
"82",20.4217845299343,39.6596516364048,5.22406991580418,6.91874847212,-0.000375938174495652,-0.0596553932854639,2.00724735849318,12.8817909034193
"83",20.1061378025417,40.753176477139,5.1056569743952,7.25848655384415,-0.000727583906007938,8.94317205948658e-05,1.99087537769843,12.5246162214191
"84",20.0205094390381,41.004403098217,5.14095109655765,7.29477703065452,0.00553517362276644,0.0736290351446366,1.90435892689581,11.9773176938957
"85",19.6988096305807,39.456142036214,4.75273277449699,7.08615431188772,-0.00659772336377445,-0.0502423625685126,1.9515966428955,10.9755239306995
"86",20.3318820325192,39.4127308054636,5.30297776638783,6.92030710984189,0.0298688292690603,-0.0288067051101194,1.90744038079433,12.0533253046755
"87",19.6322845449761,39.1770423054348,4.81825447812676,6.88062281103567,-0.0465314851588898,0.0152961709695034,1.92394291960402,12.0631591728578
"88",19.3149899921758,40.3591910815214,4.71828329876447,6.95872095633579,0.0188025945416357,0.00278811856175587,2.26208987631843,11.6481883104735
"89",20.2937410004485,39.8577952760972,5.16974982052741,6.78840292830481,-0.0679697013141246,-0.0236546733801189,2.11627339148204,12.3303318784669
"90",20.376467992902,39.9546382924459,5.06580492131747,7.19403262764209,0.00615187378287617,-0.0153279303432671,1.97625733931429,11.7558548274534
"91",20.0105608583832,40.1451645468667,5.0365472213436,6.85556735459603,0.0138245131959317,0.0132394146376454,2.03477314789069,11.9538838112236
"92",19.5872406133033,39.9597063815759,4.8963260814046,6.8329692827647,0.0387242735290672,0.0466171944197532,1.86792195114308,10.7327386079016
"93",19.6234266672569,39.3250292266823,4.94972053606894,6.86196719850751,-0.0344229045646396,0.0673076271067128,2.03190924490387,12.2793368433217
"94",20.390003557325,40.6969492878031,4.993563465438,7.20790584709478,0.0275836196529073,-0.0178946975757127,1.93969987139637,12.7034895765941
"95",19.8244198973921,39.7696315073156,4.80108769105609,6.82516362506586,-0.0188465029637468,-0.0567705433009136,1.94756932765977,11.0063607833862
"96",19.9495288834933,40.1068018756837,5.00967714951874,6.76391592151789,0.126444290466042,-0.00319528089205289,1.9310810487772,11.0508669415736
"97",20.5561376067053,40.8385719847945,5.16501605391952,7.12882033037152,0.0245491735443884,0.0065682203703157,1.86933484087657,12.258106457313
"98",19.5546504579843,39.4490392625113,4.7838728357838,7.1555190168794,-0.0346868861391055,-0.00388085104226416,2.00770902522694,10.9272906754112
"99",20.7020502963091,40.192550107433,5.16435014159708,6.8891700129221,-0.0224627244859609,0.0254486567125905,1.95346719497792,13.8396350683967
"100",20.3665853843144,39.5047605909614,5.06045510749862,6.62957502781724,-0.0373946143906156,-0.00380516410751289,2.18862621708499,11.9635587181147
"101",19.5012894600835,38.9399730669975,4.85713892677243,7.10863710142199,0.0448858471128983,-0.0259208152047642,1.94339176744581,11.6022292899594
"102",19.4449296509488,40.2594720868222,4.84952341285071,7.28674092079266,0.003796168313601,-0.0115836634980672,1.98159590791621,10.4405209541415
"103",19.9503973588767,40.3547579482119,4.99098507583397,6.61757384707706,-0.0187046828824942,-0.0394998154040241,2.15064377390198,11.5572471481673
"104",19.9802477639681,38.6937233414417,4.91494179047567,6.750222120975,-0.0105178987910634,-0.0107914882844803,1.95568811037049,12.487840097829
"105",19.7285340483112,40.9248889292395,4.8270641520736,7.20722657457348,0.0266691518964036,0.00456066971156559,1.93410034806209,13.0611384538686
"106",20.2284495490256,39.8193392664821,5.07431481981856,7.27304657880175,-0.0951112577385512,-0.0154814025677021,2.16320038267037,10.5457149830384
"107",19.4054129392376,40.1362621725338,4.85239065475081,7.09287850992997,-0.0249400824037949,0.00895551018678652,1.93280326567048,12.6048167514871
"108",19.6035445115685,40.6038796808708,4.97476033861097,7.36780029209783,-0.00917952848865517,0.00314362253825283,2.01820942965528,11.818412055411
"109",19.299059703398,40.2530130938313,4.96350040186103,7.25027120451498,0.00692772964833034,-0.0173967311765526,1.97762868281614,12.6363453496971
"110",19.9686140415343,40.5197121373733,4.93044261702979,7.17978456015841,0.0257715463500429,0.00330288075396835,2.01127913184824,13.0652592574479
"111",19.3995514205374,38.6067240204852,4.75713320727844,6.49462732071152,0.00505734077426195,-0.00221068460508181,1.79370842294774,12.3896200054442
"112",19.8203001138563,41.4289299021255,4.87968152149672,6.90114202219047,0.0104150441328429,-0.03200736073528,2.01533317713709,12.8243479907225
"113",19.6652248874205,40.7654215317981,5.21923015695321,7.32255487376879,-0.00925747759301274,0.042392284596346,1.92146437106059,13.1346764315186
"114",19.9158179467488,40.1465812722891,4.94312159603054,7.03862863314861,-0.0283940619232115,-0.0218508805419335,1.92384982900314,11.9831102544065
"115",20.024860818984,39.3358038436227,5.15886606699673,6.97901838512652,0.0365251064382733,-0.012485896733775,1.88577525812671,12.7772886455414
"116",20.3351906523798,39.7053923846068,5.11106694857979,6.86684204388084,-0.0383391460019081,-0.0189595206951776,2.06262348985104,12.0793688684891
"117",19.8504791233346,40.3486648536659,4.99000736342568,7.04431807914767,0.00356088747172002,-0.000975420408395986,1.97123702071817,11.9841820315693
"118",19.9395662086141,39.0889831040691,4.99107293581542,6.81876971968007,-0.0102683858451626,-0.00594401081065638,1.99250466798905,13.0700736152158
"119",19.6594458284971,39.651829346438,4.93058651909152,6.9624357353778,0.0143467081624372,-0.0486588730891877,1.84941621119947,11.7562747784032
"120",20.3451854636642,40.0597431706766,5.43541856505854,6.92416507677629,-0.0128163858501578,-0.0020022756283542,1.94705313573182,13.3167818274876
"121",19.391426793462,40.0418371945954,4.76944846831793,7.12971207552494,-0.0409785012274588,0.00842308799533087,2.00520404160318,11.1495027377246
"122",19.9890530698374,40.2740335409677,4.98378133942259,6.71497438868232,-0.0495394862592539,0.0243004194606579,2.04638585537078,12.5573716497987
"123",19.7930683900438,39.4261798240066,4.96738338922052,7.3680642805364,-0.0444734699428508,-0.0466044465036709,2.015056388886,11.8713950510072
"124",20.2828803366794,39.8427035023306,5.08084227478602,6.86609245855839,-0.0121951725048939,0.0240727732403506,1.92008683379553,10.6356361998346
"125",20.136843666335,40.8667340046442,5.21351081679927,7.40589235262387,-0.0271811516632775,-0.0059748412844127,2.17052110095933,11.9778620099556
"126",19.3529360726465,40.4672130048943,4.94596133459607,7.29294751758888,-0.0311873344524647,0.0205012644285124,2.01028022817259,10.7317662645898
"127",20.1262638747524,40.010643814515,5.07921232978586,7.01396287797262,-0.00568871526605733,-0.00975085991928653,2.06770684060757,13.524387768459
"128",19.7433865369668,39.417375148065,4.89968638918005,6.808792603792,0.100530198086581,-0.000973478072980443,1.76365081472693,10.9946709888281
"129",19.5742123197973,39.7592507228864,4.7630424492517,7.0255427925022,0.00632242433451147,0.0142974259563621,1.95307862325616,11.7213376075928
"130",20.3900301967197,39.745914880466,5.19266410380504,6.90423860742687,0.0483148209839261,0.0164858810323969,1.98545157113897,11.2657730603042
"131",20.0088596011939,39.6835723845421,5.08337980371587,6.80766560129708,-0.0631694026624227,-0.014285141442104,2.00775442967966,11.7667158334414
"132",20.2852626063328,39.9148223475139,4.87921932842924,6.58280719953857,0.0565802147942025,-0.0130086571435844,1.94680938446989,12.719546887174
"133",20.3883994974488,40.7637312754956,5.24144188905551,7.2643052751308,0.0509479920732696,-0.0165092585442767,2.0000385101091,13.5780033099591
"134",19.7557409584767,40.1613471154425,4.77626611372538,7.02734547504768,-0.0240892164165256,-0.000199787628082973,2.06926052220719,11.7805482114523
"135",20.0572330871881,39.5727133800279,4.9743000967059,6.62113838494862,-0.0167957641685962,-0.0400800722939349,1.90085403947718,12.2492355250384
"136",19.5417957565493,40.1468391035609,4.90829976610189,6.98130508753573,0.018236177008255,0.0326807292689603,2.04937385244788,12.0717040550331
"137",19.5801669289188,39.4406847642112,4.87890372201818,6.5416819913386,0.0425706836640032,-0.0218549564049824,2.16444617910271,11.317578689189
"138",19.9495835935468,40.2852650095995,4.90278171815911,6.98125930375515,0.0358616346006621,0.00676114984517922,2.10704554104898,12.4687092003941
"139",19.6240301714901,39.7637178567492,4.82183695585906,7.27136009910632,-0.00821077024382091,-0.0160595366764401,1.88899033992108,12.0182205256246
"140",20.4337903209259,39.5916969448223,5.05741249334138,6.59986551791551,0.0359304653869269,-0.0195194681994309,1.9947959128727,12.0498427129263
"141",19.5820738702855,39.801367863574,4.61798728825227,6.92030811054032,-0.0569593773193765,0.0611661556210618,2.10490930448556,11.7002522739333
"142",20.4149807943068,39.7363687743581,5.16412878358681,6.9920514566594,-0.0206605106127757,0.0301606174166794,1.90285329949248,13.5700427715204
"143",19.8884890966081,40.2451750953958,5.29789302456867,7.0661902607505,-0.092302110614858,-0.028426311270215,2.07163635152828,12.1771885918458
"144",19.7778047851504,40.5027045317853,4.94167760208569,6.98518626515026,0.00550849066530337,0.0093709588728335,2.08318236730126,11.6825223796059
"145",19.9880012568136,40.3664813920591,5.12676699486188,7.0318928672579,0.0180652164627679,0.00446552894125248,1.96523146967246,12.3645731033463
"146",19.253849923047,39.8913970457836,4.69686092998993,6.99598632390394,0.00717053841242318,0.00813510440616696,2.02941283410464,12.1568360063367
"147",19.4409316868047,41.1633368854666,4.8406982046059,7.34429028865606,-0.0497339149433446,0.0179153589722022,1.93515733016185,10.8622101996365
"148",19.8345826148722,41.0107050537765,4.79052172401639,6.96538192700628,0.0427123612958066,-0.0251381415525881,1.83297296769696,12.4357847519811
"149",19.8585530570095,39.4060575369993,4.86885262212382,6.90483825428355,-0.0231574417371104,0.0341513909412251,1.97778383012363,10.8196120106504
"150",20.2388486128655,40.0953393434772,5.05003567713147,7.09809258321878,0.0859436455165564,0.0275442852893192,1.93146550530673,10.8888754411815
"151",20.3161039234036,39.549889647156,5.11482155179974,6.77189241316583,0.0204791272743279,-0.0185455482240975,2.07990659581178,12.6843619057949
"152",20.0714402936493,39.1147086168946,5.28997030303779,6.87647766733022,0.0483217498362683,-0.0175982380795374,1.91688526016416,12.3365769773993
"153",20.2312986145762,40.0835006553398,5.19224013142615,6.85622782576701,0.0194909213847357,-0.00269470246034755,1.95990832081146,12.2812319379216
"154",19.2697017184927,40.0783409239242,4.66489481893598,6.84739395453604,-0.0102968697590466,0.00656025806028224,1.93620280194585,12.0847532826163
"155",19.1978424042637,40.2639768391019,4.62342643456274,6.73726739712863,-0.0482424282362814,0.0156488717429807,2.08339870885037,13.2100253514036
"156",19.9870034398519,40.520459448246,4.99286496741848,7.12877790193867,0.031507913524963,-0.00260210944628674,1.88486563422203,11.7878105219577
"157",19.5810151063615,39.9605814705209,4.92450344272069,6.8043135657838,-0.0454893049086436,-0.00578543049948178,2.03043381170715,12.1268495353224
"158",20.1480781674212,40.4266235997098,4.83241440889084,7.31396684322603,-0.0229878806913639,0.0144077875706872,2.02056787773305,12.5367939368659
"159",20.3959204391808,39.0550517770986,5.05686117552862,6.79605450254819,0.0178601789977194,0.0175890950918515,1.89868644141564,12.9546385479989
"160",20.2562175126279,40.3742584182692,4.95851049614728,7.34536092826175,0.0304841825859301,-0.119396042410257,1.96611619450489,11.1591714552081
"161",20.1251855391402,39.6368967795095,5.02844646935169,6.88191807802553,0.0837210661500062,-0.0678524663007968,2.10388157486895,11.0227022576135
"162",19.5124167315065,39.7033412947909,4.91502259297381,7.15445693879005,0.0302056854081048,-0.0238514240566515,2.01442800377938,12.0812827092409
"163",20.0614708849662,40.9039073352496,4.92551721811531,6.75561803490469,-0.0146755808321807,0.0238981994661236,2.0607586669267,13.342536385286
"164",19.8051504169191,38.7176939802093,5.08185657957325,6.69706191491824,0.048053930249105,-0.00447196018195362,1.98337996999402,12.4787497214482
"165",20.2547386468567,41.1464432001166,5.02680545773304,7.17231436545013,0.0396931428987582,-0.0204944542979222,1.92546331827695,12.1262875086719
"166",19.7365161705976,39.7733631742358,4.64897906594721,7.00088991938953,-0.0104828759283937,0.0129420448080029,1.94872856902677,10.7108885295874
"167",19.8333255068941,39.2819365169075,4.83705641985468,7.18080693485761,-0.0379075061066504,-0.0339371327128061,1.97661288978422,12.2037898032284
"168",19.4833696514404,40.3004635643295,4.71451105896416,6.87508691899808,-0.00275283874065021,-0.00330798047591841,1.97399196021239,11.6106229496103
"169",20.0571550322966,39.898449228551,5.04978005573476,6.86445955975684,0.0356147318779479,-0.0529973667812237,2.16140569352274,11.8589633497326
"170",20.0999045653044,39.8422770829055,5.05009773394366,6.95374326514427,0.0504462649840662,0.00383082693570136,2.01910749038727,11.9258529042205
"171",19.9876528790676,40.8139901526287,5.05982169490764,7.5274452069899,-0.0392620283626199,0.00400806063170672,2.06411349652994,11.9220580389776
"172",20.4555220033189,41.2832255335011,5.29311453274266,7.07203568333205,0.00911233191456477,0.0170566072657549,2.08331256641171,11.9475605153664
"173",19.744537345573,40.6218891960293,4.81496831855622,7.28700097065923,-0.00145095158950219,0.0233629751596593,2.0711342829261,11.436779901189
"174",20.1627654610457,39.0097246053718,4.84343764588009,7.14783885042659,-0.091566251122358,-0.0251064408632341,1.94572092949923,12.5842215744785
"175",20.7633162172446,40.1217795496838,5.12535990657038,7.06564244362333,-0.0613541123141779,0.0020993687345458,1.92979253849354,11.6181773351867
"176",19.8093575310928,40.1841437804601,4.9754984055908,7.09236298657004,-0.0825175807599505,-0.0021629875980878,1.96941922878569,12.0181894331044
"177",20.1593543458247,40.651580281078,5.00180980239392,7.24102653452352,0.0960689377739108,-0.00614019417557638,2.16868803001038,12.6797497694428
"178",20.2672825391207,39.9597056706322,4.9700283729736,6.96596707136861,-0.071720714862242,0.0259160882891878,1.88439720030794,11.6774340985304
"179",20.9606582172765,40.3298907582249,5.23607420592916,6.90622482551314,-0.0137810904798554,0.0262819679007815,2.02748008806815,12.8977952523494
"180",20.1096654286488,40.841107909982,5.0820813643885,7.06543130790175,-0.00818025507002903,-0.00894971836813504,1.95791321335665,11.5159403613332
"181",19.7399132324583,39.7799059805914,5.02675849674462,7.19135133285618,-0.00198496005191893,0.025473112103002,1.92950136223912,11.9308284954888
"182",19.5684527571276,39.1511438848615,4.62026803766667,6.65013169514763,-0.0541388564932085,-0.0150438600412245,1.95205259004275,12.8439124343715
"183",19.8066406255563,39.5708974308803,4.9037999819942,6.58096331194915,0.0875209085140678,-0.0693319096755646,2.13721916070021,11.6853370075149
"184",19.924631960168,39.9864307727028,4.70467167693644,6.96543297307197,0.0371313748139565,-0.0080183339235997,1.98422788660185,11.1064673750716
"185",19.7651551605532,39.8499799975164,4.91324542794419,6.91260132871091,0.00784172152377483,-0.0248523819101565,1.94545986413551,12.1560890232786
"186",19.8664260636305,40.0182787804882,5.14396986095187,6.99296927829655,-0.0289438801462545,-0.0346661481262688,2.11247359904776,11.9690100387212
"187",19.9918811277929,40.2891316033389,4.8896028713222,7.09815305262856,-0.051692939202096,-0.0116807877212083,2.04057365035396,11.7743903531695
"188",20.1224016449599,40.9471524999742,4.93848920830466,7.05843871220147,-1.55033776936529e-05,-0.0308756128188582,2.11212655820197,12.5948839338345
"189",19.7260155846005,39.6758018659316,5.2717817163414,7.18573589418876,-0.0752981346166758,0.00378014294345628,1.97654620146385,11.0959742855801
"190",19.8144156086997,39.2679090536996,5.01253580296703,6.61011717299122,0.0228914573959345,0.0202791179805028,2.01512444785878,12.176524936871
"191",19.5975559326544,39.937827920573,5.03420338953501,7.02887374005613,-0.00114314213746106,-0.0566780525113904,1.97214329179614,12.4197949436768
"192",19.7926724885185,41.4377664087497,4.8045419675091,7.36759246850086,0.0249699186397923,-0.00424748419741725,1.91523015393256,13.1451517678472
"193",19.3444128822807,39.7017562402105,4.72363356609379,6.93431766313519,-0.042805280342846,0.0216153087145559,2.16064556907608,11.1495324774657
"194",20.315994913313,39.7957971913748,5.13990635608712,7.10650160552045,-0.0328945285169318,-0.00534397176855545,2.03516207227087,12.7016841786208
"195",20.23486965477,40.5799580421612,5.15104043405252,6.94796458721674,0.0298681252400247,-0.0388730017378907,1.9904181664718,11.8966400303502
"196",20.0038374630689,39.4588701240792,5.07428363060467,6.7740118601231,0.00258302661841658,0.0167349248532231,1.90586430509843,11.9350977520518
"197",20.7869281819123,39.64714943106,5.30689947613782,7.01337496345099,0.0226686054234924,-0.0525341894723167,2.09413392016828,11.4776379255188
"198",19.9505717160703,39.2929750934458,4.84344225478937,6.767585676861,0.00817896195727816,-0.0355664625470008,2.05768390787059,10.2635617946019
"199",20.1189898025906,39.4134107036779,4.93759383683194,6.97090836177659,0.10187228776456,-0.0383201281734298,2.02425235735083,11.7624876521473
"200",20.1910098925172,40.7075663990555,4.88477405283917,6.7952109791604,-0.0582250587434552,-0.00701499835801911,2.02634312777018,13.4579398582682
"201",20.4763039630979,39.8415739182569,4.91570070976455,6.94355527257428,-0.0289288658165418,-0.0130338927664639,2.01259817253257,12.5097385900318
"202",19.8052906904588,39.7230989897623,4.98973136487025,6.86330773555521,0.0538585894995086,-0.0133488036913,1.99008587177211,12.7833318181359
"203",20.6651170672152,39.9628570220636,5.23189276484224,7.2755964185067,-0.0511533381430292,0.0201478888858522,1.94864597518925,13.1925482775626
"204",20.3697622205735,39.696214274731,5.02749167573753,6.75726594082064,-0.00747465758015091,0.0195450787352391,2.043173711593,12.9986484723366
"205",19.5777052064419,39.4135059866443,4.72073096165571,6.93613243152697,0.00467932258222839,0.0126076853015697,1.95295211851009,11.3390862977659
"206",19.8577337524954,40.9472793124728,4.83027162230403,7.13659640837337,0.0266525561693991,0.045767859828307,2.05731371819449,13.1980195572935
"207",20.3177108542725,39.8993650041934,5.18870932479616,6.71165766812652,0.0468232462105739,0.0628912696296565,1.87435965294863,13.0345516386813
"208",19.5035822633456,39.2348510140613,5.09882580005234,7.04542726166094,-0.0563326068332488,-0.00925016571289427,1.99412971449808,12.0258080765968
"209",20.1250144743594,39.2796706528315,5.06205834297918,6.95919964839629,0.0817068953731143,-0.0424128455642706,2.11435245838547,12.140607154215
"210",20.1789869708373,39.6295362077477,4.77537149067027,6.95497508664069,-0.0407354378041795,0.00548342779226514,1.95018904729828,11.7182304945594
"211",20.6447687013965,40.1292846008791,5.09319262047758,6.78287494947591,1.43000603595813e-06,0.0526008728715898,1.96746343174158,11.6615897832675
"212",20.2898796686996,40.1981046049714,5.05246129721662,7.03487593738489,-0.0288268637797716,-0.0132421360246135,2.03470617630152,12.1505765706123
"213",20.7753260873706,39.744762528926,5.17217513970167,7.1320543993448,-0.00257007300665452,0.0138306211624133,2.10013686094045,12.3266540808358
"214",20.1646375409111,40.182962860181,5.0684405635252,6.81027100689985,-0.0194980966243821,0.00648241848078202,2.11718318679175,13.837182893972
"215",19.707803942582,40.2063624416964,4.97266087931161,7.24265901505865,-0.0990485074027926,0.0203429884723997,2.09254804938384,11.9716069079986
"216",19.5272487611536,40.0064138327827,4.76469006467188,6.88318082190561,-0.000826375699917128,0.0313294759934513,1.93246048542198,11.3386118868402
"217",19.7224936523521,40.2995907442767,4.92755077353744,7.31564414262731,0.0910636564732386,-0.0271845951909594,2.02255800120702,11.2167844324561
"218",20.0035925692822,39.571097389526,4.99823861743186,6.59935577107729,-0.000701823856618348,-0.0222376313019061,2.17264618554072,12.4882129395378
"219",19.4372782047195,40.5213718005012,4.92415625490131,6.96867223099506,-0.109313846353465,0.0356016390680778,1.86519849114205,11.8830976644366
"220",19.9807482832663,40.3654607189842,5.05351012800044,6.82149827634477,-0.00216421207333154,0.00584328258210747,1.97631173633729,12.6028515364864
"221",19.8424097057865,40.0228455773042,4.82132091419229,7.1972018243955,0.0316062309878513,-0.0589799460732596,2.01838851276736,11.8828303317586
"222",20.3701243656574,40.3879737857258,5.21129886527302,7.0832755908991,0.0036522810457849,-0.0238867017799307,1.97301208010377,13.1007411302374
"223",19.9392354572556,39.983587853553,5.05153484750282,6.93481029273859,0.00717378058398793,-0.0358852955985055,2.02551963024969,10.6497002590449
"224",19.9550618166428,39.702571051851,5.17686440487943,6.93074060291374,0.00759814389523173,-0.0533748718202111,1.89510217357242,12.0802168612128
"225",19.7943640970758,39.9214192919781,4.81279460338064,6.9471814698297,0.0227199666958601,-0.023366987881264,1.99824483303856,11.7869530738288
"226",20.4240230293822,39.7702223009612,5.25391077320064,6.8276370939195,-0.0952443072651984,-0.032869679307515,2.12479137510474,12.2625676728444
"227",19.8627266501146,40.4437283353868,5.08044223398387,7.25229935534143,0.0104927934554381,-0.0269794314924608,2.00475602826907,12.6204661228861
"228",20.0132484701754,41.2382145948742,5.08173093096485,7.26991733364005,-0.0230189653152114,-0.0106762792996245,1.9913791169024,11.7118417063826
"229",20.1125181525733,40.4411047030125,4.92079449842484,6.88802212921408,0.0173353096522705,-0.0482535416617683,1.98010881716168,11.6513143839809
"230",19.9999145247438,40.6106325624747,5.05876670179453,6.70109559646688,-0.0391029656256915,0.00586303632939529,1.96034715310964,11.6443295049377
"231",19.9537856177039,40.5471918312773,4.99304412855027,6.79553465715748,-0.00317312357514298,-0.0302275815290706,2.06305097587622,11.6446945590953
"232",19.932791215608,39.7153366262101,5.02666142653506,7.06710262723228,0.0418869988942057,-0.0422088625283351,1.94886354714536,11.6807707705407
"233",19.4187782378587,40.33286326507,4.87733647509224,6.83145228656291,-0.0564944503176355,-0.026274617692912,2.06846517753006,12.19037912173
"234",19.9825382654218,40.0825689155911,4.92645186299478,6.99432383947494,0.00509766643404862,-0.0780368167599318,1.91633682188563,11.1198902012238
"235",19.1815816889572,40.1001187119519,4.63332655230668,6.91319747176359,0.0196763562815089,-0.00985494033339239,2.01830325827649,11.2307914733007
"236",19.9076276250535,40.0834914144673,4.87594876326044,6.85488447237262,-0.000508879644044063,-0.0539964347480705,2.04361589136909,12.1419429357478
"237",19.9290383737024,41.1000337525287,4.95164146616018,7.11133519228946,-0.00385409913904522,0.0274434642573202,1.95739417379474,11.9968938657009
"238",19.9558387931013,38.8834686658738,5.20094865999335,6.98570973029828,-0.0447621531384591,0.0177251739370956,1.89676655492513,11.2756965484794
"239",20.6294374395144,39.526252399755,5.22325051495355,7.07432240757531,-0.092338762068811,-0.0158670451567661,2.14727670434523,11.9148551733576
"240",19.971647082149,41.0866685974477,5.09083925837189,6.83961608412903,-0.0837488708679669,0.0300537465213498,2.08622220855439,11.8167665684345
"241",20.4591943512141,39.9479511007711,5.05638439690637,7.03417029385283,0.0662000095878122,-0.00702446876303118,2.01386476902111,13.1088082154814
"242",20.5719043888678,40.1376932466164,5.04643281003746,6.89000375544595,0.0658934002284876,0.000711368263954273,2.06535610712952,11.7060932887901
"243",20.2943816880404,39.3438674241178,5.00607132114233,6.79185223390292,-0.0258464031072159,-0.0228296384682101,2.02592728087736,11.8978958896035
"244",20.010565808052,40.8129739116917,5.26027649555438,7.2044289371138,0.0549844202930912,-0.00348584537823535,2.08590632548327,11.768524134501
"245",20.2826918012204,40.1756786057876,5.01377405072167,6.94876733732698,0.011326406579757,-0.00614561872601939,1.98129377112269,11.633363518035
"246",19.8086173983448,40.3953006328462,5.04808918106262,7.13301545171038,0.00569522808808747,0.0080250877605769,2.20691886615423,11.4649028803692
"247",19.7112337888837,39.2912624075909,4.8304260148539,7.22147422838896,0.0192149758905321,0.0388306777476286,2.11299303298407,12.3651772194707
"248",19.5778082570277,40.1037357874299,4.99607765632999,7.15723380947618,0.102706479785415,0.00649130284543212,2.00034177074959,13.2994011010857
"249",20.3871563849846,40.0412037074988,5.03011975243326,7.08291321353905,-0.00851352625648196,-0.0375553821021175,1.96051693146847,10.9827078345683
"250",19.8556052135012,40.3131903397084,5.03139966300944,7.20845261011689,0.0118249221727305,0.0332347997972904,1.86806718111391,12.1276421670595
