"","x"
"1",0.9525
"2",0.9555
"3",0.949
"4",0.9495
"5",0.933
"6",0.946
"7",0.952
"8",0.929
"9",0.9295
"10",0.9415
"11",0.946
"12",0.946
"13",0.947
"14",0.9465
"15",0.9435
"16",0.94
"17",0.947
"18",0.943
"19",0.953
"20",0.924
"21",0.9405
"22",0.9425
"23",0.945
"24",0.94
"25",0.944
"26",0.9405
"27",0.9465
"28",0.9385
"29",0.946
"30",0.942
"31",0.932
"32",0.9375
"33",0.948
"34",0.946
"35",0.931
"36",0.94
"37",0.932
"38",0.9475
"39",0.9575
"40",0.942
"41",0.942
"42",0.951
"43",0.9465
"44",0.9345
"45",0.947
"46",0.9405
"47",0.9525
"48",0.9375
"49",0.9455
"50",0.9565
"51",0.932
"52",0.9515
"53",0.95
"54",0.94
"55",0.9395
"56",0.9455
"57",0.9435
"58",0.931
"59",0.948
"60",0.9455
"61",0.935
"62",0.9395
"63",0.9375
"64",0.9435
"65",0.9375
"66",0.943
"67",0.941
"68",0.948
"69",0.933
"70",0.9485
"71",0.9345
"72",0.946
"73",0.945
"74",0.9425
"75",0.9505
"76",0.92
"77",0.941
"78",0.9295
"79",0.937
"80",0.947
"81",0.945
"82",0.944
"83",0.95
"84",0.9415
"85",0.9425
"86",0.9505
"87",0.934
"88",0.945
"89",0.9375
"90",0.9255
"91",0.946
"92",0.949
"93",0.9405
"94",0.93
"95",0.9325
"96",0.949
"97",0.938
"98",0.9355
"99",0.9535
"100",0.948
"101",0.9435
"102",0.9285
"103",0.938
"104",0.9465
"105",0.955
"106",0.9395
"107",0.947
"108",0.938
"109",0.9295
"110",0.941
"111",0.9445
"112",0.9265
"113",0.9315
"114",0.945
"115",0.951
"116",0.945
"117",0.9425
"118",0.9385
"119",0.941
"120",0.9515
"121",0.9395
"122",0.9395
"123",0.945
"124",0.9375
"125",0.9385
"126",0.9335
"127",0.955
"128",0.9385
"129",0.9465
"130",0.95
"131",0.9495
"132",0.9455
"133",0.957
"134",0.9345
"135",0.938
"136",0.9525
"137",0.946
"138",0.95
"139",0.942
"140",0.935
"141",0.948
"142",0.936
"143",0.9415
"144",0.949
"145",0.9445
"146",0.9395
"147",0.9415
"148",0.94
"149",0.9435
"150",0.9375
"151",0.9315
"152",0.9405
"153",0.9305
"154",0.9495
"155",0.943
"156",0.9415
"157",0.9365
"158",0.9325
"159",0.945
"160",0.9515
"161",0.9375
"162",0.931
"163",0.938
"164",0.9465
"165",0.9535
"166",0.9445
"167",0.9335
"168",0.946
"169",0.947
"170",0.956
"171",0.941
"172",0.9435
"173",0.938
"174",0.946
"175",0.946
"176",0.955
"177",0.953
"178",0.946
"179",0.952
"180",0.9445
"181",0.946
"182",0.9435
"183",0.9375
"184",0.945
"185",0.936
"186",0.945
"187",0.94
"188",0.9465
"189",0.9435
"190",0.95
"191",0.9475
"192",0.944
"193",0.949
"194",0.9395
"195",0.957
"196",0.9445
"197",0.9455
"198",0.95
"199",0.94
"200",0.937
"201",0.9405
"202",0.9305
"203",0.945
"204",0.9305
"205",0.9455
"206",0.9465
"207",0.9485
"208",0.951
"209",0.954
"210",0.939
"211",0.9555
"212",0.954
"213",0.9345
"214",0.9555
"215",0.942
"216",0.9455
"217",0.9475
"218",0.9505
"219",0.9485
"220",0.941
"221",0.9625
"222",0.951
"223",0.921
"224",0.9305
"225",0.9485
"226",0.9325
"227",0.9425
"228",0.939
"229",0.936
"230",0.9375
"231",0.936
"232",0.942
"233",0.9415
"234",0.9515
"235",0.9475
"236",0.944
"237",0.942
"238",0.944
"239",0.954
"240",0.946
"241",0.937
"242",0.943
"243",0.937
"244",0.938
"245",0.95
"246",0.9455
"247",0.9415
"248",0.9495
"249",0.9355
"250",0.929
