"","V1","V2","V3","V4","V5","V6","V7","V8","V9","V10","V11","V12"
"1",0.001,0.142,0.245,0.025,0.135,0.357,0.003,0.197,0.316,0.038,0.167,0.367
"2",0.005,0.135,0.332,0.002,0.082,0.43,0.034,0.208,0.288,0.015,0.174,0.393
"3",0.002,0.127,0.277,0.001,0.152,0.391,0.011,0.22,0.306,0.032,0.194,0.424
"4",0,0.156,0.289,0.003,0.127,0.394,0.048,0.155,0.304,0,0.199,0.392
"5",0.002,0.169,0.274,0.035,0.163,0.407,0.001,0.237,0.258,0.001,0.249,0.346
"6",0,0.169,0.284,0,0.137,0.419,0,0.201,0.323,0.011,0.188,0.403
"7",0.026,0.246,0.007,0.078,0.311,0.012,0.047,0.179,0.325,0.011,0.217,0.41
"8",0.001,0.12,0.307,0.048,0.13,0.385,0.074,0.183,0.311,0,0.188,0.403
"9",0.065,0.114,0.291,0.001,0.168,0.397,0.023,0.225,0.281,0.024,0.198,0.375
"10",0.048,0.15,0.326,0,0.174,0.317,0.001,0.115,0.299,0.027,0.183,0.4
"11",0.039,0.164,0.234,0,0.156,0.404,0,0.182,0.294,0,0.216,0.406
"12",0.002,0.134,0.318,0.004,0.204,0.357,0.004,0.205,0.315,0.012,0.184,0.395
"13",0.038,0.118,0.289,0,0.19,0.385,0.029,0.244,0.258,0,0.163,0.376
"14",0.001,0.145,0.337,0.001,0.157,0.359,0.033,0.123,0.328,0.003,0.184,0.404
"15",0.009,0.148,0.29,0.003,0.216,0.344,0.011,0.197,0.326,0.01,0.18,0.434
"16",0,0.18,0.288,0.004,0.141,0.428,0,0.2,0.324,0,0.163,0.436
"17",0.001,0.178,0.324,0.008,0.149,0.368,0.004,0.159,0.3,0.001,0.196,0.407
"18",0.013,0.12,0.334,0.017,0.122,0.434,0.002,0.2,0.285,0,0.139,0.457
"19",0.07,0.046,0.284,0.003,0.149,0.42,0.002,0.19,0.249,0.002,0.196,0.39
"20",0,0.141,0.347,0.002,0.19,0.386,0.002,0.252,0.272,0.05,0.132,0.42
"21",0,0.193,0.286,0,0.16,0.414,0,0.17,0.357,0.001,0.191,0.415
"22",0.003,0.153,0.275,0.001,0.173,0.373,0.035,0.217,0.282,0.008,0.224,0.387
"23",0,0.176,0.303,0.027,0.108,0.379,0,0.182,0.323,0,0.229,0.389
"24",0.001,0.168,0.28,0.001,0.195,0.353,0.045,0.206,0.287,0,0.172,0.405
"25",0.002,0.138,0.287,0.027,0.185,0.337,0.004,0.234,0.307,0,0.204,0.394
"26",0,0.168,0.322,0,0.143,0.37,0.001,0.157,0.261,0,0.225,0.389
"27",0,0.147,0.277,0,0.134,0.386,0,0.254,0.27,0,0.192,0.386
"28",0.047,0.113,0.314,0.007,0.154,0.36,0.002,0.193,0.308,0.004,0.155,0.449
"29",0,0.166,0.236,0.021,0.167,0.38,0.004,0.267,0.261,0.036,0.191,0.407
"30",0,0.183,0.306,0,0.15,0.362,0.061,0.231,0.274,0.042,0.175,0.392
"31",0.006,0.2,0,0.005,0.328,0,0.001,0.153,0.31,0,0.174,0.366
"32",0,0.162,0.259,0,0.099,0.484,0.001,0.17,0.337,0.001,0.202,0.463
"33",0.011,0.129,0.308,0.002,0.109,0.399,0.002,0.19,0.335,0.017,0.188,0.403
"34",0.001,0.166,0.27,0.052,0.141,0.355,0.001,0.207,0.306,0.002,0.185,0.424
"35",0,0.114,0.359,0,0.185,0.341,0,0.181,0.29,0,0.222,0.37
"36",0.016,0.145,0.268,0.001,0.169,0.386,0.007,0.159,0.328,0.001,0.184,0.426
"37",0.002,0.106,0.349,0.088,0.132,0.332,0.001,0.227,0.31,0,0.2,0.401
"38",0.001,0.124,0.336,0.027,0.062,0.401,0,0.208,0.305,0,0.225,0.368
"39",0.005,0.127,0.291,0.021,0.169,0.35,0.014,0.26,0.298,0.023,0.173,0.413
"40",0.001,0.135,0.26,0.001,0.139,0.417,0.071,0.169,0.302,0.005,0.203,0.399
"41",0.008,0.163,0.292,0.001,0.175,0.376,0.006,0.183,0.279,0.009,0.217,0.387
"42",0.001,0.099,0.307,0,0.15,0.34,0.014,0.187,0.292,0.005,0.202,0.402
"43",0.03,0.12,0.355,0,0.159,0.405,0,0.236,0.297,0,0.17,0.449
"44",0,0.098,0.387,0,0.091,0.475,0.001,0.16,0.255,0.004,0.214,0.405
"45",0.02,0.125,0.259,0.01,0.108,0.399,0.062,0.179,0.3,0.006,0.195,0.422
"46",0.007,0.189,0.317,0.062,0.117,0.38,0.002,0.172,0.256,0.003,0.225,0.405
"47",0,0.16,0.299,0.001,0.188,0.375,0.002,0.188,0.299,0,0.156,0.398
"48",0.006,0.157,0.316,0.021,0.167,0.367,0.003,0.148,0.321,0.016,0.169,0.388
"49",0.012,0.116,0.278,0,0.141,0.409,0.058,0.203,0.283,0.002,0.207,0.414
"50",0.039,0.117,0.307,0.008,0.136,0.386,0.002,0.181,0.314,0.001,0.209,0.372
"51",0.007,0.095,0.361,0.036,0.132,0.381,0.001,0.206,0.245,0,0.182,0.458
"52",0.06,0.092,0.283,0.001,0.13,0.343,0,0.208,0.292,0.036,0.199,0.363
"53",0.001,0.137,0.281,0.035,0.105,0.423,0.008,0.212,0.3,0.022,0.203,0.378
"54",0.043,0.139,0.297,0.021,0.116,0.43,0,0.207,0.285,0,0.205,0.397
"55",0.026,0.122,0.327,0.001,0.17,0.382,0.029,0.215,0.283,0,0.243,0.354
"56",0.002,0.159,0.253,0,0.173,0.361,0.002,0.259,0.28,0.001,0.233,0.403
"57",0.001,0.136,0.333,0.018,0.157,0.33,0.001,0.15,0.268,0.022,0.199,0.382
"58",0.005,0.146,0.308,0.003,0.136,0.393,0.078,0.162,0.246,0.001,0.214,0.361
"59",0,0.136,0.339,0.023,0.15,0.353,0.001,0.222,0.292,0,0.181,0.409
"60",0.02,0.153,0.328,0.002,0.214,0.324,0.092,0.101,0.293,0.021,0.181,0.418
"61",0.015,0.174,0.235,0.004,0.184,0.364,0,0.179,0.296,0,0.225,0.396
"62",0.019,0.094,0.34,0.001,0.138,0.411,0.013,0.225,0.318,0.051,0.142,0.411
"63",0.002,0.205,0.242,0.002,0.123,0.37,0.002,0.241,0.28,0.016,0.159,0.458
"64",0.074,0.062,0.329,0.028,0.175,0.341,0.006,0.161,0.325,0.039,0.174,0.401
"65",0.05,0.118,0.306,0.001,0.087,0.461,0.013,0.178,0.33,0.01,0.23,0.389
"66",0.048,0.115,0.326,0.04,0.113,0.416,0,0.176,0.294,0,0.18,0.405
"67",0,0.153,0.323,0.011,0.168,0.407,0.003,0.247,0.222,0.016,0.173,0.391
"68",0,0.067,0.357,0,0.175,0.368,0,0.217,0.352,0,0.177,0.427
"69",0.004,0.156,0.283,0.004,0.119,0.425,0.008,0.225,0.284,0.002,0.208,0.396
"70",0,0.136,0.301,0,0.137,0.376,0,0.165,0.304,0.001,0.216,0.351
"71",0.019,0.123,0.319,0.001,0.148,0.38,0.001,0.18,0.34,0.026,0.229,0.372
"72",0.037,0.211,0.015,0.043,0.241,0.025,0.047,0.258,0.187,0.057,0.239,0.357
"73",0.035,0.104,0.328,0.024,0.12,0.399,0.03,0.152,0.325,0.002,0.171,0.43
"74",0,0.16,0.276,0.041,0.132,0.391,0.001,0.18,0.294,0.016,0.199,0.382
"75",0.001,0.15,0.278,0.029,0.074,0.402,0.009,0.167,0.287,0,0.172,0.395
"76",0.024,0.133,0.323,0,0.153,0.43,0,0.242,0.284,0.009,0.233,0.357
"77",0,0.155,0.253,0.058,0.134,0.373,0.006,0.22,0.282,0,0.187,0.394
"78",0.019,0.109,0.336,0.001,0.13,0.406,0.015,0.176,0.306,0.041,0.154,0.41
"79",0.03,0.12,0.317,0.007,0.178,0.44,0.013,0.185,0.277,0.038,0.195,0.392
"80",0.006,0.138,0.328,0.003,0.157,0.396,0,0.24,0.277,0,0.178,0.408
"81",0,0.172,0.269,0,0.139,0.392,0.005,0.207,0.284,0.053,0.174,0.406
"82",0,0.18,0.253,0.015,0.089,0.37,0,0.243,0.268,0.026,0.207,0.345
"83",0.019,0.114,0.326,0.008,0.221,0.328,0.001,0.222,0.305,0,0.198,0.435
"84",0,0.126,0.353,0,0.182,0.403,0.056,0.187,0.245,0,0.216,0.374
"85",0.035,0.185,0.293,0.001,0.173,0.383,0.059,0.188,0.254,0.018,0.139,0.433
"86",0.032,0.146,0.271,0.032,0.153,0.397,0.001,0.204,0.29,0,0.211,0.412
"87",0.021,0.115,0.297,0.003,0.147,0.439,0.01,0.203,0.286,0.001,0.195,0.394
"88",0.01,0.133,0.343,0.058,0.115,0.355,0.063,0.208,0.287,0.016,0.172,0.383
"89",0.044,0.083,0.345,0.046,0.122,0.446,0.001,0.14,0.294,0.031,0.221,0.344
"90",0.003,0.146,0.328,0.005,0.166,0.388,0.001,0.256,0.22,0.018,0.168,0.386
"91",0.009,0.18,0.308,0.001,0.154,0.401,0.028,0.213,0.321,0.002,0.212,0.369
"92",0.01,0.15,0.293,0.038,0.119,0.368,0.009,0.221,0.284,0.008,0.22,0.348
"93",0.001,0.148,0.285,0.024,0.168,0.362,0.002,0.294,0.247,0.03,0.208,0.372
"94",0.001,0.173,0.312,0.025,0.161,0.371,0.08,0.184,0.283,0.002,0.183,0.419
"95",0.013,0.174,0.321,0.002,0.145,0.433,0,0.122,0.276,0,0.203,0.41
"96",0.001,0.102,0.336,0.002,0.161,0.388,0.011,0.204,0.265,0.003,0.165,0.4
"97",0.002,0.118,0.295,0.025,0.125,0.404,0.002,0.175,0.321,0.001,0.187,0.449
"98",0.001,0.151,0.252,0.039,0.13,0.382,0.003,0.255,0.238,0.002,0.223,0.377
"99",0,0.135,0.247,0.02,0.128,0.405,0.001,0.198,0.299,0.001,0.199,0.397
"100",0.029,0.114,0.294,0.001,0.097,0.411,0.021,0.263,0.239,0,0.192,0.397
"101",0,0.114,0.262,0,0.174,0.395,0.064,0.18,0.312,0.001,0.209,0.409
"102",0.002,0.156,0.326,0.028,0.152,0.332,0,0.213,0.295,0.001,0.19,0.41
"103",0.033,0.114,0.281,0.004,0.17,0.401,0.001,0.207,0.299,0.002,0.267,0.39
"104",0.017,0.179,0.265,0,0.169,0.407,0,0.216,0.343,0.037,0.121,0.454
"105",0.006,0.09,0.356,0.02,0.117,0.391,0.035,0.223,0.315,0.004,0.203,0.386
"106",0.001,0.146,0.29,0.018,0.095,0.457,0.002,0.221,0.264,0,0.222,0.39
"107",0,0.188,0.246,0.042,0.147,0.378,0.001,0.232,0.275,0.001,0.198,0.37
"108",0,0.168,0.314,0,0.176,0.383,0,0.194,0.27,0,0.208,0.424
"109",0,0.126,0.327,0.03,0.078,0.455,0.053,0.228,0.251,0,0.221,0.405
"110",0.002,0.152,0.295,0.043,0.075,0.414,0.005,0.218,0.282,0.036,0.19,0.4
"111",0.01,0.136,0.22,0.003,0.183,0.388,0.002,0.199,0.289,0.027,0.165,0.44
"112",0,0.088,0.347,0.006,0.166,0.391,0.002,0.144,0.334,0.001,0.18,0.412
"113",0.011,0.113,0.298,0.026,0.157,0.413,0.009,0.162,0.281,0.003,0.206,0.346
"114",0.001,0.153,0.273,0.019,0.099,0.449,0.003,0.176,0.315,0.023,0.214,0.374
"115",0,0.13,0.356,0.027,0.119,0.393,0.002,0.193,0.314,0,0.168,0.425
"116",0.013,0.144,0.301,0.002,0.158,0.358,0.03,0.132,0.348,0.001,0.223,0.397
"117",0,0.109,0.285,0,0.12,0.442,0.001,0.179,0.271,0,0.207,0.395
"118",0.006,0.167,0.278,0,0.176,0.347,0,0.179,0.297,0,0.209,0.398
"119",0.001,0.121,0.306,0.002,0.149,0.41,0.008,0.262,0.27,0.004,0.185,0.392
"120",0.055,0.104,0.317,0.083,0.093,0.424,0.069,0.155,0.289,0.007,0.231,0.399
"121",0.038,0.128,0.307,0.005,0.113,0.434,0.017,0.212,0.246,0.012,0.191,0.407
"122",0,0.149,0.314,0,0.111,0.452,0,0.246,0.266,0.029,0.173,0.409
"123",0.004,0.148,0.343,0.01,0.099,0.398,0.003,0.149,0.326,0.002,0.227,0.375
"124",0,0.139,0.318,0.003,0.173,0.354,0.001,0.222,0.306,0.026,0.138,0.441
"125",0.023,0.162,0.27,0.003,0.12,0.411,0.001,0.198,0.299,0.001,0.2,0.412
"126",0.062,0.178,0.237,0.058,0.096,0.41,0.023,0.23,0.262,0.009,0.177,0.402
"127",0,0.158,0.331,0.001,0.167,0.402,0,0.22,0.306,0,0.192,0.435
"128",0,0.221,0.239,0.067,0.108,0.368,0.033,0.244,0.239,0,0.183,0.392
"129",0.001,0.127,0.358,0.001,0.188,0.351,0.001,0.142,0.371,0.022,0.18,0.409
"130",0,0.202,0.236,0.02,0.094,0.458,0.001,0.2,0.287,0,0.185,0.417
"131",0,0.169,0.258,0.007,0.156,0.376,0.001,0.215,0.331,0,0.22,0.4
"132",0.002,0.106,0.291,0,0.183,0.406,0.009,0.204,0.294,0.001,0.216,0.41
"133",0.026,0.128,0.263,0.001,0.085,0.448,0.033,0.178,0.336,0.003,0.198,0.397
"134",0.006,0.143,0.307,0.003,0.213,0.361,0.006,0.168,0.302,0.002,0.168,0.376
"135",0.026,0.119,0.335,0.003,0.126,0.444,0.003,0.186,0.326,0.001,0.222,0.401
"136",0,0.148,0.303,0.001,0.11,0.418,0,0.228,0.287,0.001,0.189,0.414
"137",0,0.119,0.267,0,0.161,0.386,0.001,0.208,0.282,0.001,0.218,0.398
"138",0.018,0.121,0.323,0.018,0.151,0.378,0.049,0.181,0.308,0.007,0.2,0.391
"139",0.031,0.102,0.307,0.007,0.155,0.395,0.004,0.173,0.299,0.018,0.203,0.405
"140",0.005,0.192,0.264,0.001,0.156,0.412,0.002,0.146,0.267,0.018,0.171,0.42
"141",0.008,0.159,0.245,0.005,0.213,0.348,0.001,0.241,0.308,0.002,0.177,0.409
"142",0.003,0.137,0.338,0.017,0.195,0.35,0.001,0.236,0.301,0.008,0.212,0.39
"143",0,0.146,0.294,0.028,0.173,0.343,0,0.18,0.341,0,0.186,0.41
"144",0,0.143,0.315,0,0.148,0.367,0,0.151,0.288,0,0.244,0.389
"145",0.022,0.114,0.298,0.01,0.155,0.373,0.008,0.187,0.282,0.004,0.183,0.404
"146",0.015,0.181,0.229,0,0.147,0.414,0,0.183,0.348,0,0.203,0.401
"147",0,0.144,0.273,0.018,0.16,0.331,0.009,0.186,0.304,0.001,0.225,0.408
"148",0.028,0.154,0.275,0.002,0.16,0.405,0.08,0.135,0.283,0.001,0.219,0.377
"149",0.017,0.148,0.273,0.001,0.129,0.423,0,0.239,0.3,0.001,0.189,0.386
"150",0,0.09,0.334,0.001,0.218,0.392,0,0.25,0.239,0,0.215,0.363
"151",0.122,0.133,0,0.066,0.322,0,0.001,0.167,0.338,0,0.179,0.445
"152",0.001,0.144,0.338,0.002,0.094,0.44,0.001,0.206,0.317,0.002,0.193,0.443
"153",0,0.168,0.301,0.002,0.194,0.357,0.001,0.228,0.269,0.03,0.178,0.407
"154",0.001,0.167,0.307,0.055,0.125,0.35,0,0.226,0.319,0.015,0.22,0.386
"155",0.001,0.099,0.328,0.005,0.162,0.388,0.001,0.22,0.212,0.001,0.221,0.408
"156",0,0.155,0.26,0,0.161,0.421,0.042,0.183,0.29,0.011,0.218,0.379
"157",0.001,0.177,0.268,0.043,0.126,0.4,0.001,0.162,0.264,0.009,0.196,0.379
"158",0.003,0.096,0.308,0.009,0.09,0.462,0.005,0.207,0.316,0.004,0.188,0.385
"159",0.01,0.148,0.317,0.002,0.166,0.354,0.001,0.232,0.297,0.016,0.199,0.414
"160",0.002,0.134,0.35,0.002,0.156,0.351,0,0.235,0.287,0,0.178,0.407
"161",0,0.147,0.274,0.025,0.169,0.396,0.001,0.183,0.293,0.02,0.164,0.423
"162",0,0.132,0.282,0,0.177,0.355,0.018,0.157,0.282,0.022,0.199,0.373
"163",0,0.146,0.284,0.028,0.073,0.482,0.04,0.137,0.306,0,0.213,0.411
"164",0.001,0.2,0.283,0.021,0.184,0.346,0.003,0.239,0.234,0.023,0.211,0.424
"165",0.052,0.138,0.272,0.006,0.251,0.352,0.001,0.198,0.3,0.003,0.211,0.388
"166",0.006,0.159,0.3,0.001,0.114,0.408,0.021,0.222,0.284,0.006,0.205,0.4
"167",0.022,0.102,0.313,0.002,0.155,0.396,0.001,0.188,0.27,0.005,0.23,0.388
"168",0.01,0.123,0.388,0.026,0.182,0.335,0.034,0.185,0.31,0.02,0.165,0.413
"169",0,0.126,0.375,0,0.155,0.363,0,0.275,0.26,0.001,0.188,0.405
"170",0.007,0.17,0.264,0.034,0.128,0.394,0.001,0.186,0.294,0.001,0.194,0.405
"171",0.032,0.184,0.229,0.045,0.125,0.426,0.027,0.14,0.331,0.019,0.225,0.343
"172",0.001,0.167,0.328,0.001,0.144,0.384,0.001,0.201,0.3,0.006,0.2,0.391
"173",0,0.159,0.331,0.029,0.138,0.37,0.036,0.223,0.301,0,0.188,0.423
"174",0,0.184,0.304,0.046,0.144,0.329,0.001,0.227,0.28,0.001,0.183,0.421
"175",0.04,0.133,0.316,0,0.154,0.379,0,0.189,0.322,0,0.197,0.411
"176",0,0.193,0.258,0,0.134,0.421,0.001,0.182,0.333,0.008,0.192,0.396
"177",0,0.142,0.278,0.001,0.137,0.408,0.001,0.181,0.28,0.002,0.168,0.43
"178",0.001,0.138,0.317,0.002,0.097,0.444,0.034,0.242,0.266,0.009,0.174,0.412
"179",0,0.151,0.286,0.001,0.143,0.365,0.001,0.194,0.306,0.005,0.171,0.413
"180",0.005,0.237,0.204,0.076,0.085,0.378,0.032,0.131,0.286,0.002,0.201,0.397
"181",0,0.152,0.317,0.019,0.157,0.393,0,0.175,0.275,0.021,0.167,0.404
"182",0.023,0.117,0.258,0,0.155,0.394,0,0.169,0.302,0.022,0.191,0.379
"183",0.001,0.15,0.27,0.007,0.134,0.429,0.002,0.204,0.327,0.035,0.2,0.385
"184",0.001,0.13,0.335,0.003,0.148,0.394,0.023,0.215,0.288,0.001,0.231,0.371
"185",0.001,0.134,0.321,0.001,0.09,0.418,0,0.144,0.323,0.024,0.168,0.371
"186",0,0.117,0.277,0.002,0.181,0.395,0.024,0.176,0.255,0.002,0.187,0.416
"187",0.045,0.135,0.214,0.017,0.084,0.411,0.003,0.245,0.29,0,0.22,0.355
"188",0.001,0.192,0.234,0.001,0.16,0.403,0.033,0.167,0.308,0.024,0.203,0.381
"189",0.006,0.164,0.3,0.002,0.209,0.351,0.001,0.193,0.285,0.004,0.204,0.373
"190",0,0.131,0.369,0,0.156,0.392,0.036,0.187,0.267,0.002,0.166,0.401
"191",0,0.134,0.317,0.001,0.18,0.347,0,0.126,0.306,0,0.232,0.389
"192",0.019,0.177,0.267,0.032,0.119,0.411,0.042,0.18,0.245,0.013,0.163,0.431
"193",0.01,0.125,0.277,0.011,0.102,0.463,0.005,0.134,0.325,0.007,0.249,0.36
"194",0.041,0.102,0.313,0.028,0.155,0.388,0.002,0.173,0.305,0,0.239,0.397
"195",0.002,0.112,0.362,0.003,0.194,0.352,0.002,0.194,0.278,0.027,0.21,0.404
"196",0.086,0.208,0,0.043,0.378,0,0.067,0.221,0.288,0.028,0.122,0.392
"197",0,0.157,0.26,0,0.216,0.357,0.039,0.197,0.289,0,0.233,0.412
"198",0.029,0.114,0.309,0,0.113,0.417,0,0.187,0.341,0,0.225,0.408
"199",0.001,0.1,0.326,0.001,0.152,0.432,0.05,0.169,0.292,0.003,0.199,0.378
"200",0.016,0.197,0.268,0.012,0.146,0.456,0.079,0.212,0.258,0,0.19,0.4
"201",0.015,0.144,0.272,0.001,0.144,0.412,0,0.228,0.256,0.037,0.175,0.381
"202",0.022,0.123,0.263,0.031,0.162,0.417,0.001,0.194,0.294,0.077,0.125,0.409
"203",0.002,0.138,0.29,0.001,0.183,0.346,0.047,0.204,0.3,0,0.202,0.393
"204",0.032,0.253,0,0.09,0.305,0,0.004,0.192,0.337,0.008,0.159,0.432
"205",0.001,0.106,0.365,0.001,0.165,0.383,0.001,0.194,0.317,0.017,0.169,0.384
"206",0.019,0.129,0.204,0.002,0.123,0.434,0.001,0.239,0.236,0.001,0.128,0.46
"207",0.036,0.093,0.29,0,0.144,0.39,0,0.201,0.326,0.001,0.231,0.392
"208",0.012,0.153,0.263,0,0.147,0.426,0.012,0.121,0.307,0.001,0.171,0.433
"209",0.014,0.138,0.253,0.004,0.14,0.403,0.011,0.148,0.358,0.047,0.165,0.349
"210",0,0.134,0.331,0.003,0.185,0.346,0.069,0.183,0.279,0.009,0.164,0.392
"211",0,0.171,0.233,0.028,0.164,0.373,0.026,0.2,0.272,0.001,0.203,0.388
"212",0.017,0.185,0.26,0.009,0.136,0.399,0.028,0.203,0.338,0.001,0.204,0.397
"213",0.011,0.093,0.358,0.041,0.089,0.428,0.059,0.244,0.273,0,0.147,0.46
"214",0.018,0.175,0.286,0.002,0.144,0.382,0.048,0.202,0.248,0.03,0.186,0.399
"215",0,0.216,0.238,0,0.179,0.368,0.002,0.22,0.239,0.019,0.172,0.405
"216",0.022,0.126,0.31,0.066,0.133,0.397,0.011,0.197,0.316,0.039,0.162,0.366
"217",0.003,0.201,0.242,0,0.162,0.412,0.001,0.146,0.304,0,0.255,0.383
"218",0.007,0.134,0.273,0.003,0.15,0.451,0.008,0.227,0.329,0.002,0.2,0.374
"219",0.008,0.131,0.308,0.002,0.215,0.355,0.013,0.183,0.316,0,0.187,0.418
"220",0.01,0.133,0.354,0.001,0.058,0.433,0.011,0.209,0.284,0.008,0.219,0.387
"221",0,0.144,0.297,0.005,0.198,0.321,0,0.195,0.259,0,0.157,0.418
"222",0.005,0.143,0.341,0.014,0.126,0.394,0.005,0.212,0.312,0.038,0.206,0.354
"223",0.015,0.157,0.301,0.037,0.105,0.403,0.044,0.199,0.337,0.01,0.205,0.376
"224",0,0.128,0.349,0.001,0.116,0.463,0,0.195,0.329,0.033,0.187,0.395
"225",0.005,0.121,0.338,0,0.134,0.372,0.044,0.204,0.233,0.018,0.209,0.395
"226",0.002,0.151,0.293,0.04,0.14,0.367,0.012,0.19,0.298,0.004,0.203,0.389
"227",0,0.123,0.323,0.018,0.189,0.376,0,0.157,0.274,0.001,0.194,0.416
"228",0.019,0.154,0.251,0,0.138,0.446,0,0.179,0.292,0.001,0.197,0.381
"229",0.021,0.126,0.327,0.001,0.167,0.403,0.034,0.242,0.282,0.067,0.15,0.371
"230",0.001,0.154,0.327,0.008,0.119,0.431,0.001,0.121,0.348,0,0.226,0.361
"231",0.002,0.142,0.28,0.008,0.145,0.405,0.015,0.208,0.273,0.012,0.198,0.384
"232",0,0.146,0.294,0.008,0.172,0.322,0.003,0.213,0.292,0.004,0.141,0.442
"233",0.035,0.119,0.291,0.079,0.087,0.407,0.034,0.191,0.255,0.006,0.245,0.381
"234",0,0.146,0.27,0.001,0.135,0.378,0.001,0.252,0.282,0.024,0.129,0.442
"235",0.009,0.115,0.294,0.007,0.135,0.443,0,0.195,0.24,0.001,0.192,0.384
"236",0,0.095,0.318,0.001,0.153,0.431,0,0.166,0.316,0.021,0.179,0.413
"237",0.001,0.149,0.299,0,0.174,0.313,0,0.239,0.257,0,0.2,0.391
"238",0.027,0.161,0.348,0.001,0.137,0.421,0.001,0.197,0.271,0.001,0.205,0.42
"239",0.004,0.154,0.324,0,0.14,0.41,0.038,0.194,0.253,0.002,0.202,0.399
"240",0.047,0.182,0.305,0.031,0.178,0.367,0,0.237,0.306,0,0.208,0.389
"241",0.001,0.171,0.333,0.002,0.123,0.406,0.005,0.205,0.28,0.005,0.123,0.503
"242",0.046,0.085,0.281,0.048,0.155,0.371,0.001,0.222,0.281,0.002,0.19,0.396
"243",0.045,0.115,0.331,0.032,0.11,0.441,0.05,0.082,0.305,0.006,0.227,0.343
"244",0.021,0.109,0.32,0,0.16,0.368,0,0.215,0.276,0.029,0.132,0.418
"245",0.018,0.091,0.303,0.046,0.148,0.386,0.011,0.173,0.288,0.037,0.138,0.412
"246",0.011,0.161,0.28,0,0.156,0.428,0.013,0.153,0.332,0.001,0.232,0.341
"247",0.025,0.164,0.269,0.001,0.147,0.375,0,0.218,0.315,0,0.201,0.401
"248",0.02,0.161,0.282,0.004,0.125,0.446,0.008,0.167,0.311,0.008,0.193,0.405
"249",0.017,0.151,0.312,0.02,0.134,0.392,0.019,0.19,0.314,0,0.196,0.39
"250",0.034,0.131,0.273,0.031,0.085,0.426,0.004,0.2,0.307,0.014,0.188,0.404
