"","V1","V2","V3","V4"
"1",0.052,0.016,0.072,0.019
"2",0.055,0.002,0.055,0.004
"3",0.033,0.001,0.001,0.001
"4",0.006,0.048,0.005,0.007
"5",0,0.04,0.003,0.055
"6",0.011,0.006,0.079,0.005
"7",0,0,0,0
"8",0.005,0.018,0.09,0.047
"9",0,0,0.001,0.023
"10",0,0,0,0
"11",0.003,0.031,0.012,0.037
"12",0.001,0,0.019,0.02
"13",0.006,0.02,0.01,0.055
"14",0.034,0.011,0.001,0.038
"15",0,0.002,0.026,0.002
"16",0.012,0.054,0.016,0.01
"17",0,0,0,0.024
"18",0.001,0.001,0,0
"19",0.022,0.044,0.005,0.005
"20",0.024,0.001,0.007,0.003
"21",0.002,0.041,0.005,0.002
"22",0,0,0.002,0
"23",0.001,0.002,0.072,0
"24",0.036,0.005,0.001,0.009
"25",0.041,0.032,0.063,0.003
"26",0.001,0.009,0.103,0
"27",0.007,0.036,0.001,0.001
"28",0.001,0,0,0.003
"29",0.001,0.002,0,0.001
"30",0.022,0.001,0.002,0.022
"31",0,0,0.002,0.007
"32",0.002,0.001,0.011,0.026
"33",0.053,0.006,0.033,0.009
"34",0,0,0,0
"35",0,0,0,0.001
"36",0,0.037,0.001,0
"37",0.041,0.001,0.014,0.004
"38",0,0.001,0.01,0.003
"39",0.005,0.059,0.009,0.002
"40",0.008,0,0.012,0.004
"41",0,0,0.003,0.002
"42",0.003,0.019,0,0
"43",0,0,0,0.001
"44",0.024,0.003,0.026,0
"45",0.028,0.004,0.006,0.001
"46",0.004,0,0.01,0.062
"47",0.062,0.001,0.072,0.001
"48",0.018,0.001,0.006,0
"49",0.049,0.002,0.003,0.056
"50",0,0.023,0.001,0
"51",0.006,0.005,0.071,0.017
"52",0.003,0.001,0,0.002
"53",0.001,0.002,0.004,0.046
"54",0.013,0.001,0.007,0.045
"55",0.005,0.005,0.053,0.003
"56",0.003,0.002,0.011,0.002
"57",0.013,0.055,0.044,0.024
"58",0.01,0.082,0.007,0.002
"59",0.05,0.04,0.048,0.018
"60",0.001,0.085,0.071,0.01
"61",0.031,0.002,0.001,0
"62",0.011,0.004,0.044,0.023
"63",0.002,0.005,0.06,0.008
"64",0,0.003,0,0
"65",0.001,0.007,0.003,0
"66",0.001,0.007,0.001,0.002
"67",0.087,0.002,0.002,0.001
"68",0,0,0,0
"69",0.008,0.001,0.051,0.002
"70",0.014,0.012,0.011,0.045
"71",0.004,0,0.001,0.005
"72",0.003,0.001,0.049,0.008
"73",0.005,0.003,0.053,0.011
"74",0.017,0.006,0.004,0.017
"75",0.063,0.007,0.038,0.001
"76",0,0.001,0.012,0.009
"77",0.001,0.038,0.006,0.002
"78",0.001,0.002,0.105,0.006
"79",0.03,0.001,0.003,0.035
"80",0.001,0.001,0.006,0
"81",0.004,0.019,0.002,0.028
"82",0.018,0.007,0.001,0.004
"83",0.017,0.012,0.031,0.015
"84",0.002,0,0,0.003
"85",0,0,0.043,0.03
"86",0.035,0,0.01,0.01
"87",0,0,0.002,0.003
"88",0,0.001,0.007,0.019
"89",0,0.001,0,0
"90",0.015,0,0.043,0.006
"91",0.003,0.014,0.001,0.001
"92",0.001,0.001,0.011,0.043
"93",0.01,0.006,0.029,0.049
"94",0.028,0.028,0.001,0.001
"95",0.002,0.004,0.001,0.003
"96",0.002,0.002,0.009,0
"97",0,0,0.041,0
"98",0.008,0.074,0.001,0.002
"99",0.014,0.025,0,0
"100",0.001,0,0.01,0.005
"101",0.012,0.003,0.001,0.001
"102",0.001,0.007,0.002,0.084
"103",0.001,0.001,0.004,0.001
"104",0.033,0.002,0.001,0
"105",0.051,0.016,0.017,0.068
"106",0.041,0.003,0.001,0.001
"107",0.033,0.001,0.048,0.023
"108",0.004,0.009,0.002,0.002
"109",0.001,0.001,0.001,0.005
"110",0.008,0.027,0.12,0.026
"111",0,0.055,0,0.036
"112",0.016,0.065,0.069,0.002
"113",0.045,0.007,0.01,0.006
"114",0.001,0.003,0.058,0.012
"115",0.06,0.013,0.008,0.001
"116",0.001,0,0.001,0.001
"117",0.001,0.002,0.027,0
"118",0.001,0,0.003,0
"119",0.038,0,0,0
"120",0.051,0.003,0.009,0.052
"121",0.002,0,0.001,0
"122",0.069,0.002,0.003,0.022
"123",0.001,0.011,0.001,0.001
"124",0.059,0.044,0,0
"125",0.001,0.002,0.003,0.014
"126",0.004,0.025,0.034,0.009
"127",0.018,0.009,0,0
"128",0.006,0,0.005,0
"129",0.014,0.009,0.01,0.037
"130",0.002,0.008,0.009,0.008
"131",0.016,0.031,0.005,0.002
"132",0,0.035,0.02,0.007
"133",0.028,0.051,0.063,0.001
"134",0,0,0,0.084
"135",0.002,0.019,0.005,0.061
"136",0,0,0,0
"137",0.001,0.01,0.014,0.027
"138",0,0.007,0.037,0.001
"139",0.03,0.004,0.005,0.001
"140",0,0,0.005,0
"141",0,0.021,0,0
"142",0.066,0.001,0.001,0.001
"143",0,0.003,0.002,0.003
"144",0.006,0.019,0.042,0.006
"145",0,0,0,0.002
"146",0.025,0.001,0.004,0.002
"147",0,0,0.044,0.072
"148",0.004,0.002,0.012,0.041
"149",0,0.002,0.016,0.073
"150",0.009,0.001,0.042,0.001
"151",0.095,0.068,0.001,0.002
"152",0,0,0,0
"153",0,0,0.054,0.008
"154",0.032,0.005,0.031,0.001
"155",0.01,0.021,0.001,0.06
"156",0,0.023,0.003,0
"157",0.004,0.002,0.004,0.002
"158",0.015,0.04,0.004,0.014
"159",0.026,0.002,0.01,0.001
"160",0.011,0.081,0.034,0.068
"161",0.001,0.023,0.059,0.031
"162",0,0.037,0.079,0
"163",0.026,0,0,0.036
"164",0.006,0.001,0,0
"165",0.042,0.001,0,0.053
"166",0.004,0.016,0.004,0.02
"167",0.003,0.01,0.028,0.005
"168",0.002,0,0,0
"169",0,0,0.029,0.002
"170",0,0.001,0.072,0.002
"171",0.018,0.011,0.007,0.014
"172",0.003,0.01,0.003,0.024
"173",0.02,0.013,0.004,0.008
"174",0.002,0.005,0.049,0.002
"175",0.025,0.024,0,0
"176",0,0,0.002,0.015
"177",0.001,0.004,0.002,0
"178",0.003,0.008,0.002,0.002
"179",0.045,0.013,0.001,0.001
"180",0.002,0.073,0.01,0.007
"181",0.002,0.001,0.039,0.002
"182",0.041,0.01,0.001,0.001
"183",0.002,0.005,0.013,0.002
"184",0.024,0.001,0.019,0
"185",0.013,0.023,0.002,0.001
"186",0.001,0.002,0.074,0.003
"187",0,0,0.035,0
"188",0.019,0.016,0.012,0.008
"189",0.061,0.022,0.001,0.033
"190",0.013,0.018,0.008,0.011
"191",0.012,0,0.014,0.001
"192",0.013,0.002,0.014,0.001
"193",0.003,0.006,0.004,0.061
"194",0,0.013,0.047,0.016
"195",0.002,0.049,0,0.029
"196",0,0.027,0.067,0.002
"197",0.043,0.034,0.01,0.002
"198",0.058,0.048,0.003,0.003
"199",0.008,0.005,0.01,0.022
"200",0.003,0.004,0.001,0.001
"201",0.001,0,0,0
"202",0.053,0.005,0.007,0.005
"203",0,0.001,0,0.001
"204",0.003,0.013,0.006,0.001
"205",0.001,0,0,0
"206",0.012,0.007,0.001,0.011
"207",0,0.005,0,0.003
"208",0.001,0,0.034,0.001
"209",0,0.001,0.082,0.003
"210",0.047,0.017,0.079,0.001
"211",0.003,0.005,0.104,0.044
"212",0.039,0.018,0.091,0.041
"213",0.001,0.043,0.002,0.067
"214",0.009,0.003,0.026,0.047
"215",0.029,0.004,0.109,0.002
"216",0,0,0.006,0
"217",0.001,0.002,0.005,0.005
"218",0.046,0.003,0.008,0.012
"219",0.008,0.01,0,0.003
"220",0.014,0.02,0.001,0.001
"221",0.058,0.004,0.005,0
"222",0.002,0.003,0.001,0.003
"223",0.004,0.001,0.002,0.009
"224",0.022,0,0.004,0
"225",0,0.001,0.013,0.003
"226",0.061,0.001,0.001,0.009
"227",0,0.025,0.001,0.002
"228",0.045,0.005,0.001,0.046
"229",0,0.013,0.051,0.002
"230",0.012,0,0.001,0.001
"231",0,0.006,0.072,0
"232",0.076,0.002,0.008,0.004
"233",0,0.045,0,0.001
"234",0.009,0.018,0.005,0.008
"235",0.04,0.004,0.004,0.002
"236",0,0.024,0.132,0.03
"237",0.007,0.021,0.001,0.001
"238",0.003,0.004,0.031,0.061
"239",0.001,0.002,0.001,0.01
"240",0,0.004,0,0
"241",0.005,0,0.024,0.027
"242",0.001,0.016,0.001,0.071
"243",0.001,0.011,0.041,0.004
"244",0.002,0.002,0,0
"245",0.002,0.009,0.003,0.003
"246",0.009,0.026,0.002,0.002
"247",0.005,0.032,0.003,0
"248",0,0,0.001,0
"249",0,0,0.001,0.004
"250",0.005,0.052,0.057,0.005
