"","x"
"1",-8225.99929467206
"2",-8211.103604298
"3",-8250.68268605445
"4",-8214.51397960892
"5",-8283.18530351001
"6",-8211.9248393125
"7",-8177.16770051158
"8",-8166.16990752434
"9",-8298.70480697048
"10",-8213.50624406162
"11",-8298.24377536653
"12",-8253.03078739316
"13",-8208.08196410626
"14",-8285.37826851178
"15",-8316.87224815117
"16",-8318.21270831699
"17",-8215.29967673562
"18",-8320.54809883216
"19",-8367.91458990855
"20",-8327.19380128642
"21",-8333.11948160633
"22",-8259.09544719939
"23",-8394.25295360367
"24",-8215.53207227725
"25",-8314.96399166591
"26",-8179.11311490374
"27",-8261.36554840165
"28",-8247.38566806186
"29",-8209.79626127046
"30",-8261.74370216306
"31",-8255.69094053222
"32",-8261.81375010238
"33",-8206.11746009583
"34",-8271.85257707419
"35",-8191.70286556865
"36",-8342.41484333688
"37",-8224.14239404129
"38",-8354.15108159315
"39",-8138.37623767881
"40",-8263.93331603313
"41",-8245.55583278711
"42",-8313.04308499881
"43",-8256.09736806826
"44",-8176.44554216427
"45",-8226.99168100293
"46",-8257.04344633887
"47",-8066.04047713644
"48",-8283.51265757994
"49",-8282.50802068569
"50",-8234.79189256976
"51",-8351.10586465149
"52",-8259.11317438739
"53",-8330.21962489373
"54",-8186.70152249534
"55",-8060.5387338216
"56",-8261.36741519186
"57",-8205.20708394187
"58",-8133.6523210941
"59",-8245.89209060975
"60",-8147.23761214614
"61",-8335.19223295364
"62",-8311.64204108842
"63",-8215.7453283479
"64",-8197.38668258456
"65",-8274.48400577418
"66",-8297.94687669976
"67",-8137.48124916539
"68",-8228.25343056633
"69",-8215.93156774515
"70",-8240.73828320097
"71",-8239.70033323918
"72",-8301.16432068845
"73",-8218.0050205337
"74",-8232.20202071168
"75",-8161.88788653249
"76",-8218.30081979407
"77",-8372.85338770941
"78",-8283.2958395886
"79",-8255.49810400777
"80",-8246.45674738427
"81",-8227.46423770868
"82",-8264.30993509372
"83",-8204.50012256681
"84",-8324.19981707299
"85",-8335.77585132734
"86",-8154.87687043022
"87",-8196.45412751361
"88",-8349.40687247038
"89",-8327.0866332122
"90",-8217.1248409986
"91",-8309.68682686153
"92",-8314.9964676571
"93",-8257.76094129708
"94",-8195.88784988125
"95",-8292.07077722089
"96",-8245.50069823105
"97",-8129.54306859772
"98",-8346.26120589562
"99",-8313.19958421936
"100",-8312.416154808
"101",-8219.42385862032
"102",-8151.76635307675
"103",-8252.2938978543
"104",-8280.09690365535
"105",-8235.81449007626
"106",-8187.71604775168
"107",-8205.83591270412
"108",-8347.24578762816
"109",-8189.35297957831
"110",-8265.81642468623
"111",-8237.74851843637
"112",-8180.7158644487
"113",-8199.46314490169
"114",-8220.29695648157
"115",-8101.45596482853
"116",-8278.884404325
"117",-8328.13349328924
"118",-8326.5487269258
"119",-8339.8330727433
"120",-8197.59527669828
"121",-8216.78200465404
"122",-8232.24563088278
"123",-8398.24015414604
"124",-8107.8699629389
"125",-8201.83175507251
"126",-8242.4762919571
"127",-8132.34106022808
"128",-8243.36745620456
"129",-8141.00648857164
"130",-8234.36641573146
"131",-8262.60464861057
"132",-8410.02981843557
"133",-8221.83244585187
"134",-8256.59119489563
"135",-8249.26333635856
"136",-8182.77597746238
"137",-8293.93030282697
"138",-8262.4924613902
"139",-8232.2907601897
"140",-8311.56410549242
"141",-8266.39237908181
"142",-8145.65684842477
"143",-8179.92928372362
"144",-8145.9099069555
"145",-8262.69821542751
"146",-8235.47045128315
"147",-8288.74166850025
"148",-8310.9037193052
"149",-8305.69579239961
"150",-8337.72879582049
"151",-8196.90802146609
"152",-8249.29694325407
"153",-8294.04334546909
"154",-8267.18197375854
"155",-8330.9626195459
"156",-8145.19849841596
"157",-8174.57545295518
"158",-8202.22743482711
"159",-8245.16008841623
"160",-8164.5289338464
"161",-8359.21303908963
"162",-8238.92957819521
"163",-8225.04453380287
"164",-8326.8812781197
"165",-8286.08593286963
"166",-8238.80362376231
"167",-8168.1337550242
"168",-8189.59163058398
"169",-8340.74119322343
"170",-8030.76570176214
"171",-8230.72324633043
"172",-8231.28073029864
"173",-8263.39287820391
"174",-8192.72328952221
"175",-8238.16149111617
"176",-8269.87937496332
"177",-8138.58724241897
"178",-8219.94548881561
"179",-8163.93393219819
"180",-8291.10055614881
"181",-8320.38865349591
"182",-8322.16827288719
"183",-8236.70469112776
"184",-8134.77581729556
"185",-8209.66691014035
"186",-8281.1487264697
"187",-8250.08897990157
"188",-8327.45855583148
"189",-8130.592787139
"190",-8224.75638949296
"191",-8247.2099043757
"192",-8216.48947514942
"193",-8233.37327847097
"194",-8079.1446452817
"195",-8235.99058177556
"196",-8250.87086942467
"197",-8185.84135358573
"198",-8342.85705593046
"199",-8207.19311506176
"200",-8304.26682132648
"201",-8268.12653299864
"202",-8135.05721306752
"203",-8322.07026952917
"204",-8179.71580359415
"205",-8282.73613046375
"206",-8183.7312737801
"207",-8280.29315990541
"208",-8167.12279714592
"209",-8275.95758951701
"210",-8230.7817854452
"211",-8152.70052401821
"212",-8235.45838266052
"213",-8283.55414196049
"214",-8267.18632338022
"215",-8265.09493153685
"216",-8213.91384244339
"217",-8382.84067923416
"218",-8234.01461360127
"219",-8234.94287572803
"220",-8382.92758011229
"221",-8126.73010828763
"222",-8249.2218741291
"223",-8328.35093792617
"224",-8303.38248238463
"225",-8249.74968829899
"226",-8198.72518066389
"227",-8249.96261911249
"228",-8189.6282066542
"229",-8233.45155086242
"230",-8165.34835776721
"231",-8214.0275173015
"232",-8302.50907931949
"233",-8180.79846507077
"234",-8334.30988423062
"235",-8279.2703913259
"236",-8139.20894855391
"237",-8216.9821170663
"238",-8181.08236961192
"239",-8244.40489213916
"240",-8371.10846037141
"241",-8219.1723167687
"242",-8082.56115379292
"243",-8146.77858311665
"244",-8190.40360916632
"245",-8211.20511250729
"246",-8123.62849949793
"247",-8050.64810375019
"248",-8193.81533201564
"249",-8352.29540386084
"250",-8228.04800615573
