"","V1","V2","V3","V4","V5","V6","V7","V8"
"1",25.0547069561559,34.8822581583106,4.97242555375188,7.05000852566759,-0.0359666428162163,-0.00241892658960644,1.86515374423016,12.7946351739537
"2",24.8282726648222,35.1115598987364,5.0342866950632,6.86937206344031,-0.0430663940712652,-0.000600213223622958,1.95981707414468,11.9526130810691
"3",24.7170824514421,34.8507514151022,5.07127992822821,7.12167953704253,-0.00500284663917561,-0.0146825046834963,2.08715870637965,11.9461712543023
"4",24.9635253504616,35.3932650508941,4.76274585684939,6.71592321981041,-0.0178275274227121,0.00631839252716691,1.94869727421924,11.3356590974353
"5",25.3287115903665,34.856731428252,5.20678694237513,6.85557886239346,-0.0475616050263686,-0.0130299481102958,1.94330016138054,12.3122513875977
"6",24.9548994530322,35.1872681322396,4.81876598434891,6.79727281585613,0.0222514746584177,-0.000238812960441102,1.98197562029037,11.9659597719985
"7",25.2427597122777,35.2728467761544,5.07967028078847,6.94897795217307,-0.0185263488435063,-0.0130628822605238,2.05899975395449,11.8881046495849
"8",24.936889039495,34.9835067057139,4.84090547010926,6.94282401795137,-0.0452078578423297,-0.0029946543761463,1.88335237054756,12.4732725807399
"9",24.7864271636883,34.8520411817673,4.86089827052203,7.05399715649132,0.00898005470403745,-0.00734777277658758,2.07393366596203,12.0484170107199
"10",24.8040326398015,34.9301190205911,5.07326452208443,6.8835394616818,0.0166756385497678,-0.000782339058862385,1.83346777804342,12.3715095905525
"11",24.982570458755,35.1487646805071,5.16838695584135,6.846280719062,0.0221349224228046,-0.00707698809953339,2.01920490838133,11.9158017138548
"12",24.7295758949398,34.7414194235648,4.9571227809483,6.89143506912207,0.014923461067085,-0.0165143906374979,2.00039442350227,11.5669411398295
"13",25.1548002273911,34.7838931148247,4.95523298576864,6.71519229734741,0.00761936126547889,0.0022201051888505,2.05880008069907,11.5538499317073
"14",25.2974017110526,34.5633166353523,5.22762485056829,7.27256987815687,0.0398622553791807,-0.00552492662313334,2.06567547254048,11.2558050750984
"15",24.9316547350525,35.0348597990688,4.83037371071317,7.1597114194149,0.00955387831515556,0.00183381541788945,1.8843381710748,11.214276812437
"16",25.1462047286244,35.0305833663541,4.94898495645285,6.79240077254618,-0.009655067725551,0.00251592208752587,1.92954316285289,12.0694047065554
"17",24.8225471414891,34.7630564762184,4.9307757529588,7.47305767861115,-0.0191808185824298,-0.0130172885782087,2.05270307648843,12.3306265548132
"18",25.2004067576388,35.2269696354229,4.88602039116971,7.02664235958427,-0.0121356197613901,-0.00014084161082658,1.93655003407052,11.7669055263773
"19",25.1542222475599,35.1370489445044,5.13321813707385,7.37631739886256,-0.0245205190289292,0.00274034089406974,2.06924847623386,11.1627825952777
"20",24.7653272893339,34.9970738021898,4.96366661004408,6.76657402957646,-0.0154834325015295,0.00136076308040607,1.88042388825199,11.6449884255173
"21",25.1209024837202,35.496343096684,5.21550242417694,6.76371677378972,-0.00351876718403725,0.00594546168159894,1.97671158736297,12.0787864722126
"22",24.7991660999014,35.1240696090387,4.96366154116992,7.07455923405593,0.020254188886169,0.00580757390179914,2.05090243451213,11.637732229549
"23",25.215164235424,34.8328680768526,5.14793899354518,7.26095752728131,0.00661661200593435,0.0104417340392448,1.9121193044924,12.8483729923894
"24",25.0393905762965,34.9936421237518,5.32134282897241,7.26427691783883,0.0453762450285831,-0.00208039956241552,2.00703034690882,12.5110623674116
"25",24.7656319904319,34.7716709548904,4.84639077749985,7.35653063895954,0.0331571944499851,-0.0105463186335636,1.99839187670262,11.9751752626875
"26",25.1897942859787,35.3477284325367,5.0769761225357,6.93125524411936,0.0136930574327764,0.00539763887206205,2.11225627747712,12.8634641608571
"27",24.8687380354116,34.9410468637234,5.05451989047618,6.96918192875765,0.00560267891537269,0.0161404627727114,2.05087625018195,10.868100440019
"28",24.8944860832005,35.1093549558243,4.84930057791667,6.82767537509893,-0.0107833927663902,0.0025684643045374,1.99727901243379,12.8336574680021
"29",24.7405040551789,34.7720043395205,4.9679335851788,7.12485026564712,0.0056023691084039,0.0122373417580506,2.13426697281996,12.4765096162435
"30",24.9130320446586,35.3292700025017,4.85427669977781,7.17156131341867,-0.0308800734250898,-0.00295807064258587,1.87406969035321,12.899062375719
"31",25.3329188707383,34.9736403519274,5.03132811584967,7.34492617883161,-0.00962894941266811,0.00604806256174403,2.04092383676609,11.4941150980925
"32",24.6380073584043,34.885178930556,4.93329117246048,7.2349363203389,0.010878552169104,0.00685227550030204,1.94409750720067,11.6377921102985
"33",24.7611591602067,35.1184023899917,4.84878864760839,6.95064438552954,0.0244628888225373,0.00920776184981301,1.92694879485632,11.928076201202
"34",25.0968769139244,34.6629265516127,5.24740773653916,7.0010380665516,0.00366869668384565,-0.0038019479725005,1.92679256984624,11.6908748046729
"35",25.3029066190733,34.8504219160379,4.99847018330435,7.03888979408029,0.0145739349929035,-0.0106804378266895,2.01671063253941,13.0765463211134
"36",24.8870629536519,34.9164783177483,5.0151259059648,7.34748762644005,0.00744143607465867,0.00072386250357084,2.04531741346935,11.7747049210112
"37",24.7150669062719,34.9534185652967,5.04703182112563,6.72518526202391,-0.017639457115311,-0.00519792966484889,1.77701279628501,11.8084769209757
"38",25.1744664289232,35.1272233768242,5.25876700591661,7.40372107263728,0.0345653122265328,-0.000260532295550199,2.02671942194851,11.806501128937
"39",25.0243897263572,34.6768269503848,5.12592949070097,6.8293514470905,-0.0222681916591534,-0.000539035681205231,1.95676346186297,11.9198578314347
"40",24.6712171461895,35.3670130178938,4.77925550199928,7.14924796858087,0.0515461960188695,0.00628121134605865,1.98660799859341,10.7617531276695
"41",24.9450448011997,34.8444630634708,5.01023181143335,7.12095291858863,0.00592226751254372,0.00175682008058205,2.11281948082486,11.8676452872438
"42",24.9496990478977,34.9018818790029,4.99993181278993,6.93371959729166,-0.035047434862061,-0.008041028631932,1.91564597867469,12.831276490592
"43",24.8590783946378,35.4606326335575,4.91082068246141,7.13257627481802,0.0464220328989466,-0.0221511257363734,1.96778390511841,12.8229346479275
"44",24.9908891334859,35.1452450571816,5.07956213180607,6.89426676680199,-0.0188303436000112,-0.0198881830279324,2.05361709863035,11.5408559937997
"45",25.1373819137936,34.9494579637038,4.95732747436882,7.08322780780208,0.0254399863236995,-0.00894541653125561,2.00500658671995,11.3494225087457
"46",25.0670559626309,34.8950621818984,5.12413695855856,7.01435272127951,0.0147253299172644,-0.0140626073377732,1.90553092387565,13.1594779263555
"47",24.9541646087662,35.0615153565387,4.85142227637297,7.03181041260806,0.0374187251751286,0.00413428175341401,2.10487231756324,12.6245489425979
"48",24.7133730002051,35.113008185374,4.81064040261038,7.03470469241772,-0.00458127920859189,0.00609729951559664,1.83314898893623,12.9165924842399
"49",24.7611067652612,35.4856054763764,4.97746038892048,6.92345003786138,0.0463472265248464,-0.00856389470889467,2.05936052029832,11.1667149907497
"50",25.0092607553421,35.2462546485175,4.95786854504067,6.7557717703678,0.00170540597092913,-0.0104651783491523,2.10187426462278,12.2872414021317
"51",25.208812027053,35.4394494366098,5.03604013344846,6.69864404477108,-0.000489224908617437,-0.00227626910100518,2.00978079453424,11.9264225446045
"52",25.0128707448667,35.0871449780092,4.80955754874869,7.15521232845503,0.00330267908949782,-0.0149993570532747,1.94180634964476,11.477916956857
"53",25.1323039234613,35.2246218109213,5.10723008756201,7.10101660647535,-0.0524817956754619,-0.00133084120497249,1.94541706476484,13.5327573861711
"54",24.7436913273596,35.308304117807,4.86108392166146,6.99733126135227,-0.0479258882561214,-0.00680115335217717,2.07311996302235,12.5301020869921
"55",24.7189282126413,35.0859903279621,4.79308853830029,7.09236098608296,-0.0486688006526399,0.00266066091437788,2.04447390887444,13.1901398591214
"56",24.8967289265304,35.2359640867455,5.05684079210067,6.891075951835,0.0307748707462579,0.0109900625817975,1.84233603523809,12.2842929154061
"57",25.3143798837726,35.1838256884461,4.97427694929306,7.11847180394037,0.0068978182489251,0.0049525793494061,2.12212239266266,11.742181645762
"58",24.9085479550501,34.8334528080585,5.03826334672273,6.95891726913856,0.0181399156820386,0.00738904890296778,1.96564465767437,11.9233809269629
"59",24.8494457413562,34.9434154020685,5.00593477084679,7.05111195819708,0.0457297357819184,-0.000438396553928045,2.02881613721537,11.7100725071917
"60",25.0505058285745,35.0618912641214,4.74750309764494,7.14163254650886,-0.00377294669682104,0.0111201699695458,1.97461008970636,11.8814672051812
"61",25.2034243579848,35.3332288553757,5.15943391712983,7.05160382098454,-0.0379388495116405,0.0125253695325275,1.89986679119772,12.2419951184612
"62",25.0292495222715,35.3316281351271,5.00050556567924,6.90858208531638,-0.0184021421726781,-0.00689924191830797,1.99639948210759,12.6487452554176
"63",24.6672504577159,35.0866991717394,4.78860661600758,7.29295663867699,-0.033126467106732,-0.00654758303584303,2.04915795188013,11.5536631001805
"64",24.7067870856206,34.6278293292199,4.68552452956702,7.18982382116036,0.0240448192930988,-0.00173950037552731,2.04565592995177,11.0962139424575
"65",25.1204710412015,35.4120597698998,4.88950094474072,6.68472313999862,-0.0139581604890747,-0.00141302441423906,2.01175307301273,12.6353213974701
"66",25.2876485759353,35.0712168660192,5.12103021227224,7.20333194281948,0.0270404841550354,-0.0209916428860133,2.19955269913215,12.9861425952933
"67",24.9132018617327,34.9059011932855,4.85899661576005,6.96379958903091,-0.0145714815637602,-0.00204759544373774,1.92255257507443,12.8413700526184
"68",25.3325683912107,34.8728591526506,5.17835320988485,7.16845722461022,-0.0087005787750815,0.00504997529699115,2.03602204009698,12.4306127720662
"69",24.9477741860133,34.7096494349177,4.87534882268594,6.74360883677991,-0.0147426990634056,0.00554745154617735,2.09163105193059,11.1241290766633
"70",25.0210899220072,34.9529714266229,4.985706424347,7.22093501737584,-0.0154329692812873,0.00594961351469249,2.07223820294921,11.9817295523349
"71",24.8245061180888,35.6290898766211,4.85376643692857,6.9869802122838,0.0167356176712653,0.00335836890446699,1.96574586890263,11.3923439468357
"72",24.9676523697344,34.6428205456828,5.21697938877768,7.04119376434265,-0.0232877010840696,0.00142047831281302,1.97251263377959,10.9649563357082
"73",25.3728195889654,34.7595180965321,5.20871653293025,6.78978815139937,-0.0334423681589979,0.00984530983733312,1.95811147972697,13.1763280030624
"74",24.8864245180558,35.0644104476374,4.75499032723087,7.26798513413615,-0.0228313244855311,0.0133389493611269,2.00290042409166,11.8416071570047
"75",24.9296876734524,34.6889941799668,4.77596407348332,6.62765510512736,0.0282350851803446,-0.00839052834236661,1.89629290577031,11.9427762569224
"76",24.721230445427,35.0778757388947,4.80881982694423,7.17390078009262,0.0230870786448919,-0.0113869976430219,2.09435546013261,11.4039715459968
"77",24.6248357446212,35.1422666275933,4.87676752838717,7.23920931667519,-0.00244686883339708,-0.00450957365959731,2.0395662702944,11.143598282853
"78",24.6121821938713,35.3113331469466,4.74833885623513,6.95277359980056,-0.0234310414480607,-0.0109712351181823,1.95504166066863,12.0233006669618
"79",24.880930261212,34.8691254195186,4.80565888017473,7.32803023846056,-0.0277002036827088,0.0116647242472086,1.87272299714394,12.0009295152885
"80",25.1992916592967,34.7713905189169,5.00391736036839,6.98836934988718,-0.0022858860329087,0.00874231606168692,1.91521458732257,11.5203701589526
"81",24.7853578768654,34.7765899051766,4.95973906372646,7.17907107698504,0.0220987793885337,-0.0113186702423429,2.08781676783822,12.3342594804608
"82",24.8143040678192,35.1544687996948,4.80622476966174,6.93214760903814,0.0623976116045528,0.002467101819225,1.82345159919177,11.3967725370455
"83",25.1939247525877,35.235978682902,5.03406112373233,6.8597668388883,-0.0070289931840149,0.012006827817332,2.12938251575549,12.6771237120465
"84",25.1190867076253,34.9597299800273,4.89411345377239,7.55218938784169,0.0360534691013717,-0.00547600610909728,2.00744294006696,11.1804045251132
"85",25.2107488973163,34.8107436938795,5.19985765666017,6.83390777086616,0.0182893782502891,0.00692727086287151,1.93064801242233,11.8545547624188
"86",24.8084063541721,34.8848940253646,4.83417872302356,6.95479198400137,-0.0247870665504115,-0.000963120586007686,2.16132582075098,11.3169100308432
"87",24.9325377382573,34.9077139686911,4.98853378360623,7.04622364532559,-0.00634791361267829,0.00127292311252575,2.14411184101526,11.2180009406298
"88",25.329396742892,34.7583627372403,5.04321673101222,7.09079870477721,0.00360729299522559,-0.0121384847957381,1.96129540123759,12.3239759281501
"89",24.7550981102158,35.1998235055396,4.82037725003695,6.75840906034554,0.0319203348185932,-0.00356449053248353,1.88907327426437,10.5511777272686
"90",24.9108969518759,34.8692910188728,4.7243016795549,7.08761287899796,0.0125577078197264,-0.00974748389294811,2.02558612058279,11.7202298922549
"91",25.2714343496337,34.620222829504,5.06319729702957,7.27025232625578,0.0137827238697929,-0.00144435459894938,1.9106768158209,11.2694989289269
"92",25.1347991008102,34.2242039405116,5.02694778016833,7.16449436095392,-0.0462639824443749,0.0262431625682853,1.96277013393539,11.7969635034094
"93",25.147147885477,35.0544980361383,5.21450062923624,7.17174833927551,0.0170919461817589,0.00971210339843606,1.92480341791445,12.8666114922689
"94",24.9267338361408,35.1056780596006,5.03180961950004,6.79371010485216,-0.0290144882950917,-0.0132644952922196,1.97046442350835,12.1788749007353
"95",24.7716333605445,34.6637102651052,4.93494670450269,7.23135519224481,-0.00754130499238638,0.00890568431805134,2.0735932915323,11.3621096416149
"96",25.011541198772,35.1385062288251,4.91373134146905,7.17087650330017,0.030594499047244,0.01702517217265,2.08733605055435,11.8695224962749
"97",25.1348317446423,35.0434621330109,4.78888998893547,7.10064260254929,-0.0378308418498449,0.00867441248749143,2.04592855913867,11.7593020375037
"98",24.693503771299,35.0123688739913,5.00664908243783,6.83871359218819,0.00385432242626339,-0.00525280338285096,1.8895103519941,10.5336557869897
"99",24.8958636417085,35.0190371547396,5.08017658728927,7.05230812632656,0.0241147750306204,0.0246251007752142,1.99237537006605,12.6587942295345
"100",24.8488254625566,35.1664051317315,5.05746363314467,7.28887028516637,-0.00882769866430885,-0.0112823105129545,1.86604150958629,12.2431110229239
"101",25.1650475112177,35.4434609875481,4.94733767741079,6.84321994844035,0.00869755768666311,0.0129388492535502,2.06426897897314,11.9560234881851
"102",24.6806775310502,34.781690105593,4.96137995750072,6.91945400195555,-0.00648131492728498,0.0135622136752923,2.05098094915474,11.6338824136477
"103",24.9175083936337,34.5740237019986,5.03736466727991,6.9596850957148,-0.00332753563307804,-0.00634798175952417,1.95682268558924,12.164618301549
"104",25.2315133246223,35.492419474877,5.25222923255963,6.93854341471389,0.00467236975942911,0.00946498326849215,1.95834601329258,11.2146877528455
"105",25.1385834434751,35.2592687012793,5.02827413766869,7.05690841896094,0.0358601112890166,-0.0169189752111701,2.07404262763176,12.7700439564597
"106",24.8320870281284,34.632960520725,4.9490767632114,7.08144043443255,0.0453116602395942,0.0131926028657737,2.00743279985965,12.4093447075714
"107",24.8942400576859,34.6584999844961,4.88309430448307,7.13044900254723,-0.0133671623701236,-0.0066506054981738,2.00140394554464,11.8915155801104
"108",24.7967543684993,34.6559734439674,4.85756831105739,6.93092853465574,0.020907104592595,-0.00397398666811535,1.94473540664787,11.3519447890283
"109",25.3132711886289,35.1649015741929,5.08548139061094,6.93800982903802,0.0267816792174612,-0.00206534564905171,2.04482859665081,13.0753525820602
"110",25.1123562096995,34.8537078656225,5.30513710351332,6.93958283521334,-0.0034290795011292,0.00417188747840922,1.95817839270277,12.1641482194312
"111",25.0062981777983,34.8111777600233,5.2143144918562,6.89180598510645,-0.0194411805952679,-0.00456293606634055,2.05206645264943,11.1141298138609
"112",24.8771963977194,34.8743687717687,5.23573260001097,7.12643789683459,-0.0245068870078992,0.00219522897866591,1.87566506086411,11.6287040439378
"113",25.1106860818873,35.4905119525153,5.08520327137359,6.82431332331659,0.0098229179904665,-0.00558167554739975,2.05138730464158,13.0160294608068
"114",24.9339513669902,34.9524910891714,4.91996625370911,7.06134290326126,0.0462511988934793,0.00484748313936207,2.06444892467599,11.5040202494284
"115",25.1490061948227,34.7967977934941,5.07985551847986,6.68625141946447,0.0107132365374116,-0.00806045699595246,2.08815183722971,12.7119077800419
"116",24.8817097989826,35.1220527821467,4.99893694718321,7.2628162626021,-0.0105867484836824,-0.00030983296982854,1.98615375548548,11.8030405723664
"117",24.953457844537,35.0109861125902,5.05193559714973,7.09306509956699,0.0174329743372812,-0.00820219694502,1.86245866276736,11.716901057645
"118",24.7786718054788,35.0199899613541,4.9693551665774,6.88819389550241,-0.034626287020736,0.0112994627957875,1.90176284450986,10.7073147876923
"119",24.9249471586989,35.1913818179652,5.12140788479373,7.13953432663281,0.00546405357062823,-0.00215947940102064,2.06292302128677,13.3314409545858
"120",24.8898992316729,34.9780955363734,4.78829345173331,6.96358641931949,0.0660943832030945,-0.0021480746175346,1.95006796247944,11.1679255631821
"121",25.2702760463471,35.0215025705727,5.15531013598883,6.95470534489743,-0.00266990692045892,-0.00504255300833397,2.070644926952,11.8097526944245
"122",24.8847300189645,35.3123603203221,4.83662831614119,6.60204697041434,-0.0244824340286632,0.00502834862868091,1.98294062382423,11.7136663847099
"123",25.2413753342082,34.8931262331298,5.29967072769461,6.89621995156684,-0.019918702935011,-0.0142122619410614,1.95341384381245,11.1432912985961
"124",24.8126469304596,34.4335482047959,4.79390500106073,6.63703234550716,-0.00144131388457174,-0.00343721803177165,1.9068727401281,12.6023648576391
"125",24.7617358488368,34.5165131736999,4.94689586051258,7.21659312331644,0.00668641983646904,-0.006962681570084,2.17680021717271,11.7235130351187
"126",24.9023724897854,35.5233580781151,4.92313330784431,6.91539022930315,-0.0223347089924092,0.0346624388743846,1.92132328466667,12.5572370724409
"127",25.0910448776543,35.1278773046972,5.13485860333441,6.85769636190023,-0.0158147891940296,0.00294055092033576,1.98289144681636,12.1806451533042
"128",25.0831871652591,34.9877821616602,4.9104743385646,7.01392693212267,-0.0333709558072046,-0.00986206396002952,1.96777896556373,11.672941306142
"129",25.0947151062467,35.2285478169629,5.00013611977368,7.02271249718745,0.0524888803793677,-0.0147777948837036,2.02584738787953,11.9596027087712
"130",24.9545689040637,34.4191986863135,5.01711430405746,6.84382905421373,0.023228282415588,0.00352462259952038,1.92499806311616,11.9230127724993
"131",24.7316331502406,34.9866386830664,4.81617231854158,7.16262837136574,-0.0546476037548718,0.00731510680055028,1.98807805584814,12.3301195470733
"132",24.9761493956886,35.2339176061261,4.98578542060522,7.21508938326909,0.0133132593780092,-0.000125375412725244,1.96293331335851,12.0904949837361
"133",24.5109149180384,34.964749261079,4.82848264152889,6.92120855353211,-0.039780831094079,0.0109573291549229,2.03241252667936,10.8418653895606
"134",25.1845031069494,35.0183435368235,5.04824650900109,6.86647920802359,0.032545294207049,0.0149018510927436,2.08402421380134,12.7692591066397
"135",24.7599533130068,35.0166339517775,4.91945998105282,7.26055297512896,-0.00764395645169233,-0.0248897808807691,1.99361505165329,12.274545790752
"136",24.57843996622,34.8609236515104,4.74381216123575,6.84514512559468,-0.0148928134295048,0.0157932104833775,1.98589195495283,11.9697505830138
"137",24.8600647243295,34.7748724788432,4.98847378061097,6.72045424596595,-0.015676911184479,-0.000542359949634115,1.93565962365584,12.056051889852
"138",24.7309435894339,34.7816898760319,5.09160028054068,6.79833428846518,0.00969317439693963,-0.00143087778532702,1.98266105494046,12.8769663347939
"139",25.088106698654,34.9760706329584,4.9095164914387,7.08543504037577,-0.0292983225676936,-0.0198837694905226,1.92858711010292,12.3107904318003
"140",25.0594447330661,35.0810607133431,4.88151371589366,7.1528727544977,0.0506871875654486,-0.000852248399182198,1.96102800944172,11.9648160729889
"141",25.1782367255444,35.0161824557169,4.97697315127021,7.06038573555862,0.00697047847512942,0.00390704105363041,1.98708901725554,11.1612997196936
"142",25.12385497073,34.245523976563,5.280762783298,7.01234194394923,-0.0156978562784954,0.0146297023602119,2.11075153564506,13.192386451856
"143",24.9029623686353,35.2624786187945,4.85333316858854,6.77737032782585,0.0159892453085366,0.00252109951392545,2.0236775807821,11.8564631519179
"144",25.0284494178723,35.0085609913252,4.84200734067966,7.04017965723425,-0.00935554170501833,0.0016785306668949,2.02914925824587,12.1332830338661
"145",24.8829491686868,35.1422609859286,4.73997657675664,7.03749066085981,-0.00693832297283319,0.0101435231022607,2.0875759873896,11.6135733303702
"146",24.7053609837061,35.4154360416553,4.89580271415485,6.99701837298085,-0.0318632143555252,0.00330666110606989,1.97530477580093,11.5145597322322
"147",24.9500494264596,35.242967601262,5.07081499171171,7.11311456558921,-0.00413806569264251,0.0109278569739474,2.00936182595115,12.0911720286763
"148",25.0603091679622,35.2833228245327,5.17956982934888,7.28012053746543,-0.018746404626458,-0.00333665349329194,1.99779503090068,12.6354526391697
"149",25.1768585256026,35.0508654437932,4.90777404919978,7.14466290785403,0.0229310860295102,0.0111148424841376,2.0751396336632,10.7520718616577
"150",24.861919668322,35.3785557760639,4.91176461985755,6.87276641773702,-0.0456498285038631,0.00774997664655718,2.03633916580024,12.2510764931586
"151",24.9116254146221,35.0827514380019,4.82742003687015,6.86654917074679,-0.00478186156841696,0.00124166286702129,2.00306937061824,11.9336868037885
"152",24.9841804529821,35.1700280979946,5.01591599524505,6.82389323820131,0.0576289139805931,-0.00521676211238467,2.05850704338898,12.080169159737
"153",24.5729026135633,35.1590450057535,4.92512113683468,7.37710731167465,0.0139614424883463,-0.00760103425173635,1.93495530697721,11.2935741242498
"154",25.1367478829375,34.7537859975338,5.11714243364139,6.82214258243402,0.00043996944813788,0.00533874411044429,2.02853126849869,10.4627065289985
"155",25.0217265075779,35.3685360623079,4.84662868107538,7.1467184005376,-0.0316047708811077,-0.00307945154572097,1.91537006297616,11.4655044942649
"156",25.0356843670526,35.1449603160048,4.90162808809901,6.84419820885826,0.00809215347012946,-0.000787417983938596,2.10090320192308,11.8824679250427
"157",24.699483971527,34.8880445768888,4.7058404220428,7.03162260661466,-0.0371242142492948,-0.0196535480065296,2.06324277454455,12.3611033851238
"158",24.6658674597907,34.8340219339805,4.76922546961738,7.05807853506538,0.0538659305326609,-0.0042505066191297,1.94292375855079,11.9295244562649
"159",24.7452245483139,35.0783405638575,4.89994618306308,6.94396123039024,0.0309632225321071,-0.00306287941366037,1.97471763200976,12.153181426176
"160",24.9103702997641,34.9473410014094,4.86165482338093,6.81131778661542,0.00347176783559229,-0.00231024435809075,2.04893075806074,11.2437257982703
"161",24.9547627575916,34.8898339189314,5.0988695900961,7.06885735824248,-0.0348534493954964,-0.0084698352806987,1.87299089666692,11.0614916313373
"162",24.9731329670746,34.5961921289968,4.85286696342026,6.96987992864295,0.0403823708842025,0.00146736228011521,1.82689695243985,11.969639522568
"163",24.8909624895205,34.7299452840992,4.98594397806417,6.79967184991863,-0.00734919604474378,0.00224546328778358,1.94720852091154,12.0992233907702
"164",25.0531173025617,34.8898479669308,5.15285419745892,7.24129610949894,0.00185058471039679,-0.00320153927509649,2.12401114596188,11.4695571165814
"165",24.8715358478041,35.2173351045782,4.95757502254086,6.94090408307279,-0.0417218899901192,0.00620099186486151,1.90132056131465,12.47508541941
"166",25.1002647187244,34.9295101055134,5.04223961429612,7.01415502891695,0.0225344247003325,-0.00204720556842194,1.92750755539397,12.7082695828187
"167",25.1224544098679,34.6452363950446,4.95635989094761,7.04596995697034,0.00311172054635166,-0.0190558653174775,1.87393155282717,11.8428840202137
"168",25.0669425971922,34.8150050134755,5.02891782697325,7.16644776868703,0.0154976720385724,0.0068564409244225,2.12368656204933,11.9061319328136
"169",25.0294032919972,34.9210143362714,5.12578447210327,6.81795413622589,0.00991396983688857,0.0147557425254702,1.9262871350747,11.4678081881376
"170",24.5474339531007,34.5878609732479,4.84841727212819,6.96444250074264,-0.0217562270049819,-0.00723797914980738,1.99734048478606,11.9904146000869
"171",25.3809828084466,35.1786549761787,5.09242152507452,7.25964242166421,-0.015487910683172,-0.0166456650119568,1.93040526456948,12.2478004855588
"172",24.9714353169159,34.7954107923041,4.97493696339822,6.94164474129654,-0.032310792044938,0.00236184555362199,1.9339991890485,12.3080037553777
"173",24.9032721263402,34.762075865442,4.91338584536395,6.64291094146468,-0.012856341205471,-0.015812318768085,1.92035107937499,11.7273299624817
"174",24.7232248887017,35.2973075151937,4.93262035406224,7.00832206935503,-0.0205934264658114,-0.0165121526840345,2.07154553366294,12.245223419928
"175",24.8224404007077,34.5715776237521,4.9761793663667,6.80884043423219,-0.0303219512285278,-0.00965887939453878,1.96013575517899,11.5501686391116
"176",24.6372976063075,35.389212753831,4.85196934906165,6.92969879447608,-0.0183270154282873,-0.0209283442457475,2.01127444222617,12.0706750442436
"177",24.7450218322714,34.6268470062039,4.96078474486243,7.09513288186566,0.0286577738397629,0.00302867297691267,2.03213985199091,12.9930150914015
"178",25.1243954778405,35.009629666243,5.27244043578651,7.04628402990115,0.021010371666383,-0.00333864531040327,2.0534433775557,12.9675403417721
"179",25.0456603603965,34.7508240457918,4.84946952515387,7.3332402132676,-0.0343676643221836,-4.37336681634681e-05,2.05064603675415,12.4599068213784
"180",25.3658827498648,34.969968502223,5.23573695201108,7.06664838992209,-0.020776474044124,-0.00681897293713256,2.02636777029836,11.9882281311169
"181",25.0186508797158,34.7398345842236,5.07276878736953,6.99542574789583,0.00785633922435681,0.0058525609594876,1.99166288447654,11.4531749738033
"182",25.1478364979746,35.0421515943865,5.2397606624875,6.98328402965545,-0.0108623505998814,0.00823012821789638,2.00524464787393,12.2239938062396
"183",24.9600721613789,35.3399462413744,4.94449070023451,7.37786023784712,-0.00848172277128593,0.0106372975929566,2.04515156097726,11.7221247716641
"184",25.1288176208443,34.7729187678745,4.83793076982442,7.352508831335,0.0137083963935772,-0.00356971711861161,2.01164634334236,12.9162483053201
"185",24.9568450965283,34.9389076034293,4.74780447716967,7.08409753086102,0.0137760888714347,0.000691025286757718,1.9428793393851,12.4301414949411
"186",24.8229533186786,34.9624136532493,5.0108787136598,7.21275517696699,-0.0281858079137119,0.00628300667009044,2.00459355542661,11.8393036238516
"187",24.7580996504358,34.9343720857584,5.08428769716972,7.24480408780933,-0.0267334016350089,-0.00103047850100607,2.02611211557831,12.1747360799126
"188",25.2026079070047,35.6304772999299,5.30827843259874,6.6795686569096,-0.00395393125507159,0.0144572070101088,2.07677389506743,12.8654551128781
"189",25.0045254875477,34.6612373856819,4.81130327459808,6.99939500758972,-0.0214484779348772,-0.011009461210871,1.91024761974196,13.1502850914229
"190",25.2570466089221,34.866211883343,4.94082660173074,7.07373015315349,-0.0282672922094367,0.00174827454764217,1.93781186440535,11.4816079137157
"191",25.0021981919105,35.099736958731,5.00998727722751,7.24547098262699,-0.017305996249071,0.0128108393862593,1.96091480838372,13.0548723090013
"192",25.3467378434346,35.1964620935797,5.03080877174399,6.67163945970826,0.0241651946296822,0.00876156143708949,1.94208287063151,12.4213504229217
"193",25.1876163640421,34.7481536793499,5.24383935227308,6.88267018831762,-0.000120835313442754,0.00798468576989098,2.05269399121759,12.2245906578208
"194",24.7784105255616,34.9112910335917,4.85623783831527,6.87758707455649,0.00910532290712602,-0.00384828591109972,1.96666103581515,13.1875937906799
"195",25.0132392453271,35.358658609145,4.99369128548679,6.89418407669729,-0.0182764076630475,0.0179090662119741,2.04871663278159,12.4797433802428
"196",24.9521943147654,34.5074247874408,4.85511622654073,7.0375400055462,0.0315069924320949,-0.0191450115603628,1.92203618401704,11.8276676114155
"197",24.9693655318592,35.250471611886,5.03400378648888,7.08842997819902,0.0142923592452559,-0.01619951825426,2.07734811379335,12.2168173260297
"198",24.8035395731625,35.4166189473867,4.88179257555276,6.88303913764506,0.00631145667114474,-0.00125596107533861,1.81526255894161,12.5201581732372
"199",25.2746951075079,34.9035498688056,4.8823300186913,7.16597602491859,-0.00241856635957633,-0.0133716731869431,2.00299154774824,12.4813563121061
"200",25.0724943491197,34.8950071956747,5.07914888958546,7.48952949680053,-0.00624918632371454,0.00512227945145874,1.94355086765663,12.0526056724027
"201",24.9602749341987,35.4974280714841,5.02303612319516,6.98368539217619,0.019528916092084,-0.00291034964714413,1.97879885921533,11.8576058748117
"202",24.6741987744139,34.8013925229664,5.03754447312615,6.97850829910088,-0.0228407782573375,-0.00623133726118777,1.99549456090309,11.4206444721868
"203",25.0255543666206,35.1223556065698,5.0306080340235,6.82073343711556,0.0284731265220575,-0.00379510891736076,1.99344481785912,11.1325802163498
"204",25.0285471776058,35.0535523478519,4.98990615844197,6.94148470372814,-0.0331908427140003,-0.00514240593670742,2.06531927455036,12.3608559626903
"205",25.1256044148472,34.6697937749475,5.18411217626247,6.93733547244632,-0.0098279738010746,0.00314700636067245,1.96959140211668,12.3023298369261
"206",24.9765178884698,35.2531286617184,5.00656548873951,7.071034216138,-0.00884161989093975,-0.00997006864129012,2.01680252322168,11.6201258863401
"207",24.9167837130692,35.0500985255048,4.94151745226873,7.07556622433668,0.01166739682366,-0.0131636974327387,1.85907657829364,12.2879646321438
"208",24.9074923527334,34.9836903321285,4.89886078414077,6.85837159817187,-0.0308785255822644,0.022393795733059,1.8538536647119,12.094810981288
"209",24.9365224561619,35.2691495403202,5.03574530026232,7.55666813898735,0.0502888403423309,-0.0245443393808922,2.04678867489038,12.1859389140897
"210",25.1317596312843,35.3594407730662,4.93537638305994,7.23103706019233,0.0200333004120907,0.00107710398082091,1.98463093048535,11.7300122521273
"211",24.8854958704164,35.558213963174,4.67372128059031,6.94175311158994,0.0304283106790307,0.00615654300479104,2.02231546935461,12.6772400258453
"212",25.2316101518888,34.9555095354785,5.0855983146309,7.06875110473849,-0.0315763043055477,-0.00406144799706772,2.00671304200181,10.9114678774492
"213",25.1027963651991,35.3341990826796,4.97399349622226,7.16782244819085,0.019036065390159,0.00441622879237037,1.97294736722419,12.5539011274942
"214",24.9368183679813,34.9517893072056,4.93756520903299,6.98935526426407,0.0152510311112557,0.0148659049280957,2.01673710063198,11.8197780729665
"215",24.8558294084205,34.8915202176241,4.9799029300334,7.02911559764723,-0.0173726481844698,0.01274106984057,1.93533501573773,11.9347678061991
"216",24.9276426808274,35.0092219886845,4.87454957382429,6.8059616590873,0.0173584964431995,0.00833909315693564,1.99845337591645,12.6816591970443
"217",25.0261412779101,35.2901123730338,5.04722423855092,7.03584184244903,-0.0422066186309957,0.0133633263097694,2.05017036227329,12.1190321632785
"218",24.4370878301603,34.9986845787289,4.8395337838973,6.86898021289947,0.0216875777098434,-0.00666165368208429,1.97472888417151,11.8593055880828
"219",24.6370742054083,35.0107380191324,5.03800833607779,6.8867624597321,0.0112066550556369,-0.0131861113594591,1.87848250522118,12.769182797558
"220",24.8019047556642,35.0867330263467,4.93482133627009,6.96426599246601,0.0030347948405115,-0.0121651847294453,1.95866150282206,11.6284382872225
"221",25.0708035595839,34.8574150430314,4.91953448399259,7.17149179559995,0.0157814993863479,0.00325038222555656,2.14088727620074,13.2565896635563
"222",25.1384400380119,35.0304760158587,4.90260590922782,7.37557257093721,0.0179386943305089,-0.00405172094649452,2.09713416693735,12.0398798060223
"223",25.4598977006126,34.9961072306712,5.0690389228111,7.36815800610593,0.000283536321550939,-0.00288325541866368,1.93317743562964,13.450555958438
"224",24.9103900981111,34.6527908240218,4.89420723820009,7.12838398063329,0.0368624028162605,0.018168098238929,2.01220977392477,12.5185668618556
"225",25.3830885487757,34.7911399224359,5.1117357573482,7.13059558114916,0.00532996732340572,0.0156412857367424,1.97883319733533,12.0523575816728
"226",24.7109136845036,34.8337591282259,4.8746429139977,7.24914875073344,0.0320145428890539,-0.00311023634678895,2.01888010172533,12.6423442632347
"227",24.8648634617934,35.2330522267853,4.82422824938368,7.21780876959801,-0.00585429665235463,0.0017882711308748,1.95792833981316,12.7224887669858
"228",24.6651020850725,34.290036240689,4.83777073748904,7.05127888413301,0.0256239289487084,-0.00154958740863273,2.02890533317924,12.1477381092608
"229",25.3230708138672,34.6531216519393,5.13207930681399,7.01710860019079,0.0009533145404578,-0.00588912298576075,1.88046151333436,12.063228966611
"230",24.6981533339674,34.833768857833,5.07423250548641,6.88615826513887,0.00486058147939216,0.00513342182685026,1.99924545419893,11.9017755040481
"231",25.0685648843668,34.9186030700952,4.91326525017594,6.6096129890303,0.00955567384029632,0.0101882526193442,2.07555455186391,12.8208168504347
"232",25.161706816116,34.9917587753646,5.04360425351372,7.05450286668402,0.0166351186319543,-0.0249340792701131,1.88810423056046,11.9171200182634
"233",24.8228389702766,34.5199318684314,4.97270329285354,7.24198911365784,0.0417070895314651,0.00490602729064026,1.94383266301467,11.9091517689946
"234",25.0040086928872,34.959552207966,4.86768820057493,7.04262281296754,-0.0196008025842562,-0.00538990621965999,1.88886922815325,11.6468062905934
"235",25.0498107864653,35.0742701711533,5.12208922904991,6.87317971691055,-0.0141581211254669,-0.00479003563207218,2.02798740968883,11.7854451445894
"236",24.926458249057,34.8480447135414,4.95241655041711,7.21593115651217,0.00769599973025336,0.00371656021307377,2.00783413895842,12.8927794043173
"237",24.7965833423669,35.0593696742683,4.87880493407757,6.82100892302511,-0.0409327380417965,0.0111340623476031,1.95996868165819,12.103797978307
"238",24.9766217231085,35.0122493232736,4.95508299803172,7.07513068436376,-0.00945509528685786,0.00452081356013604,2.08159607795086,12.2338029635332
"239",24.9591399492091,34.8035477530166,4.82761156051294,7.10270907908389,0.0418707165927823,0.00431462724117813,1.99599439955039,12.7350214024838
"240",24.5932679150519,34.9326189308796,4.95044781634955,7.22008290283901,0.0294867159925827,0.0117228487772101,1.93254041981154,10.3724248830473
"241",25.3361084031281,34.9603328081244,5.20854560881113,6.84217362159056,-0.0215323277075607,-0.0228281892660881,2.11917763247948,11.8385120972031
"242",25.2431684198249,34.7250623173147,5.03217184576556,6.73918110056491,0.0127753791350991,0.00752538012386772,2.0812083144068,13.1813502843786
"243",24.7439191897333,35.1548092193187,4.89118171471524,6.97399324238674,0.00539926667899616,0.0198328076769043,2.09068481504897,11.9327243538566
"244",24.7776404641382,34.7498215482394,4.99388666145093,7.07055700103415,-0.0581728378165274,-0.0100291645411861,1.98037497940543,12.0440744819228
"245",24.8457975591627,34.9788476594648,4.65428394898417,6.72216523043646,0.0216446890440624,-0.0143628470605139,1.97634699644649,12.8745044937349
"246",24.827816796175,34.9262662947958,5.03792844022799,6.92740388881757,-0.0228764381493427,0.00678510728287343,2.21498379742452,12.5842518628253
"247",24.958837208731,34.9056387718435,4.87540231460244,6.90451169889027,-0.00822093741608025,0.000876417755701175,2.04081303491016,12.2051126571132
"248",24.8874482863162,34.7827580834618,5.11361170389986,7.07128543151535,-0.0397426173595012,-0.021679517866914,1.96286587308078,12.4579046811331
"249",25.3977157221164,35.2342585607974,5.28468637556214,7.11607230501215,0.0155769967627828,0.00176961075987948,1.98058051171954,11.8591450769781
"250",25.0763000183519,35.3023749042946,4.91318189344272,6.94218451491903,-0.0292681658675461,0.0117401138383247,1.9270926505102,12.5376057594029
