"","x"
"1",0.936
"2",0.966
"3",0.932
"4",0.92
"5",0.932
"6",0.932
"7",0.934
"8",0.914
"9",0.94
"10",0.94
"11",0.926
"12",0.918
"13",0.956
"14",0.972
"15",0.916
"16",0.952
"17",0.94
"18",0.936
"19",0.946
"20",0.934
"21",0.952
"22",0.934
"23",0.956
"24",0.94
"25",0.902
"26",0.93
"27",0.948
"28",0.95
"29",0.97
"30",0.948
"31",0.94
"32",0.968
"33",0.93
"34",0.922
"35",0.948
"36",0.954
"37",0.926
"38",0.954
"39",0.94
"40",0.934
"41",0.97
"42",0.942
"43",0.938
"44",0.906
"45",0.922
"46",0.956
"47",0.92
"48",0.928
"49",0.96
"50",0.94
"51",0.926
"52",0.904
"53",0.964
"54",0.932
"55",0.936
"56",0.938
"57",0.94
"58",0.88
"59",0.96
"60",0.928
"61",0.87
"62",0.942
"63",0.952
"64",0.942
"65",0.952
"66",0.946
"67",0.952
"68",0.932
"69",0.95
"70",0.912
"71",0.962
"72",0.946
"73",0.956
"74",0.926
"75",0.954
"76",0.958
"77",0.942
"78",0.936
"79",0.924
"80",0.954
"81",0.954
"82",0.936
"83",0.908
"84",0.944
"85",0.556
"86",0.93
"87",0.954
"88",0.936
"89",0.934
"90",0.958
"91",0.928
"92",0.926
"93",0.938
"94",0.956
"95",0.888
"96",0.936
"97",0.958
"98",0.958
"99",0.95
"100",0.918
"101",0.97
"102",0.976
"103",0.914
"104",0.916
"105",0.946
"106",0.92
"107",0.944
"108",0.95
"109",0.95
"110",0.892
"111",0.95
"112",0.98
"113",0.948
"114",0.942
"115",0.934
"116",0.942
"117",0.926
"118",0.946
"119",0.924
"120",0.92
"121",0.94
"122",0.954
"123",0.942
"124",0.956
"125",0.944
"126",0.938
"127",0.93
"128",0.958
"129",0.92
"130",0.95
"131",0.938
"132",0.94
"133",0.566
"134",0.954
"135",0.956
"136",0.944
"137",0.942
"138",0.928
"139",0.948
"140",0.958
"141",0.932
"142",0.938
"143",0.936
"144",0.93
"145",0.962
"146",0.938
"147",0.94
"148",0.944
"149",0.946
"150",0.93
"151",0.938
"152",0.96
"153",0.932
"154",0.948
"155",0.918
"156",0.924
"157",0.934
"158",0.92
"159",0.938
"160",0.918
"161",0.908
"162",0.96
"163",0.93
"164",0.932
"165",0.934
"166",0.478
"167",0.928
"168",0.962
"169",0.952
"170",0.928
"171",0.948
"172",0.92
"173",0.934
"174",0.914
"175",0.938
"176",0.93
"177",0.89
"178",0.94
"179",0.944
"180",0.926
"181",0.952
"182",0.928
"183",0.432
"184",0.932
"185",0.95
"186",0.928
"187",0.918
"188",0.9
"189",0.942
"190",0.946
"191",0.948
"192",0.928
"193",0.942
"194",0.928
"195",0.952
"196",0.948
"197",0.924
"198",0.954
"199",0.966
"200",0.948
"201",0.97
"202",0.938
"203",0.856
"204",0.958
"205",0.924
"206",0.926
"207",0.958
"208",0.926
"209",0.94
"210",0.958
"211",0.914
"212",0.944
"213",0.934
"214",0.948
"215",0.954
"216",0.944
"217",0.964
"218",0.922
"219",0.948
"220",0.95
"221",0.954
"222",0.9
"223",0.954
"224",0.962
"225",0.94
"226",0.962
"227",0.9
"228",0.948
"229",0.944
"230",0.916
"231",0.928
"232",0.936
"233",0.966
"234",0.938
"235",0.918
"236",0.912
"237",0.92
"238",0.948
"239",0.972
"240",0.932
"241",0.93
"242",0.926
"243",0.934
"244",0.926
"245",0.946
"246",0.954
"247",0.94
"248",0.936
"249",0.958
"250",0.922
