"","x"
"1",876.206253567101
"2",866.054753492034
"3",872.297756981539
"4",848.9720992769
"5",948.299261471674
"6",933.335218518381
"7",878.65879139675
"8",883.232588927287
"9",899.255052503215
"10",933.505808661434
"11",891.744811104579
"12",871.56401105723
"13",904.634741902379
"14",907.807459592553
"15",862.12083176958
"16",882.03305297237
"17",866.688447138168
"18",892.40062667972
"19",792.281844571369
"20",891.021177499613
"21",999.951420915969
"22",853.525540228922
"23",825.749987025595
"24",865.562342055866
"25",865.878791765577
"26",786.745458811761
"27",865.17971481738
"28",879.260779348022
"29",846.427705519442
"30",915.623709503523
"31",833.747015333212
"32",874.097643581015
"33",929.121141783645
"34",876.012229709738
"35",921.7380746643
"36",984.483746985836
"37",842.304641539576
"38",881.819067657888
"39",863.082990238102
"40",884.94523351768
"41",873.661861298667
"42",855.697786712267
"43",969.685992901598
"44",869.457225730666
"45",876.800909855881
"46",918.357421407212
"47",907.543086531559
"48",893.33392766964
"49",896.751360986258
"50",858.226178255841
"51",881.292852189018
"52",879.095279344897
"53",976.727553464919
"54",923.839546275703
"55",874.623998380783
"56",899.333072380998
"57",831.471909505079
"58",832.767099898777
"59",838.151790969619
"60",873.32765230019
"61",843.004234475453
"62",832.836259058048
"63",925.697822433364
"64",860.625090681468
"65",854.125846219116
"66",871.736232755594
"67",875.696500347435
"68",907.512023754498
"69",846.650961634213
"70",914.429404975685
"71",871.085637981905
"72",861.55208624909
"73",920.163089856553
"74",961.02305196272
"75",841.169181515415
"76",919.564168461455
"77",910.864776087452
"78",864.172989225553
"79",878.793702687549
"80",855.16765862999
"81",897.525386469386
"82",862.700372363038
"83",890.34675036807
"84",846.903675340903
"85",933.588459250307
"86",890.33744740808
"87",885.250672086143
"88",977.629809884793
"89",857.856512355515
"90",879.154515153233
"91",870.268845082552
"92",1009.60092624287
"93",904.981542989239
"94",859.830328864255
"95",862.286671700411
"96",922.599340276038
"97",881.068211180494
"98",916.42843148008
"99",828.770854994368
"100",932.238749283951
"101",881.977944787317
"102",951.615437256841
"103",845.677572924488
"104",886.56147533956
"105",851.164354308327
"106",795.176726337987
"107",904.396687923664
"108",890.902959294124
"109",876.222489925264
"110",865.240167962007
"111",895.663561991942
"112",852.662268504049
"113",901.556101275042
"114",901.504169229072
"115",823.368411889399
"116",991.182496127066
"117",921.577994666828
"118",865.736765873931
"119",874.871793248821
"120",906.200586886942
"121",887.90249588858
"122",881.18145870653
"123",922.812732612508
"124",853.8770167647
"125",867.326496191124
"126",846.401301568153
"127",857.434861002334
"128",826.53745608371
"129",873.130995306486
"130",827.999168891887
"131",857.229952739658
"132",935.706444709231
"133",885.360957181433
"134",829.874633688221
"135",869.282689832565
"136",873.236247688934
"137",863.095792353918
"138",898.099841130435
"139",875.536825942991
"140",837.082233957906
"141",1004.69366461033
"142",869.435522888095
"143",886.018241509596
"144",804.716705697465
"145",885.773541284546
"146",846.316662524137
"147",906.040719202542
"148",861.385034927908
"149",872.321699918139
"150",885.876597721925
"151",925.97062084848
"152",884.783860014934
"153",882.556152613301
"154",867.655990721225
"155",856.57792261765
"156",927.362569622719
"157",902.239110915781
"158",958.618464382411
"159",959.195929290188
"160",905.406499994507
"161",926.41366956525
"162",866.783870367573
"163",911.572496109183
"164",864.804938488366
"165",907.571151834303
"166",924.593772390494
"167",909.184550528958
"168",903.697726157433
"169",970.239822551317
"170",840.87986459125
"171",890.448459479666
"172",844.683026373923
"173",983.721390910103
"174",879.355078171593
"175",908.598761413344
"176",880.651007497334
"177",908.226892921644
"178",866.328555783875
"179",795.248642856831
"180",890.503351251283
"181",904.58415046541
"182",845.659216778164
"183",931.606550438426
"184",844.169675781333
"185",902.359005462318
"186",892.512909333789
"187",867.668590155116
"188",832.250795033322
"189",873.550166961806
"190",971.386152563077
"191",871.16944271307
"192",840.306108742747
"193",800.21281696175
"194",877.950136016513
"195",894.862660919182
"196",881.02595368952
"197",932.44860595822
"198",908.149318996021
"199",842.049601971352
"200",894.324464851785
"201",851.197350761097
"202",909.458768872846
"203",919.772093432941
"204",859.828130047054
"205",836.838075490561
"206",896.562865792053
"207",923.207104385649
"208",917.984349418295
"209",902.198999020202
"210",852.291622793914
"211",841.397537506836
"212",835.068768212958
"213",878.5330526533
"214",905.040064148311
"215",865.238072503176
"216",895.156064362125
"217",886.980974548015
"218",863.041550926746
"219",854.70272701584
"220",923.05989452335
"221",904.459899065793
"222",933.188487065826
"223",832.717742267926
"224",907.477499572262
"225",881.485823112326
"226",840.547185778646
"227",835.961378795651
"228",800.628423341205
"229",872.580039842442
"230",851.207485087461
"231",915.978072450362
"232",897.131095342122
"233",921.456561118881
"234",875.087820352083
"235",838.770555998086
"236",949.250255540698
"237",894.32463671109
"238",877.943475269028
"239",967.77572564675
"240",905.694919414899
"241",882.90896207811
"242",901.124611281847
"243",912.580449530477
"244",828.476860746418
"245",886.832354124872
"246",842.810119573053
"247",1011.71254831523
"248",861.558525410609
"249",914.738655584271
"250",881.054229766358
