"","x"
"1",0.875
"2",0.8955
"3",0.9095
"4",0.8855
"5",0.8905
"6",0.8715
"7",0.9005
"8",0.893
"9",0.8895
"10",0.871
"11",0.88
"12",0.913
"13",0.9005
"14",0.881
"15",0.899
"16",0.9015
"17",0.876
"18",0.899
"19",0.8815
"20",0.869
"21",0.862
"22",0.8615
"23",0.8805
"24",0.8845
"25",0.8605
"26",0.86
"27",0.8825
"28",0.895
"29",0.8785
"30",0.8815
"31",0.8785
"32",0.877
"33",0.8965
"34",0.879
"35",0.891
"36",0.8925
"37",0.872
"38",0.8895
"39",0.9025
"40",0.88
"41",0.886
"42",0.892
"43",0.8795
"44",0.8985
"45",0.89
"46",0.874
"47",0.888
"48",0.88
"49",0.869
"50",0.8875
"51",0.872
"52",0.887
"53",0.8895
"54",0.8995
"55",0.8925
"56",0.8865
"57",0.8635
"58",0.9025
"59",0.887
"60",0.8655
"61",0.8665
"62",0.8875
"63",0.904
"64",0.8925
"65",0.8755
"66",0.8785
"67",0.8795
"68",0.88
"69",0.8895
"70",0.8895
"71",0.8955
"72",0.8695
"73",0.881
"74",0.8635
"75",0.8985
"76",0.879
"77",0.867
"78",0.8765
"79",0.8875
"80",0.8765
"81",0.8755
"82",0.898
"83",0.884
"84",0.8845
"85",0.8885
"86",0.864
"87",0.892
"88",0.892
"89",0.8805
"90",0.872
"91",0.8855
"92",0.8815
"93",0.8625
"94",0.881
"95",0.876
"96",0.883
"97",0.887
"98",0.8775
"99",0.8635
"100",0.8665
"101",0.896
"102",0.8905
"103",0.8735
"104",0.8945
"105",0.883
"106",0.899
"107",0.861
"108",0.881
"109",0.886
"110",0.87
"111",0.873
"112",0.8715
"113",0.875
"114",0.857
"115",0.8715
"116",0.8815
"117",0.8755
"118",0.8865
"119",0.8755
"120",0.8975
"121",0.875
"122",0.882
"123",0.8775
"124",0.882
"125",0.8685
"126",0.8875
"127",0.8785
"128",0.881
"129",0.89
"130",0.885
"131",0.903
"132",0.878
"133",0.8695
"134",0.907
"135",0.872
"136",0.872
"137",0.9025
"138",0.8955
"139",0.8915
"140",0.8735
"141",0.8605
"142",0.8905
"143",0.9055
"144",0.8905
"145",0.883
"146",0.883
"147",0.88
"148",0.869
"149",0.9115
"150",0.898
"151",0.924
"152",0.8855
"153",0.8945
"154",0.8715
"155",0.8805
"156",0.8815
"157",0.8525
"158",0.87
"159",0.8805
"160",0.8745
"161",0.878
"162",0.8965
"163",0.8975
"164",0.866
"165",0.8965
"166",0.857
"167",0.8875
"168",0.882
"169",0.894
"170",0.8815
"171",0.8695
"172",0.8815
"173",0.903
"174",0.8755
"175",0.837
"176",0.8915
"177",0.879
"178",0.861
"179",0.895
"180",0.885
"181",0.9005
"182",0.8685
"183",0.8735
"184",0.892
"185",0.861
"186",0.894
"187",0.8875
"188",0.868
"189",0.891
"190",0.8775
"191",0.8925
"192",0.8895
"193",0.8885
"194",0.884
"195",0.8585
"196",0.867
"197",0.895
"198",0.879
"199",0.8825
"200",0.8835
"201",0.884
"202",0.9045
"203",0.8865
"204",0.885
"205",0.9035
"206",0.8725
"207",0.865
"208",0.8665
"209",0.8765
"210",0.858
"211",0.8705
"212",0.8775
"213",0.8795
"214",0.8735
"215",0.8865
"216",0.8715
"217",0.901
"218",0.892
"219",0.894
"220",0.8765
"221",0.874
"222",0.869
"223",0.8975
"224",0.875
"225",0.876
"226",0.8865
"227",0.8825
"228",0.898
"229",0.8645
"230",0.875
"231",0.843
"232",0.879
"233",0.8835
"234",0.8855
"235",0.91
"236",0.888
"237",0.8885
"238",0.885
"239",0.8845
"240",0.878
"241",0.8775
"242",0.8805
"243",0.893
"244",0.8765
"245",0.885
"246",0.8635
"247",0.881
"248",0.881
"249",0.8995
"250",0.8995
