"","V1","V2","V3","V4","V5","V6","V7","V8"
"1",24.7366430517441,34.4640044661779,5.14238493703612,6.97769591783935,-0.092828167348798,0.00952034111889186,2.06507459143673,11.7258719514836
"2",25.2767018290769,34.8066251555731,5.17610973448518,6.66662457601939,-0.0727211732098273,0.0315360503829903,2.11240576030287,12.1813926622661
"3",24.6030966796392,35.9884732323831,4.74608570966846,7.36867898005533,0.00637028520284756,0.00340804510592398,2.12845527825089,12.7946446168712
"4",25.943127395372,34.1371624216711,5.2307277709192,6.63844454360489,0.00935817422327969,-0.000909060329433171,1.95689240333134,12.8641032509854
"5",25.3490103261696,33.6102884072861,5.25403428176981,6.81948407286815,0.0302420535879859,0.0112554315917822,2.09246600646253,11.9222485777117
"6",25.1236642715185,34.4554702986951,5.09550357581602,6.99499699456846,0.0102159263905691,0.0520546136697283,2.15045032540915,11.6908786999765
"7",25.2841352092218,33.7919673606065,4.80230735491046,6.82163985823313,0.103794525522343,0.04137937296664,2.03787682110926,12.0639690834214
"8",24.958042554281,34.4330079499306,5.10824925380968,7.0799239531617,0.0350283483199209,-0.000660073617607838,2.13775801158274,12.4469675260666
"9",25.4748678350149,34.8461411719562,5.1651128145035,7.03451995274575,0.00901713185593279,0.0588355940865262,2.08164212742915,11.5041339123729
"10",25.1221508148419,34.0432897882921,5.29361517851594,6.68121491600008,-0.0538708383370017,-0.0164682178828912,2.06554619046199,10.5536518802662
"11",24.995105940068,34.7893603279455,4.9807652129044,6.9900552570854,0.0332718044734097,0.00253214965820686,2.09310456131501,11.5420408041371
"12",25.6481863866602,35.137906693972,5.13663154820621,7.17494902830924,0.0257971485130757,-0.019318485065508,1.9534138124901,12.1721456196116
"13",25.7627530815959,35.6271453561586,5.14734322339756,7.03912172603926,-0.0139713683251106,-0.0335021110202132,2.0096959474237,11.5454158153797
"14",26.0900479459924,34.7720807631801,5.263353318054,6.9278499891149,-0.0133737851467339,-0.0074809821502123,2.12717261416005,12.5571260594959
"15",25.4223968875654,34.8011924719331,4.92454088709511,6.55593492857926,0.0200869072230202,-0.0296759178081643,2.00842604468061,13.0774422580568
"16",25.3677665040683,34.1883834633367,5.10707826300097,7.02548009912284,0.00346680708623406,0.0173842250404829,1.92984675295188,11.4082034834021
"17",24.8966244254278,34.352720230649,4.85113555366862,7.00727536460329,0.042233167364163,-0.0323036620956722,1.83081369243659,11.2750878588739
"18",25.6379853413346,35.1338153634407,5.16456190400282,6.82070427076103,0.0166732327633468,0.00899361116670683,2.13994167058342,12.3840283944639
"19",25.2361741123696,34.892733690593,5.14977954691196,7.30268697589828,-0.0545537143791931,-0.0314757989314824,1.98835651434745,10.8368257635845
"20",25.6813544289445,34.7224154992513,5.11408439955542,6.82924539809297,0.0368798236203265,0.0391704166738417,2.10249284924745,12.0447145245138
"21",25.4419507476425,34.4557795388316,5.07727712762607,6.92414120511651,0.0888765105436714,-0.0231097778703372,2.19755677614124,10.7760695593648
"22",25.0713071234557,35.2180065931657,5.08973737769156,7.03016397026049,-0.0798952254164136,-0.0284531969505714,1.99803742170162,11.3618144094048
"23",25.5248834623748,34.4617003935605,5.14490343502334,7.15957474096911,0.0131759269467885,-0.0269489861150082,2.06809186478803,12.1263898475695
"24",25.4287177362149,35.555159910359,5.01803770087435,7.11284769768985,0.0585684861683496,-0.0179034871396139,1.92325719694183,10.998417740536
"25",25.5859829858789,35.3358944146974,5.19255642354929,7.22820312760947,0.020390852635474,-0.00198244998971285,2.13149620507016,13.407466810984
"26",26.0473872967656,34.798186588217,5.18583527715166,7.0419498778162,0.0784265008343847,-0.011512967488351,2.10555573250838,11.5487549383278
"27",24.8499594355273,34.1806644180735,5.2116494326679,6.76314401633227,-0.025222057050157,-0.011787242787609,1.923540217901,11.5348735083677
"28",25.1046212059433,34.6375486593541,4.97299001831178,6.9334755606825,0.0690638585608762,0.00356894296856969,1.9548323402636,11.9730819202456
"29",25.3682654759223,34.5295676224909,5.1389582706998,6.62606152412163,-0.0624624673189545,0.0174796107678859,2.10962721986928,12.0488813764184
"30",25.4464537913591,35.6908113083224,5.36517713973311,6.9917976674738,0.0326863637988942,0.00524988763701959,2.14134676783313,11.8018955301172
"31",24.8033646896795,34.5820878234916,4.92649373683685,7.38922432939082,0.0235742487357701,0.0129128089656083,1.96096047815526,11.9584580715585
"32",26.1304498576828,34.0846236397938,5.35807474261672,7.02777815325591,0.0608264212637926,0.0290163792373761,2.06067160181707,12.8013051727449
"33",25.3569230109294,34.7657356319232,4.97481969055329,7.1341301697285,-0.0162212219347892,0.049525519041787,1.87631357195291,13.2780472196798
"34",25.5095852640493,33.7080529391948,5.3157585154212,6.77662857202588,-0.0348936823803428,-0.0437259337221209,1.9459363970741,12.1278283205592
"35",26.3065190612273,34.9514890237791,5.25304803432378,7.04904405078828,0.0395470333900902,0.0716528348927967,2.08122390777343,12.300429091829
"36",25.4685659873596,34.8482332311926,4.93665935404957,7.24202798720116,0.0257048184673633,-0.00201132056745192,2.02471389089163,10.9223102228194
"37",25.7172876879791,34.9111853133337,5.22313912553951,6.7893953483018,-0.0869630827313111,0.000226989023088782,2.11530544214677,12.4448966022212
"38",25.448325969623,34.2914783305895,5.36964426451606,6.84808059845718,-0.0790466689130726,0.0562041481141948,1.99280818385212,10.7493853058072
"39",25.3543127408427,35.3882886318464,5.05562881053767,7.14491726431626,0.00514702801195335,-0.00329728934685401,2.10137702531489,12.5345886947177
"40",25.3325596445913,34.3891897839967,5.09148723303951,6.7219709131102,-0.00769362957203678,0.0260243680697541,2.09133661280732,13.2696819791276
"41",25.5634306756588,34.4316258043692,5.10064139604329,7.12507434098045,0.0601929812454186,0.0108752174253642,2.01781974915407,11.1333176977752
"42",25.2636653481348,35.0676420193558,4.92983786918723,7.15633428604803,0.0111832437600084,-0.0190763604142101,1.88150081219028,12.9130478011642
"43",25.1581029074109,34.4141023229384,5.19085959944834,6.8297670416437,0.0566509824810372,0.0127064515397032,1.97964050356167,11.3549226818723
"44",25.6461393704826,35.0519341090062,5.25329772430541,6.77076188696591,-0.0178169861754789,0.0173691507425976,2.06276199331635,11.7655577491223
"45",25.2761807680216,34.0829705314,5.16609132893012,7.1989736248971,0.0127978957937472,0.0165338199894195,2.04989840726621,13.4674200764928
"46",25.5090957002486,34.7358212933059,5.31749251868979,6.83932616975632,-0.000123153884830231,-0.0114298034972416,2.01037214419953,13.0021510763585
"47",24.7341698977692,34.1181600074171,5.00297075129838,6.90207952920601,0.028572554759582,-0.0133552270203619,2.00882341827756,11.7518751141852
"48",26.0382336121868,35.4089218597105,5.26640143585689,7.33437854026036,-0.0206366399216257,-0.00834854439620706,1.92537394615662,12.309557549176
"49",24.8328697378891,34.8010037654326,4.88895484906445,7.12083129295031,-0.0113553892547694,0.00969817155817942,1.90353875145095,10.9792239204883
"50",25.8754258247716,34.7168057626129,5.28470326466563,6.9433789044485,-0.0192528675786398,-0.0113307158440399,2.09045816759009,11.4416375962673
"51",24.9337489188471,35.7139075227506,4.92897652182989,7.12402001708546,0.0317300565825181,-0.0298358557294169,1.90842431336804,11.2589242185014
"52",25.0059128140625,34.8525686261333,5.00960033038369,6.9982888792124,0.0205323969301245,-0.031802078412831,2.25250320358652,11.3003061982603
"53",25.4334856799251,34.5249370397199,5.03946972427862,7.28795124424078,-0.0636562496875168,0.0201890208603715,2.04232663149515,11.8904464732111
"54",25.119376135041,34.9669003341316,5.07341215744986,7.25444492234436,0.00661884986298055,0.0118029488738169,2.02080412578947,11.3791062601051
"55",25.9051291769984,34.8229280239268,5.33925193455948,7.03398451840432,0.028659141609189,-0.00895184440134628,1.97024583776502,12.5194882706612
"56",25.0868187321535,34.9714717819453,5.25900621457465,6.84376485750064,0.065383580561473,-0.0316293731774719,1.9807933726859,11.2815098528819
"57",24.5938541583452,34.3793845311017,4.77021336020292,6.97216652215761,0.0181709746596738,0.025503189719229,2.12292966397873,11.1070895135169
"58",25.1830830043037,35.1135231760458,4.98232058458926,7.04421939176774,0.0780730393440021,-0.00398374456014358,1.96218056166334,13.7993690006869
"59",24.7379372836189,33.3981753589429,4.7373242722072,6.63720775614776,0.0528277589163347,0.0631647031627223,2.09891195596224,11.8349279424539
"60",25.2194455869617,34.8487861229432,5.08985426489039,6.97651994690965,0.0158662500850267,5.91499503887177e-05,1.97852089438348,10.945566121395
"61",25.1654541723416,33.694708948408,5.11298220016684,6.7594804647882,-0.0539783078737031,-0.041741640124795,1.93931468341936,11.5315896802653
"62",25.717208689311,35.5229402719607,5.13220151941459,7.35581935479517,-0.0969761569207954,-0.0058808113767457,1.98371949917545,13.3069747316576
"63",25.4235365221947,34.2713937163427,5.34909053973017,7.18364769196831,0.0281201943240542,-0.0421063223044632,2.13890730229067,11.3989454163035
"64",25.2086178704202,35.2408476651221,5.01651074144537,7.16946812810817,-0.070612709515607,0.023415352202608,2.10175870162315,13.3610141901261
"65",25.3563955735784,34.6930497893841,4.99632667907713,6.54571281162439,-0.0798118063033483,0.0250961782603223,2.03672894514409,10.8618972302732
"66",25.4155655426735,33.5539579846188,4.93782304332381,6.93622318844639,0.115048415687227,0.0307472938196445,2.02323433043337,11.6481564502827
"67",25.5639574330387,34.7624358947282,5.20232342381493,6.99755161710896,-0.00877598212893699,-0.0206167138947475,2.11861358104603,11.5029788105919
"68",25.2973064954032,34.1570513924057,5.0681420651098,6.56339537254728,0.0429644152475198,-0.000282816448105626,1.99304436302456,12.2725244367979
"69",25.5060476945259,34.276928167938,5.10920076847239,6.76076827198885,-0.0658115011397028,0.0122859394667371,1.86822698291757,11.2939249663928
"70",24.5901385038472,33.877704631596,5.10236684582419,6.7847206662227,-0.00990894625437154,-0.00960158374990399,1.87507973696949,11.7373432821099
"71",25.5249457927864,34.904577477181,5.48922491589459,7.05958956660748,0.00720999719698719,0.0409124055024224,1.90802811669755,11.298730783861
"72",25.2649325000418,34.7191904860203,4.96654484761068,6.70752134288634,-0.0635698091693309,0.0207780061705541,1.97461054681398,11.8491651191061
"73",25.6410838811089,34.4776762462635,5.16267537600166,6.9985083833148,0.0817511598099111,0.00978776455172479,1.94856681694685,12.0289791703167
"74",24.7883048660337,32.9402170965936,5.05700702602199,6.42534060186357,0.0328069215912015,-0.002680105006998,1.88139203653087,11.0234723753861
"75",24.7410591838568,34.5809981507265,4.9625108492295,6.74859848682008,0.0532680503865753,-0.00601313041765127,1.95937992449436,11.5030563016922
"76",25.1678373959576,34.2152132846489,4.88515127870396,6.78492576059802,-0.0214234677512,0.0283562704266247,2.02894954659172,11.8748912404187
"77",25.3070239817545,35.061607397191,5.04026970479384,6.77063677297027,-0.00389483660032894,-0.0312845481211497,2.1412505072045,12.7636450527689
"78",25.7583339455154,34.4914913818299,5.21393871494677,6.79354273913413,-0.0324130532013074,0.0101399916926298,2.0611674411639,11.8856128347589
"79",24.9963551479745,34.7643986294366,5.13738061989011,7.01042183395744,0.0285564031270996,0.0104859156477111,2.14352857580829,12.1894379397268
"80",25.2994267547889,32.9826871610579,5.14028961205115,7.02214155252914,-0.00185349462420051,-0.0289509172422168,1.85120254927568,11.1815562917588
"81",25.05076063736,34.152767674185,5.09876801792219,6.77701294576039,0.0640726652600123,0.0246490737554935,2.03268826026718,11.8936057676968
"82",24.7827301206522,33.4296668401435,5.16913858928341,6.55200870071168,0.0839649909923673,-0.0463332619393638,1.85891834033958,11.0739228527126
"83",25.2333913165392,34.4649934080864,5.14184680334148,6.88919143704479,0.0163702213243892,0.00627205929839219,1.99401609412034,13.4613982573673
"84",24.7875177620522,33.5376079256228,5.17852147973582,6.98958207533457,-0.0721248683507506,-0.0181919738382916,1.87074432120413,13.0604864971681
"85",25.2959485894884,34.1106962906848,4.94125521546619,6.86184719503897,-0.0185195907617283,0.00790546520846574,2.07734439895603,12.4797931566683
"86",25.5258329147987,34.1142663395976,5.15069170852951,6.88102965104674,-0.0557087002800918,0.00918331846489534,2.01897186823052,11.6764361965789
"87",24.5076549957037,34.0015529496383,4.91391657502424,6.82212051923147,0.114907529490458,-0.0232566383011168,1.89767630634703,11.1519242498687
"88",25.018828198131,35.0847413382343,4.88913287190389,6.80573874345031,0.0128828653881694,-0.00992621634443597,1.93038091258787,12.7380474781071
"89",24.3231753061068,34.9922518931967,4.81851556929321,7.1156129331114,0.0121333156124541,0.0396009223300772,2.12711242897148,10.759613447869
"90",25.7672064730961,36.0717068269073,5.20383016259741,7.51129970690893,-0.0103245832269484,0.0103453019393378,2.21427267315408,12.6906920625732
"91",25.413281763296,35.02235420958,5.01310138475012,7.07739989943266,-0.0105118278075899,0.0228046655395752,2.09394428412619,11.063558237572
"92",25.3864165207202,35.2188441133761,5.20578089587204,7.21935397500246,0.054245704256508,0.0209720393748315,2.26360075827654,12.1644680925648
"93",25.4727892411629,33.53935991976,5.34775240717686,6.58993360620415,-0.013096682333385,-0.0288893209643886,2.01033468878158,10.7250256178835
"94",25.218783873334,34.9557656338659,5.09343383080001,6.89916094187082,0.0152333794475276,0.0103290933560093,2.07658557854977,11.6234930559218
"95",25.1466924917306,34.6087697479333,5.06083780474814,7.0018233382138,0.0960601464216653,-0.00591178661579582,2.01652624173347,12.2327278210508
"96",25.2678556859961,34.5033278073635,5.08676646418153,6.70087633026992,0.0272561463553072,-0.0174369555819386,1.88408492867627,13.0242105456617
"97",25.2721918545799,34.628717806853,4.97137338961068,7.02852595537424,0.0169669191922119,-0.000965543173361873,1.88873174087561,11.4662224383764
"98",25.1064567676944,35.0467130213424,4.80577100163134,7.06708241502698,-0.0656786894084262,0.000103986463012681,1.97136690920984,11.3763601439479
"99",25.8412478364793,33.9544918814696,5.35060969847363,7.2108240364129,-0.00905144360194735,0.0135669681046495,2.11718191124082,11.914034716473
"100",25.2141978134508,33.7157429656723,4.67615421143525,6.7755725637644,-0.0418038586348557,-0.050370961515771,2.12820189143487,12.3735129337527
"101",24.7990898967066,36.2722246987807,5.03610957852771,7.2600663281565,0.0725600165133457,-0.00196716809160329,2.08838536715685,13.4307054667853
"102",25.8053611082676,35.2501284605638,5.26941488079756,7.25175065939092,-0.0203729323194716,0.00024241452564246,2.09108015178469,12.5079841582499
"103",25.9497920156361,34.4831256092597,5.18655500977048,6.66925465685626,-0.0171214246870402,0.015825701722809,2.07560252959304,12.2995360658061
"104",25.5552385367695,35.5024931360402,5.10413441699781,7.70919504285741,0.00318229845061572,-0.00825278387147052,2.03195176119687,12.7642302089804
"105",25.3480885687233,33.8456472421138,5.02755027414426,6.70166909669433,-0.055810659157623,-0.00503234530904649,2.05520302257155,11.2697091268263
"106",25.0172815171727,34.1595616449887,4.77164125841094,7.16903354431135,0.00472341304983049,-0.0117630769816484,1.92191013325736,10.96095273137
"107",25.29542179306,34.1861224357209,5.13891992415699,6.94102209213801,-0.0258386212526365,0.00903600406299431,2.16462264370997,12.3357384219649
"108",24.8732218939013,33.9439520561613,5.02280694441017,6.9476172606975,-0.0352145848930335,-0.0281338181116704,1.96738559199702,11.3574277498492
"109",25.4361785774259,34.6822469236894,5.05529207177631,6.83632941513221,-0.0454301267048906,0.00879149693754023,1.98456988630534,12.2970179215737
"110",24.9597026611578,35.3616345644725,4.82322151552154,7.15466752117955,0.00810127090660855,-0.00585573842460408,1.97368004991643,11.426524367797
"111",24.9847086380001,33.8270613108959,4.96759138654655,6.89689180461647,-0.0729140568026397,-0.00262336076796222,1.97330225271561,12.072342294677
"112",25.9081317399055,34.9025489546156,5.18695930079464,6.92596108304677,0.00672060029955531,-0.0189776810273947,1.95630937425334,12.8692158195886
"113",25.2805310604498,33.6964821179802,5.14398803041419,6.70747397546011,-0.0635710952691371,0.0076937874877122,1.99776859524714,12.2539925589129
"114",24.6543896164904,35.083795745494,4.66904637684828,7.15122845043771,-0.0117062174411694,-0.0452638741825559,2.06394688164653,11.4929894844591
"115",25.2422417911881,34.0294735150155,5.26307052062146,6.57396848617253,0.0953019141806982,0.0515470296990494,1.9731406181186,11.5834052755546
"116",25.6533359669778,35.3796276233384,5.29980305466747,7.06846677635024,0.0547248030994922,-0.00336427199942039,1.93886955676398,12.9746119553625
"117",25.3136416222234,34.5853768919041,5.33351025451877,6.84716027426035,0.0417584051636537,0.0146474885478999,1.98116469415941,11.5631350239402
"118",25.2457962363261,34.58045744126,5.06128182695491,6.77546269169977,0.0303840657945229,-0.0484094597202744,2.07934755476727,13.1689956158326
"119",24.3874458423719,34.6663850612248,4.73584865808365,6.94056148535413,-0.0301745020225656,0.0205430190321121,1.99511435420724,12.3421728614405
"120",25.5047970244278,34.6951776327481,5.12957052430272,6.96892199331337,-0.0414808265108839,0.017620840890617,2.08030573583025,12.3772082062561
"121",26.0953846832926,34.3964794315723,5.3721002037593,7.07882419991494,-0.0337338622934148,-0.00170816808303131,1.96532011137413,13.1177546545945
"122",25.4370328534505,36.0042350371251,4.79744139694734,7.20818978201664,0.094552287296458,-0.0082124852310544,2.05320414857194,10.7760677894235
"123",25.1019731004762,35.0480144912012,5.11139965328181,6.91305319615442,-0.107796498239037,0.0317528237411366,2.01262889052373,10.9482169672988
"124",25.2783911606854,35.3722749314651,5.08380683989504,6.93882345488655,0.0160679192396862,0.0209399120915519,1.93542662698227,11.8932081896956
"125",24.7056052903558,34.3808012143827,4.86497017433486,6.94164864455369,0.00457203327456991,-0.0110623211587981,1.88916699010481,11.5471817566989
"126",25.2893732773283,34.9340557373313,5.09728628221659,7.13018429774126,0.00169166439054869,0.0269006894225488,1.99599277095595,10.7855364904883
"127",25.4466874224607,34.3226381388153,5.2767142803371,7.06799469850412,-0.00723737359564056,-0.0535532870594031,2.16536174079841,10.7335175052238
"128",25.1190544493013,33.8934728467595,5.01943862550648,6.46089898268163,-0.0276728001985042,-0.012824041463179,1.81290768849501,10.5604681964395
"129",24.9804906737678,34.9658041753597,5.02235487167547,7.01081837686308,-0.004705951703349,0.0231510926918439,2.05055766197704,12.0982728011375
"130",25.7763469338163,33.6691247239741,5.19947550739899,6.75184029768962,0.0513768631659662,0.0232075435511265,2.0125871415707,10.4718511350107
"131",25.0073911373876,34.2575683497206,4.88018360288831,6.84992270421198,-0.0295311253880877,-0.0156896585771538,1.98990512779672,12.0963571662099
"132",25.5956450742506,34.0286092036956,5.35477311637105,6.51558697662237,-0.0549438553219174,0.0164270316592223,2.11338494314591,11.0490181260588
"133",24.8584607791032,34.643908014413,4.84642665188531,7.04726656698593,0.0699107979883814,-0.0218454656303588,1.95679315004289,10.0127888573366
"134",25.437034961108,35.5918672527091,5.26126511451444,7.00508973850014,-0.0660873869164933,0.0366315154672557,1.86536342568292,11.965751904488
"135",25.7725659531776,34.1810501121884,5.19515924792616,6.91447718751263,0.0400771354438165,0.0096229353810809,2.06070815591895,11.9023957734321
"136",25.512972698513,33.8491651012646,5.26974808609733,6.77465471218024,-0.019553446620344,0.0132528956246987,1.88374651687578,11.7468179554742
"137",25.5496072897747,34.9542677899772,5.11016121553749,6.80603427718288,-0.013540653970017,0.0246611292594528,1.96107351283549,11.4959048857835
"138",25.33668901213,34.8360344839056,5.16286245487296,7.24264475952265,0.013539302689025,0.0342508755419535,2.0046751991805,12.6231065217048
"139",25.7983843863125,35.6035866036883,5.04088844166961,7.35799729039454,-0.011945675944919,0.0145756584282317,1.92201799003409,11.6615755909491
"140",25.1852985790317,34.6193114448099,5.07342446239852,6.91560603606548,0.0105298885210073,0.0127260915221089,1.99933707607329,11.1825264849823
"141",25.0285175967267,34.7679890180779,4.97487883453707,6.80022553985177,-0.0617725012790089,-0.0108545164718405,2.04596460420901,11.4558449533117
"142",25.2452284175594,34.5717668673581,4.91958850457051,6.99638807027034,0.0621502297737994,0.0152570870353914,1.83544579218402,10.8614238462104
"143",24.4447533284886,35.4189665293029,4.69752893957163,7.12142817140565,-0.020204408954564,-0.000862960570626455,1.90844211696595,11.3590808084272
"144",24.6555210162279,34.4384531236208,4.8260983690984,6.91446733114218,0.017225124931469,-0.0037873257755619,1.89583698939433,11.2481529587091
"145",25.704733731916,35.7308553697032,5.03366005876864,7.4095743906946,0.032190489508628,-0.0374360946858611,2.26602677662636,12.2256613507753
"146",25.3841741583763,34.3443554383147,5.12754777297922,7.0906467129306,-0.00174881911869081,0.0137213620476364,2.01403902071813,11.7508342906466
"147",25.5526316210243,34.9710503459949,5.15571428618047,6.88035549134566,0.00984769373234992,0.0185971468031023,1.96123524524924,11.4869832322847
"148",25.5544172329371,34.5758379439822,5.19556411319634,7.01067086839679,0.0193613080450832,0.00753582067382943,2.05301236465074,12.3652737963032
"149",25.3683946594361,35.2026110854451,5.15864339211201,7.16647651787588,-0.0577351315447152,0.0194586727647329,1.95181863307949,11.9854427303831
"150",26.3707491858866,35.0863790365937,5.35786811122997,6.83641821354036,-0.0222476585164076,0.0296433320928429,2.05679507697322,11.9073648774575
"151",25.0474176533869,35.7196565977603,4.93336444397094,7.05998348120319,0.0609465631143946,0.0109603290211232,1.98495384702364,10.9937034482751
"152",24.6604114939945,34.1789738877016,4.63484768807565,6.91954853667403,0.067624170903991,-0.0159084494125855,1.97858973870091,11.1794884151657
"153",25.7160335634109,34.6476462426866,5.13492508806899,7.03627714205414,-0.0076743676980977,0.00154038623869559,1.9514402539746,11.4973251712371
"154",25.152060804938,34.8280437056389,5.04463067743855,6.77447856853539,0.0241183093015057,0.00635879554168475,2.09436857633866,10.9773590828375
"155",25.5643305224109,34.8353111774234,5.25644554011007,7.05036356273546,-0.027318380770157,0.0347466131439806,1.98064168001616,12.6663529682664
"156",25.4101262164454,34.5514595926367,4.88307482175158,7.01176475559193,0.0251751579874912,-0.0233218777099189,2.10428330493979,11.1451372542018
"157",25.2375744266862,34.1402936568775,5.08910295634483,7.17225352840557,-0.0425319989863048,0.0393436980553133,2.1222265690036,12.1086785925943
"158",26.1813642096828,34.2725911986685,5.26147929667047,6.70850611412799,-0.0341795267387379,0.00719475861418665,2.18656158504523,10.7331442472737
"159",25.1359124914975,34.2901879553321,5.08860921324409,6.76015598854594,-0.0383525986989858,0.0126463577628148,1.79857652193458,11.399227330432
"160",24.8395251063903,33.7236310731102,4.93826734959373,6.68727872185124,-0.0230467161488805,0.000211289903761351,1.97083876036965,14.5171660596855
"161",25.4640304851885,34.6337164710621,5.26909416195415,6.77830507733619,-0.0145466037002688,-0.0388484218807338,2.07002978922536,11.9724816936795
"162",25.4673368960716,35.3024749559234,5.19636023413798,7.14386368656191,0.053266510086766,0.00677944342987138,1.90589971963651,13.4470525004202
"163",24.7945748929554,34.4481158599208,4.99234905429657,6.88080546920838,-0.0583471307963938,0.0170971353065446,2.07033415468959,12.9944333927249
"164",25.4718061559805,34.1553181516146,5.03990248563614,6.8193463671204,0.0133316212433216,0.0169588143742743,2.08526362046234,12.5356468541094
"165",25.1142288347279,35.3402532399888,5.02376211170212,6.89560921541748,-0.0225064812178958,0.00298125712747344,2.11932462082392,12.6297498106049
"166",25.2100731597557,34.1584786246007,4.97946556302217,6.9558441190514,-0.0717954140732059,-0.0040856577089934,1.97263459170868,10.439184121677
"167",25.6624661619948,34.825973158885,5.14707559277445,7.09033385109294,-0.143114279773357,-0.0119083496985441,2.08842265472439,12.1435726268007
"168",25.6493988657715,34.4516728165132,4.98646127374643,7.12367215024733,0.04052449726215,0.0136356722473868,1.9259459233059,11.8640103179501
"169",24.9670320913798,34.6158242383658,5.01203057554993,7.00322357147226,-0.00929361337357065,0.00662337207313677,1.98705141873065,12.526080932227
"170",25.4919513885129,34.3485840375477,5.39113706468493,6.78216195700418,0.0337188562545089,0.0113806683770862,2.07708890335162,11.6758270817281
"171",25.7012960158356,34.3012584335348,5.22058539935917,7.02137564357182,0.0812564864081558,-0.0556075595363186,1.99682245616142,12.9375055338966
"172",25.024082043414,35.4438698791546,4.87664776585112,7.25763858073003,-0.0706610112801808,0.0196409201245351,1.91139401138747,11.1135761734253
"173",25.0675878044908,34.7338029192724,5.19604627785741,7.08767738424649,0.0132002981224749,0.0339982119794145,1.94997177873484,11.8737126419016
"174",25.3929238816779,34.1109385731557,5.00069772162762,6.54653945158066,0.0773025971276757,-0.0162336058929193,2.02075579814893,11.5912101075185
"175",24.9752985604432,33.9425549637118,5.06143844822992,7.0410716667976,-0.00930404941169105,0.033597974005333,1.91556405148993,10.2650438262057
"176",25.1497967382262,34.1280106765643,5.03236932782533,6.62648100877274,0.0465663929013582,-0.00575713045246716,2.00120406550223,12.5123577354775
"177",24.931115186287,34.521492521656,4.96143950311656,7.19848426628311,0.0628909621183747,-0.0074367818992992,2.01330879105585,11.6266395689891
"178",25.4255314528684,34.9376572116798,5.11674849271129,7.24131613225535,0.0139856235299639,0.0279798834269613,2.01512210017485,10.8480465112298
"179",25.3850435862611,34.6635265376013,5.15494080231043,6.89657135132205,0.0488811375279375,-0.017918041941884,1.9453537367011,12.533078288309
"180",25.1036073460734,33.9692120527918,5.09869773832468,6.94944360214497,-0.0369098057592629,0.0362414967381628,2.03873365291446,12.2005733749363
"181",25.0475382213939,34.4682512453946,4.86304513652187,6.92329122838229,0.0452438587566944,-0.0358218117117483,2.07556175087041,11.6972426115239
"182",24.9327964464783,35.6217227361556,4.94697244801505,7.16830479623589,0.0417439625024121,-0.0425045577605717,2.12916633790064,11.4991335761272
"183",25.9357246979126,36.8609799746232,5.12760623615824,7.19314809380839,-0.0340505869774962,-0.0398924578692107,2.18630303024411,13.6263792807549
"184",25.5241888827417,35.3777133788884,5.0161578249996,7.07599210234863,-0.026908998665907,0.00198153249609526,2.06833058805197,13.1008203462582
"185",24.8214111805028,34.0095804691483,4.86299044207865,6.75654119929385,-0.0105044567479121,-0.019721957698367,1.98581229942083,12.0398838407395
"186",24.9089999093625,34.9083212156783,4.97901531309306,6.79217857193072,0.038928213792274,-0.0242905859128913,1.85640521111795,11.5086835423787
"187",25.4269115631151,32.9252158461552,5.16173397024438,7.07881350166584,-0.0620517186846166,-0.0385746857930307,1.79495580386618,11.396343728527
"188",25.7690779493333,34.0335850889834,5.0442143461723,6.84700744123777,0.06567052929447,0.057166018738468,1.96403545700743,11.3793561845664
"189",24.9884512507227,35.3012827833759,5.07982794598365,7.03932467449907,0.038174215229287,0.0066793251154396,1.9246645645781,11.5926676367262
"190",25.2804980131862,34.0835400660539,5.19386964453764,6.76767451628958,0.0643652169172753,-0.0320802588420043,1.79513705876497,11.7005262579069
"191",24.6164394185673,34.1333761579012,4.86400388231939,7.19123834767495,0.078350454989494,0.00744578491570659,1.8948371430622,10.8488427337146
"192",25.2940628251814,34.9118860556955,4.82783692663458,7.00392402000775,0.0810657848499692,-0.0273868182921445,2.02100213493746,11.7290390128778
"193",25.7320181677644,34.7178878068872,4.95552388080909,6.92783922509344,0.0511570221383227,0.06334798184367,1.9693831669286,11.1869236120673
"194",24.8887782393988,34.5080838324273,4.94608157419035,6.84541230326442,-0.113644885070384,0.0106327230950994,2.02728414834713,11.9297626211562
"195",25.6054964333236,34.9764899342117,5.34525149917271,7.19787442350897,-0.0341579745569625,-0.0150619558671171,1.94679096046994,13.2542646386248
"196",25.0868832537258,34.6047053998938,4.99633542861513,7.2155288236107,0.0434942061425407,-0.00189878397567234,1.91779411846875,11.7340969201822
"197",25.6025399815827,36.1561021046886,5.09657219012708,7.14748180363812,0.00827953284903214,0.0215383573965173,2.07074708423913,12.7136360057132
"198",25.1554712176247,34.6078174667438,5.00044925056762,6.47184055550667,-0.0248345571350048,0.0420677532567786,1.89074273002608,11.5822869317768
"199",25.0898983138682,33.7797584229619,4.87499152287912,6.97239233021396,0.0505093679273306,-0.0136267321618497,1.91506397403053,11.4126716938013
"200",25.3133504061275,34.4437874349963,5.06520865088417,6.75149978780037,-0.058237545513212,0.024607358194238,1.88215337603489,11.3100174200378
"201",24.9695954680885,35.3542505448275,5.08155638413337,6.67765854973392,-0.0217383865029539,0.0322663956173352,2.12670101109512,12.6574658408036
"202",25.4462822146284,35.0603690015236,5.05236653632474,7.10670071493092,0.0843371452073622,-0.0133101926025833,1.92115780014408,11.7793279666388
"203",25.4370005369551,33.5326013595721,5.21437506925639,6.66511468204432,0.0726166005341728,0.0127782601927855,1.96514338683046,12.8926923491906
"204",25.5849154769831,33.8484884468817,5.30414659861866,6.4573719779949,-0.0127457723042756,-0.00714403818740683,2.05899353226983,11.8514460550742
"205",25.170934300026,35.0521804030678,4.8927126091493,6.81461774142155,0.0525957148645366,-0.0316000689561056,1.9761856659988,12.120163298163
"206",25.9982894280334,35.148895705717,5.38082786651834,6.92697360287859,-0.0420610414350698,-0.012580835978112,2.12890606578687,12.2658838249282
"207",25.307396672795,35.2118824486175,5.150234347782,6.87585787875352,-0.0336607666046028,-0.0157268143044475,2.11655644063935,11.6430694291661
"208",25.1617145286955,34.0535283327585,4.98472357734514,6.67206679963981,-0.0447833575771869,-0.00342000743077466,2.15074574799489,10.7731321872826
"209",25.3995487384207,35.8573872353333,5.09665046842251,7.04004466736885,0.0252264307201885,0.0151660507472746,2.04355965801721,12.1662015777406
"210",25.4618693997264,33.5552349155063,5.37277178987059,6.60353300970299,-0.00427207107715545,0.0178448140211641,1.9691365851302,12.114719254949
"211",25.1701880050465,33.4588017981616,5.29704361397307,6.74487256607634,0.0811594037618714,0.0239705487371392,1.96297781670027,10.2335868351112
"212",25.2777195880146,35.6263031883936,4.69795468433238,7.09840454736565,0.08514146753762,-0.0029842613133379,2.15279743482317,11.7172739688008
"213",25.5313367639821,34.9157117197677,4.9729074255454,7.14752091863703,0.0411832384130695,0.018794047905793,2.02824725949499,11.5403890510932
"214",25.6533003457268,34.6122206692808,5.24966841254794,6.76506372878121,-0.000987612665348649,-0.00983149913019924,2.00269264073093,12.4277378829987
"215",25.5610925646422,34.4785871171778,5.0854822799145,6.70311462883367,-0.0223160139667554,-0.00197148773635564,2.26212326773718,13.2031386217824
"216",25.4420942069867,35.2173008789268,5.24961279136493,6.8534273538454,0.00966135323927327,-0.0359981991405532,2.11322326332657,12.1449710829624
"217",24.9191234517163,35.8274189168966,4.89736510819851,6.91954865450731,-0.0174936016740814,-0.0252660587392586,1.98042905918161,10.2498680961342
"218",25.0417060697591,33.5944610730872,4.96272459860717,6.52423157946208,0.00220543058399232,-0.0455530169488845,1.97311270074205,11.3539715757197
"219",25.0387208043672,34.1065213406576,5.18966890519495,6.76141986244857,-0.0565866153761667,0.00813644795232485,1.97159647245674,12.2460671055026
"220",25.6233030608294,34.2727929833385,5.28056439590913,6.87401507599919,-0.103476356767169,-0.0020723803940019,1.88615612462749,11.6997499734999
"221",24.6809606363112,34.7219014606404,4.85052904969639,7.04889343071722,0.0417425410248605,0.0170266833281075,2.08994012068752,11.5908954076163
"222",24.9528188752902,34.1873329920566,5.05176511315583,6.695690755605,-0.0493685438712505,-0.0158999728272102,1.98388206777668,10.9030296275887
"223",24.8714329509122,34.2334674136047,5.08818787269231,7.02173156825702,0.0572284900778138,-0.0492295059695749,1.84796994210492,11.2150110631332
"224",24.9639137850031,34.3958035571517,4.86856383523867,6.86195878331774,0.0451747324375223,0.0214705332418213,2.06321231988694,11.7408292560176
"225",25.5335377428795,34.5503149626159,5.15756726164511,7.25627701795063,0.0285367963657088,-0.00556325331667414,1.89919240879077,12.5115707334835
"226",25.592820467149,33.4299215279468,5.13229640497216,6.48735351628679,0.153544428616964,0.00703694655750643,1.95999762491086,12.4147171093203
"227",25.6068655441614,34.0074892110456,5.0934431015069,6.71304734948385,0.0331213844532351,0.0357548493157338,1.99463601649816,11.4612959047091
"228",25.2668047657569,35.6900797054777,4.98345329164929,6.8685841791245,0.0880121447189364,0.0506325224968487,2.05612870409288,12.6986253159432
"229",25.3306367593196,34.0872601375518,5.19585364507602,6.77377883419638,0.0259619532985996,-0.00485581838459713,1.89799493161782,11.1286844993723
"230",26.3983014041316,34.5963646667546,5.42153326479805,6.93060146322946,0.0243770083582548,-0.0109741613442347,2.17680256236507,12.2746674491966
"231",26.1528743567965,33.6150917696675,5.20307102246834,6.43328191759863,-0.00793108616394261,0.0285693732082563,2.09951599787994,13.1832137804967
"232",25.2572591702698,35.6046631499439,5.08954674641064,6.88175829870581,0.024758097518395,0.0676833386522101,2.08109250454452,11.5113445559413
"233",25.2843788359878,34.8432874537994,5.0330051690972,7.24431133437319,-0.00487784556224111,-0.011506262569555,2.08906346988813,11.4383240715261
"234",25.5583276259473,33.4202105389695,5.27072632027244,6.73320199542629,-0.0355000834148394,-0.0183194375856482,1.86091169705788,11.4502553265402
"235",25.3373581673495,34.843902279825,4.95523185554534,6.73238044626467,-0.0853571706245934,0.0446033230976567,2.12795643880608,11.7743684131677
"236",25.9385567148337,34.7707019473836,5.14704335953387,7.10894717599922,-0.0164465591704573,-0.0106799639442674,2.00905146180862,12.0874689976912
"237",25.4847111351707,34.6724779182075,4.89696094103415,7.08514492278848,-0.00783879910490713,0.0346161318409492,2.04626920228514,13.0487165255989
"238",25.0656955382445,35.1396484210153,4.9494105583039,7.33309879698011,0.00909028659854082,-0.0252798041668871,2.00171616504792,12.6103219538249
"239",25.6772986422994,34.9400028334144,5.10375964311881,7.23085794381879,0.0486244474949433,0.0368068265171767,1.93283189418994,11.3211179985072
"240",25.2402737995876,34.8189015983068,5.12567794910173,6.68084627140669,0.120262434410314,-0.0186035691174032,2.13287161261857,12.1298860795778
"241",25.0900176152286,34.0950813445618,5.05114198551416,6.95927638449887,-0.0335474749290457,0.0515302299015585,2.05995104281607,11.5283357533882
"242",24.848336953793,35.0154656247765,5.02238201265881,7.08309937477214,-0.0121244729738226,-0.00268947873927545,1.94963322592319,11.2658418861066
"243",24.9379637570789,35.25400594891,4.91035718343129,7.05275997648001,-0.0334642449700628,0.0313599024074698,1.99950323559409,11.313163995857
"244",25.3730679666574,35.5331790744062,5.28758749938064,7.23520349159073,-0.00982746609458843,0.0231550933041762,1.980732031724,11.3275965664704
"245",24.6492681644398,34.2050647783502,5.09021800670942,7.25456861962914,0.0187543887851677,0.0158906867858759,2.02881396882674,12.4403620002943
"246",25.2017779135412,33.2967655261154,5.27372305981326,6.57466745536059,0.0124480000858068,0.0301086202809478,1.88674434081187,10.8060473437719
"247",25.2308508227666,35.451320133955,4.98421583690736,6.86898782092354,0.0553618645601932,-0.0152659357899003,1.99104491136654,12.4142387782156
"248",25.9154890925165,34.6986301331716,5.3533436504348,6.96144384472251,-0.074567697908824,-0.00737929024657558,1.88723600332775,12.7307148991999
"249",25.4104081131117,35.1526946143194,4.95777118194477,7.17463245409281,-0.0708261214096031,-0.0304954750269273,2.0224157866008,12.710407960331
"250",24.740725203817,34.8126746764986,5.10170769443821,6.99372414446999,0.00166111142417276,0.0123467293662472,1.8947236217953,11.2249777904762
