"","x"
"1",4173.50241502168
"2",4261.00160451542
"3",4170.15219444476
"4",4249.14641400647
"5",4186.04087369415
"6",4235.22032544734
"7",4197.49614239098
"8",4277.50918671969
"9",4300.5584939578
"10",4084.53171766962
"11",4268.06190033922
"12",4092.30723993582
"13",4258.26520842257
"14",4190.08682903453
"15",4207.75821586005
"16",4171.699731835
"17",4250.41334164774
"18",4367.90589553305
"19",4152.87641264712
"20",4259.62547655256
"21",4128.37280514895
"22",4117.22184805918
"23",4199.6741364576
"24",4220.88528407246
"25",4225.21793870062
"26",4226.87806044871
"27",4274.03278291173
"28",4189.53609289278
"29",4121.31053077151
"30",4159.02889240874
"31",4341.14437153443
"32",4263.33329710694
"33",4376.28649603059
"34",4218.22387227435
"35",4155.32276425519
"36",4303.98459610164
"37",4244.4135551798
"38",4240.34940332621
"39",4209.71163011437
"40",4228.42732194049
"41",4270.24292440705
"42",4159.2804650224
"43",4217.63401853818
"44",4250.55493356986
"45",4280.09565182829
"46",4256.09424974403
"47",4278.01694143934
"48",4139.61607037841
"49",4321.46775472037
"50",4204.31209509897
"51",4231.91384912194
"52",4394.92045637953
"53",4233.95654591223
"54",4309.89620618617
"55",4301.89606277269
"56",4101.09939632523
"57",4335.8390035232
"58",4261.91250861237
"59",4019.61964630065
"60",3946.1175923473
"61",4255.77731984409
"62",4336.44533731489
"63",4186.455563674
"64",4232.30072793415
"65",4249.54167835628
"66",4261.94456394873
"67",4287.17668242126
"68",4196.89648009155
"69",4285.54107206205
"70",4259.14725007464
"71",4222.46778335558
"72",4232.46563403424
"73",4158.07480069089
"74",4124.45814708602
"75",4311.79927003052
"76",4219.90428739613
"77",4294.86789590176
"78",4235.08617586939
"79",4256.31097178818
"80",4258.699149556
"81",4181.61050850245
"82",4310.35094560985
"83",4176.94858262238
"84",4194.48547286423
"85",4245.92006765508
"86",4248.95142124593
"87",4275.45208002372
"88",4163.33870903114
"89",4231.33738027186
"90",4307.37742241021
"91",4108.4892467056
"92",4272.56165107895
"93",4224.62505102838
"94",4115.82583044128
"95",4273.71375855701
"96",4213.52351146404
"97",4192.40141475832
"98",4228.33136395602
"99",4261.36137184086
"100",4194.52238744868
"101",4127.53954213611
"102",4334.81473141563
"103",4220.63648996234
"104",4305.56356433577
"105",4152.34402179149
"106",4313.66411565203
"107",4189.61174609777
"108",4156.92885437744
"109",3966.01470729714
"110",4221.96142797857
"111",4260.29206873174
"112",4319.10440250047
"113",4236.84394462501
"114",4174.96332727939
"115",4327.31676347036
"116",4188.3241921329
"117",4340.07441048895
"118",4219.24669371785
"119",4199.59202549109
"120",4149.54970722498
"121",4182.19464331116
"122",4268.89025430613
"123",4169.93883975872
"124",4237.87388049088
"125",4205.90049563975
"126",4274.3933399095
"127",4191.45330331256
"128",4101.22878286316
"129",4147.00440510145
"130",4161.61373934729
"131",4056.32449353866
"132",4093.55906708714
"133",4193.10083047864
"134",4222.0155343392
"135",4240.81757096915
"136",4228.32165330433
"137",4156.45845280176
"138",4173.24944944192
"139",4121.33820516589
"140",4139.1491870291
"141",4186.11126838338
"142",4209.98412137059
"143",4287.18733498815
"144",4178.46192348357
"145",4232.10366330675
"146",4085.21416678486
"147",4078.47151930841
"148",4179.79160625367
"149",4169.66382101925
"150",4311.93028871926
"151",4073.20899543278
"152",4291.09900640839
"153",4236.66735195346
"154",4136.83411861978
"155",4235.19075226079
"156",4156.86637165184
"157",4209.47921804665
"158",4284.44443477748
"159",4248.00397873235
"160",4406.51825394249
"161",4379.11724260614
"162",4197.03186778992
"163",4219.97987573685
"164",4156.74693181417
"165",4232.95334836329
"166",4229.55839094455
"167",4219.19240386109
"168",4039.59419756129
"169",4143.67138197139
"170",4135.49089508616
"171",4286.75399593524
"172",4209.32697680135
"173",4261.73313280191
"174",4133.37067666863
"175",4216.33589638631
"176",4232.67917396541
"177",4331.36024302545
"178",4330.71866391419
"179",4290.72324077047
"180",4290.69098669355
"181",4241.19718311364
"182",4183.52060978425
"183",4185.63465638863
"184",4213.07829618991
"185",4241.6737779178
"186",4194.9922463528
"187",4253.99277706712
"188",4238.33683231805
"189",4208.68026446196
"190",4319.70974203525
"191",4226.31225285486
"192",4232.75168372433
"193",4256.23192461835
"194",4163.7445416339
"195",4296.06523235439
"196",4269.83726203177
"197",4243.43978004391
"198",4221.87543638085
"199",4199.75839461806
"200",4191.16524560574
"201",4141.7113413367
"202",4326.65258231448
"203",4304.86405897158
"204",4196.82919776791
"205",4242.21884227238
"206",4284.53821071435
"207",4238.62803982184
"208",4115.20357724803
"209",4276.24095888068
"210",4189.27891895972
"211",4283.69822283843
"212",4121.78441185323
"213",4125.45541789323
"214",4263.29821271623
"215",4241.39219558438
"216",4170.22207705831
"217",4316.10915113467
"218",4274.6493253501
"219",4212.49141704031
"220",4233.40379790256
"221",4121.94432948613
"222",4281.11071333274
"223",4257.28438866244
"224",4297.5937189426
"225",4137.21031891912
"226",4226.0493717134
"227",4103.55480525508
"228",4245.16255393639
"229",4249.3499869057
"230",4240.31868115887
"231",4192.33022342658
"232",4200.49837404704
"233",4258.2930750186
"234",4077.20632068139
"235",4194.94156103156
"236",4218.4155331226
"237",4186.46985688047
"238",4252.4828768794
"239",4038.55046763699
"240",4324.10468111569
"241",4191.49329535811
"242",4186.32420196477
"243",4238.04426216516
"244",4248.60436305973
"245",4187.69396461073
"246",4281.66899775477
"247",4303.73939708945
"248",4070.32717080638
"249",4142.8369777663
"250",4228.11562117313
