"","V1","V2","V3","V4","V5","V6","V7","V8"
"1",18.754111732258,38.9580838554528,4.75485694081041,6.84201853536013,-0.0471208458593721,0.0392682473188714,2.10207709842472,13.631976924445
"2",20.1420064757068,39.1967430800992,4.91818834929545,6.72516517140907,-0.0844443216103,-0.0009519083626938,2.04939749843444,11.9047358004993
"3",20.4455101870242,41.0738905939164,5.120027677839,6.91108893346355,-0.0229715614869886,0.0173468097070547,2.04558082882811,12.2569476170984
"4",19.8989184212502,39.4947345478789,4.72031273041589,6.68348579735431,0.0272421558513694,0.0123842376766205,2.03775703314596,12.2989899658408
"5",19.6145039277961,39.9946043147498,4.64527921172444,7.1348340821495,0.0492881476340213,0.026166444246284,1.93359340820397,11.8877761729425
"6",20.2919145007586,38.5938860543245,5.30640759403284,6.51975814263401,0.00204576447015357,0.0492134015681319,2.05418088162046,12.3743396493293
"7",20.0762520576387,39.217832755818,5.04770235228026,7.1060439382912,-0.0546174694994464,0.0024204726764267,2.0444785878888,12.1685366063966
"8",19.1795214883719,40.1131945604545,4.71541509799294,6.76195654623595,0.0356356845296571,0.00302744377033115,2.38604753193221,13.1420431019407
"9",19.8457067429072,40.6557075906201,4.9148647426828,7.54775846604401,0.0210772938716996,-0.052608658700532,2.07107195311625,13.8309962915963
"10",20.6841654042669,40.7764062720755,4.99256169896046,7.31817817717803,-0.00512265731367778,0.00172718851220223,1.93087032587392,12.6949542381368
"11",20.3715636424369,38.7600050727878,5.05108272279905,6.57851040100477,-0.0412858920008575,0.0441383509974134,2.08563231996347,11.6878010549508
"12",20.6174235297113,38.6920004494385,5.10205441551109,6.5853704993223,-0.0331525987968116,0.0735899624122741,2.00291862150307,10.9218544811674
"13",19.6212360277822,39.6811913045831,5.10660215892791,7.3249186350809,0.0897965959982227,0.0204663393860459,1.91478162041984,12.6609541706833
"14",19.0585212712866,40.022857265486,4.46381650124415,6.88509854869211,-0.00679747205902162,-0.0087187743862294,1.92560721904674,11.7902988403606
"15",19.2942254681522,39.475886382233,4.60594380874001,6.99283897394556,0.0381383450705278,-0.0728990259457539,2.12104183891313,12.0708456164648
"16",19.1536781074126,38.9512884676501,4.4309808696229,6.40093482726535,-0.0765942769522923,0.0587082948029034,2.04414096887827,12.3473881877298
"17",19.5271595561481,41.1673216193319,4.91317565743973,7.20893361871537,0.14198175667271,0.037874919224264,1.97049184950758,13.2201582476211
"18",20.2924161155663,41.2350485554002,5.25506864723892,7.39189596440072,0.163593201407158,-0.0254945092246387,1.90595236643187,11.1916823274388
"19",19.3672238898084,40.2321280441815,4.86817992972062,6.93757273943841,-0.0060869380618038,0.0248599423683658,2.15587532083472,12.0624172871096
"20",21.011464188654,39.6510453126116,4.98264232923156,7.01426580304221,0.0795140925195888,-0.0551767841920991,2.04667065392315,13.352594228863
"21",20.3033013229608,39.4860137867819,4.81933865544174,6.8480516165272,-0.0770752386680469,0.0145728226854036,1.96103888586229,11.2742280453943
"22",19.9640510741792,39.5593063598765,4.83815190582878,6.82822867892749,-0.0741895352651588,-0.026213596985598,1.99960020476158,10.7169338849459
"23",20.5328626185686,39.8916538909667,5.71455116981193,6.65645107959454,0.0861293164332882,0.0281203002288138,2.11299631276495,13.2208660288357
"24",19.2574423829545,39.8498552606418,4.60117781382881,6.96581036825406,0.062937694705819,-0.0349861215258191,2.03331289920908,11.7211212437587
"25",19.8712737528105,39.3362816792072,4.78438271449129,7.05094225316736,-0.15808723698947,0.00903927513464179,2.1792986430871,11.1548394630902
"26",20.1845460533131,39.464700885509,5.39140767180073,6.85585614408216,-0.0353649996032454,0.0539949759726371,2.01438260093815,13.2049740549752
"27",19.7208633243858,41.686137773688,4.88787169269216,7.5034360457429,0.0136778104299053,-0.0342833475884344,1.80388603068706,11.7760586201688
"28",19.8893917366402,39.8902535997205,5.00934665336068,6.85801448489646,-0.116367018234191,0.0104332614186267,1.99818395117432,12.2811534246946
"29",20.2234311096647,40.6063988083198,4.9684020763819,6.89828883132087,0.0834113028688869,0.0453734650214709,1.78623426917978,11.8575461988193
"30",20.6651476233699,40.5521287832644,5.03469564537472,7.25505506757486,0.0523856534549286,0.00135383538866225,1.84516281974782,12.9454869942043
"31",19.0622926448707,39.1680184970086,5.09680085335627,7.14050551372827,-0.0753113052479927,-0.0352678485557521,2.12043346413165,11.8238508679378
"32",19.7297768369226,40.7899309990128,4.86061256504794,6.69021548766799,-0.0370714867230809,0.0138259089908751,2.00446580233342,11.9789266228675
"33",19.5011115082367,40.5286759082034,4.90414346243738,6.62236692152417,-0.0856663266197911,0.086749045173307,1.94271105445017,11.4283865156747
"34",19.4239309596185,39.3287606026824,4.82246102724368,6.4863730227591,0.0506326898188183,-0.00832195715582106,2.08993470464426,12.1638562496787
"35",19.9112612434052,39.2685897936813,5.03570930054067,7.25889475324649,-0.0620405830881486,0.0125231687850264,1.87617091401593,12.7587237914914
"36",20.0894565461855,38.8586919417497,5.05557732544365,6.39820931792797,-0.0772031111442941,-0.0243667169226673,2.06302776182452,11.8292800595759
"37",20.3886573530518,39.6427165463903,5.19005104404365,6.94342544074742,-0.0568953457568348,-0.00237465487639095,2.01544145173704,12.8866785585101
"38",19.4325182069537,39.6477279667314,4.7315565586758,6.71293967421776,-0.0636123269358697,-0.0222403504458303,2.00379665017148,12.2075392438591
"39",20.8168714621245,39.8251196023423,5.27152736312937,7.05262455188112,0.0274463792209697,0.00810704299167352,1.8788342332135,12.2898893276867
"40",19.7523830889173,38.8672445030092,4.79175724240373,6.93485856262477,-0.0343451370899237,0.00357315376869586,1.93364662926052,12.2636041864813
"41",18.9078865424523,39.189513130852,4.67181692597891,6.91759437618677,0.0751800522656951,0.0498172771046491,1.89340922477933,13.2729165643587
"42",19.6300352419035,40.4412070865222,4.84143736975224,6.5584947897041,0.0475428960249523,-0.12424357952539,2.09985448201863,11.6076549510243
"43",21.2241961267202,41.4058218853283,5.26297162380607,6.87953747585329,-0.060919858925893,-0.00376883713975609,2.11833513902202,11.2897714546354
"44",19.5856919717304,39.9844491316039,4.71666512646367,6.80236352804087,0.0864952910297982,-0.0280163581833208,1.98247125909071,12.2167845178497
"45",19.324415572529,40.7004900882818,4.73810554324836,7.33159179650638,0.113942491970984,0.0161622496796563,2.04362963531297,13.8982724111924
"46",19.8862640433581,41.1721729733421,5.0213416524485,7.76324086907214,-0.0408693286170669,-0.00474499062511854,1.9459988949454,11.5772594893168
"47",20.2340544751807,40.1740411808725,4.9806838817487,7.19040592909445,0.0588845041930057,0.0326101274821246,1.9581141785551,12.0689062215813
"48",21.0272890964252,40.8941206421163,5.45656846733797,7.21595406793297,0.110298377594464,0.0576823074813036,2.12295433554828,13.8947970122604
"49",20.3578785582189,40.3709424008213,5.30964885183566,6.58649633347877,-0.0206580585857468,0.0407401921306921,2.11126498933248,12.6738592773197
"50",19.2830456166629,41.0013621715232,4.96072622633014,7.35786477637841,-0.0219767690473914,0.0629915247018483,1.95338299351522,14.0894734930635
"51",19.5938749940661,40.60018003173,4.77991454182653,7.00658311830262,0.0558814214330878,-0.00888285194605446,1.81723972393773,10.8688687642312
"52",19.5907029006316,39.3263474652008,4.87654793301186,6.76263689386819,-0.025666000245593,-0.0172584892483813,1.91390414023185,11.2661103925788
"53",19.829299140901,39.3464861464067,4.80981049962557,6.75579945630722,-0.0852699585730161,0.0439096460061548,2.39877951204128,12.287491267111
"54",18.5427315760969,39.9077130455531,4.72403023102021,6.88407101144001,-0.0403587737621098,0.0239021762633386,1.9517104267912,12.7973932821015
"55",19.556949108545,40.7109502972481,4.67688878124239,6.747670343979,-0.0118009274766049,0.0461329122467312,1.99716594341139,12.6889381586109
"56",19.4013055482814,41.9178298039997,4.68914218341889,7.44526468454264,0.0679870461070644,-0.0331176733443642,2.00598625397031,12.8510708016991
"57",20.4495571771432,38.8701036626285,4.99213432438983,6.78736987983937,0.0287632248703225,0.00818739418880314,2.03494617253227,11.7500364850838
"58",19.4771477930657,39.1910574118508,5.12787660879788,6.94999903554048,-0.00263005971161774,0.0469145408009791,1.67326797786286,11.7799438466337
"59",20.6469114424049,39.6026405507788,5.28219806380719,6.90706097164217,0.0718877603928528,0.0424519181142121,1.9283634958474,13.1030606143777
"60",20.388462255068,40.0382762359795,5.6164247727416,7.79615735366346,0.1310612817764,0.00216312182543656,1.78738446251641,11.3962742794436
"61",20.5451987140172,41.2226524171174,4.53136632302935,6.9649624078213,-0.0376439676364387,-0.0502166341586123,1.93215162601634,11.4309133101365
"62",19.6644541866355,40.868005575817,4.85735269823807,7.31041671674847,-0.151947869730457,0.0413106749790268,1.92314398042467,13.4033739258526
"63",20.2114888756833,41.4797305250472,5.40528075538908,7.10535103818179,-0.00484945008592658,0.00839122240430678,1.89526616100592,11.2874099378009
"64",20.1115126328885,40.854988838641,4.83862213494101,7.20227002223838,0.10362996244274,0.0592472258064817,1.97456082313126,12.7338947657553
"65",18.8103131135576,41.2698041413644,4.52449511962012,6.90772585357189,-0.00964961107328462,-0.0538755196329806,1.95745611221269,10.9975643657373
"66",19.978887258454,40.0396243480505,5.14592448971162,7.01884802123612,-0.0427338638845183,0.00929913892406998,1.82567092050749,12.6539233479816
"67",19.7381280662151,38.9682034013266,5.07152684612653,6.68219426963236,-0.00313056915341244,-0.0245429645487349,1.82555296796907,11.0504582111458
"68",20.0773580921983,39.7413922439307,5.10308545616007,6.64662921549558,-0.00720416287350642,0.0273255812108959,2.16074442713875,11.6463423898781
"69",19.5819847711996,38.3964057957188,5.37183055828087,6.506935349839,-0.178018406615097,0.0392535317905542,2.15177992974735,12.1877477473015
"70",19.341371116213,39.9218016429357,4.79567297005052,6.72710013469184,0.0567629064331131,0.0473046901569013,1.94141992084065,10.940389766558
"71",18.865898506491,40.0218297232684,4.70945825258153,6.84811869613188,0.111021606882895,-0.0650941787742615,2.08279640035809,13.1660228988205
"72",20.5035492529325,39.1720754158197,5.38201531648871,7.05248307374557,0.183343161474914,-0.0174304453313504,2.07244459109016,12.3115921948982
"73",19.3663732178729,39.9451455830912,4.9213218455079,6.96163283814205,-0.064187647358833,-0.000365955241555325,2.0343879309433,12.4948793274516
"74",19.4923269480469,41.4536923944665,5.14787145769049,6.69407852841933,0.114451781342088,0.0877634317100802,1.86460620938899,12.6931383550658
"75",19.9071362373415,39.7178569432426,4.93507224202345,7.12958548844885,0.0810447896424996,0.0242766888673665,2.07769505295016,11.0216960264549
"76",18.7598332049717,39.9018550538069,4.53749496358366,7.081494123373,-0.0124133107239484,0.0149861518185496,1.95850257207339,11.3559298521498
"77",19.3695285154237,40.9461377894609,5.02438574469631,6.83542682474893,0.0480307042686981,0.0358013352675949,2.12680191757503,11.5699944941265
"78",19.9645885211208,39.7569796839015,4.9467756106767,6.78364123603088,-0.0514982754657802,0.0074599610008865,2.07531099933503,11.7428475762302
"79",20.4196640834471,38.1829956194326,5.10598096011529,6.68724788503748,-0.121088001923687,-0.0825512429459055,2.17421266969859,12.0521031943462
"80",19.5759547811793,39.5786182537068,4.59756570725538,7.2392574389133,0.0555255462466304,-0.00974686163810951,1.85019785607594,11.9232266164275
"81",18.7376745318875,41.9042698928345,4.57926292538454,7.44127085282605,0.0597391276081661,0.00446675133648685,1.86695748851324,9.81836210388365
"82",19.7262052757884,41.2187359594556,4.92393534332842,7.28644083809129,0.0247394617344087,0.0137337372569946,2.12994726808452,12.5667918668604
"83",19.6712099006374,40.7989713606959,4.78106721379279,7.19964174224195,0.111784306400608,-0.0121242973983154,2.07024562577506,12.6359830458596
"84",19.5474095920182,40.0536427148923,5.04694369881457,6.75471056566626,-0.0275722931815854,0.0172497559353346,2.0558269104832,12.7863352157808
"85",19.1153093210056,40.108578000006,4.71533325588609,6.4444606348493,0.110818169597275,0.028665121079407,1.9181042901535,12.8137676393815
"86",20.0822296797352,39.4001072223941,4.75448059218045,7.26041447706682,0.0368836058409419,0.090636328700838,2.11576810752473,10.7860093971934
"87",21.148658720435,39.3878890514687,5.1819879300014,7.26215949235294,-0.00647955853220596,0.0664042389995333,2.00710902999037,12.1474148968476
"88",19.9287583731611,41.2154083904414,4.9009390455758,7.0875938478962,0.119689408147881,-0.01460014097903,2.12826855300631,11.8702662338345
"89",19.5535204021944,39.8471296988972,5.04058561041552,7.09506477982924,0.0386428045111781,-0.000402177919025293,2.15206633307231,10.8691893992003
"90",19.6192821158195,40.7354928953993,5.05237142696266,7.41993462179919,0.0199805213652176,-0.0416251074085168,1.87503476789911,11.074614118972
"91",20.1210003745877,39.4698540315918,5.00514032936221,6.78587738170158,-0.00580988828442959,0.015190038021612,1.83052669218578,11.9534457085852
"92",19.3066144988755,39.996367415974,4.69437546922881,7.29171788072731,0.0259185721559478,0.051001562165889,1.95568178429493,12.5876874169936
"93",18.9164589938286,38.8741364796279,4.41787614750443,7.266850284838,0.0470179372966107,0.00945167434325112,1.86888746796256,12.8038784154302
"94",19.9469692475201,39.7281161445602,4.65049199727469,6.8061882750834,-0.00697297496294634,-0.000503037426676987,1.9971396053899,11.9464709784431
"95",20.1171781920252,42.8798342814983,5.27792022177826,7.02934691149028,-0.0698714868324366,-0.0293083429647581,1.87482854523189,9.74361075486457
"96",20.2233255049054,41.5778918011941,5.05761195728867,7.0663718728445,0.0457176300533463,-0.0201267830495741,2.05906865740312,11.5105080964417
"97",19.4945430364958,39.3840844792741,5.04885529236476,7.09510514776518,0.178031180001067,-0.0294449147155665,1.85176752098787,12.2218885435484
"98",19.738685048335,40.145578205372,4.90847118118907,7.23617576890082,0.134582718181845,-0.0274416138505622,1.92406305542109,12.0609526119359
"99",19.3972112633246,42.3983109183992,4.8083654974599,6.71909828722802,0.0232023452770952,-0.018656652191507,1.95569022007986,12.711185889705
"100",20.1771396671677,40.1744578417063,4.95387286294326,6.6467754189141,-0.171445960508944,0.0768919510858587,2.02370930168946,13.3445447975253
"101",19.3920926076363,40.6330410028153,4.73061450847317,7.10328720212732,-0.0632903439361373,0.0315221522916567,1.9275032844738,11.8379147407775
"102",19.8759962962358,40.72434644932,5.03078729650731,6.8330448349163,-0.112529272224182,0.0324019808634385,2.01524199222032,13.458495994716
"103",20.5876255322031,38.4379141946832,4.9640164234334,6.64386334278786,-0.127649447647671,0.0126831074308278,2.1757336841501,11.9696337075364
"104",20.7784137088335,39.8468126276334,5.15367189069771,6.76472637319676,-0.0259743868008698,0.0248174167262725,1.85657440706937,12.4463780477385
"105",19.0279657432938,40.8667007200587,4.61441830473625,7.116829910051,-0.0137402253683904,0.0700540369987466,1.96981698863996,12.3339991496453
"106",19.1768145900369,40.7512139914288,4.45085569583993,7.37078150233806,-0.115841941888209,-0.0380841139938283,2.07617776163042,12.4435689121559
"107",20.3828233822374,40.0509586858845,4.979359060204,7.22560714294184,-0.020701008937243,0.0516871140064347,1.89679280716739,11.5976003722877
"108",20.2631488631339,38.5668677858819,4.67321952487091,6.86161114994313,-0.063279254758048,-0.0115671927777107,1.97529101161116,12.9516833420986
"109",19.8126781157057,39.465207103169,5.02701716000711,7.3341982773489,0.02813231382388,0.00197560676416078,2.03702092244737,12.4667484299022
"110",20.5021110394227,39.5193601401563,5.34723665247198,6.85016352321391,-0.0457830425938609,0.0133795441621074,2.1648827598382,11.2850660706674
"111",20.7009241039751,40.4284930961461,5.42717961263021,7.40438346857232,-0.00817598217027763,0.00719770585005492,1.89220967604542,12.4790549511765
"112",20.3866603761904,41.6078524980209,5.01820473962195,7.13418586825498,0.0359495791973545,-0.000537711898936312,1.8921855958294,11.8761191773169
"113",18.982660089173,39.8074663249307,4.61374115286098,6.78850179810527,-0.0584977761032129,-0.0220013556216489,2.01793130169812,12.5263482351223
"114",19.0998901941978,38.6032556423352,4.43946334786392,6.84926407254656,-0.157407644320083,-0.0811804853683274,1.8453732084116,11.105285167282
"115",19.7457776978905,39.9386401625159,4.90182488997226,7.07121965785133,0.0181419058758209,-0.0525122183223972,1.98068804142092,12.6191318257116
"116",20.1800818199288,39.0053993963743,5.10947131879016,7.26401432029572,-0.0591957847376245,0.0377022740114321,2.06083562783697,10.912962436957
"117",19.8038462533487,41.1034298823402,4.83040277730761,7.180922255668,0.0476873970870196,0.018152404026253,1.90856555359475,11.4454009493517
"118",20.0143052703428,39.9853520095098,4.93260865459649,7.2154915198836,0.0229499293965484,0.00646090912881265,1.97487020556253,12.787666933357
"119",19.5380171206371,38.2562319159483,4.5094215346667,6.57470485868476,0.0999785163103281,-0.0719726051336284,1.97343349354942,9.8459267715426
"120",20.4245923428655,39.8542700412115,5.15020194131009,7.17744973757616,-0.00446955494418781,-0.0750356008703975,1.89062838088393,11.5887621741223
"121",19.8451742282095,39.2152218599169,4.735314792474,6.60401214730142,0.0198463317543488,0.00209793847891896,1.90437973521982,12.2133381149231
"122",20.4592803143188,39.5137108191033,5.10829886639649,6.83156971449127,0.0179681951492806,-0.0312419948113071,1.9418844013218,11.9502354298711
"123",19.6913204342277,41.2012245523047,4.5756496790674,7.57438586636414,-0.00552177852665124,-0.036195499115002,2.02044370190433,13.1299954701846
"124",19.6619486779699,42.9750849175013,5.1043935235385,7.05935840183453,-0.00874158780259375,0.0631852778545405,1.91272061463641,11.0344431770531
"125",19.4776018136016,39.5178547593897,4.61009019163807,7.08038423067833,-0.0052133222627847,0.0215273072178237,1.99462550833469,12.1548597903408
"126",20.5522081416309,41.0571502421782,5.11296993718287,7.24941456868552,0.0663622559032432,0.0107488646934084,1.90445871501524,12.2833231186978
"127",20.4007569179331,39.472712951881,5.28365030863162,7.04833615699583,0.155868549021928,0.00797610065082825,2.07645935617923,12.8162765299932
"128",18.5100107224303,39.6689030681228,4.3657688927545,7.16633177596237,0.0740386785961424,-0.0424014390413689,1.86093487098418,11.8897971699269
"129",20.6558580086184,39.4240486374823,5.34946226231945,7.0467492527653,-0.0826014528199103,0.0133003905041837,1.98628589092873,10.8816235313527
"130",20.0772884689125,39.328971628166,5.02989191066936,7.0115664069246,-0.0728899374906251,0.0798069666290866,2.03265595970124,11.3655901296755
"131",19.4959475847458,39.8380939941565,5.05469948235633,7.16801447513914,-0.0344761797783422,-0.0140705011313308,2.15762036761207,12.5939498861522
"132",20.1667372836154,41.2354965240128,5.30030369471991,7.16783581704485,-0.00919049782948998,-0.0900547511246084,1.99863823045176,12.3159091827651
"133",19.8553712174315,39.4928935807113,4.97220386636606,6.89517706035048,-0.107144645542228,-0.0293032887096145,2.00927564470501,11.8800435949821
"134",19.2946807834861,41.5178463181465,4.74514205697142,7.68867475851951,0.0634951015982879,0.00165975938683127,2.14345946212264,13.5274232492246
"135",20.1599481323489,41.4479419328546,5.01158404507902,7.34038018825156,0.133877013154696,-0.0356504648448657,2.02507218490243,12.9259498924733
"136",19.3995563422105,40.1796984190264,4.8220322364783,7.08268619602136,-0.0419996412156699,0.0228190121538848,1.6850088344491,11.9502186168099
"137",20.5455031402964,41.0071223782149,5.07642597518106,7.13888047610148,-0.0336268774932435,-0.0225717633549162,1.99941805307257,11.1264866718124
"138",19.0276799325169,40.1793642857002,4.79021837033712,7.34230604477487,0.0463991067721263,-0.000805654392174629,1.83263532947966,12.1916391142105
"139",20.8278879733138,39.5172599344053,4.87789929294662,7.09871651017265,0.114029537709195,0.00954297189256938,2.12468079911363,12.1336514971666
"140",20.3691205626003,39.9085876287225,4.99307672532014,6.59101954476776,-0.065646113175158,-0.0560453595905358,2.07270080736681,11.7363193946502
"141",19.2756693311071,41.4431991826488,4.44361685558986,7.24349944050097,-0.0171648259467607,0.000382164851879416,2.0559229624277,11.7118063330489
"142",19.882488021784,40.3474596442313,4.99257118058972,6.88476217348738,-0.0522247364991245,0.0123239399018502,2.05253680904664,12.2579132269195
"143",19.7879795482585,39.6530595486424,4.41681339416805,6.50617858407184,-0.131386913398929,0.0399715561279611,1.97980481045389,10.7259106379532
"144",19.5434618142613,37.7193266229015,4.68512798092822,6.55118819669312,-0.0805159430933212,-0.031704614579644,2.09542427989263,10.8080138314543
"145",19.1501525918424,42.7221310710765,4.67266782229321,7.46809578163218,0.0255708117947736,0.0159747777535429,2.08449650396562,13.3073306051477
"146",19.6949181007697,38.9915800136155,5.31652232991946,7.08422839865716,0.0142510474432615,-0.0324607632335004,2.08745359397018,12.0949363567411
"147",20.2478486396295,41.2936728801336,4.87174342518748,6.64594320397622,0.0564895886052088,-0.0572393180052573,1.92908068603635,13.5327675307346
"148",20.7277761654937,39.0395404174596,5.11683818302537,6.48640754279589,0.0109108202729603,-0.0663379046967507,2.07148689978117,13.8329461739759
"149",20.1272490021654,38.7587130469373,4.89616305523581,7.4652653213699,0.14279270957987,-0.0534678195641926,2.06857926872843,11.8485987795394
"150",19.7209653711676,41.9096474958763,5.17594289765129,7.35993388465056,-0.046557407708725,0.00913903053922108,2.00884635978241,12.6042234736476
"151",19.9422445325088,39.2480659415602,4.90017524643656,6.80347488156213,0.0665652466425124,0.00201375850231579,2.22849017613378,11.5925181511162
"152",19.1653916657806,41.4512416758614,4.68509061365969,7.50533338221271,0.0678039131745111,0.00538388129169193,1.90629581442072,12.5054015145154
"153",20.1675761414936,39.5063167492146,4.86150009571034,6.8764820492608,0.0409460627164598,-0.0453714290641079,1.93117009960168,12.4639262313075
"154",20.4709840384299,40.3642742893897,5.46780803700706,6.71158590815876,-0.0144580082004452,-0.0211943178359955,2.06623926700057,12.7329266485622
"155",20.7223911376292,41.9260553901289,4.96488777270018,7.2829890834692,0.0964259061369599,-0.00173549961838504,1.93470695095074,12.3241548418637
"156",20.0995416421803,39.0299102427473,5.16340660772537,6.71613454648089,-0.0482365154689781,-0.0343514961996204,2.12734947502424,12.0130226137884
"157",19.5094041344916,41.1565995500687,4.76721850492556,6.93094876878557,-0.0277394965630203,-0.0048815888201559,2.08198410136975,12.1321494996254
"158",19.9936849112282,38.9284688624652,4.80810901778069,6.96030610530604,0.0391333948258565,0.0451385228358862,1.91235923142376,11.5399864776302
"159",20.0983259674472,39.0593482637427,4.95825225204461,6.69492673954991,0.0783387404733662,-0.0513627041512048,1.95338193293052,11.8415389786705
"160",20.2180984607531,39.9492671398467,5.15573983826502,6.51095311914357,-0.124252917739232,-0.0626102295237956,1.85999806338048,12.2800789143792
"161",20.5440039501182,38.3530668206405,5.52963051476849,6.62795902230552,-0.0141342796394867,0.0288197053094254,2.00147779539405,13.9398324341974
"162",20.4128798194708,41.3299527303692,5.02577254268473,7.07959337043949,-0.0716727827785512,0.0186565451406869,2.08188444446961,13.5102526891705
"163",20.1915350662632,39.3603452147335,4.99638789951592,6.64446365333617,-0.101356181517052,0.0101519198858565,1.95542707469089,12.5315322674872
"164",19.3059518081313,38.7345794516171,4.55323466936823,6.29494403187866,-0.0583182678503018,0.0650159464007972,2.18455387569758,11.5696984578365
"165",20.6118817802513,39.3073599740381,5.18523608760917,6.91164740208197,0.0317211974319098,-0.0212952817568004,2.04391112642063,11.4263660513065
"166",19.4212295588935,40.00884939308,4.57666127074977,7.03311648165458,0.0374474401048566,-0.0461651327929282,1.87179829370031,12.6511474555062
"167",19.2210177078079,38.9972018396387,4.87479749516753,7.05485300623294,0.0729127666650427,0.0175650581441647,1.84454862272123,14.0569236246138
"168",20.3457929255506,40.9936573428646,4.73044222290133,7.02702957927571,-0.170940322518608,0.0798453834706552,2.01025190969336,12.1271840765403
"169",19.7777054483173,39.5134571301422,4.88843695393048,6.98021526796264,0.0844172818159887,0.0299258032976394,2.1093972857714,12.873823607557
"170",19.9630553007216,39.676219572912,5.3731130240507,7.01217376155428,0.159053713683246,-0.000437046853975558,2.01368079206793,10.173755007415
"171",20.0810379284223,41.7671202858881,4.7824880817153,6.91118382503107,-0.010042320093403,-0.0616871568329418,1.97855352093233,13.95111629829
"172",19.2812806346034,39.3176670116908,4.71408285389482,6.77496536462033,0.0281629391978546,0.0164320408772975,2.12925030634715,12.4138042608185
"173",20.1200925627884,40.5813471395797,4.7341344096309,6.79577703225828,-0.0738617296145612,-0.00186435451114022,1.98264666362072,12.1961893121736
"174",19.278560061429,39.2102280735609,4.80238466761919,6.65893046748329,0.0652442726313237,-0.0155982272247931,2.15407571630131,13.8465961074987
"175",19.3733142161948,39.1135175801331,4.78745595689992,7.12525806606138,0.0371742206671664,0.00653796079025586,2.17657134104158,11.5923894418061
"176",20.3971543899223,39.2246654985434,4.86429075709796,6.4768737390149,0.0475201636140246,0.0273045238214179,1.94906587221734,12.250536567597
"177",19.2046502522226,42.0728623602376,4.60847744625279,7.13718198642289,-0.0711545029835156,-0.0127016699865806,1.98165830273985,11.734549446303
"178",20.014611994273,38.5572333561651,5.36846479496163,6.34267642727908,0.0198513863961961,-0.0317240508521876,2.0557378780003,11.5824206001796
"179",19.8633280299788,39.1972475842541,5.10665434407316,6.52874447926485,0.139033123359372,-0.0617995968993783,1.88258937384863,10.8863872476622
"180",19.7389193913173,37.5434222384209,4.79261498362109,6.64729296923111,-0.0757417730481258,0.0372153344347901,1.90631011331232,11.8982603415087
"181",19.6274640792632,40.5111387552921,4.96038610062999,7.39271388855879,0.0267730285647992,-0.00371989927673574,1.86784250857677,14.5615408496198
"182",20.0015306435509,40.0443632752265,4.77789091308474,6.81770706691276,0.0195010161427721,-0.0899021001002208,1.92645046306559,12.1952103952166
"183",19.6239893827618,40.093400309293,4.77276254767591,7.35181476498533,-0.143485701276026,0.0733980855264775,1.71319830323477,12.5232829710204
"184",19.2688016865705,39.7938999061589,4.94906758545286,6.57268496190216,-0.132516992519186,-0.0808443780848284,1.93207387250295,11.6978335951986
"185",20.0377016352139,40.174527365329,5.12337345414724,6.69687705884117,0.0561053544693454,-0.0158717632145187,2.02568616454558,13.289476896228
"186",20.028332552089,39.9245855664458,4.85047381188795,7.53383035851309,0.0452132025260918,-0.0169795478618349,1.93648247559133,10.6316600415239
"187",19.8729556123926,39.7797582506889,4.91664383851535,7.00684627834647,0.0251940353574305,-0.00437111630653305,1.96426684184263,12.1327143248672
"188",19.9843352606492,39.022699732462,4.77982617475887,6.89424789655785,0.0168651162749379,0.0378825357903287,2.19898742484513,12.367019547619
"189",19.9981754260225,41.0860476544782,4.85064000481109,6.79119099779455,-0.0273891463192022,-0.0304295325203313,2.17550795059136,12.0766008212206
"190",20.0812518088632,41.1097994752905,4.83325980817205,7.28549038126637,-0.166565412904198,-0.0215388112420769,1.89684077402189,11.4709290923057
"191",19.8121460345079,40.6644635511347,4.89282183067233,6.76097375718777,0.0199576541733289,0.000542896828458025,1.91505589661729,13.5962260088828
"192",20.0858850588037,39.8370939267241,4.98620994551288,6.67921394389971,0.0351021394527887,-0.0560022049978086,2.06531596488167,12.4261701840023
"193",20.3972754619746,38.9446958010307,5.43847993205305,6.72234246043137,0.0451743858530233,-0.000905177256726463,1.9199715439245,11.9987665426155
"194",20.9426193545085,40.9426187329804,5.2723878379427,7.46489562492449,0.0379964059434441,-0.000506335687507605,1.97901528347979,12.6975700820884
"195",20.1495895148607,40.0104720412795,4.91572719206723,6.71012419022968,0.0422684595664363,-0.0548857141081897,2.13300673212122,11.9256174166782
"196",20.8336489598262,39.4110231902001,5.09674951963685,6.54111541944674,-0.101945939399292,-0.0149030416054543,2.01364672886522,13.154882078481
"197",20.4607047120285,40.5384689356809,5.14923502557065,6.72429342954324,-0.0626790034147953,-0.028964169267032,1.9797689881055,13.141770339457
"198",19.7771927267829,40.8393453918096,4.8856877279334,6.72324195607776,-0.0476353239650887,-0.0390055961485499,1.71123626784294,13.3904765989197
"199",20.7476046873925,39.088578976103,5.42576933443558,6.7933294776445,-0.0180280775478051,0.0296458539209815,1.99410785837915,11.9722464932728
"200",19.5904100054421,39.6959013898902,4.7964891588824,7.13791926801118,-0.000948749337441261,-0.0295621284381817,2.10476781815122,12.2121020593633
"201",19.3394318312664,40.2817042143211,4.89788285993288,7.21440640475297,0.0986458002059062,-0.0177502215749963,1.90428220620893,12.5623118164882
"202",19.8622745588501,40.6491523355444,5.00290666282523,6.70466184099836,0.000457582033161083,-0.021420999282759,2.14401713592285,11.5087174832009
"203",20.3499285116547,41.2237212530243,5.21902668380899,7.39764109041088,0.00632199437390008,-0.0630409753662198,1.98289422688131,13.0532578942056
"204",19.5112005727737,40.1492574242166,4.99263632187498,7.06450364311244,0.0971503833737922,-0.0576458544113251,1.95452164563046,12.2754259347185
"205",19.8951765802616,39.7020101026154,5.05443708044345,6.69274091703995,-0.106349865580992,-0.0308238990256214,1.790346114093,11.7392042132877
"206",20.1995270186609,38.6455900524614,4.90669106002515,6.70337506914779,0.124644974953488,-0.0799465960748174,2.06119254329572,12.381335008947
"207",19.6334191010818,40.2640591890092,5.06233426542856,7.24635769547303,0.0394660962994498,-0.0508077885393341,1.93575378705541,11.5098318603637
"208",20.388215112959,39.7801154829817,5.45029164743306,7.1394704371915,0.0472445110511445,0.0469728503016577,2.06928118343466,11.2727904561085
"209",19.5973255977162,41.0385249601948,4.8193783349064,7.02530489589785,0.0917614245656836,0.000161175652624215,1.9265802309895,12.3796782772228
"210",20.0049182329848,41.6376653872741,5.0621199717392,7.29597458788573,-0.0030837090377059,-0.00441537988937789,1.84845801778874,12.7781158195411
"211",20.6378168148323,38.626905390523,5.20587420120416,7.39152361244327,-0.132676979940568,0.0487251036302,1.98250051028175,12.8966690682023
"212",19.3433968476167,38.9119882541702,4.85825660221812,6.95831421647765,-0.0391890893356551,0.00010024842644853,1.97203829176447,11.4442465762329
"213",20.018967518567,39.7312815225328,5.2851019141196,6.85536081535376,-0.0309668788344537,0.00283827220604781,1.79487951870871,12.4379081025472
"214",18.558550273651,40.4572060243903,4.61201639388379,7.4712187642152,0.0953258714553611,-0.0145967775959356,1.78590881594086,11.5165594725513
"215",20.0859499417635,40.5826548793547,4.92834706191049,7.04388134717249,-0.196727131070149,0.0336572027710869,1.8353217966262,12.5433675624397
"216",20.4282018352963,38.251805937376,5.24628386799876,6.62513199090445,-0.0446701153986907,0.01579687756978,2.08609481877407,10.7150088247717
"217",18.8960260336579,39.299782820838,4.79893220652603,7.13724971621159,0.00687499055559245,-0.0277014767649905,2.2910333617072,11.0033460666513
"218",19.6946581515487,38.731497885042,4.84428571306245,7.04860741954659,-0.0264709683972505,-0.0268850337578686,2.09412398250401,10.395414287382
"219",20.2865165704083,38.6592928350629,4.62101644394577,6.592894095282,0.060594459481641,-0.0351920694032805,2.10013321555291,12.7689398012079
"220",20.0873711476864,40.1126404637011,5.24650739842566,6.8178748438347,0.00627829927321447,-0.0184531875594662,1.8539588665674,12.3610506916785
"221",20.4151206874143,41.3630651366587,4.82554347073096,7.3921470859789,-0.0132580851330138,-0.0516527004041796,1.94377942951549,11.9198081155284
"222",20.4654463297381,38.6288212781107,5.02230126684887,6.63399933163603,-0.017076785014631,0.0110033499891432,2.01894002871387,11.7063535297869
"223",20.1554545069868,39.0652654484246,4.95208806593111,6.78128665078828,0.118819902288384,-0.0473496489287972,2.04319925010014,11.8569946284042
"224",20.1011979734568,38.658304895904,4.67298773946037,6.94620034184757,-0.0881856302850428,-0.0260843199097332,2.03643726435122,11.7208480289761
"225",19.4442575078349,39.5585297280848,4.77237933454692,7.04240281780468,-0.00694243796077148,-0.0233145236999104,1.83048668447963,12.4326330487184
"226",19.7059817685778,39.8133277988427,5.05597741439723,6.58526155555891,0.0710336876761642,0.0160202974272613,1.99036964862891,10.9976242927457
"227",19.4807485282285,39.3381726800576,4.52843092512777,6.99927129689619,-0.212278555013453,-0.0275224125964609,2.02240622354032,12.1276893242853
"228",19.4412789729951,40.809720605855,4.79953683523719,7.20359773853333,-0.13423770385022,0.0056068524244099,1.97081988328348,12.8474239309425
"229",19.6298362109996,38.8997435499679,4.78451154734891,6.77653781180782,-0.14500380344953,0.0230818830143397,1.66671395722178,11.5656379587584
"230",19.8030993481448,40.6204707589531,5.20196897168579,7.34584510718158,0.0233616198147632,0.0178008722172057,1.91389847410421,11.8437312966154
"231",19.4455500395588,41.3016244677911,4.82667604053724,7.52599625580244,0.00155460497464785,-0.0215275794287066,1.92833315737082,11.2571075777439
"232",20.46355480191,41.5389973115334,5.12365597624975,7.35970627370232,-0.0335716081143644,-0.00752035124466321,2.13853639952641,12.0505877954078
"233",19.6116321005298,39.8220697465852,4.86335597768962,7.18195366094983,0.061436204898597,-0.00842685681276294,1.99794481409311,11.7774163320193
"234",19.8985429419537,38.7394487429205,4.33224143154856,7.00670560779244,0.0686335219209186,-0.00283066259667631,1.94873377004702,12.6261265254374
"235",19.8006979547295,39.8405728233849,4.69494732334424,6.53296066220229,0.0559349197354152,0.0267141082297236,1.88680205324265,12.4015908620316
"236",20.6352062467986,39.318319239233,4.92283349306392,6.70909435320662,0.0357312605820222,0.0234248914148292,2.21903962907271,10.8309163250068
"237",20.2083058086872,41.2725901766519,5.0615352084526,6.92261761766181,-0.0937490540397296,0.043355413274154,1.95095440894234,13.7864284566841
"238",18.7237048613287,39.040749323708,4.83739214507828,6.76326582328126,-0.0580138137726717,0.0365523915404591,2.06349416030096,12.2513437719174
"239",19.13546052519,39.7854195438462,4.39618718404594,6.72960359262423,0.0422520179235063,0.0364754785361582,1.94604725194338,10.3891228842988
"240",19.5346050745768,39.9301348928161,4.62250241747397,7.09271744762795,-0.0486507697592041,0.0243881646029352,2.02428321588511,12.689283359341
"241",19.517859056091,41.0482277802936,5.1880462018492,7.12790955828479,0.0174610591808804,0.0193753669507641,1.86120157578866,8.8208883097614
"242",20.5519828920507,39.7477936627225,4.97720167441877,6.46644778202451,-0.116892444518899,-0.0221259457952133,1.94281844732867,12.5562967390596
"243",19.8523223344815,40.3682949245363,4.95942434294835,6.93561961761086,0.041763816354088,-0.0728017643137586,2.13423948402933,12.0484927532679
"244",19.996709016624,40.4885842400766,5.1137045248363,7.00210487210042,0.0882924236050544,0.0780220705049348,1.86670397039983,10.3304409635476
"245",20.344449273829,39.0016526289847,5.07335896756357,7.01218453055417,-0.0940866160894892,-0.00440786514559835,2.12982721298145,10.9204396836655
"246",19.2036094304724,40.0021097450346,4.51987869920594,6.9651708266038,0.017619006319949,-0.0296068188103496,1.82897125016383,13.7086887547555
"247",19.4512222324049,40.2062081174523,4.80992976707003,7.04200480731539,0.0434097745522686,0.00655700052799476,1.99496074505534,12.7901282636541
"248",19.2045676531799,39.638109536637,4.71398088717936,6.88464967790141,0.0243757858788443,-0.000925175096474828,1.89828662304152,12.0231982771012
"249",20.3536575312997,39.7453056324801,5.21727062717396,6.850131673502,-0.0709522034192056,0.0414667531852158,2.07116300269701,11.1595121647172
"250",19.8037169680774,39.3466708535907,5.2348723630895,6.70064310598781,-0.0442041241048987,0.00226671699085877,2.04493427034228,12.151276834252
