"","V1","V2","V3","V4","V5","V6","V7","V8","V9","V10","V11","V12"
"1",0,0,0,0.015,0.08,0,0,0.096,0,0.001,0,0
"2",0,0.275,0,0.18,0,0.425,0.107,0,0,0.015,0,0.006
"3",0,0,0.064,0,0,0.135,0,0,0,0,0.01,0
"4",0.001,0,0.001,0,0.053,0,0.375,0.029,0.145,0,0.016,0
"5",0,0,0.001,0,0,0,0,0.001,0,0,0,0
"6",0.062,0,0.086,0,0.068,0,0,0.293,0,0,0.003,0.011
"7",0,0.15,0,0,0.036,0,0,0,0.001,0,0.169,0.042
"8",0,0,0.025,0.001,0.025,0.09,0.002,0.02,0,0,0.023,0.004
"9",0,0.054,0.001,0.105,0.049,0.002,0,0.126,0,0,0.024,0.375
"10",0.036,0.132,0.028,0.002,0.081,0,0,0.001,0.094,0.231,0.015,0
"11",0,0,0,0.102,0.012,0,0,0,0.001,0,0.128,0
"12",0,0,0,0.142,0.001,0.094,0,0,0,0.242,0,0.595
"13",0,0.014,0,0.004,0.043,0.049,0.223,0.069,0,0,0.071,0
"14",0.034,0.082,0,0,0.122,0,0.166,0,0.062,0.001,0.206,0
"15",0.012,0.266,0,0.055,0.004,0.001,0.003,0.156,0.368,0.152,0,0.003
"16",0.088,0.013,0,0.081,0,0,0,0.232,0,0.171,0.067,0
"17",0.11,0.018,0,0.004,0.192,0.514,0.31,0.001,0,0.08,0,0.047
"18",0,0.146,0,0.002,0,0.029,0,0,0.117,0,0,0
"19",0,0.011,0.731,0.137,0.003,0,0.333,0,0,0.179,0.055,0
"20",0,0.103,0,0,0.195,0,0.151,0,0.161,0.06,0.238,0.102
"21",0,0,0,0.17,0.004,0.005,0.193,0.001,0,0.001,0.097,0
"22",0.067,0,0.04,0,0.018,0,0.004,0,0.13,0.204,0,0
"23",0,0,0,0.046,0.001,0.007,0.176,0,0.333,0.001,0,0.023
"24",0,0,0.001,0.042,0.002,0.002,0.005,0.03,0.001,0.003,0.152,0.001
"25",0,0,0.123,0,0.221,0,0,0.003,0,0,0,0
"26",0,0.049,0,0.035,0.005,0,0,0.064,0.138,0.22,0,0
"27",0,0,0,0,0.024,0,0,0,0.099,0,0,0.063
"28",0.016,0.004,0,0.117,0.001,0,0,0.001,0.191,0.001,0.001,0.12
"29",0,0.003,0,0,0,0.131,0.119,0,0,0.003,0,0
"30",0,0,0.005,0.002,0.051,0.361,0,0,0.006,0,0,0.158
"31",0.09,0,0.13,0,0,0,0.095,0.097,0,0.035,0,0.151
"32",0.012,0,0,0.141,0,0,0.122,0.247,0.005,0,0.023,0
"33",0,0.225,0,0.12,0.01,0.06,0.159,0,0,0.032,0.034,0.121
"34",0.077,0.026,0.001,0,0.032,0.147,0.004,0.342,0,0.042,0,0
"35",0.176,0,0,0,0,0.53,0.715,0,0.467,0,0.177,0
"36",0,0.148,0,0,0.002,0,0.001,0.339,0.001,0.003,0,0.102
"37",0.002,0.024,0.014,0.109,0.001,0.111,0.001,0.002,0.178,0.101,0.07,0.001
"38",0.002,0,0.001,0.007,0.11,0.042,0.005,0.049,0.001,0.002,0.105,0
"39",0,0,0,0,0.001,0,0,0,0.047,0.005,0,0
"40",0,0,0,0.001,0.012,0.129,0,0.001,0.078,0.077,0.14,0.072
"41",0.011,0.044,0.07,0,0,0,0.067,0,0,0.043,0,0
"42",0,0.007,0,0,0,0,0,0,0.003,0,0,0.064
"43",0,0.079,0.025,0.08,0,0,0.001,0.345,0.006,0,0,0
"44",0,0,0.034,0,0.004,0.054,0,0,0.085,0.029,0,0
"45",0,0.001,0,0.001,0.002,0,0.166,0.041,0,0,0,0
"46",0,0.086,0,0,0,0,0,0,0.006,0,0.026,0
"47",0,0,0.001,0,0,0,0,0.104,0.169,0,0,0.092
"48",0,0,0,0,0,0.001,0,0.12,0.251,0,0.087,0.003
"49",0,0,0.041,0.109,0.044,0.015,0.001,0.001,0,0,0.279,0.028
"50",0,0,0,0.079,0.187,0.437,0.271,0,0.234,0.035,0.167,0
"51",0,0,0.013,0,0.089,0.045,0,0,0.281,0.03,0.001,0.25
"52",0,0,0,0.001,0.005,0.078,0,0.18,0.151,0,0.161,0.066
"53",0.021,0,0,0,0,0.052,0.164,0,0.131,0.092,0.002,0.06
"54",0.001,0.012,0.053,0,0.119,0.072,0,0.006,0.072,0.065,0.003,0.121
"55",0,0,0.132,0,0,0.232,0.121,0,0,0.144,0,0.018
"56",0.05,0,0.002,0,0.09,0,0,0.281,0,0,0,0.201
"57",0.033,0.187,0,0.038,0,0,0,0.055,0.007,0.006,0.005,0
"58",0,0.01,0,0,0.049,0.099,0.165,0,0.028,0.001,0.23,0.053
"59",0,0,0,0,0,0,0.063,0.294,0.001,0.197,0,0.057
"60",0,0.141,0,0.066,0.019,0,0,0,0.3,0.045,0,0.034
"61",0,0,0.239,0.048,0.163,0.552,0.001,0,0.385,0,0,0
"62",0,0,0.04,0.011,0,0,0.317,0,0,0,0,0.125
"63",0,0,0,0,0,0.319,0.109,0,0,0.222,0.029,0.001
"64",0,0,0,0.033,0,0.001,0.235,0.003,0.152,0,0,0
"65",0.25,0,0.434,0.08,0.154,0.387,0.399,0,0,0.092,0,0.001
"66",0.088,0.214,0.058,0.107,0.239,0.403,0.052,0.446,0.048,0.108,0.021,0.011
"67",0.085,0,0.03,0,0,0.04,0.273,0,0.041,0.023,0.001,0.13
"68",0,0,0.156,0,0,0,0,0,0,0.128,0.131,0.207
"69",0,0,0,0.06,0.107,0,0.001,0.165,0.036,0,0.076,0
"70",0,0.054,0,0.026,0,0,0.001,0.229,0,0.023,0,0.089
"71",0,0.272,0,0,0.232,0,0.135,0.064,0.133,0,0.046,0
"72",0.017,0,0.068,0,0,0.081,0.043,0.148,0,0,0.057,0.111
"73",0,0,0.136,0.115,0,0,0.001,0,0,0,0.127,0
"74",0,0,0.075,0.03,0.003,0.001,0.051,0.034,0.027,0,0.004,0
"75",0,0.075,0,0,0,0,0,0.211,0,0,0.063,0.038
"76",0,0.017,0,0,0.001,0.106,0.313,0.01,0.186,0.063,0.121,0
"77",0,0.21,0,0,0,0.042,0.441,0.001,0,0.085,0.084,0.052
"78",0.001,0.08,0.003,0.165,0,0.001,0.113,0,0.015,0.001,0,0
"79",0.07,0,0.054,0.001,0.045,0.08,0.253,0.002,0,0.113,0,0
"80",0,0,0,0.098,0.014,0,0,0.37,0,0,0.004,0
"81",0.176,0.001,0,0.017,0.001,0.222,0.001,0.001,0.008,0,0.001,0.033
"82",0.018,0,0,0.001,0.157,0,0,0.129,0,0,0,0.063
"83",0.003,0.01,0,0.034,0.062,0,0.001,0.001,0.001,0.027,0.171,0
"84",0,0,0.001,0.018,0.026,0.001,0.607,0.175,0.14,0.001,0,0
"85",0,0.014,0.011,0.051,0,0.002,0.266,0,0.364,0,0.001,0.001
"86",0.085,0,0,0.11,0,0.516,0,0.226,0,0.059,0,0
"87",0.125,0,0.002,0.094,0,0.178,0.001,0,0.194,0.083,0.006,0
"88",0,0.054,0,0.109,0.006,0,0,0,0.025,0.027,0,0.04
"89",0.126,0.106,0.01,0.001,0,0.082,0.001,0.002,0.001,0,0,0.055
"90",0,0.128,0.097,0.015,0.001,0.16,0,0,0.133,0.065,0.266,0.233
"91",0.117,0,0.042,0.167,0.127,0,0,0,0,0.308,0,0
"92",0,0,0,0,0,0.136,0.257,0,0.102,0.168,0,0.193
"93",0.011,0.04,0.029,0.081,0,0,0.246,0.189,0,0,0.057,0
"94",0.29,0.221,0.514,0.134,0.001,0.053,0,0,0,0.126,0.18,0
"95",0,0,0,0,0,0,0,0,0,0,0,0.091
"96",0.001,0,0,0.003,0.109,0,0.066,0.109,0.129,0.002,0.001,0.001
"97",0,0,0,0,0,0,0.065,0,0.045,0,0.177,0.164
"98",0,0.002,0.031,0.047,0.034,0,0.001,0,0,0,0.055,0
"99",0.036,0.071,0,0,0,0.001,0.001,0.001,0,0.105,0.053,0.001
"100",0,0,0.172,0,0.052,0.176,0,0,0,0.045,0,0
"101",0,0,0.1,0.044,0,0,0.183,0.094,0.146,0,0.308,0
"102",0.027,0.075,0.018,0.001,0,0.087,0,0.334,0.001,0,0.028,0.096
"103",0,0.099,0.044,0.106,0.001,0.068,0,0.191,0,0.115,0.077,0.003
"104",0,0.174,0,0.021,0.003,0,0.549,0,0.004,0,0,0.127
"105",0.001,0,0.002,0.081,0.473,0,0,0,0,0,0.123,0.085
"106",0.044,0.022,0.049,0,0,0.036,0.515,0.163,0,0.069,0.123,0.026
"107",0.004,0.088,0.197,0,0,0.114,0.343,0,0.37,0,0,0.03
"108",0.055,0,0.093,0,0,0,0,0.295,0.001,0,0,0
"109",0.117,0,0,0,0,0,0,0,0.276,0,0.038,0
"110",0,0.11,0,0.149,0.012,0,0,0.462,0,0,0.045,0
"111",0.108,0,0,0.295,0.163,0.324,0.01,0.073,0.004,0,0.059,0.118
"112",0,0.244,0.001,0,0.03,0,0,0,0.138,0,0,0.105
"113",0,0.018,0,0,0,0.089,0.089,0.001,0.003,0,0,0.201
"114",0,0,0,0.038,0,0.045,0,0,0.048,0,0.143,0
"115",0.072,0,0,0.021,0,0,0.059,0.001,0,0.018,0.058,0
"116",0,0.001,0,0,0,0,0.228,0.101,0,0.002,0.038,0
"117",0,0,0,0.129,0.017,0,0,0,0,0.132,0,0.025
"118",0.017,0.001,0,0,0,0.021,0,0,0.054,0.114,0,0.072
"119",0,0,0.018,0,0.004,0,0.001,0,0.048,0,0.13,0.038
"120",0.012,0.01,0,0,0,0,0.089,0.059,0.129,0,0.059,0
"121",0.031,0.104,0.022,0.058,0.084,0.058,0.001,0.002,0.109,0.086,0.059,0
"122",0.018,0,0.12,0,0.261,0,0.046,0,0.039,0.061,0.052,0.053
"123",0.062,0,0.001,0,0.033,0.051,0.003,0,0.002,0.038,0.008,0.042
"124",0,0.151,0,0,0.064,0.001,0.097,0.002,0.006,0,0.116,0.042
"125",0.086,0,0,0,0,0,0,0,0,0,0,0.171
"126",0.079,0.142,0.025,0.11,0,0,0.18,0.121,0.064,0,0,0
"127",0.016,0,0.093,0,0,0.072,0.159,0.001,0,0,0.069,0.25
"128",0.002,0,0,0.048,0,0,0.002,0.137,0,0.066,0.008,0.002
"129",0.028,0,0,0,0.152,0,0.001,0,0.142,0.021,0,0
"130",0.001,0,0.01,0.001,0,0.113,0.002,0,0.249,0,0,0.067
"131",0,0.055,0,0.125,0,0.132,0.001,0.273,0,0,0,0.001
"132",0,0,0,0.089,0,0,0,0,0,0,0,0
"133",0.015,0.11,0.039,0,0.052,0.793,0.001,0.085,0,0,0.013,0
"134",0.041,0,0.001,0,0.011,0,0.081,0.384,0.001,0.165,0.001,0.041
"135",0,0.044,0.025,0.045,0,0,0,0,0,0,0.083,0.168
"136",0,0,0.001,0,0.074,0,0,0.245,0,0.005,0,0
"137",0,0,0,0.001,0,0,0,0.001,0.149,0,0,0.07
"138",0,0.048,0,0,0,0.115,0,0.009,0,0.001,0,0
"139",0,0,0.082,0,0,0,0,0.084,0,0.009,0,0.074
"140",0.042,0,0.121,0,0.069,0.549,0,0.067,0.367,0,0.223,0
"141",0,0.082,0.118,0.155,0.019,0.078,0.136,0,0,0.016,0.168,0.158
"142",0.134,0,0.031,0.014,0.306,0.325,0,0,0.001,0.038,0.027,0.178
"143",0.016,0,0.044,0,0.136,0.006,0.2,0.001,0.083,0.096,0,0
"144",0.001,0,0.092,0.025,0,0,0.087,0,0.058,0,0,0.265
"145",0.088,0,0,0.031,0,0.004,0.331,0.129,0,0.017,0.018,0.001
"146",0,0,0,0,0.001,0,0.059,0.14,0.001,0,0,0
"147",0.022,0.023,0,0.001,0.002,0,0,0.11,0.006,0.119,0.094,0
"148",0.021,0,0,0.075,0,0.002,0.08,0.233,0,0,0.081,0.012
"149",0.095,0,0.262,0.093,0,0,0,0.231,0,0.102,0,0
"150",0.001,0.08,0,0,0.005,0.027,0.273,0.002,0,0,0,0.118
"151",0,0.056,0,0.004,0,0,0.003,0,0.008,0.171,0.044,0
"152",0.004,0.091,0,0,0,0,0.094,0.272,0.002,0,0.075,0.016
"153",0,0,0,0,0,0.062,0,0,0.219,0,0,0.049
"154",0,0.096,0,0.001,0.144,0.018,0.017,0,0.107,0,0,0
"155",0.053,0.009,0.005,0.058,0.341,0.387,0.042,0.471,0.011,0.008,0.036,0.006
"156",0,0.113,0,0,0.029,0.07,0.001,0.121,0.002,0.077,0.117,0.069
"157",0.037,0.104,0.18,0.065,0,0,0.248,0,0.309,0.011,0.162,0.258
"158",0,0,0,0,0,0.227,0.044,0,0,0.001,0.01,0
"159",0,0,0,0.132,0.069,0.441,0,0,0,0,0,0.089
"160",0,0,0.003,0.033,0.033,0,0.465,0.001,0.064,0.009,0,0.073
"161",0.071,0.239,0,0.278,0.007,0.168,0.05,0.142,0.001,0,0.026,0.152
"162",0.001,0.087,0,0,0.162,0,0.097,0.221,0.035,0,0,0
"163",0,0,0.092,0,0.368,0.277,0,0,0,0,0,0.128
"164",0,0,0,0,0.081,0,0.126,0,0,0,0,0.079
"165",0,0,0.178,0,0,0,0,0.06,0.001,0.001,0.001,0
"166",0,0,0,0,0.004,0,0,0.194,0,0.001,0,0
"167",0,0.061,0.001,0,0,0.001,0.001,0,0.039,0.144,0,0
"168",0,0.083,0.037,0.194,0.002,0.103,0,0,0,0.041,0.148,0
"169",0,0,0.063,0,0.108,0,0.002,0,0,0.054,0.018,0.081
"170",0,0,0.114,0,0.031,0.075,0,0,0.002,0,0.01,0.022
"171",0.049,0.001,0.002,0.002,0.047,0.001,0.001,0,0.128,0.107,0,0.1
"172",0.114,0,0,0,0.151,0.066,0.218,0,0.368,0,0.002,0.017
"173",0.036,0.001,0,0.007,0,0,0,0.122,0,0.027,0.009,0
"174",0.035,0,0.211,0,0,0,0.06,0,0,0,0.111,0.029
"175",0,0.021,0,0.05,0.112,0,0.09,0,0.045,0,0.161,0
"176",0,0,0.001,0.067,0,0,0.001,0,0.272,0,0,0.1
"177",0,0.001,0,0,0.071,0,0.097,0.001,0,0.08,0.08,0.029
"178",0,0,0.007,0.004,0.133,0,0.002,0,0.027,0.011,0.001,0.048
"179",0.201,0.085,0.017,0.011,0.018,0.663,0.023,0.006,0.087,0.33,0.002,0.083
"180",0.002,0,0.049,0.231,0.081,0.056,0,0,0.002,0,0.001,0.106
"181",0,0.04,0,0,0,0.026,0.558,0.236,0,0.003,0.153,0
"182",0,0,0.039,0.003,0,0,0,0,0,0,0,0.135
"183",0,0,0,0.021,0.06,0,0.393,0,0,0,0,0.116
"184",0.008,0,0,0.039,0.208,0.011,0.21,0.033,0.212,0,0.036,0.001
"185",0,0,0,0,0.001,0.374,0.001,0,0.231,0,0,0
"186",0.094,0.058,0.002,0,0,0.1,0,0.003,0,0.298,0.001,0
"187",0.446,0,0.13,0,0.044,0.005,0,0.088,0,0,0,0.293
"188",0,0.09,0.001,0,0,0.001,0.089,0,0.004,0.038,0.001,0.322
"189",0.08,0,0.032,0,0,0,0,0,0,0.284,0.213,0
"190",0,0,0.056,0.155,0,0.001,0.306,0.217,0,0,0.031,0.006
"191",0,0,0.001,0,0,0.122,0.102,0,0.046,0.006,0.023,0.088
"192",0.083,0,0.04,0.055,0.002,0.001,0,0.223,0,0.001,0.001,0.003
"193",0.075,0.001,0.001,0,0.012,0,0,0,0,0.318,0,0
"194",0,0,0,0.198,0.029,0,0,0.117,0,0.141,0,0.105
"195",0.07,0.043,0.058,0.154,0.004,0.496,0.054,0.022,0.339,0.011,0.019,0.007
"196",0,0.051,0,0,0.083,0,0.002,0.001,0.039,0,0,0.001
"197",0.062,0,0,0,0,0,0,0,0.172,0.111,0,0.024
"198",0.018,0.016,0,0.038,0,0.111,0,0,0,0.04,0,0
"199",0,0,0,0.037,0,0,0.005,0.441,0,0,0,0
"200",0,0,0.233,0.003,0,0,0.256,0.001,0,0.161,0.06,0.001
"201",0.069,0,0.217,0,0.02,0,0,0,0,0,0.023,0
"202",0.039,0.076,0.001,0.042,0,0.053,0.6,1,0,0.14,0.146,0
"203",0.17,0,0.149,0,0.201,0.454,0,0.179,0.259,0,0.118,0
"204",0.345,0,0.027,0.069,0.103,0.292,0.004,0.043,0.197,0,0.157,0.008
"205",0.089,0,0.358,0.1,0.081,0.212,0,0,0,0,0.043,0
"206",0,0.076,0.052,0.165,0,0,0,0,0,0.185,0,0
"207",0.094,0,0.322,0.016,0.163,0,0,0,0.239,0.159,0,0
"208",0.16,0.032,0.002,0.202,0.097,0.5,0.054,0.035,0.197,0.023,0.001,0.006
"209",0.006,0.05,0,0.145,0.343,0.395,0.005,0.005,0.001,0.001,0.157,0.001
"210",0.011,0,0,0,0.121,0,0.054,0,0,0.207,0,0.108
"211",0.068,0,0,0,0.026,0.028,0,0.147,0.052,0,0.02,0
"212",0,0.123,0.001,0,0,0.011,0.343,0,0,0.005,0,0
"213",0.022,0,0,0,0,0.14,0.074,0.233,0,0,0,0
"214",0,0.016,0.211,0,0,0.078,0.002,0,0.084,0.002,0.001,0.033
"215",0,0.033,0.09,0.001,0,0.003,0.001,0.001,0.15,0.228,0.176,0.071
"216",0,0,0.061,0,0.077,0,0,0.084,0,0.004,0,0.081
"217",0.077,0,0.015,0,0.124,0,0.169,0.026,0,0.001,0.096,0
"218",0,0,0,0.001,0.076,0.16,0.151,0,0,0.118,0,0.126
"219",0.074,0.487,0.001,0.059,0.621,0.004,0.015,0.379,0.024,0.174,0.001,0.005
"220",0.003,0,0,0.002,0.013,0,0.266,0.076,0,0.07,0.07,0.106
"221",0,0.001,0.119,0,0,0.178,0.001,0.206,0.006,0.027,0.146,0.001
"222",0,0,0.115,0,0,0,0.072,0.183,0.018,0.089,0,0
"223",0,0.001,0,0,0.001,0,0.001,0,0.059,0.088,0.001,0.213
"224",0,0,0,0.576,0.001,0.243,0.194,0.035,0.001,0,0,0.002
"225",0,0,0.032,0,0,0.128,0.001,0,0,0.043,0.022,0.089
"226",0.016,0,0.155,0.054,0,0.14,0,0,0.01,0.038,0,0.001
"227",0,0,0,0.133,0.139,0.048,0.027,0,0.264,0,0,0
"228",0.032,0,0,0.001,0.034,0.006,0.18,0.001,0.148,0,0.001,0.148
"229",0,0,0,0,0.128,0.357,0.465,0,0,0.034,0.231,0
"230",0.051,0,0,0,0,0.085,0,0.033,0.178,0,0.047,0
"231",0.07,0,0,0.147,0,0.008,0.001,0.116,0.058,0,0,0
"232",0,0,0,0.225,0,0,0.187,0,0.019,0,0,0
"233",0,0.111,0.083,0.08,0,0.068,0,0.001,0,0,0,0.05
"234",0.081,0.062,0.149,0.001,0.001,0.217,0.148,0.001,0,0.001,0.11,0.195
"235",0,0.214,0.237,0,0,0.004,0.001,0,0.044,0,0.22,0
"236",0.081,0,0,0,0.063,0.214,0,0,0.01,0.068,0.093,0
"237",0,0.031,0.162,0,0.02,0.044,0.202,0.004,0.002,0,0,0
"238",0,0,0,0.114,0.097,0.515,0.085,0.03,0,0,0,0.001
"239",0.3,0.643,0,0.001,0.004,0.266,0,0.127,0.07,0,0.183,0
"240",0,0,0.076,0.08,0.037,0,0.002,0.084,0.297,0,0.187,0.165
"241",0,0,0.103,0,0,0.003,0.001,0.318,0.007,0.075,0.129,0.009
"242",0.059,0,0.001,0.083,0.001,0,0.231,0.409,0.001,0.007,0.076,0.024
"243",0.179,0,0.008,0,0.195,0.444,0,0.999,0,0,0,0.002
"244",0,0,0,0,0.047,0.147,0.086,0,0.223,0.001,0,0
"245",0,0,0.144,0,0.021,0.118,0.075,0.171,0.001,0,0.092,0.044
"246",0.097,0,0,0.038,0.001,0.173,0.001,0,0.271,0.123,0,0.058
"247",0,0,0,0,0.027,0,0,0.217,0,0,0.001,0
"248",0,0,0,0,0,0.306,0.212,0.003,0,0,0.1,0
"249",0,0,0.071,0,0,0.073,0.328,0,0,0.118,0.027,0.085
"250",0,0.096,0,0,0.001,0.098,0.03,0,0.097,0.083,0.051,0.204
