"","x"
"1",1
"2",0.964
"3",0.992
"4",0.996
"5",1
"6",0.992
"7",0.996
"8",0.976
"9",0.992
"10",0.988
"11",0.984
"12",0.976
"13",0.98
"14",0.988
"15",0.976
"16",0.984
"17",0.992
"18",0.996
"19",0.992
"20",0.98
"21",0.988
"22",0.992
"23",0.976
"24",1
"25",0.976
"26",0.98
"27",0.984
"28",0.972
"29",1
"30",0.988
"31",0.992
"32",0.98
"33",0.972
"34",0.996
"35",0.988
"36",0.992
"37",0.996
"38",0.98
"39",0.996
"40",0.968
"41",0.984
"42",0.996
"43",0.976
"44",0.984
"45",0.996
"46",0.984
"47",0.992
"48",0.992
"49",0.992
"50",0.984
"51",0.996
"52",0.988
"53",0.988
"54",0.992
"55",0.984
"56",0.996
"57",0.984
"58",0.988
"59",0.992
"60",0.992
"61",0.992
"62",0.992
"63",0.992
"64",0.984
"65",0.996
"66",1
"67",0.996
"68",0.988
"69",0.988
"70",0.992
"71",0.988
"72",0.98
"73",0.984
"74",1
"75",0.992
"76",1
"77",0.988
"78",0.972
"79",0.988
"80",0.992
"81",1
"82",1
"83",0.988
"84",0.976
"85",0.976
"86",0.984
"87",0.988
"88",0.984
"89",0.988
"90",0.988
"91",0.992
"92",0.988
"93",0.988
"94",0.988
"95",0.98
"96",0.996
"97",0.992
"98",0.996
"99",0.984
"100",0.992
"101",0.976
"102",0.984
"103",0.988
"104",0.984
"105",0.996
"106",0.988
"107",1
"108",0.992
"109",0.992
"110",0.976
"111",0.984
"112",0.996
"113",0.988
"114",0.992
"115",0.988
"116",0.988
"117",0.992
"118",0.992
"119",0.98
"120",0.976
"121",0.996
"122",0.996
"123",0.988
"124",0.996
"125",0.992
"126",0.988
"127",0.984
"128",0.976
"129",0.992
"130",0.968
"131",0.988
"132",0.988
"133",0.996
"134",1
"135",0.988
"136",0.992
"137",0.988
"138",0.988
"139",0.996
"140",0.996
"141",0.992
"142",0.988
"143",0.972
"144",0.984
"145",0.988
"146",0.988
"147",0.996
"148",0.996
"149",0.996
"150",0.992
"151",0.98
"152",0.972
"153",0.996
"154",0.976
"155",0.992
"156",0.988
"157",0.984
"158",0.984
"159",0.984
"160",0.988
"161",0.996
"162",0.976
"163",0.988
"164",0.992
"165",1
"166",0.984
"167",0.992
"168",0.996
"169",0.988
"170",0.972
"171",0.996
"172",0.98
"173",0.992
"174",0.992
"175",0.988
"176",0.964
"177",0.992
"178",0.984
"179",0.988
"180",0.98
"181",0.992
"182",0.968
"183",0.984
"184",0.992
"185",0.984
"186",0.996
"187",1
"188",0.988
"189",0.984
"190",0.988
"191",0.98
"192",0.992
"193",0.984
"194",0.984
"195",0.984
"196",0.972
"197",0.984
"198",0.992
"199",0.988
"200",0.988
"201",0.996
"202",0.992
"203",0.968
"204",1
"205",0.992
"206",0.996
"207",0.984
"208",0.992
"209",0.988
"210",0.992
"211",0.984
"212",0.988
"213",0.996
"214",0.992
"215",0.984
"216",0.996
"217",0.972
"218",0.996
"219",0.992
"220",0.996
"221",1
"222",0.98
"223",0.984
"224",0.988
"225",0.996
"226",0.996
"227",0.992
"228",0.984
"229",0.988
"230",0.98
"231",0.988
"232",0.988
"233",0.992
"234",0.996
"235",0.996
"236",0.98
"237",0.98
"238",0.984
"239",0.992
"240",0.996
"241",0.996
"242",0.98
"243",0.988
"244",0.98
"245",0.98
"246",0.996
"247",0.988
"248",0.976
"249",0.968
"250",0.992
