"","x"
"1",2150.4764209408
"2",2148.59531800817
"3",2068.90098648764
"4",2108.75780064322
"5",2078.02677080203
"6",2123.00528940982
"7",2092.49320104318
"8",2014.91868091051
"9",2094.46254370988
"10",2090.04091534956
"11",2003.37187562607
"12",2095.67818490486
"13",2221.65422686276
"14",2145.17151605707
"15",2097.04045530366
"16",1978.20691887261
"17",2139.39851746593
"18",2042.79540849192
"19",2170.57687713461
"20",2227.04937171943
"21",2171.56115829543
"22",2125.46453273061
"23",2062.41101403795
"24",2113.63409380352
"25",2030.09525615931
"26",2131.69539299076
"27",2144.13936905353
"28",2100.48857381854
"29",2065.66976588019
"30",2133.49503365961
"31",2124.98874428028
"32",2076.15817765672
"33",2172.71499324294
"34",2140.22987871384
"35",2198.79130408459
"36",2050.8198753427
"37",2134.58424064806
"38",2204.08104670776
"39",2011.95251305058
"40",2131.6235443135
"41",2129.07311736124
"42",2055.49565065955
"43",2218.92129135739
"44",2168.86817983613
"45",2136.85200863809
"46",2101.78604013433
"47",2080.39357559583
"48",2168.33346105264
"49",2168.9469677767
"50",2180.88654128608
"51",2259.34684490728
"52",2108.91956185975
"53",2077.30919954135
"54",2047.15633094799
"55",2011.67947544695
"56",2102.27746949011
"57",2046.33692518898
"58",2141.16538817927
"59",2146.08589051647
"60",2175.69547033515
"61",2160.35456636499
"62",2137.87419498243
"63",2158.27362562409
"64",2106.4501971936
"65",2149.09894380894
"66",2186.75722089563
"67",2077.04352436888
"68",2129.46558089108
"69",2114.10007407933
"70",2148.46889466629
"71",2159.92373696006
"72",2105.31361706404
"73",2106.66087775654
"74",2044.90374944614
"75",2023.02027713922
"76",2104.42897428647
"77",2172.69907745501
"78",2116.14949955472
"79",2096.72216852102
"80",2158.72774843337
"81",2094.96495158298
"82",2124.41676457578
"83",2123.67197420082
"84",2179.90939906222
"85",2122.03414264921
"86",2084.50935799618
"87",2080.72664451176
"88",2123.50533448244
"89",2101.68361206668
"90",2074.10397394413
"91",2071.95228892018
"92",2046.81562502453
"93",2155.00050743187
"94",2140.07564280222
"95",2168.74435087069
"96",2132.76621425142
"97",2115.85193290029
"98",2051.63882073075
"99",2074.42850534148
"100",2150.4578626822
"101",2233.64844944268
"102",2089.40303064184
"103",2069.13783141377
"104",2147.64799887169
"105",2090.1215708959
"106",2167.88103067015
"107",2036.79136721659
"108",2107.3808334051
"109",2195.73973438394
"110",2105.00331411828
"111",2133.41039232108
"112",2158.86236089105
"113",2101.16635855295
"114",2080.49545464428
"115",2153.85781745574
"116",2152.05744974781
"117",2143.73340694982
"118",2142.65360913253
"119",2122.43779311796
"120",2159.42367900729
"121",2085.64584046528
"122",2051.22008091858
"123",2075.7246632458
"124",2109.76406687951
"125",2117.52091104457
"126",2122.85426598508
"127",2114.75901347474
"128",2225.45271851161
"129",2140.86560443633
"130",2079.22922186139
"131",2205.23929540208
"132",2143.97655567435
"133",2060.94174465827
"134",2097.85502877238
"135",2097.21359568094
"136",2110.99730881415
"137",2180.98450777786
"138",2158.99401796019
"139",2069.9194866583
"140",2093.56358881082
"141",2230.98963071887
"142",2119.55698453842
"143",2135.08971406383
"144",2133.58374108751
"145",2121.97906767407
"146",2099.00226532348
"147",2200.02769639876
"148",2122.12809202832
"149",2206.8858922703
"150",2065.10231517638
"151",2078.77624792389
"152",2101.62289031858
"153",2120.77628570692
"154",2087.04259276806
"155",2136.82718243766
"156",2146.20189287675
"157",2061.8407918265
"158",2100.42848481974
"159",2154.85541041635
"160",2119.29689614223
"161",2093.10450903798
"162",2150.39425948056
"163",2079.42723752932
"164",2088.10324667586
"165",2147.43413459586
"166",2140.53919230917
"167",2089.01303225884
"168",2111.25126991786
"169",2126.6493468251
"170",2189.52016069205
"171",2175.8822347104
"172",2160.44294953408
"173",2112.20446451777
"174",2149.78718476485
"175",2161.5659481417
"176",2098.70011443561
"177",2184.80030591374
"178",2149.5342043059
"179",2086.29186133248
"180",2167.25601789221
"181",2152.55092999403
"182",2144.97593727973
"183",2103.90590755939
"184",2125.39156905827
"185",2080.00197648959
"186",2142.76929760258
"187",2011.8957393056
"188",2079.11385283518
"189",2141.89744583883
"190",2091.37803693018
"191",2124.83296850909
"192",2052.67781745092
"193",2035.77466508929
"194",2068.43463556927
"195",2208.10891518581
"196",2209.33514029205
"197",2055.24782878711
"198",2164.79132424312
"199",2147.12783613812
"200",2144.63141534686
"201",2196.68829477152
"202",2091.51164619159
"203",2165.61719441339
"204",2044.69853859894
"205",2082.47442505937
"206",2139.78925242466
"207",1994.14517827683
"208",2072.78362386642
"209",2121.68881878023
"210",2075.93872359194
"211",2049.95441850292
"212",2141.57335806855
"213",2077.75911620401
"214",2103.07472423638
"215",2040.66398176254
"216",2018.95873264525
"217",2012.97268953943
"218",2111.49820726912
"219",2155.92160282221
"220",2070.4747431862
"221",2115.76743689165
"222",2098.08960545642
"223",2079.06083026687
"224",2109.55343466464
"225",2114.41240116059
"226",2136.09398754495
"227",2158.70879529526
"228",2064.31471690304
"229",2154.8625294583
"230",2188.76839563317
"231",1983.12923127294
"232",2118.44544173627
"233",2177.51214539289
"234",2063.44644734594
"235",2129.45707859512
"236",2137.85140139166
"237",2135.75192229588
"238",2144.02764455997
"239",2149.46385523983
"240",2046.76186157568
"241",2095.08649116149
"242",2136.81625948928
"243",2028.2735863494
"244",2086.21401996741
"245",2127.49471102104
"246",2034.05439449604
"247",2072.08651838979
"248",2189.22980930466
"249",2073.89953361308
"250",2123.73656429039
