"","x"
"1",-8428.95141441627
"2",-8387.4064250433
"3",-8422.59945835101
"4",-8368.62643931119
"5",-8436.31738802804
"6",-8366.90803737375
"7",-8343.78151951544
"8",-8308.95548639819
"9",-8527.87062586875
"10",-8348.73657712042
"11",-8478.08744727574
"12",-8446.47658892671
"13",-8403.66373598121
"14",-8498.54155514894
"15",-8454.47515135325
"16",-8481.67640913911
"17",-8355.85900069497
"18",-8484.82694319927
"19",-8530.30799708042
"20",-8515.74620023338
"21",-8494.48651376015
"22",-8418.84293117471
"23",-8559.05711394127
"24",-8380.22413406666
"25",-8528.88449289405
"26",-8377.02268491048
"27",-8411.03743040461
"28",-8422.6599200688
"29",-8369.01266618851
"30",-8375.7752027126
"31",-8406.19059428345
"32",-8422.49162952311
"33",-8391.18608348371
"34",-8441.3643824727
"35",-8351.5282331022
"36",-8511.18667312369
"37",-8423.21814479788
"38",-8487.31076396482
"39",-8376.51825875755
"40",-8368.12401602536
"41",-8424.03955120965
"42",-8481.2635927201
"43",-8373.78130674323
"44",-8389.2229790898
"45",-8408.97084539526
"46",-8307.9127954515
"47",-8247.72109233267
"48",-8471.90908203131
"49",-8378.91858643108
"50",-8368.56458521835
"51",-8519.60936963382
"52",-8447.82885072969
"53",-8489.4841458395
"54",-8370.90672336502
"55",-8214.8699362345
"56",-8426.54874101096
"57",-8386.05577820492
"58",-8338.9631906889
"59",-8415.29602680714
"60",-8281.80325579608
"61",-8577.387373097
"62",-8471.47750944032
"63",-8336.82426192159
"64",-8394.75213524765
"65",-8437.96269136504
"66",-8461.65145990247
"67",-8314.78192017314
"68",-8381.83329936465
"69",-8384.77083230377
"70",-8445.38874200918
"71",-8422.42913709193
"72",-8498.28753453551
"73",-8378.97459182226
"74",-8399.00826484896
"75",-8346.49243269112
"76",-8430.18665526494
"77",-8438.10640067366
"78",-8408.02678812338
"79",-8421.24471306388
"80",-8414.15211313446
"81",-8407.27297895745
"82",-8478.99759501014
"83",-8354.89466908274
"84",-8480.21921760822
"85",-8460.46109488254
"86",-8277.07625791564
"87",-8395.57052987236
"88",-8513.92155440996
"89",-8520.91879982895
"90",-8365.88775838416
"91",-8453.55729996481
"92",-8427.66771936997
"93",-8445.78852244825
"94",-8331.88034787874
"95",-8510.84082169394
"96",-8372.21377473637
"97",-8333.7549114042
"98",-8499.64908751602
"99",-8452.47763525236
"100",-8379.10715612796
"101",-8369.89537724545
"102",-8401.13896100042
"103",-8315.64842071433
"104",-8396.53899892356
"105",-8434.69968335798
"106",-8371.89973699366
"107",-8358.85774089455
"108",-8522.66954186722
"109",-8378.88128848652
"110",-8425.21307885878
"111",-8402.3182529853
"112",-8351.55107358867
"113",-8332.53202130594
"114",-8366.52893759121
"115",-8327.17974293166
"116",-8462.62447542728
"117",-8482.85464048838
"118",-8506.15907871569
"119",-8485.78740321763
"120",-8369.92296406293
"121",-8382.20518459162
"122",-8433.38786527954
"123",-8530.96527071605
"124",-8327.08809657368
"125",-8410.88652758657
"126",-8407.50068888431
"127",-8323.06785716417
"128",-8409.74507653041
"129",-8293.51585066232
"130",-8417.44533024494
"131",-8452.3020642528
"132",-8549.66072897439
"133",-8418.92413325179
"134",-8450.98724867982
"135",-8446.26908129264
"136",-8380.4503885149
"137",-8470.57546059293
"138",-8439.64004433949
"139",-8428.39948493966
"140",-8490.32104522901
"141",-8456.00533090379
"142",-8319.00213838881
"143",-8388.98578444106
"144",-8355.34646572716
"145",-8405.74823000269
"146",-8383.28284612734
"147",-8480.84572868832
"148",-8470.81102072432
"149",-8418.37281755402
"150",-8442.69141874531
"151",-8410.07092978938
"152",-8458.27936795282
"153",-8424.69648514333
"154",-8447.65365033091
"155",-8428.33212411963
"156",-8427.11362825721
"157",-8338.89696075027
"158",-8352.53562947547
"159",-8371.84988697167
"160",-8396.940109018
"161",-8468.18129042911
"162",-8405.2099335946
"163",-8424.8497743235
"164",-8504.23676290316
"165",-8409.07711835408
"166",-8363.17105168025
"167",-8347.04473362502
"168",-8276.57900516801
"169",-8469.95713279807
"170",-8236.78366594042
"171",-8469.31120035191
"172",-8408.75480952534
"173",-8423.64898404072
"174",-8322.94890109928
"175",-8392.07082919278
"176",-8423.35601005559
"177",-8379.47586670872
"178",-8352.24684353421
"179",-8372.33378289458
"180",-8432.56812492312
"181",-8458.85849450531
"182",-8486.69140447883
"183",-8343.95535726508
"184",-8283.43228198773
"185",-8407.41964770616
"186",-8435.61237940013
"187",-8405.31772027321
"188",-8461.16460219519
"189",-8334.82612215901
"190",-8395.12622762975
"191",-8408.08304592653
"192",-8392.22707811828
"193",-8391.18112579755
"194",-8277.27543303605
"195",-8483.88751128313
"196",-8344.43445772659
"197",-8386.89417840241
"198",-8497.96328096032
"199",-8445.46982489232
"200",-8416.60815785961
"201",-8454.93880852188
"202",-8262.34679451285
"203",-8500.00538111157
"204",-8340.89168436529
"205",-8462.8137299474
"206",-8351.25700518268
"207",-8465.79893949477
"208",-8307.95068991502
"209",-8456.81276722343
"210",-8376.39597536659
"211",-8321.2649053377
"212",-8393.58878792239
"213",-8450.71023857662
"214",-8486.52971495644
"215",-8360.83437725264
"216",-8405.72006911124
"217",-8539.97613859574
"218",-8419.98946633488
"219",-8380.35315123417
"220",-8590.76915487406
"221",-8286.36166434461
"222",-8426.38445606123
"223",-8476.15566045574
"224",-8476.83491963472
"225",-8413.31586259986
"226",-8343.3225310668
"227",-8429.17497347112
"228",-8446.26633483649
"229",-8363.57956119905
"230",-8349.14536070451
"231",-8376.84277900148
"232",-8536.88551210328
"233",-8349.37889935426
"234",-8484.87743432481
"235",-8470.29114516402
"236",-8281.79655050497
"237",-8398.81503927994
"238",-8365.22072162032
"239",-8424.55594254885
"240",-8499.18052568388
"241",-8346.53582090117
"242",-8356.83802378485
"243",-8337.83487545646
"244",-8372.02995045136
"245",-8369.59472311569
"246",-8257.61871195458
"247",-8276.26814343904
"248",-8374.4201233341
"249",-8457.1333212007
"250",-8334.21968819669
