"","x"
"1",15.4677506486575
"2",26.5773402015368
"3",41.0860609849294
"4",54.0531406005224
"5",15.0676133354505
"6",22.6367658336957
"7",36.1970310489337
"8",53.2449953357379
"9",15.6081095019976
"10",19.345852681001
"11",24.2241248130798
"12",55.3479007323583
"13",16.0398066322009
"14",18.8105960687002
"15",25.7527591307958
"16",35.4402124007543
