"","x"
"1",16324.828188814
"2",16178.5423194583
"3",16213.7592102233
"4",16468.2576010452
"5",16375.6804112065
"6",16233.5467470562
"7",16267.4483037235
"8",16378.8527673977
"9",16345.9723686851
"10",16254.0785587866
"11",16425.9843629533
"12",16304.1095165694
"13",16512.6457885758
"14",16551.6880873095
"15",16376.364790453
"16",16368.9725686505
"17",16470.7158216628
"18",16186.2818518853
"19",16242.0815850786
"20",16443.437648075
"21",16182.3694342276
"22",15995.0658995984
"23",16462.766140074
"24",16465.8517208641
"25",16221.9505977187
"26",16269.5511380995
"27",16160.999923303
"28",16585.8208916824
"29",16377.9370002935
"30",16121.3649455579
"31",16231.0489162691
"32",16385.2614999914
"33",16216.0809445537
"34",16347.8802719544
"35",16266.4790212668
"36",16357.0594263613
"37",16573.364257976
"38",16367.3900835265
"39",16326.8681643071
"40",16429.7609167889
"41",16474.7390686216
"42",16182.2444950226
"43",16443.1515224619
"44",16250.8179106873
"45",16552.4599112031
"46",16495.3491580614
"47",16533.8862215214
"48",16175.5744175938
"49",16493.010799349
"50",16341.2001266682
"51",16423.2947683707
"52",16444.4344199175
"53",16210.844575554
"54",16453.2403290786
"55",16191.5496329482
"56",16385.5589433351
"57",16083.7558870129
"58",16311.2318586006
"59",16200.9772183834
"60",16565.3573381485
"61",16241.9230598657
"62",16491.0072488701
"63",16184.2485768514
"64",16008.7609025934
"65",16231.8869298148
"66",16099.6724514966
"67",16257.8605234249
"68",16569.2568564203
"69",16434.3934226357
"70",16439.0759558112
"71",16551.0310778768
"72",16195.2608878006
"73",16398.1212514866
"74",16210.5690567394
"75",16224.598785044
"76",16078.2650615223
"77",16108.0827921566
"78",16327.6574186169
"79",16573.032656138
"80",16257.856443199
"81",16297.0456410228
"82",16423.3401708622
"83",16482.3497454005
"84",16390.0824049954
"85",16267.5115171482
"86",16401.2089966774
"87",16266.897935949
"88",16171.1310436272
"89",16450.0712423703
"90",16308.7143660157
"91",16113.9886604232
"92",16402.508011058
"93",16407.7787397321
"94",16354.366801956
"95",16091.4793160321
"96",16340.4102214102
"97",16090.1429749982
"98",16289.7498104506
"99",16368.4723584246
"100",16650.0511952328
"101",16374.2017769819
"102",16355.2923289263
"103",16500.7061880408
"104",16405.1084508485
"105",16591.4512869416
"106",16440.8448959523
"107",16396.4151138724
"108",16562.245484838
"109",16634.1449783248
"110",16548.8714150625
"111",16258.5954893875
"112",16148.0176375489
"113",16579.1000615641
"114",16283.8615180261
"115",16586.2400854185
"116",16395.2974126481
"117",16267.9725075247
"118",16334.9928715525
"119",16482.0204062472
"120",16436.7437593879
"121",16424.1084203092
"122",16378.5314083239
"123",16232.6290934255
"124",16188.9481343494
"125",16358.7521938922
"126",16361.4409576758
"127",16485.0220841435
"128",16035.5077137694
"129",16561.0419814588
"130",16262.7021089294
"131",16156.2561038368
"132",16032.5330835626
"133",16182.5219345975
"134",16217.2204868564
"135",16231.4575355735
"136",16398.138012834
"137",16322.6965908202
"138",16185.1048901188
"139",16154.4053672127
"140",16122.9991966224
"141",16334.643801004
"142",16415.8163038005
"143",16462.5613104816
"144",16467.103909126
"145",16560.3308316377
"146",16392.7633902087
"147",16407.549034192
"148",16357.2011448309
"149",16437.3253746817
"150",16315.2347596825
"151",16526.1350823719
"152",16297.1670681062
"153",16758.0490342887
"154",16246.9941054293
"155",16310.0337355019
"156",16341.0402700871
"157",16621.3178742717
"158",16348.3420570108
"159",16204.6210336707
"160",16291.8987207367
"161",16508.1207461337
"162",16387.2055594587
"163",16619.6804280246
"164",16106.1421749293
"165",16234.7693413076
"166",16215.7271999699
"167",16231.659807335
"168",16374.2359467896
"169",16371.8550893344
"170",16395.2292372708
"171",16253.2203275279
"172",16219.987451107
"173",16390.4695142367
"174",16446.9178396528
"175",16608.9686990992
"176",16205.2129140771
"177",16391.10231382
"178",16167.8428741405
"179",16197.7297030468
"180",16108.6450850628
"181",16429.7104984389
"182",16369.4896077651
"183",16449.9139777534
"184",16484.7180956782
"185",16525.4894048813
"186",16427.017672041
"187",16549.6425052603
"188",16233.7488639495
"189",16032.4998769397
"190",16600.6839192327
"191",16176.2261665374
"192",16527.7656939845
"193",16228.1335603155
"194",16272.5821472835
"195",16261.6593892882
"196",16200.8104495738
"197",16601.4513741727
"198",16265.0797251548
"199",15968.9143709067
"200",16383.4629253663
"201",16417.0918077848
"202",16311.7493060077
"203",16518.52468733
"204",16327.9056028742
"205",16511.4507243884
"206",16657.6171352373
"207",16150.1797621666
"208",16098.0770741374
"209",16436.449438611
"210",16157.8519192669
"211",16550.3746774517
"212",16380.0641035831
"213",16214.90113171
"214",16473.852851122
"215",16313.1823258229
"216",16309.7266895938
"217",16514.3032397139
"218",16197.5517743389
"219",16453.5346637323
"220",16165.3184834401
"221",16509.4347737745
"222",16645.3845462818
"223",16349.0442828602
"224",16245.7074848694
"225",16494.116170019
"226",16396.8791147483
"227",16258.7486109982
"228",16450.4726068336
"229",16454.4917469582
"230",16243.7804735458
"231",16346.365916661
"232",16248.2910051869
"233",16410.9780623864
"234",16247.1462675753
"235",16256.2526129145
"236",16460.3780570949
"237",16439.410931074
"238",16464.6263977655
"239",16288.1481321153
"240",16220.5162656082
"241",16357.5515171598
"242",16413.1160084695
"243",16335.9967538552
"244",16433.6723092547
"245",16336.0094920183
"246",16383.0572904857
"247",16357.0142831495
"248",16589.6276240929
"249",16398.6162830827
"250",16271.3035157718
