"","x"
"1",-379.936091397215
"2",-382.241599127991
"3",-415.290788650456
"4",-405.565156858744
"5",-391.657950169495
"6",-365.481203582182
"7",-391.438690993142
"8",-365.998221208457
"9",-405.855966411073
"10",-394.117341759823
"11",-434.968151315767
"12",-390.932354637041
"13",-377.609146432885
"14",-401.487055370975
"15",-386.340901903807
"16",-395.808985280013
"17",-379.582233609741
"18",-390.927021148863
"19",-409.679010253979
"20",-385.442273015385
"21",-359.317871343185
"22",-378.801743221691
"23",-379.02032848596
"24",-417.400857187816
"25",-416.610445559888
"26",-389.590972575878
"27",-390.366745445069
"28",-386.694994784963
"29",-364.887387983106
"30",-369.772088279986
"31",-387.637415437089
"32",-391.868614091598
"33",-383.341286570808
"34",-418.396017480159
"35",-418.514283177901
"36",-399.532275384254
"37",-401.919365200706
"38",-411.080203347809
"39",-399.061413361123
"40",-385.370942143741
"41",-397.869420832303
"42",-396.955887554751
"43",-373.824612367716
"44",-360.496682683311
"45",-401.495557137648
"46",-373.035658599333
"47",-388.669032448536
"48",-385.906455594543
"49",-419.44618670215
"50",-379.722593277367
"51",-391.788452811156
"52",-389.271745864515
"53",-376.780072469366
"54",-381.397922745017
"55",-409.61248316206
"56",-377.428938377286
"57",-406.810998732227
"58",-411.786167236974
"59",-371.974771445541
"60",-382.453716516479
"61",-418.709867693863
"62",-403.344930775765
"63",-396.379422544877
"64",-379.04626081527
"65",-385.908801339773
"66",-404.292081167153
"67",-386.549896882604
"68",-397.9597327743
"69",-379.19548844287
"70",-393.227810052182
"71",-390.8775019137
"72",-401.958492636157
"73",-410.59107128225
"74",-382.537904937491
"75",-395.386595575894
"76",-395.175026214342
"77",-371.375395377201
"78",-386.80891943337
"79",-378.977469784716
"80",-392.810611356974
"81",-401.441470844381
"82",-382.569045817925
"83",-354.31931494425
"84",-407.93213723666
"85",-386.447745460021
"86",-419.170311314108
"87",-386.205071710774
"88",-416.263254182357
"89",-408.229942417589
"90",-385.369566210743
"91",-401.465603402083
"92",-363.400600026992
"93",-391.392418192273
"94",-370.256067849117
"95",-383.762460680853
"96",-409.756766783825
"97",-403.802253501054
"98",-380.447654811596
"99",-397.758344393754
"100",-388.119710119958
"101",-404.725168708846
"102",-395.629759690755
"103",-376.469465125432
"104",-390.142526378008
"105",-375.874948440901
"106",-395.922858654893
"107",-392.424791195638
"108",-386.689726958612
"109",-405.973241629793
"110",-403.068843200185
"111",-363.233311372292
"112",-416.375986736566
"113",-369.489656354235
"114",-371.289101392928
"115",-406.021554821779
"116",-408.872532130384
"117",-395.783153206949
"118",-409.178833120205
"119",-409.519725061821
"120",-401.100772425186
"121",-394.356086288331
"122",-395.039389864967
"123",-390.770614675312
"124",-371.314860529216
"125",-381.957442109653
"126",-400.668904897767
"127",-384.675057192326
"128",-371.67306226694
"129",-414.983764862644
"130",-374.658774857438
"131",-406.069118330778
"132",-404.854636596125
"133",-410.269281048259
"134",-409.938090785288
"135",-390.812081962069
"136",-374.138253040476
"137",-395.159969312751
"138",-388.947736919222
"139",-404.038549828868
"140",-378.074310524766
"141",-417.876964157335
"142",-399.460058225593
"143",-388.594844140497
"144",-402.084840280752
"145",-408.449209670326
"146",-384.478393609033
"147",-383.932169657177
"148",-398.741701773142
"149",-395.131034060519
"150",-382.950188066681
"151",-366.432487830176
"152",-377.984170930078
"153",-386.159735630573
"154",-379.10069563841
"155",-386.118137490858
"156",-406.29799943045
"157",-380.205582034579
"158",-379.78083979102
"159",-392.722557883384
"160",-406.077853476144
"161",-386.875861691067
"162",-417.104144619721
"163",-391.586136283081
"164",-354.153439211404
"165",-396.404137978913
"166",-382.801762217752
"167",-366.848819226094
"168",-373.864969456314
"169",-404.189527892896
"170",-393.619358857571
"171",-394.117747185273
"172",-389.308382056996
"173",-394.451678918339
"174",-373.032011543772
"175",-391.247891721555
"176",-388.983381756697
"177",-404.087097030324
"178",-387.782114720974
"179",-391.899512697776
"180",-362.952671118708
"181",-392.495052115012
"182",-434.076764802625
"183",-379.391538653454
"184",-383.201501554609
"185",-399.737221016604
"186",-401.852326808622
"187",-395.465180706564
"188",-410.162412819751
"189",-413.278040500013
"190",-386.143587232966
"191",-389.314089020819
"192",-366.454777443723
"193",-380.347149630081
"194",-375.514641311773
"195",-380.929661581245
"196",-391.49754226802
"197",-380.309192158122
"198",-389.98058156709
"199",-402.065090729123
"200",-380.5367905504
"201",-386.002421275091
"202",-405.324009541602
"203",-390.901782328486
"204",-398.101026215665
"205",-394.063604018528
"206",-363.977990931188
"207",-400.2482759798
"208",-405.522496990265
"209",-384.703417377703
"210",-394.672682382555
"211",-403.157466911973
"212",-387.069425373548
"213",-384.56859287464
"214",-405.661646379681
"215",-391.344567317009
"216",-409.11583047411
"217",-384.621124565921
"218",-397.55317883432
"219",-401.571642400854
"220",-395.168144625384
"221",-397.008541891812
"222",-395.504770337463
"223",-406.581461976851
"224",-412.9610054543
"225",-415.927258037096
"226",-406.20356625336
"227",-425.909285460665
"228",-382.652334450233
"229",-401.56714229432
"230",-375.82487714262
"231",-406.773964728802
"232",-360.027553168859
"233",-376.880555652043
"234",-386.675633843234
"235",-391.428696557844
"236",-413.639330194449
"237",-376.932766861943
"238",-383.528106693212
"239",-405.495185623765
"240",-391.312278652757
"241",-419.751798158082
"242",-385.323005007757
"243",-437.483813839754
"244",-377.233556952783
"245",-411.146436931266
"246",-370.740788991366
"247",-410.018426736661
"248",-376.166460251527
"249",-402.353473828414
"250",-403.612751326057
