"","x"
"1",-1038.35445091332
"2",-1023.92876201139
"3",-1012.18747219162
"4",-1026.5613328309
"5",-1008.0058820253
"6",-970.734358327605
"7",-1028.80594479775
"8",-953.544980126455
"9",-1038.54851039713
"10",-1061.9879078006
"11",-960.745722467699
"12",-983.78305348254
"13",-1037.01122664593
"14",-1014.94833787245
"15",-977.559350637368
"16",-948.105987944452
"17",-974.537368705967
"18",-987.593556314723
"19",-979.031345670909
"20",-1017.47330278976
"21",-1013.86198276817
"22",-974.610702161323
"23",-998.272015956193
"24",-966.177441797096
"25",-987.473537248798
"26",-1044.97690599394
"27",-996.842249504168
"28",-1018.44451057809
"29",-1047.32960926579
"30",-982.590117294777
"31",-1039.16610409845
"32",-1003.53093654077
"33",-993.254885794904
"34",-1043.31444783297
"35",-1006.76588006336
"36",-953.487519090038
"37",-1023.74252492438
"38",-998.764724407967
"39",-1044.51536572503
"40",-988.611574890674
"41",-1021.97132350609
"42",-981.154323068596
"43",-1027.66740238937
"44",-1003.76674279345
"45",-1094.62078227822
"46",-1064.2457621972
"47",-1007.54494838245
"48",-1035.25381096073
"49",-1069.50010376786
"50",-994.976159494364
"51",-1026.50213739084
"52",-999.915917479727
"53",-1021.53802303954
"54",-1059.71457387601
"55",-997.895234162753
"56",-1014.05145795546
"57",-1000.99927987198
"58",-1014.4539570851
"59",-1022.54254072631
"60",-1000.15880614816
"61",-1028.0737556492
"62",-1021.09086052978
"63",-1000.92125202963
"64",-1039.58720113153
"65",-1011.2982683646
"66",-1034.37836230404
"67",-990.986321247115
"68",-1008.46923380573
"69",-1004.72918495487
"70",-963.042293223251
"71",-996.819709874637
"72",-1061.10741505292
"73",-1034.48414765624
"74",-1056.27557049932
"75",-978.155101532097
"76",-986.497247761076
"77",-1032.42712820646
"78",-1016.39258538221
"79",-999.94310203493
"80",-1032.22524289785
"81",-1031.25846185044
"82",-982.529262010837
"83",-969.372684904226
"84",-1003.753788776
"85",-1013.10287261068
"86",-1008.29201798418
"87",-996.631065113316
"88",-1001.81078351861
"89",-988.874434351515
"90",-1010.29585761131
"91",-1002.51825422564
"92",-1028.34344272194
"93",-1011.54004641183
"94",-1007.05994879542
"95",-981.285616579875
"96",-1048.99276705892
"97",-1049.16579818109
"98",-1021.33394923534
"99",-986.390052466347
"100",-992.859253627703
"101",-995.044114199914
"102",-1016.11022163161
"103",-964.192892370639
"104",-1064.6049343415
"105",-1000.91901396105
"106",-1018.0444974263
"107",-1023.06516984897
"108",-979.850078685858
"109",-986.584373850661
"110",-1011.46926929641
"111",-1011.40995095688
"112",-1009.59134936598
"113",-1045.66630080358
"114",-1032.93594101678
"115",-963.27746023121
"116",-1024.56115036243
"117",-1010.5595570517
"118",-1063.41823701647
"119",-1000.53403227142
"120",-1016.38437999873
"121",-967.909958626286
"122",-956.342922816905
"123",-1039.66066822037
"124",-1000.39442215687
"125",-1025.28853826217
"126",-991.031180464669
"127",-1018.8676684113
"128",-1018.32861827798
"129",-1020.4401180866
"130",-985.049990330879
"131",-1033.04617029994
"132",-1014.44062690844
"133",-1000.69546252048
"134",-950.352721829223
"135",-1028.97900568271
"136",-1029.40958537766
"137",-1009.85083971286
"138",-988.198303347196
"139",-1008.56784870962
"140",-1024.34126460003
"141",-996.044544798792
"142",-983.095285652708
"143",-1015.75096943842
"144",-940.413252163796
"145",-1001.98518746931
"146",-1032.69141482934
"147",-1023.71271220964
"148",-1005.69247651662
"149",-982.777854658281
"150",-967.255747143525
"151",-1053.22493164347
"152",-970.313599773173
"153",-991.005276000139
"154",-1008.14937119437
"155",-1009.49474146865
"156",-1003.83257953364
"157",-1016.56387092614
"158",-1000.41070334899
"159",-1010.05308532632
"160",-998.440800162608
"161",-1011.37451289816
"162",-981.445273182884
"163",-1007.12643028202
"164",-1037.39396947744
"165",-1001.85602200096
"166",-1023.97138891027
"167",-1016.39213271026
"168",-1007.23652293536
"169",-999.795123993775
"170",-1043.07242181309
"171",-1036.34598004412
"172",-1002.73702296552
"173",-1013.28840729395
"174",-955.035230041407
"175",-1015.66148208418
"176",-1001.07732621685
"177",-1028.2796877063
"178",-999.354979260877
"179",-998.018814299213
"180",-1064.67711776624
"181",-1035.16094544132
"182",-1008.63565557488
"183",-966.189436644205
"184",-1015.26640311653
"185",-1015.22177042733
"186",-987.934344983242
"187",-1005.12932047683
"188",-996.699687261815
"189",-1021.4508008979
"190",-1012.22850914065
"191",-997.188364252625
"192",-1047.70306992398
"193",-966.942524079309
"194",-1046.20825508366
"195",-1037.34704983174
"196",-1015.99939749102
"197",-1043.33173215999
"198",-1018.02202683504
"199",-1001.78762898053
"200",-1021.78083114804
"201",-1021.06331191979
"202",-950.568085854533
"203",-1018.93831936884
"204",-993.592945547961
"205",-984.030847758658
"206",-996.163756511923
"207",-994.2358259642
"208",-1010.58425344443
"209",-976.64836732668
"210",-1003.02273904939
"211",-980.676354595429
"212",-989.981993872883
"213",-986.455715667432
"214",-968.607153197702
"215",-1015.71085011253
"216",-1054.58969206097
"217",-987.487798520982
"218",-1085.00292101379
"219",-987.320978263459
"220",-995.860628237288
"221",-1007.55396329116
"222",-1021.75836115062
"223",-1050.02694408556
"224",-1023.11548022071
"225",-928.213351799546
"226",-1050.15315068873
"227",-998.292935205855
"228",-1025.438303825
"229",-1016.65706296299
"230",-996.052671096133
"231",-988.507153657802
"232",-978.590575982874
"233",-982.789585883092
"234",-1030.75718634039
"235",-1062.89427990569
"236",-1017.40539381942
"237",-1017.55581722037
"238",-1056.78514242205
"239",-1019.67979690623
"240",-1021.34250523468
"241",-992.935999532575
"242",-1012.2458775887
"243",-1019.24037053086
"244",-1026.17863907033
"245",-989.308767097817
"246",-1037.71045259303
"247",-999.850555564242
"248",-999.822857285852
"249",-1019.97424418518
"250",-1014.12418261853
