"","x"
"1",0.946
"2",0.9405
"3",0.9435
"4",0.953
"5",0.932
"6",0.9475
"7",0.945
"8",0.929
"9",0.944
"10",0.9435
"11",0.934
"12",0.95
"13",0.9395
"14",0.9455
"15",0.9285
"16",0.942
"17",0.933
"18",0.9375
"19",0.9365
"20",0.931
"21",0.9315
"22",0.943
"23",0.932
"24",0.939
"25",0.9395
"26",0.944
"27",0.946
"28",0.939
"29",0.955
"30",0.9445
"31",0.9355
"32",0.937
"33",0.935
"34",0.9415
"35",0.941
"36",0.943
"37",0.948
"38",0.9395
"39",0.93
"40",0.942
"41",0.935
"42",0.932
"43",0.9335
"44",0.9335
"45",0.9305
"46",0.947
"47",0.9325
"48",0.93
"49",0.94
"50",0.923
"51",0.937
"52",0.9375
"53",0.944
"54",0.925
"55",0.9485
"56",0.927
"57",0.929
"58",0.9475
"59",0.937
"60",0.9485
"61",0.938
"62",0.9325
"63",0.9325
"64",0.9405
"65",0.9445
"66",0.933
"67",0.9435
"68",0.943
"69",0.943
"70",0.948
"71",0.9305
"72",0.945
"73",0.9395
"74",0.9415
"75",0.9285
"76",0.932
"77",0.943
"78",0.929
"79",0.9385
"80",0.949
"81",0.9385
"82",0.952
"83",0.932
"84",0.9195
"85",0.9325
"86",0.947
"87",0.936
"88",0.9375
"89",0.934
"90",0.9405
"91",0.9445
"92",0.9455
"93",0.953
"94",0.941
"95",0.9325
"96",0.946
"97",0.931
"98",0.9495
"99",0.9315
"100",0.9205
"101",0.943
"102",0.9275
"103",0.9465
"104",0.929
"105",0.9365
"106",0.9375
"107",0.9465
"108",0.952
"109",0.9265
"110",0.9305
"111",0.939
"112",0.943
"113",0.9385
"114",0.942
"115",0.9355
"116",0.9275
"117",0.942
"118",0.9435
"119",0.948
"120",0.9425
"121",0.939
"122",0.9455
"123",0.94
"124",0.9465
"125",0.937
"126",0.931
"127",0.955
"128",0.9355
"129",0.928
"130",0.9385
"131",0.9365
"132",0.95
"133",0.944
"134",0.9245
"135",0.947
"136",0.933
"137",0.9325
"138",0.9505
"139",0.9385
"140",0.9385
"141",0.9375
"142",0.942
"143",0.926
"144",0.9395
"145",0.9475
"146",0.9405
"147",0.935
"148",0.935
"149",0.946
"150",0.942
"151",0.9485
"152",0.952
"153",0.942
"154",0.9365
"155",0.9305
"156",0.9295
"157",0.9375
"158",0.932
"159",0.94
"160",0.932
"161",0.941
"162",0.9395
"163",0.948
"164",0.9465
"165",0.9215
"166",0.9435
"167",0.9495
"168",0.942
"169",0.9295
"170",0.933
"171",0.939
"172",0.924
"173",0.9495
"174",0.932
"175",0.9395
"176",0.946
"177",0.933
"178",0.937
"179",0.9215
"180",0.9445
"181",0.936
"182",0.9275
"183",0.9495
"184",0.929
"185",0.944
"186",0.9355
"187",0.9415
"188",0.921
"189",0.9365
"190",0.9425
"191",0.9375
"192",0.9385
"193",0.9445
"194",0.945
"195",0.9465
"196",0.9465
"197",0.9385
"198",0.93
"199",0.935
"200",0.9535
"201",0.9325
"202",0.933
"203",0.943
"204",0.945
"205",0.9485
"206",0.9385
"207",0.938
"208",0.9445
"209",0.9435
"210",0.953
"211",0.933
"212",0.9185
"213",0.9415
"214",0.9425
"215",0.9325
"216",0.946
"217",0.937
"218",0.9425
"219",0.957
"220",0.9495
"221",0.944
"222",0.942
"223",0.9355
"224",0.9405
"225",0.9365
"226",0.9375
"227",0.929
"228",0.927
"229",0.937
"230",0.9365
"231",0.941
"232",0.924
"233",0.9345
"234",0.9265
"235",0.9315
"236",0.9355
"237",0.9495
"238",0.9245
"239",0.9315
"240",0.948
"241",0.9445
"242",0.947
"243",0.938
"244",0.9375
"245",0.937
"246",0.953
"247",0.921
"248",0.946
"249",0.942
"250",0.932
