"","V1","V2","V3","V4","V5","V6","V7","V8"
"1",0.002,0.042,0.04,0.004,0.002,0.008,0.002,0.013
"2",0.001,0.002,0.008,0.02,0.004,0.043,0.067,0.003
"3",0.03,0.001,0.002,0.039,0.001,0.002,0.005,0.002
"4",0.001,0.045,0,0.001,0.03,0.007,0.003,0.006
"5",0.002,0.001,0.005,0.031,0.032,0,0.043,0.002
"6",0.002,0.011,0.001,0.008,0.089,0.037,0.006,0.005
"7",0.001,0,0.006,0.006,0,0.01,0.008,0.072
"8",0.043,0.001,0,0.004,0,0.006,0.011,0.031
"9",0.002,0.056,0.006,0.016,0.002,0.001,0.043,0.057
"10",0,0,0.025,0,0,0.044,0.016,0.003
"11",0.003,0.001,0.045,0.002,0.004,0,0.022,0.001
"12",0.002,0.046,0.024,0.015,0,0,0.06,0.005
"13",0,0.001,0.001,0.003,0.049,0.001,0.001,0.034
"14",0.002,0,0,0,0.005,0.003,0,0
"15",0,0,0.035,0.04,0.004,0.003,0.003,0.001
"16",0.078,0.031,0.004,0.025,0.007,0.004,0.032,0.052
"17",0,0.032,0,0,0,0,0,0.001
"18",0.001,0.031,0.055,0.003,0.004,0.045,0.001,0
"19",0.002,0.004,0.036,0.001,0.001,0.001,0.002,0.002
"20",0.006,0.011,0.052,0.002,0,0.01,0,0.007
"21",0.014,0.003,0.073,0.027,0.006,0.007,0.002,0.003
"22",0.002,0.008,0.002,0.011,0.001,0.002,0.033,0.067
"23",0.015,0.092,0,0,0,0,0.05,0.051
"24",0.001,0.012,0.037,0.034,0.047,0.002,0.028,0.002
"25",0.003,0.006,0.001,0.055,0.001,0.046,0.001,0.004
"26",0.001,0.034,0.026,0.001,0,0.001,0.001,0.002
"27",0.005,0.02,0.021,0.019,0.001,0.014,0.001,0.008
"28",0,0,0,0,0,0.009,0.003,0.014
"29",0.001,0,0,0.001,0.023,0,0.001,0.001
"30",0.001,0.025,0.028,0.002,0.006,0.002,0.028,0.001
"31",0.052,0.02,0.002,0.028,0,0.065,0,0.077
"32",0.001,0.043,0.009,0,0.034,0.001,0.006,0.001
"33",0.001,0.001,0.004,0.002,0.003,0.001,0.004,0.002
"34",0,0.034,0,0,0.008,0,0.044,0
"35",0.005,0.001,0.001,0,0.001,0.001,0.028,0.004
"36",0.005,0.002,0.001,0.003,0.004,0.066,0.026,0.003
"37",0.004,0.001,0.04,0.05,0.007,0.005,0.001,0.002
"38",0.001,0,0.03,0.001,0.002,0.004,0.002,0.032
"39",0.003,0.041,0.001,0.006,0.018,0.058,0.002,0.044
"40",0.042,0.001,0.036,0.001,0.002,0.009,0.011,0.04
"41",0.001,0.009,0.001,0,0,0.002,0.051,0.065
"42",0.002,0.001,0.018,0.025,0.017,0.011,0.001,0.006
"43",0.022,0.003,0.013,0,0.001,0.002,0.001,0.002
"44",0,0,0,0,0.007,0,0.059,0.005
"45",0.001,0.001,0.02,0.002,0.003,0.007,0.002,0.087
"46",0,0,0,0,0,0.006,0.001,0
"47",0.002,0.001,0.03,0.012,0.019,0.063,0.035,0.003
"48",0.005,0.035,0.003,0.022,0.043,0.002,0.002,0.005
"49",0.009,0.004,0.023,0.023,0.003,0.002,0.003,0.004
"50",0.001,0.027,0.003,0.005,0.005,0.002,0.004,0.004
"51",0,0.04,0,0,0.001,0,0.001,0
"52",0,0,0,0,0,0,0,0
"53",0,0.001,0.029,0.001,0.016,0.005,0.012,0.008
"54",0.028,0.054,0.008,0.01,0.001,0.009,0.001,0.015
"55",0.015,0.001,0.03,0.001,0.004,0.003,0.001,0.026
"56",0.054,0.001,0.005,0.001,0,0.003,0.001,0.029
"57",0,0,0.011,0.056,0,0.003,0.001,0.007
"58",0.027,0.023,0.003,0,0.001,0.003,0.001,0.003
"59",0.012,0.003,0.004,0.004,0.034,0.01,0.073,0.053
"60",0.002,0.054,0,0,0,0.007,0,0.032
"61",0.002,0.001,0.002,0.004,0.004,0.001,0.082,0.003
"62",0.056,0.021,0.036,0.058,0.005,0.003,0.008,0.002
"63",0.001,0.004,0.001,0.001,0.016,0.001,0.003,0.001
"64",0.006,0.009,0.025,0.001,0.007,0.01,0.003,0.014
"65",0.005,0.047,0.005,0.001,0.064,0.002,0.026,0.002
"66",0,0,0.001,0,0.002,0.001,0.057,0
"67",0.041,0.007,0.002,0.003,0.001,0,0.048,0.009
"68",0.002,0.005,0.002,0.001,0.001,0,0.001,0.056
"69",0.008,0.017,0.001,0.003,0.004,0.043,0.001,0.033
"70",0,0.043,0,0,0.001,0,0,0
"71",0.002,0.004,0.012,0.004,0.001,0.002,0.001,0.031
"72",0.003,0.041,0.003,0.006,0,0.021,0.079,0.029
"73",0.023,0.001,0.041,0.001,0.06,0.005,0.001,0.004
"74",0.003,0.001,0.007,0.001,0.002,0.012,0.004,0.042
"75",0,0,0.018,0,0.001,0.001,0.002,0.037
"76",0,0.004,0,0.028,0,0.001,0,0
"77",0.001,0.005,0,0.034,0.035,0.027,0.03,0
"78",0,0.039,0.001,0,0.056,0.001,0,0.022
"79",0.004,0.001,0.012,0.033,0.014,0.033,0.047,0.007
"80",0.014,0.002,0.008,0.011,0.029,0.003,0.004,0.017
"81",0,0,0,0.017,0.017,0,0,0.036
"82",0.02,0.048,0.001,0,0.007,0.002,0.002,0.003
"83",0.113,0.001,0.002,0.016,0,0.001,0,0.026
"84",0.032,0.001,0.039,0,0.009,0.016,0.001,0.003
"85",0,0.008,0.044,0.009,0.002,0.047,0.003,0
"86",0.003,0,0.05,0,0.085,0.002,0.011,0.031
"87",0.001,0.022,0.001,0,0,0.001,0,0.016
"88",0.005,0.001,0.03,0.009,0.006,0.002,0.001,0.033
"89",0.002,0.002,0.001,0.001,0.044,0.099,0.014,0
"90",0,0.001,0.002,0.008,0.001,0.092,0,0
"91",0.025,0.053,0.001,0.01,0.003,0.016,0.001,0.029
"92",0.004,0.032,0.001,0.001,0.002,0.021,0,0.004
"93",0.002,0.001,0,0.001,0.001,0.003,0.003,0.014
"94",0.038,0.043,0.004,0.001,0.065,0.076,0.001,0.004
"95",0.053,0.001,0.023,0.007,0.042,0.001,0.004,0.004
"96",0.001,0.004,0.003,0.004,0.016,0.009,0.003,0.008
"97",0.006,0.049,0.001,0.007,0.027,0.003,0.034,0.004
"98",0.022,0.007,0.003,0.008,0.01,0.027,0.004,0.004
"99",0,0,0.003,0.001,0.002,0.004,0.001,0.04
"100",0.001,0.007,0.009,0.025,0,0,0.004,0.003
"101",0.001,0.012,0.032,0.006,0.034,0.028,0.002,0.002
"102",0.051,0.004,0.034,0.028,0.001,0.009,0.001,0.012
"103",0.002,0.001,0.001,0.001,0.038,0.003,0.002,0.015
"104",0,0.004,0.065,0.01,0.001,0.031,0.025,0.001
"105",0.014,0.048,0.005,0.005,0.007,0.002,0.018,0.004
"106",0.014,0.001,0.003,0.002,0.041,0.001,0.012,0.05
"107",0.016,0.006,0.023,0.001,0.001,0.001,0.003,0.017
"108",0.001,0.032,0,0.066,0.001,0.034,0.025,0.036
"109",0,0,0.002,0,0.046,0,0.019,0
"110",0.027,0.005,0.007,0.018,0.006,0.081,0.017,0.004
"111",0.027,0.007,0.007,0.029,0.003,0.001,0.003,0.019
"112",0.001,0.002,0,0,0.035,0.001,0.038,0.001
"113",0.054,0.03,0.012,0.032,0.033,0.011,0.008,0.013
"114",0.071,0,0,0.002,0.002,0.003,0.028,0.001
"115",0.013,0,0,0.002,0.068,0.087,0,0.001
"116",0,0,0,0.001,0.002,0.01,0.023,0.005
"117",0.004,0.021,0.021,0.002,0.047,0.001,0.002,0
"118",0.001,0.016,0.012,0.001,0.022,0.005,0.001,0.028
"119",0,0,0,0.003,0.018,0.005,0.001,0.053
"120",0.001,0.002,0.001,0.016,0.028,0.003,0.001,0.002
"121",0.019,0.004,0.009,0.002,0.008,0.006,0.002,0.004
"122",0.029,0.003,0.016,0.004,0.018,0.002,0.039,0.005
"123",0.001,0,0,0.001,0.001,0.001,0,0.004
"124",0.002,0,0.008,0.037,0.045,0.001,0.042,0.006
"125",0.001,0.015,0.026,0.002,0.001,0.002,0.015,0.003
"126",0.028,0.008,0.025,0.002,0.001,0.016,0.006,0.013
"127",0.001,0.001,0.047,0.001,0.002,0.088,0.034,0.001
"128",0.001,0.021,0.012,0.002,0.003,0.005,0.001,0
"129",0,0.002,0,0.004,0.038,0.002,0.011,0.002
"130",0.025,0.004,0.001,0.003,0.007,0.001,0,0.02
"131",0.003,0.004,0.006,0.004,0.001,0.015,0.002,0.007
"132",0.004,0.003,0.042,0.003,0.027,0.1,0.001,0.004
"133",0.023,0.004,0.038,0.005,0.001,0.003,0.005,0.002
"134",0,0.001,0.005,0.02,0.047,0.011,0,0.013
"135",0.015,0.002,0.001,0.029,0.003,0.002,0.002,0.008
"136",0.001,0.023,0.006,0.033,0.003,0.003,0.046,0.006
"137",0,0,0,0.013,0,0,0,0
"138",0.002,0.001,0.001,0.011,0.051,0.012,0.004,0.02
"139",0.003,0.006,0.015,0.003,0.014,0.091,0.012,0.002
"140",0.032,0,0.02,0.044,0.001,0,0.001,0.055
"141",0,0,0.035,0,0,0,0.032,0
"142",0.001,0.002,0.007,0.001,0.008,0.086,0.001,0.019
"143",0.047,0.001,0.004,0,0.006,0.009,0.003,0.022
"144",0.004,0.021,0.034,0.003,0.003,0.017,0.005,0.003
"145",0.036,0.002,0.001,0.003,0.033,0.004,0.001,0.001
"146",0.002,0.035,0.008,0.007,0.013,0.013,0.001,0.044
"147",0.003,0.028,0.001,0.003,0,0.018,0.024,0.001
"148",0.021,0.023,0.011,0.005,0.004,0.006,0.002,0.004
"149",0,0.001,0,0.001,0.001,0,0.001,0.002
"150",0.047,0.007,0.001,0.03,0.017,0.05,0.002,0.001
"151",0,0,0.037,0,0.014,0.003,0.011,0.066
"152",0.021,0.074,0.004,0.008,0,0.008,0.003,0.027
"153",0.003,0.007,0.002,0.033,0.007,0.002,0.001,0.039
"154",0,0.002,0.032,0,0,0,0,0
"155",0,0.05,0.001,0,0,0.005,0.02,0.037
"156",0.002,0.028,0.005,0.005,0.084,0.007,0.001,0.052
"157",0.024,0,0.004,0,0.017,0.001,0.001,0.004
"158",0,0.001,0.001,0.057,0.018,0.008,0.001,0.027
"159",0.039,0.029,0.007,0.006,0.066,0.065,0,0.004
"160",0.002,0.001,0.033,0.019,0.006,0.008,0.006,0.001
"161",0,0,0,0,0.04,0.005,0.004,0
"162",0.003,0.085,0.005,0.001,0.005,0.05,0.003,0.035
"163",0.001,0.001,0.029,0.002,0.021,0.045,0.034,0.005
"164",0.013,0.003,0,0.028,0.001,0.016,0,0.014
"165",0.002,0.002,0.056,0.048,0.004,0.03,0.001,0.002
"166",0.012,0.002,0.004,0,0.001,0.025,0,0.002
"167",0.029,0.001,0.001,0,0.002,0.002,0.032,0.002
"168",0.001,0.029,0,0,0.014,0.005,0.03,0.063
"169",0.036,0.024,0.003,0.008,0.001,0.021,0.001,0.008
"170",0.039,0,0.029,0.002,0,0.004,0.003,0.001
"171",0,0,0,0,0.024,0.044,0,0
"172",0.003,0.001,0.005,0.051,0.016,0.003,0.07,0.015
"173",0.063,0.024,0,0.001,0.048,0.002,0,0.022
"174",0.022,0.004,0.001,0.017,0.025,0.003,0.001,0.054
"175",0.026,0.035,0.033,0.024,0.006,0.011,0.002,0.032
"176",0.004,0.004,0.032,0,0,0.027,0.001,0.008
"177",0.001,0.001,0.001,0.004,0.003,0.013,0.002,0.007
"178",0.067,0.003,0.025,0.001,0.011,0.014,0.067,0.003
"179",0,0.005,0.03,0,0.012,0.001,0,0.001
"180",0,0,0,0,0.001,0.016,0.001,0.001
"181",0.028,0.001,0.032,0,0,0.002,0.087,0.002
"182",0.019,0.001,0.002,0,0.052,0.058,0.026,0.06
"183",0,0,0,0,0.001,0,0.001,0.003
"184",0.002,0.025,0.001,0,0.023,0.041,0.006,0.001
"185",0.003,0,0.01,0.086,0.006,0,0.025,0.041
"186",0.001,0.001,0.003,0.002,0.002,0.006,0.064,0.005
"187",0.005,0.003,0.004,0.083,0.005,0.033,0.015,0.008
"188",0,0,0,0,0.041,0,0.001,0
"189",0,0.001,0.001,0.001,0.045,0.002,0.003,0.002
"190",0.001,0.014,0.014,0.009,0.004,0.001,0,0.001
"191",0.002,0.015,0.002,0.037,0.004,0.042,0.071,0.027
"192",0.022,0.002,0,0.011,0.057,0.009,0.005,0.008
"193",0.008,0.001,0.003,0.001,0.002,0.035,0,0.012
"194",0.006,0.001,0.017,0.044,0.038,0.004,0.007,0.005
"195",0,0,0.003,0.048,0.004,0.014,0.037,0.001
"196",0.002,0.001,0.051,0.003,0.001,0.001,0,0
"197",0.001,0.041,0.004,0,0.043,0.001,0.05,0
"198",0,0.003,0.001,0.027,0,0.002,0.004,0.003
"199",0.026,0.001,0.002,0.005,0.014,0.002,0.002,0.009
"200",0.001,0.019,0.001,0,0.001,0.002,0,0.005
"201",0.006,0.002,0.001,0.003,0.076,0.005,0.005,0.063
"202",0,0,0.004,0,0.002,0,0.006,0
"203",0.03,0.006,0.005,0.032,0.001,0.048,0.001,0.011
"204",0.014,0.037,0.039,0.063,0.051,0.001,0.135,0.063
"205",0.001,0.001,0.001,0.002,0.009,0,0,0
"206",0.026,0.001,0,0,0.001,0,0.005,0
"207",0.023,0,0,0,0,0,0,0
"208",0.002,0.001,0.004,0.056,0.002,0.001,0.004,0
"209",0,0,0,0.001,0,0,0,0
"210",0.004,0.064,0.025,0.013,0.106,0.007,0.003,0.004
"211",0,0,0,0.003,0.002,0.002,0.005,0.042
"212",0,0.049,0.028,0.001,0.001,0.001,0.061,0.015
"213",0.011,0.003,0.045,0.002,0.058,0.062,0.034,0
"214",0,0,0.028,0,0.077,0,0.03,0
"215",0.038,0.004,0.003,0.003,0.057,0.002,0.002,0.002
"216",0.001,0.037,0.005,0.002,0,0.001,0.001,0.001
"217",0.036,0,0.001,0.001,0.045,0.004,0.003,0.005
"218",0.019,0,0.013,0.041,0,0,0,0.036
"219",0.002,0.005,0.001,0.001,0.006,0.011,0.007,0.019
"220",0,0,0,0.001,0.008,0,0.027,0.003
"221",0.04,0.023,0.003,0.001,0.002,0.019,0.003,0.001
"222",0,0,0,0,0,0,0.071,0
"223",0.001,0.004,0.002,0.001,0.002,0.008,0.016,0.008
"224",0.001,0.026,0.001,0.02,0.003,0.009,0.03,0.018
"225",0,0,0.023,0,0.026,0,0.005,0.001
"226",0.001,0,0.001,0,0.009,0.001,0.001,0
"227",0.014,0.001,0.008,0.003,0.056,0.045,0.025,0.002
"228",0.001,0.027,0.001,0.001,0.015,0.004,0.002,0.002
"229",0.004,0.01,0.034,0.022,0.004,0.002,0.035,0.002
"230",0,0,0.059,0,0.102,0.009,0.021,0
"231",0.003,0.013,0.001,0.039,0.009,0.092,0.003,0.002
"232",0,0.004,0,0.002,0.009,0.056,0,0
"233",0.049,0,0.01,0.003,0.01,0,0.001,0
"234",0.001,0.002,0,0.021,0,0,0.047,0.095
"235",0.001,0.003,0.055,0,0.005,0.005,0.021,0.031
"236",0.003,0.006,0.002,0.004,0.031,0.002,0.073,0.011
"237",0.044,0.001,0.001,0.001,0.012,0.018,0.044,0.003
"238",0.013,0.011,0.009,0.018,0.064,0.01,0.003,0.048
"239",0.014,0,0.06,0,0.002,0.038,0,0.012
"240",0.001,0.001,0.005,0.008,0.028,0.002,0.003,0.003
"241",0.024,0.002,0.004,0.004,0.051,0.002,0.004,0.008
"242",0.004,0.001,0.002,0.021,0.063,0.058,0.001,0.002
"243",0.003,0.001,0.029,0.001,0.011,0.029,0.009,0
"244",0.024,0.002,0,0,0,0.002,0,0
"245",0.024,0.001,0.008,0.03,0.065,0.002,0.009,0.002
"246",0.002,0.001,0.002,0.006,0.002,0.002,0.018,0.001
"247",0.032,0.003,0.003,0.004,0.005,0.018,0.002,0.041
"248",0,0,0,0.008,0,0.04,0.042,0
"249",0,0,0.029,0.01,0.09,0.062,0,0.004
"250",0.023,0.003,0.037,0.046,0.078,0.002,0.002,0.036
