"","V1","V2","V3","V4","V5","V6","V7","V8"
"1",20.1728402825457,40.7861166382747,5.07341510109362,6.76830888935987,0.0335624348596183,0.00644252714828545,2.16056440820336,13.8732922401827
"2",20.0839812669514,40.3422335809986,5.07912353297214,6.74349539720653,-0.0205200261320184,-0.0140620527186236,1.96788570975898,11.3599528311145
"3",19.903428512949,40.0461668719294,5.1453990336241,7.06127221110298,-0.0765081595691362,0.0054682398323311,2.15433923174286,12.56432062249
"4",20.2221010142341,39.6714282973767,5.07486170502615,7.06798444396307,-0.00693757062516651,0.0146387779695522,2.09235584138291,12.1190019033413
"5",19.5352798545949,39.9408097934387,4.77153734584951,6.76244368213255,0.0790838247461829,0.00428323863935455,1.95843332318493,11.9604853961116
"6",20.0859827669796,40.2341823256041,4.93121681122335,7.18830678661544,-0.0227568855270319,-0.0037490248452459,1.90040458950025,12.3527000997918
"7",19.6229602977077,41.2128057875653,4.6364249495454,7.4355088086573,0.00715215050628116,0.0441374932751842,1.89898450182538,12.224543045042
"8",19.8089298194306,40.2236554400539,5.07725377154033,6.78426245838538,0.0378012986024287,-0.0139286736744808,2.02344222527261,11.9617712050468
"9",20.1469871450001,40.0042214529592,4.81094908047873,6.8146031221448,0.00405851445995619,-0.0157541522185049,2.09016664677645,11.5769720949208
"10",20.5556560966327,40.6563932073043,5.2123102282904,6.99835550522281,0.0302238921535988,-0.00361853918120146,2.07632936750198,12.19955384918
"11",19.9495659535726,41.7259570145966,4.92974762827477,7.36847302477845,0.00148355234717222,-0.0438528439482899,2.09649594805917,12.5259807296893
"12",20.3141309411801,40.0333052798778,4.95297175072852,6.9680386357882,0.0399253105373763,-0.00829541331807969,1.85114720849782,11.9363293372647
"13",19.5221735394924,41.4259685779104,4.80307531762444,7.18478270183052,0.0401642179625176,0.027151865951003,2.00679892205236,12.2309996055551
"14",20.2449773385987,39.6760141263541,5.08403905394582,6.92014937753775,0.0523730410057529,0.0287362083417544,2.05355982750251,13.1894382672608
"15",20.2246135231258,39.3779188756657,4.93651997467899,6.83433671949499,0.0283942035747236,0.0192990286434324,2.0540863401328,12.4581523870219
"16",20.7290469811262,40.5307117129555,5.27110261210016,6.76843078518169,-0.0688933517053235,0.0125416146106303,2.0937516724805,12.5922235990937
"17",20.0704370636387,40.7545220163811,5.05677422636904,6.93242062506486,-0.0626742212885118,0.0282748154936694,1.96535416053855,12.5968053149132
"18",19.0888595365525,40.8542685633223,4.6597824273993,7.31599675585414,-0.0168363789169432,-0.0170760359414051,2.11736662190285,12.6509882022997
"19",20.0496979424861,40.6727519929475,4.93992795682515,7.12915833698146,0.0588037928498291,-0.0182731656263262,1.92557577847193,11.70726624851
"20",19.4134366401726,40.131365698458,4.90399115422527,7.08815272405082,0.00970978143838828,-0.013948264699259,1.94707202141446,11.7492922668324
"21",19.9167680195837,39.0589163329413,4.80723577359423,6.67813135909211,-0.0175657815992685,-0.0560748665239905,2.05435314246287,13.0538546283168
"22",19.9092862720446,40.202662463714,5.13886428822135,7.24918059868802,-0.0898503391239473,-0.0156312787555016,2.01283788458815,12.4958910050437
"23",19.9411516372245,40.4838006113079,5.0454777493777,6.9107521943759,0.00129859943999413,-0.00977828418687775,2.20158004859646,12.9142396632126
"24",20.0905610574225,40.7677387899021,4.97339720333036,7.27477409741263,-0.012230741316324,0.0202928668957615,1.89579795043807,11.3724466618072
"25",20.5357323240321,39.6810984742621,5.30567133468994,6.62468483356388,0.0158312923889681,-0.0457285912489375,2.02165626979897,13.2680229798943
"26",19.9369262782897,40.902830568588,5.025074708573,7.00989392983837,0.0916168873353411,-0.0513677403414085,2.03474037490407,11.8349442194348
"27",19.3380199608945,40.2847261104845,4.85622687414947,6.80756731323735,0.0459552068095826,-0.0222010766848923,2.03705487912235,11.6971897519867
"28",20.3659761710116,40.6209618695594,5.17854907336781,7.59288335564733,0.0211495705835556,0.00634282151288108,2.07302184765537,11.7632826820272
"29",19.7377429042127,40.5348455576691,4.82792013567439,7.16677806764176,0.0693109121461557,0.0221698551018362,2.00979101024552,12.42128099824
"30",20.8182249622616,40.3778504578584,5.30926243234027,7.21525585139266,0.0198516747361018,-0.00789441799997336,2.01409704600232,11.8151956339172
"31",20.4397719294455,40.0913295386973,5.13971111645984,6.73853289814475,-0.0681231985222954,0.0185754886795628,1.93976085459278,11.8481246408971
"32",20.0281897021414,40.5686603878942,5.05174093483452,6.9562552897878,-0.0445463978866411,0.00448001817999095,1.94877316442146,12.1228720764425
"33",19.9894199397294,41.0069541388845,4.90727194911207,7.13996916974263,-0.0930795550396326,-0.0283892749437495,2.04156323501503,11.6707970406262
"34",19.8473023573774,39.43925130979,4.87799211953514,6.93648407783981,0.00678950244226816,0.0130097501115627,1.9148214208357,12.75714411934
"35",20.0061880506728,40.9159571178448,4.95612714181483,7.11769771049638,0.0530360365493387,-0.0458937914136989,2.17738747213667,11.2248712659697
"36",19.0795419701969,39.4757404562482,4.71643474739327,6.96999497455679,-0.0142763254673455,0.0115154618038466,2.04669300466799,12.3070632256596
"37",19.7220073361351,39.9756402356184,4.94686059925725,7.19201713842336,-0.0609222934471082,-0.00604208822738503,2.19170691773307,11.5046844722834
"38",20.0242226058689,39.0361549321396,4.8820203750371,6.65201668118675,0.00998478356759766,-0.0282213937958792,2.04536717342618,12.6416019781122
"39",20.4771460234985,40.4470561405781,4.84600994397486,6.97887251209917,0.0178470540083075,0.0567003676577029,2.08901300526303,12.7046750027815
"40",20.0232188307822,40.144561285424,5.1811803283143,7.18219789985436,-0.104053684407317,0.0144573639097915,2.05248254607532,13.4661454940499
"41",20.3675879434652,40.3593939061421,5.10138391433686,7.0465789869662,0.0312481194813629,0.0117910633730957,2.03443443406612,11.6887889736785
"42",19.9280568004504,41.4422758355685,4.90838276812943,7.55158174649509,0.0892257991711347,0.0400039817120736,1.92363219690915,12.3462220245921
"43",19.614728427616,39.427133480074,4.90524372346125,6.89169066134645,-0.018702929978107,-0.0539184768282285,2.08801189524997,11.9174484077333
"44",19.4962788987426,39.3402170659309,4.96599292845584,6.76271443828623,0.0498553048885002,-0.015122202616719,1.87988134465599,13.1894168307935
"45",19.9121952652604,40.9178558578505,4.99963858063607,6.97861276553448,0.0516715874918594,0.00472634157319396,2.06885041169537,11.7006812167737
"46",20.0721058608864,40.3048457442355,5.06184768465704,6.88650880648926,-0.0469538400654701,-0.00597136191265328,2.03977529143225,11.593333980522
"47",19.9097101187297,40.9512436568355,4.85845294846223,6.95639936771886,0.0260779985440165,-0.011250785559656,2.05068102262306,11.8680873692925
"48",19.9834345764852,39.4418049877956,4.98205833956608,7.05472831350105,-0.0153391140479241,0.0205812644689084,2.14738726340171,11.5863216722327
"49",19.139163708194,39.8364007331137,4.73728328641,6.90110526941697,-0.0590945672887754,-0.00770702079471188,1.92407997401064,12.2662363865236
"50",20.3540527539917,39.3537773872354,5.15865656378491,6.51332611354542,0.0161451492318653,-0.0156588117147069,1.9689570143957,11.2764565498734
"51",19.6568388955013,40.9462869968758,4.95230592903254,6.97667259182678,0.0520765807422723,-0.00245249359083348,2.1833030759264,11.9053762828846
"52",19.4514872389197,41.5216916204168,4.78148650199088,7.10375323397836,0.0434167377173658,-0.031866967204735,2.05655306007801,12.353996231126
"53",20.4182722049075,40.6525183488359,5.06785179383172,6.86926416322123,-0.0066468883400999,0.043360348236594,2.26367150837586,11.5925538662816
"54",19.8033507679617,40.2477268418048,4.86344433775663,6.98064769358234,0.0668355772816592,-0.014312810314081,2.02102605644063,11.4933924084378
"55",20.1063288665732,40.5148297568681,4.92287640147187,7.12585394615183,0.056630689809265,-0.0014719686092635,2.03735934655067,13.0666119508958
"56",20.2734150062872,41.4662274097277,5.10163204468697,7.22581310838733,-0.0886255994366513,0.0100555783389557,2.24579799317461,12.3244562147512
"57",20.383113949359,39.5165767067693,5.1335388863084,6.75431243508156,0.00443771054428085,0.0044283509512797,1.93380035655214,12.4314416243334
"58",20.1123903422929,39.6505231533332,5.11407819144736,7.15788784169655,0.0236648938545108,0.00543050959706535,2.02635415047623,12.0142225146414
"59",19.6061809094764,39.8233182273936,4.94701108548091,6.8102154137687,-0.0173870883416766,-0.0150912098631822,2.03921644173659,12.2894324664675
"60",20.0657516511439,40.2525155811759,5.0287871699575,7.44052257712867,0.0166755548756403,0.0208905552747874,1.94434683053582,13.1680822296233
"61",20.1222964395693,40.5528575064831,5.37659229712169,7.1170180693068,0.00146213322864692,-0.0063057065792394,2.05819746899712,12.1843527425318
"62",20.6312002123764,39.6328698447094,5.13954785517957,7.04339769355406,-0.0163905381052837,-0.000888476080656399,2.09254812870814,12.4457026810793
"63",19.7761085338044,40.0804958308547,5.00449270748544,6.87836386965578,-0.058267687401448,-0.0128023849236994,1.94040158650319,12.5250924210205
"64",19.8963811025062,39.6651235136707,4.9545266241967,7.08743673211098,-6.70552765339008e-07,0.0144293226693994,1.95271431950141,12.3915915066944
"65",20.2231207135024,40.6626811224162,5.17138128716054,7.23484726022117,-0.00201116954062101,0.0288696534808093,2.04575609756366,12.7147390384324
"66",20.1479178458323,39.0956359144249,5.157658143311,6.80364606728551,0.0169164354769301,-0.0322034001362853,2.03531538131459,11.8362104542385
"67",19.8004785109471,41.3078233653313,4.93490440764558,6.84085592662998,0.0115644151009242,0.00881732223533726,1.99165605442253,11.3867444235694
"68",19.9075723367632,39.5846408175535,4.83912509247023,6.84755710675611,-0.0397411986224753,-0.00406833357117929,2.13414957825779,11.0934167764993
"69",19.9209876895784,40.0998675505194,5.12887298493786,6.846308668319,0.052597714582004,-0.0764248712968492,2.06657452904762,13.066172817637
"70",19.669091013506,40.7255742034153,5.02919332676337,7.21817311079682,-0.0157271610746288,-0.0182977336761716,2.02493980039672,12.5589216882478
"71",20.9407563107639,40.002678386907,5.17342338960098,6.91103409847541,-0.0264749414315751,0.0118670293092321,2.00707164085688,11.7784975313053
"72",20.006441104627,39.4759639625115,5.21490817031305,6.97624843127404,0.00600042043691527,0.0356291692249866,2.03220326322741,11.9507990823127
"73",19.3787008902038,39.6803250833452,4.87568015804535,7.08462851499742,0.0379476964710409,0.0014006936403477,1.98891898857714,11.6610570028696
"74",19.8387519755358,41.2596680782296,4.83524891140186,7.23430830858032,-0.0156555720784719,0.0257157086766547,1.96900449543654,13.1287769860237
"75",19.9111823880947,39.5458614783643,4.98252350753241,7.00675869284666,-0.0186280077614462,0.00611935945930985,1.97380962340221,12.9132714046046
"76",20.4621664443292,40.0755147939243,4.80151447895836,7.19916380460405,0.0310123737320746,0.00352821105733203,2.02533543344343,12.228920029965
"77",20.024280411917,41.3694329597855,4.98920502218051,7.39742506046829,-0.0185723762284978,0.010544283183768,2.0799049616472,11.5537192931611
"78",19.7466657938927,39.1319984282219,4.78759672424694,6.80403743330619,0.00253214538839659,0.0229596841966271,2.19010938402224,11.5458991371003
"79",19.180244663301,39.809753252192,4.73167260143601,7.23788569175971,0.0106182636707058,0.00951177562500532,1.97451501060559,13.431259628806
"80",19.3924276185159,40.1951822201831,4.70828134814364,7.07523054245965,-0.0145524812793338,-0.00735182109454857,2.10886286783534,12.7681675299069
"81",19.5440416078982,39.7644662341519,4.87079676555021,6.84242639629103,0.0701010953582944,-0.0596480422822479,2.04110208684542,11.2579431830779
"82",19.5264019002997,40.2318242932268,4.95357817568645,6.8620639378882,0.056170762322241,-0.00205198459153182,2.06571191947804,12.1634578191418
"83",19.8641160579703,40.2946562334715,4.76446692270232,6.97381250585025,0.071477663067234,-0.0174654602384912,1.99239332525702,13.2150326504592
"84",20.4453445529757,41.0783263505238,5.20708446318387,7.00827396389038,-0.0398522755756686,0.00732195702332783,2.1098666723151,13.0836546703525
"85",19.7823210803792,39.9075076452936,4.87630133292899,6.67714793271193,-0.0465560640877968,-0.00960817348464692,2.10346341256547,12.189651131476
"86",19.7480105765632,40.6868946698231,4.83843595330528,6.58508004263233,0.0198645845106863,0.0396095804651089,1.98581276618291,12.3134666985418
"87",20.2420793189354,39.8041035727741,5.09580848352141,7.12384830955528,-0.0161531807342957,-0.00222764658733291,1.9762000286785,11.5731153672025
"88",20.5326343617238,39.8084392118365,5.06361063874244,7.30842125093552,0.00593614802648372,-0.0961273461622697,1.95816641546752,11.7888715842176
"89",20.7042180421271,40.1746689764383,5.19691699543691,7.19360912104548,0.0601651359889961,3.56612904818004e-05,2.12265596284337,11.8646427313738
"90",19.8284768835998,40.6207796822127,4.87035882399664,7.05730374089773,-0.0253774439712459,0.0223162410750351,2.05810904450664,11.8313987676556
"91",20.1086554648516,39.9086597028449,4.906108302913,6.93650630894105,-0.0117856736310609,0.0459319868489094,2.06613129633278,12.5218629891189
"92",19.7012429898848,39.4311463509607,4.82476393919344,6.9951515508539,-0.00266800346776919,-0.00738852123596509,1.98564871772322,10.9458980709744
"93",20.0882469725219,40.266953647682,5.06116461342184,7.21876010098803,-0.0312700709426843,0.00684383779991959,2.0486757341919,12.1665123334925
"94",20.1479732396352,39.8259942293364,5.1378163552055,6.81071644835844,-0.0201313947819381,0.0138976633539393,2.02048361732412,12.159766708285
"95",19.8229470262773,40.1234034593021,5.00873141939492,7.12764256852329,0.00551340202089234,0.0601270021022136,2.15353099148002,12.8501007415506
"96",20.408020385058,39.7096411549353,5.03755539931622,6.99361266035991,0.0295389061074401,-0.0351299991485978,1.84760139998541,12.288794246419
"97",20.1389014507389,39.6549455319334,4.90904269197286,7.12145178416265,-0.00779751208144557,0.0166867692433953,1.83450990751046,12.8448710186157
"98",19.9394883290823,39.2799639161552,5.20880693174602,7.38724158912944,-0.00495921044790033,0.000395573396683647,2.01805981141909,12.7652195053041
"99",20.3131064411978,40.9519757036295,5.12841958973145,7.77414822785664,-0.0323877521170861,0.0133341255455502,1.86126172957426,11.6224034968794
"100",19.6496576503914,39.688629144348,4.83396439745779,7.11521277516574,0.018518024881295,0.063330753565921,1.91523704415886,11.3073149054508
"101",19.6937274963093,40.1760276062689,4.76569000850917,6.92436759193085,-0.00805374004957625,0.0347396986359954,2.02879073561477,12.5281175649097
"102",19.7109794029407,39.6589061987774,4.9879309787859,6.90751003259322,0.0312872190290887,-0.0461609133437402,2.00497530051769,12.1696102155535
"103",19.5899700686211,39.6466806834017,5.05439847867654,7.20819124476116,-0.0343333506510249,-0.016349070031012,2.12857245038769,11.7386742761117
"104",19.9014234616017,39.3807146398148,4.93679984118223,7.13076542233352,0.0872806682238245,0.0334161776235989,1.92865645699129,11.7022860484208
"105",19.5361091314895,40.0427426296069,4.81644740794826,7.31660615564235,-0.0432846183910785,-0.0218532284177419,1.98452248612094,11.7539545983081
"106",19.9172357821468,39.5408898090433,4.80835570421401,6.90568682660463,-0.0124070726195308,-0.0238039967565121,1.90445570931925,12.2107268699739
"107",20.1198747526374,41.9285527230515,5.06032283848998,7.2584352634173,0.0318861480520385,-0.0145294514095987,2.01019049470296,12.41503008411
"108",19.6994272028014,39.378413120365,4.66564662314825,6.80698609340576,-0.0145971353170962,0.00752942524451146,2.01481095209544,11.4479807320693
"109",19.4124673525711,41.2804162923351,4.6746975490925,7.20184177829028,0.00597305614067781,0.0291742906235789,2.03660821453273,12.2666392895417
"110",19.9450673347152,40.464404022417,4.93514976591712,7.2335716860555,0.021803360620442,0.0291337759715602,1.8535505719811,11.4014405934862
"111",20.0836529098138,40.6308240417187,5.00971448738385,7.07172844929431,-0.0484398202592504,0.00893116425922137,2.06834963930674,12.0178557331995
"112",20.0917157187792,40.3730991574483,5.0778597194625,6.95127376437549,-0.0145840840000428,-0.00533407392187748,1.89616309413626,11.7158210413866
"113",19.1597968178189,40.1468390228346,4.64465650993688,6.84426667325369,0.0368771154208797,0.0624342992362995,2.0040329552639,12.6471516711086
"114",19.6450572473447,39.3699967109733,4.77307812816648,7.15247260160239,-0.0383003895378401,-0.00822796668939418,1.85249784117195,12.4728077197411
"115",19.7781051488488,39.9952993872763,4.7674764723943,7.1251201139314,-0.0194817983792085,-0.027501122354233,2.12524258372118,12.6118814061379
"116",19.9707519601637,40.3934292895395,5.00580540409675,6.73157159928979,-0.0573571020646681,0.00946454382898559,2.0238498759414,11.4286971802548
"117",19.9463623495752,39.9145625513798,5.07120980114614,6.87974221416429,0.0182552971740062,0.0129150802130496,1.97520271147065,11.4103017210236
"118",19.5642762295304,40.6474989671862,4.76616165045427,6.9814864754832,-0.0235769155509476,-0.0246416918004251,1.92089163019649,12.5786971055471
"119",20.329278614199,40.2612093435363,4.97032775630333,6.89772418360721,0.0191325944740079,0.0272927216280563,1.90262624018394,11.9175569997825
"120",20.3040431229517,40.3200680637144,5.07657109224145,6.9065384446715,-0.0311922787406743,-0.00524054310716997,2.07139661704742,12.8058392432169
"121",20.5405793529965,41.1094189698556,5.14228992063841,7.14860652260069,0.0334468855138179,0.00834718383360268,1.98515381281518,14.0719478315584
"122",20.1079212671518,39.8316812271012,5.10625040759425,6.99839731691396,0.0324746902932561,-0.0401577526699989,2.04375080738273,12.4737352940199
"123",19.983620360396,39.6288713071847,4.71041963692528,6.81289711010399,0.0318945452878562,0.0455461793623268,1.97867286927748,12.0330301708397
"124",20.2489844510367,39.4971390262959,4.98836074577065,6.67734806248654,-0.0287486454453393,-0.000558633766956677,1.9498906572688,12.2436403916336
"125",20.1304563120127,39.202113022289,4.82826185235778,7.04388728309011,-0.0108955265141899,-0.00544467866543306,1.94816739485589,12.6538741800497
"126",20.054771802536,40.0430986330218,5.11141759395579,7.02414294731192,0.0032440046054012,0.0107600860007934,1.91076641141588,11.6132285854226
"127",20.6362465941183,40.6846838822625,5.09025547701187,7.06087760421197,0.0675590780856705,-0.0146308246780297,1.93647810268762,12.9604057624139
"128",19.7401314878799,40.6816336874345,4.92024735182676,7.04127885552775,-0.0781421909515704,0.00658409239588655,2.00436758617752,13.3611830960013
"129",20.4431349139893,39.7370046414667,5.22669848677691,6.99565876292925,0.00615256057062832,0.0312892918785567,2.04916988089329,11.8954929875096
"130",19.4984616174959,39.219019506762,4.73476800153784,6.84673354943489,-0.0478660599814946,-0.0154878386002419,2.02076971646953,11.6493524075869
"131",19.9488380974565,40.073587953718,5.01183239622404,7.08519028696912,-0.0604350050036412,0.00284186321511413,1.95997956529567,12.5628757315656
"132",20.2348149913003,40.0803872674773,5.0092553583969,7.1699381225182,-0.0219607430898759,0.0382919129922294,2.04494897151574,13.1911432690013
"133",19.6165361103633,39.9724211110223,4.86380769821736,6.9749670261969,0.0859270508397166,0.00290264524203321,1.97161011511384,11.9287379302306
"134",19.8844177442104,39.8181613487821,4.87980681668455,7.17699886521806,-0.0822906551313905,0.0181570298379853,2.01178568985015,11.3081508458473
"135",20.5373405715911,40.0017800227304,5.13268827322794,7.26127556656673,-0.00540523147684945,-0.0118537661588592,1.94403712118806,13.0311376006421
"136",20.7475700624894,39.6484475484216,5.08489962880446,6.9993724467031,0.0832469628940316,0.00925418509802312,2.07380899069646,12.4134450303685
"137",19.4081483276539,40.4826348552913,4.93156066012095,7.00589962959026,0.0255062620226034,-0.0341725901633235,1.9467321745843,11.9503572986078
"138",19.9366925565289,40.7994834960351,5.08491307739417,7.09606348537372,0.099286542904728,0.0043830618504191,1.94252999881602,11.8700043292762
"139",18.528190916378,39.5855471402979,4.47950842440819,6.88476427699504,0.0876549333587498,-0.0432835505766758,2.0538612751166,12.7232717505675
"140",20.1634610281612,40.1939859190329,5.02583182886388,6.78192036870982,0.0588147464230274,-0.00521858910770503,2.01200432485477,11.2131119731887
"141",19.7130943045456,40.4995447223147,4.82140486797802,7.12326331297885,-0.0159836452922489,-0.00422960885567582,1.96064447465154,12.4862512963377
"142",20.2338906608476,40.9613025389868,4.80983383993554,7.01572810855865,0.0677416885278816,-0.0335599697888338,1.98141965820947,12.7636931578243
"143",19.7425413268373,40.545729898904,5.0042488588586,7.06966094471868,0.0421300584913113,-0.0485188616929239,2.1842480622497,12.7103419027213
"144",20.3683803384568,39.7583895308414,4.95061826145847,7.04039150514164,-0.0205775841061325,0.0289316165371018,1.968685380808,11.4563269388023
"145",20.2660781225955,39.9040487727915,5.05233292437724,6.84533511109965,0.0633540452819427,-0.0151112352034315,2.01199856846226,10.9319085015706
"146",20.1380953663215,39.4350873973757,4.90375625281575,6.83812961702248,0.0487850854503602,0.000589470788313195,1.91902538212378,11.8726932254326
"147",19.3293377660311,40.5890701536134,4.59846203961777,6.99254878652754,0.0128374129306284,0.0213723914913212,2.02591914170121,11.7749158606475
"148",19.7954935626511,38.9590574306542,4.58535450591582,6.73641201697375,0.0282989638739736,0.00739381545665265,1.97743299094498,11.6845164723724
"149",19.5761555718674,39.6164636887217,4.71244922088716,7.3237108666933,0.0295683170177836,-7.81752820796773e-05,2.05531491669737,10.6542588753713
"150",19.5102606777676,40.4589053640907,4.85357392671356,6.79109658177802,0.046024938326471,-0.0373381244532413,2.02063960774409,11.5454769029583
"151",20.9163846244195,40.3475429304867,5.35034621466941,6.93684747497928,-0.0151603968198529,-0.00138818913613159,2.02249584108137,12.0481888328596
"152",20.1867397499621,41.4988550327659,4.88265502014097,6.87523304072163,0.0327687697735466,-0.00972089801445075,2.07422954008262,12.6696746971971
"153",20.0542175818491,41.614833034651,5.12007505259098,7.32369043688224,-0.117175076748426,-0.0215794330531139,2.06047685025541,12.1732759015907
"154",20.1052299133513,40.2980453434544,4.86314197135342,6.96393641421148,-0.0161124063081304,0.0416666946913844,1.97453037048852,12.0892273265029
"155",20.5564425532881,39.5152954434283,5.35518855662223,7.40088906860838,-0.00770404580368825,-0.0375122538302696,1.86010959590739,11.2887700059883
"156",19.5096709610135,39.7853174936674,4.85706132737867,7.08017751497927,-0.000335501202392535,0.00539949941868577,1.9512673365751,12.911573498414
"157",19.8214943774533,41.265801271752,4.849873366441,7.15144233133077,0.0614171246068601,0.0248226229817133,1.98147091081928,12.1084572505988
"158",19.5024129361686,38.9380480057368,4.68132976348168,6.87971247192211,-0.0518281066650464,-0.0340019936761259,1.99132356462966,11.9573821275981
"159",19.4513178037425,40.5561327189221,4.78809423816299,7.08069265752865,0.00280331569949346,-0.0136665960202611,1.93406017754108,12.349918472764
"160",20.0285912514632,40.34028559596,5.04197956627837,6.84901414036538,-0.0476212935499167,0.0173473759515117,2.02886921522048,12.3009310376797
"161",19.8918912062051,39.1662995211743,5.03687644571426,6.38020619358632,0.00277047609137297,0.0217264990179128,2.10803175128385,12.7678991824808
"162",20.3719888763181,39.5040491815914,5.08919927508372,6.97634632441485,0.0890638132646039,0.00148603982712805,2.06874691021105,11.6369838096495
"163",19.609662053227,40.2998201133086,4.66910675569566,6.98366467851328,-0.0261953068949863,-0.00551244884504585,2.04025601580347,13.063550445167
"164",20.2978475846093,40.496720105596,4.94543296206231,7.08623670966653,-0.00757239193993948,-0.00357579372089032,2.03238147354072,11.7026865147001
"165",19.9929416848351,40.6495162216937,4.94727005755069,6.81779771898841,0.030057989246983,0.0434018665149654,2.05746419286226,12.5595929997492
"166",20.0549626673238,39.4254032643375,5.10319093549369,7.03195161175644,-0.0667636352264581,-0.0154957835885595,1.96206124373494,12.7520532381195
"167",19.763248386903,39.0804235264114,5.0114627176464,7.1383878163293,0.0432116859772948,0.00152516438931071,2.07298414574605,13.0158100306466
"168",19.8608100218354,39.6040174255048,4.74742602722317,6.72114971198211,0.00173557110567652,0.015292220446107,1.87423244876244,12.279177153365
"169",20.1578866355487,39.8128923027473,5.02648387692531,7.13553595152346,-0.0855309567576278,-0.0301559578279205,2.0426416374459,11.9512725672566
"170",19.4339886454999,39.770673975262,4.63474766156313,6.77249398379272,0.0273692074001429,-0.0530862848168614,1.87792241602921,12.6550375786637
"171",19.9679624998237,39.7826198382892,5.10682185518082,6.98886161060139,0.0633741392531509,-0.0667884431141868,1.98076823463101,11.7642991753852
"172",19.2142525755292,39.8354778815043,4.65052841509387,6.96590378004279,0.0403334945756104,0.0219896690550698,2.0138690737344,11.3412995205601
"173",20.6137863593057,39.6908666245544,4.96967392082107,6.88880960245447,0.0527556293844419,-0.0371800558104106,2.15959662245064,11.6433279125895
"174",20.0985008417308,40.6096403971032,5.11643930023488,7.22488005491548,-0.0526429687541728,-0.000273049075448964,1.94222941549778,11.5060919639987
"175",19.4263707139953,40.8235680837192,4.81377986652427,6.93411055182134,0.0520260615479188,0.00667957684632879,2.03012480943013,11.6048601860953
"176",19.7025015993655,40.5159226400672,5.10558343121388,6.97275507648484,-0.0760418766021337,-0.0159018031995203,2.19056587129395,12.3536056120679
"177",20.205048944085,39.5402768354075,4.93249176092354,6.50852767766592,0.0328788406588284,-0.00733885792391215,2.11653205907586,11.9176531523475
"178",20.597122543878,40.3700510811489,5.06829460582518,6.9636726223802,0.0847612207598615,0.0144044151853668,1.97133118228338,13.192213735057
"179",20.5000454687785,41.2061070522947,4.99307418333714,7.39299052316043,0.0818541303725172,0.0535559239350721,2.07647300521116,11.84116978929
"180",19.5587948527258,40.4203057279732,4.79868206151317,7.25951743636371,-0.0815953332170318,-0.00342774812234216,2.04890989761683,11.1280449074936
"181",19.0424350041225,40.4845804931208,4.58780589744317,7.1675802303876,-0.0218766755061968,-0.0262122512136999,2.12071424239054,11.3292223176128
"182",19.726342215366,39.9624569959159,4.84112112637718,7.04911861727877,0.00918089337210561,-0.00799128696005352,1.90018061289421,11.5471352962041
"183",20.6801490499066,41.0063599435159,5.12709038358254,7.27503954188971,-0.00680201526932159,-0.0162462824946378,1.81514963102688,13.1044451391977
"184",20.3765332823548,41.3003327922409,5.1921348082804,7.04197707115685,0.0421969375950241,0.00552509690563025,2.00553519307796,11.9786021939173
"185",19.8032733026349,41.1685602529931,4.92694337732966,7.13890240740806,0.0361758612005411,0.0550734852590384,1.94385141433551,12.3193625334429
"186",19.3217708715911,39.9024913114207,4.69256804455996,7.00520929311489,-0.00284611204406191,0.00789906722427569,1.9866093871344,13.7476265101708
"187",20.0687487234663,39.9954312235705,5.15638444098769,7.14925601830817,0.000344227465427167,0.0185521524255396,2.0926659444486,13.0536343473581
"188",19.2219836543641,39.602738396879,4.64846564151774,6.77734241584234,-0.0356905844656463,0.013583108356998,1.95358066094234,12.3858943940442
"189",20.380413043332,40.2973549492258,4.91684536873715,6.62095290015799,0.016564826611172,0.0216860296806761,1.99162917549822,11.997034714829
"190",20.2247987605598,39.8968302977185,4.95199011653026,6.8834174451589,0.0255996031257047,-0.00565171534884662,1.88532540273288,11.004254747025
"191",20.8270615189688,40.7753603917051,5.2551330037941,7.21144821224179,0.0064719400512394,-0.00138274184267926,1.86250993390906,12.0128571007847
"192",20.0668769383066,39.8970178990099,4.9383888160392,6.87082535761185,-0.0458915349139827,0.0150186770580132,1.98143325766801,12.5473289222243
"193",19.9928647795162,40.1163892755929,4.97934634575404,7.01859776975907,-0.0602254497725181,-0.00852613172216246,1.91872513645942,11.8140668793176
"194",19.8948672472504,40.2813465595004,4.83324844640927,6.7517647436127,0.00999141434107922,-0.026678786147178,2.0363169726402,12.2111893174147
"195",19.6828801652643,38.6913111713762,4.97710860267837,6.49784427109666,0.00801781658069152,0.0275530480206576,1.90915453633937,12.4737979653826
"196",20.0567850375467,38.7284678021098,4.9237579641004,7.06356221735593,-0.0588979994250473,-0.00699974715464696,1.9611000198152,12.2329328006996
"197",20.7123559235743,40.0334450374469,5.41067078628397,7.26054493269507,0.00976503966143414,-0.0507276441009181,2.05433084710002,12.0140997764068
"198",20.0442669651704,39.8557288098085,5.0240191758954,7.1699303033552,0.0164163771865501,0.0203108378933362,2.0387831735845,9.79881638487583
"199",19.6683800592541,41.0077961546723,4.96458491838555,7.09970466316374,-0.0210780747134527,0.0350898876210179,1.96770356251116,10.5512926818008
"200",19.635859597863,39.9857355389109,4.93237099719146,7.0587459122986,-0.0365513803557676,-0.00369320494026952,2.0464703099566,11.8529833779653
"201",20.0396936656746,39.0867712667922,5.12521805440972,6.72164930094695,0.0277955938287247,-0.0059651680405628,2.07806995801925,12.2746596467382
"202",19.150231699936,40.9476898065464,4.73027700246448,6.68545547363965,-0.0389251799805297,0.0100830533036217,1.93291430300773,11.0169854128667
"203",20.286215387694,40.540646361576,4.84332520465845,7.14914412026013,-0.110417354160404,0.0245548913020517,1.89529025877899,12.5881592982626
"204",20.3006305408243,40.4613034652039,4.9940318565068,6.96681217078455,0.0017441946012526,0.0290707331718447,2.13341221519469,12.5017675214946
"205",20.1136093014412,40.0553653685377,5.03812711528844,6.96235225135709,-0.0293718407033518,0.0309738266704906,1.99241851315072,12.0013958120451
"206",19.868411230971,40.0430581120882,4.80523071993611,6.97754256189905,0.0336896359866025,0.0505646187913434,1.96923219420598,11.9695290653767
"207",20.0529282292552,38.9915880881555,4.85323591685716,6.81374481387849,0.0508401296323994,0.0457034353783755,1.96390150106575,12.8202546773124
"208",19.8791385370087,39.6120014700986,4.76669062345699,6.87364973495255,-0.0569894808367364,0.0292731174042993,2.02913183659186,12.6481998926252
"209",19.7061118236035,39.8929480365089,4.96694368008871,6.92834520894386,0.0056605980829767,-0.0058755403107984,2.0076159193806,12.0970899507184
"210",20.2420731808125,40.8707645385065,5.08228522472271,7.11311015767718,0.0214610499500312,-0.00974602158894267,2.11413576830336,12.2710290362213
"211",19.5531411283001,39.7582187654184,4.97207398122106,6.94826812633343,-0.0405724800903966,-0.0271454442780124,1.88572091092249,10.6170360569602
"212",19.6613431224382,39.4791348673528,4.88955069223398,6.72809675230489,0.0115794687717748,0.0355763948930675,1.99801911051858,11.8436960808515
"213",20.1114714129913,39.6455558184002,4.89156443784123,7.10368876657297,-0.101709597525603,0.0294400427273553,1.92597934425457,12.3571687205275
"214",19.7181006886854,39.4882683320988,5.13495125852706,6.7083315037221,-0.0788476232498775,-0.0173640597738677,2.00863278565682,12.0580234615701
"215",19.984428081615,40.271896941455,5.08879766690224,6.75757633365809,-0.115780888590533,-0.00865686678809785,1.91001765973453,11.6380456292086
"216",19.5311673827088,40.323878863644,4.79295916247364,7.03895925661245,-0.0193977667067432,0.0162872538589451,1.97756952132304,11.7723508949896
"217",19.5665954572762,40.4130317324003,4.87463871795068,6.91834776429947,-0.00559609492904128,-0.0379949380762902,1.95198007892621,12.1519984997432
"218",20.0668337735684,39.9105038470862,4.87054102028092,7.13725302925082,0.0564169992048424,-0.0113615909534647,1.9345358232567,11.9397227302388
"219",20.706985584476,39.5056989345114,5.27732890599291,7.00756764769556,0.0480588078218341,0.0178189387298935,1.97597227032189,11.6341992687686
"220",19.8659226418637,40.2506091823687,5.01364911879726,7.12545568319491,-0.0437815316466052,-0.0121769769830287,2.07320362160872,11.7316687407985
"221",19.99020692344,40.5780204102823,4.9688259931975,7.10079568455639,-0.0292778818349403,0.042775910821265,1.9751364186527,10.7824239489724
"222",19.3839926434327,40.3501249182669,4.8046160418063,7.0151310430738,-0.0397037265595369,-0.000909168728194939,2.01852093482207,11.7667364510558
"223",19.9892127500613,41.1596753453262,4.88821773138664,7.03033617584359,0.0509981575786714,0.00140305966901543,2.23642446559718,11.6370657420315
"224",20.2514336663143,40.0392293262461,5.23411761487952,7.18754003432725,-0.081481045805193,-0.0301304065723984,1.98659048849497,12.9035684810007
"225",20.1038015488704,40.0531575002363,5.20209526265578,7.34069752004192,0.064964314256088,-0.00879445960285829,2.03124129851869,12.6380170111136
"226",20.0568133465915,38.665022756656,4.90046552384088,7.01256136027121,0.132651829070647,-0.00161285512520593,1.95978207068251,13.1794788011404
"227",20.1117706382671,39.6030744094037,5.01522065069272,6.59633129121223,0.0136256736077882,0.0224934777425428,2.02554569010927,11.7611295406944
"228",19.7494941016713,39.6987420631291,5.15042089364647,6.89829560719282,0.0190881066004323,0.0265984337228969,2.04539347850493,12.4725044174582
"229",19.9590573424369,39.7947800956611,5.16978182582348,6.97084791454911,-0.00207621672800368,0.00167482633189901,2.0213748060123,11.907347344927
"230",20.2248875526872,40.2241328218725,5.05048625684072,6.95290775122958,0.0209395747344288,-0.00378310589617144,1.94475860061094,11.5732887393577
"231",20.0064785103449,39.9565310032138,5.16732681541032,7.18248469904066,-0.0337735822423556,0.0362815923608007,2.00239386019184,11.7643816147683
"232",19.7544979467973,39.997035428805,4.9961992939233,7.12772651463311,-0.0532099935126373,-0.030880560146628,1.83098364631554,11.2464366034085
"233",19.4839240936486,39.606330193266,4.85829649193735,6.87697445066011,-0.0352933016326031,-0.0181971386320187,2.10715758801216,11.7780991024508
"234",20.4028362279537,39.7972054336649,5.12710565105454,6.9999465182351,0.0101737956012166,0.0319284245024931,1.93607643596093,12.9526742322144
"235",20.2317858576774,39.1847236258393,5.15599998202872,6.72641286653396,0.0775119941678694,0.00654812777775861,2.00669515542258,11.7819352505396
"236",19.7514838104983,39.3363178307924,4.89585458474091,6.98768385259143,-0.057285026803936,0.0214921086204216,1.87903677557131,12.5381743082792
"237",19.7064317349947,39.6109382298739,4.77113821734983,6.56630765890674,-0.00346796095142779,0.019355812548089,2.02634571672202,12.4770155524461
"238",20.3592800383757,40.1426833369607,5.26664907546466,6.80221337939513,0.0129409533616743,0.00480317586092769,2.07302305349621,12.7685993480846
"239",20.2348921555885,40.408412961188,5.13758984976055,6.91478132145669,-0.0107134977362955,-0.0129571385180399,2.0042665961377,11.2174762907732
"240",20.0930440945691,40.3729790837324,5.08566505448089,6.97413075358932,-0.0157484259286208,0.0445147031675726,2.06021981061099,11.8393834637046
"241",19.8433232097164,39.2610367129907,5.00152330575074,6.8931886382068,-0.0237995158219196,-0.0512137238969749,1.92831784391755,13.1915917471119
"242",19.7253055784077,40.3207792832976,4.72184682597794,7.02476457632396,0.0146202350742121,-0.046803638028044,2.12128743206387,12.9284948666808
"243",19.6833265285502,39.5380772302404,4.99043660110443,6.86861855404354,-0.0230717544227099,-0.0338178308583245,2.11188925508703,12.032723080187
"244",19.9977468252674,39.855259058236,4.93054701213761,7.1964079891983,0.0332450823144334,0.0339906777317951,1.87650258722292,10.951249080663
"245",19.6471196832039,39.7268233877565,5.00414820884369,6.77512702748509,-0.00221763119047887,-0.0402827006126799,1.9495392451857,11.1592317075083
"246",19.3617188338346,40.962638945412,4.97134193092653,7.41803583215734,-0.1312154138002,-0.0294913470013191,2.01621571333431,11.3980343660738
"247",19.7559392904987,40.4415026186849,4.75251942942736,6.66671468517875,0.00741520001671603,0.0142682901285559,2.12773697081911,11.387589363834
"248",20.8872322481238,39.8942195170792,5.01372978735771,7.12881456379719,-0.0346609094338031,-0.00633713659392885,1.80777703794565,12.4801277063373
"249",20.0147412728839,39.5777665858979,4.91997225913294,7.14263120086004,-0.0869418586886927,-0.01893546165881,1.93328543423702,11.8372369128875
"250",20.332112370839,40.4107041853701,5.17287725448,6.8232733813768,-0.0215289818260413,-0.0514048732295484,1.95317747032888,10.5027679288206
